corner points
-23.64583778    -8.317691803
-23.68493271    -8.498235703
-23.82821465    -8.27758503
-23.86745071    -8.45808506
========== RESULTS WAVE VERSION 16.10.2018 ====================
IMAGE SIZE  X: 5599     Y:4927    col:row     POLARIZATION:VV
COVERAGE    X: 20.5142501km       Y: 20.48438084km 
RESOLUTION dX: 3.663913217m       dY:4.15757679m  
resolution of original product 3.663913217m x 4.15757679m;   raster step x:5997.825936m  
===============================================================
FLAGS: H=HIGH PROBABILITY SEA STATE, I=LAND(ISLAND), O=OUTLIER NO SEA STATE, N=NO WIND AVAILABLE, SEA STATE NOT VISIBLE, M=MEAN PROBABILITY SEA STATE, L= LOW PROBABILITY SEA STATE
Filtering wave length
 integration  Lmin=1m
 integration  Lmax=2200m
  peak        Lmin=100m
               FFT=1024pixels, 3751.847134m 
   mean-Hs (SWH_c)=0.2104102516m
         mean-wind=8.155350685m/s
--------------0--------------1---------2---------3---------4---------5---------6---------7---------8---------9--------10--------11--------12--------13--------14--------15--------16--------17--------18--------19------------------20--------21--------22--------23--------24--------25--------26--------27--------28--------29--------30--------31--------32--------33--------34--------35--------36--------37--------38--------39--------40--------41--------42--------43--------44--------45--------46--------47--------48--------49--------50--------51--------52--------53--------54--------55--------56--------57--------58--------59--------60--------61--------62--------63--------64--------65--------66--------67--------68--------69--------70--------71--------72--------73
            LAT            LON  P-LENGHT     SWH_o     SWH_c     P-DIR      LINE     POINT     ROW-Y     COL-X  M-INTENC        dB      WIND INC-ANGLE  ENERGY-M  ENERGY-N  ENERGY-R ENERGY-NN  FG-DEPTH      FLAG         HEADING-DEG    E30-75   E75-390  E390-600 meanincut   meanout   cut/out  STD-NORM  SPEC-MAX   GL-MEAN    GL-VAR      CORR   ENTROPY   HOMOGEN    ENERGY  CONTRAST  DISSIMIL     STD-O    E 1-30 E600-2000   E2000 >      GODA  LONG-HIG     Tmean  CONVOLUT  MEAN-DIR  relation     Sy/Sx  SKEWNESS  KURTOSIS  cutoff-A >50/10000     INT*V   INT-LOG  S-1_g1f1  S-2_g1f2  S-3_g1f3  S-4_g2f1  S-5_g2f2  S-6_g2f3  S-7_g3f1  S-8_g3f2  S-9_g3f3 S-10_g1f4 S-11_g2f4 S-12_g3f4 S-13_g1f5 S-14_g2f5 S-15_g3f5 S-16_g4f1 S-17_g4f2 S-18_g4f3 S-19_g4f4 S-20_g4f5
--------------1--------------2---------3---------4---------5---------6---------7---------8---------9--------10--------11--------12--------13--------14--------15--------16--------17--------18--------19--------20------------------21--------22--------23--------24--------25--------26--------27--------28--------29--------30--------31--------32--------33--------34--------35--------36--------37--------38--------39--------40--------41--------42--------43--------44--------45--------46--------47--------48--------49--------50--------51--------52--------53--------54--------55--------56--------57--------58--------59--------60--------61--------62--------63--------64--------65--------66--------67--------68--------69--------70--------71--------72--------73--------74
      -8.346997     -23.687206     290.1      0.50      1.69      27.6         1         1      1000      1000   2815.80    -5.504       8.3      23.5   405.884     0.728      61.9   0.17027     100.0         H               192.0  0.091529  0.033438  0.000626  3.507704  0.916147  3.828758  1.210981     13.28    5.1315   44.5213   0.26167   5.39139   0.24959   0.01135  65.74295   5.22532    3409.5  0.602459  0.000785  0.000036  0.000230  0.153205  6.743425  0.764412     82.30  1.000187  1.000024     3.402    26.021      84.8      84.8      84.4     470.6     11.77      2.92     -1.79      1.92     -0.52      1.93     -0.01     -1.09      1.21     -0.02      0.92     -0.15     -1.42     -0.32      0.82     -4.63     -1.64      3.36      1.39      0.14
      -8.335146     -23.741114     236.2      0.49      1.69      39.0         1         2      1000      2637   2516.85    -5.991       8.2      24.0   407.299     0.732      59.6   0.17125      54.4         H               192.0  0.093195  0.032939  0.000742  3.511054  0.929088  3.779035  1.213869     13.65    4.5371   35.8968   0.26207   5.16880   0.27145   0.01411  52.97796   4.66534    3055.1  0.604563  0.000797  0.000028  0.000232  0.153530  6.755634  0.768490     84.25  1.000192  1.000025     3.504    27.787      86.6      82.8      67.2     421.9     11.77      2.51     -1.24      2.05     -0.41      2.05      0.15     -0.93      0.93      0.37      0.90     -0.04     -1.51     -0.36      1.42     -5.12     -1.77      3.38      0.80     -0.18
      -8.323503     -23.794037     290.1      0.47      1.69      27.6         1         3      1000      4274   2212.93    -6.550       7.8      24.5   405.762     0.726      55.1   0.16744     100.0         H               192.0  0.090306  0.033947  0.000725  3.595229  0.939796  3.825541  1.208661     13.40    3.9460   28.0031   0.25946   4.91968   0.29692   0.01800  41.47489   4.10676    2674.6  0.600603  0.000723  0.000022  0.000225  0.151431  6.771327  0.761578     85.48  1.000187  1.000021     3.407    25.693      84.8      80.3      51.6     356.6     11.54      2.59     -1.48      2.02     -0.73      1.83      0.76     -0.78      1.27      0.24      0.87      0.11     -1.50     -0.33      0.79     -4.92     -1.73      3.28      0.88      0.37
      -8.399882     -23.698664     308.6      0.50      1.69      29.6         2         1      2443      1000   2819.32    -5.499       8.3      23.5   411.368     0.744      61.7   0.17681     100.0         H               192.0  0.095797  0.033933  0.000813  3.606431  0.947285  3.807123  1.222921     14.38    5.1485   45.5616   0.26659   5.39363   0.24973   0.01139  66.83011   5.24415    3447.5  0.613194  0.000846  0.000026  0.000237  0.151541  6.735900  0.781551     85.04  1.000187  1.000024     3.520    28.135      86.6      84.7      86.3     500.3     11.91      2.77     -1.82      1.24     -0.71      2.06      0.48     -1.30      0.83     -0.11      0.77      0.09     -2.02      0.00      1.39     -6.25     -1.46      4.42      1.11      0.45
      -8.388027     -23.752584     308.6      0.48      1.69      29.6         2         2      2443      2637   2488.17    -6.041       8.0      24.0   405.325     0.726      88.5   0.16842     100.0         H               192.0  0.092466  0.032483  0.000738  3.434926  0.925647  3.710838  1.206515     12.69    4.4812   35.0346   0.26077   5.14682   0.27372   0.01443  51.79673   4.61036    3002.1  0.599411  0.001161  0.000079  0.000242  0.151270  6.732413  0.761648     84.46  1.000183  1.000021     3.357    24.557      86.6      82.6      65.3     398.4     11.85      3.22     -1.53      1.48     -0.70      2.22      0.56     -1.04      1.28      0.50      1.13      0.18     -1.58     -0.08      0.96     -5.59     -2.11      3.55      1.16      0.61
      -8.376381     -23.805521     297.9      0.47      1.69      45.6         2         3      2443      4274   2219.05    -6.538       7.8      24.5   404.841     0.721      60.2   0.16591     100.0         H               192.0  0.089958  0.032762  0.000621  3.476662  0.924751  3.759564  1.202847     11.32    3.9559   27.9718   0.25786   4.92503   0.29592   0.01790  41.51844   4.11786    2669.0  0.597269  0.000774  0.000030  0.000226  0.151364  6.754536  0.755963     84.14  1.000182  1.000022     3.346    24.973      84.8      80.4      51.6     360.9     11.62      2.91     -1.28      2.03     -0.22      1.93      0.48     -1.05      1.38      0.06      1.07      0.13     -1.31      0.21      0.85     -4.33     -1.18      3.10      1.40      0.97
      -8.452767     -23.710127     255.2      0.56      1.69      33.0         3         1      3886      1000   3117.99    -5.061       9.4      23.5   409.977     0.742      60.1   0.17671      82.7         H               192.0  0.094232  0.033213  0.000623  3.465239  0.976367  3.549117  1.221031     15.62    5.7296   54.2715   0.26208   5.59151   0.23121   0.00929  80.09674   5.78764    3807.0  0.613573  0.000738  0.000026  0.000226  0.151779  6.733111  0.778531     84.90  1.000193  1.000024     3.742    38.587      84.8      86.5     105.7     603.3     11.53      2.79     -2.00      1.92     -0.72      1.69      0.21     -1.23      1.23     -0.64      0.79      0.47     -1.57     -0.20      1.12     -4.06     -1.33      3.40      1.15     -0.07
      -8.440908     -23.764059     313.8      0.46      1.69      35.8         3         2      3886      2637   2392.89    -6.211       7.6      24.0   408.611     0.736      67.0   0.17318     100.0         H               192.0  0.094566  0.034280  0.000872  3.552386  0.937769  3.788123  1.215371     15.56    4.2949   32.9268   0.26452   5.06816   0.28208   0.01569  48.43422   4.43757    2908.4  0.605461  0.000969  0.000034  0.000230  0.154322  6.748603  0.772493     84.39  1.000189  1.000025     3.418    25.286      86.6      81.7      60.9     381.2     11.97      2.92     -2.16      1.01     -0.78      2.12      0.41     -0.79      1.32     -1.11      1.00      0.72     -1.84     -0.25      1.42     -6.56     -1.82      4.20      1.71      0.19
      -8.429258     -23.817005     224.3      0.47      1.69      32.5         3         3      3886      4274   2229.94    -6.517       7.9      24.5   404.998     0.725      58.2   0.16866      44.8         H               192.0  0.091335  0.033675  0.000722  3.555853  0.939195  3.786066  1.206312     10.50    3.9806   28.3864   0.25967   4.93544   0.29518   0.01771  42.03109   4.13727    2689.8  0.598621  0.000774  0.000024  0.000231  0.152802  6.750172  0.760460     85.37  1.000190  1.000023     3.411    26.950      84.8      80.6      52.4     382.5     11.57      2.32     -1.62      2.10     -0.02      2.07      0.32     -1.00      1.16      0.27      1.18      0.10     -1.68     -0.29      1.38     -4.58     -0.38      4.03      1.10      0.08
