corner points
-28.96000862    -22.93107796
-29.00659943    -23.10493279
-29.15349197    -22.88570976
-29.20034599    -23.0594902
========== RESULTS WAVE VERSION 16.10.2018 ====================
IMAGE SIZE  X: 4466     Y:4785    col:row     POLARIZATION:VV
COVERAGE    X: 20.40547883km       Y: 19.86601774km 
RESOLUTION dX: 4.569072735m       dY:4.151727846m  
resolution of original product 4.569072735m x 4.151727846m;   raster step x:5999.192501m  
===============================================================
FLAGS: H=HIGH PROBABILITY SEA STATE, I=LAND(ISLAND), O=OUTLIER NO SEA STATE, N=NO WIND AVAILABLE, SEA STATE NOT VISIBLE, M=MEAN PROBABILITY SEA STATE, L= LOW PROBABILITY SEA STATE
Filtering wave length
 integration  Lmin=1m
 integration  Lmax=2200m
  peak        Lmin=100m
               FFT=1024pixels, 4678.730481m 
   mean-Hs (SWH_c)=0.2m
         mean-wind=7.120164871m/s
--------------0--------------1---------2---------3---------4---------5---------6---------7---------8---------9--------10--------11--------12--------13--------14--------15--------16--------17--------18--------19------------------20--------21--------22--------23--------24--------25--------26--------27--------28--------29--------30--------31--------32--------33--------34--------35--------36--------37--------38--------39--------40--------41--------42--------43--------44--------45--------46--------47--------48--------49--------50--------51--------52--------53--------54--------55--------56--------57--------58--------59--------60--------61--------62--------63--------64--------65--------66--------67--------68--------69--------70--------71--------72--------73
            LAT            LON  P-LENGHT     SWH_o     SWH_c     P-DIR      LINE     POINT     ROW-Y     COL-X  M-INTENC        dB      WIND INC-ANGLE  ENERGY-M  ENERGY-N  ENERGY-R ENERGY-NN  FG-DEPTH      FLAG         HEADING-DEG    E30-75   E75-390  E390-600 meanincut   meanout   cut/out  STD-NORM  SPEC-MAX   GL-MEAN    GL-VAR      CORR   ENTROPY   HOMOGEN    ENERGY  CONTRAST  DISSIMIL     STD-O    E 1-30 E600-2000   E2000 >      GODA  LONG-HIG     Tmean  CONVOLUT  MEAN-DIR  relation     Sy/Sx  SKEWNESS  KURTOSIS  cutoff-A >50/10000     INT*V   INT-LOG  S-1_g1f1  S-2_g1f2  S-3_g1f3  S-4_g2f1  S-5_g2f2  S-6_g2f3  S-7_g3f1  S-8_g3f2  S-9_g3f3 S-10_g1f4 S-11_g2f4 S-12_g3f4 S-13_g1f5 S-14_g2f5 S-15_g3f5 S-16_g4f1 S-17_g4f2 S-18_g4f3 S-19_g4f4 S-20_g4f5
--------------1--------------2---------3---------4---------5---------6---------7---------8---------9--------10--------11--------12--------13--------14--------15--------16--------17--------18--------19--------20------------------21--------22--------23--------24--------25--------26--------27--------28--------29--------30--------31--------32--------33--------34--------35--------36--------37--------38--------39--------40--------41--------42--------43--------44--------45--------46--------47--------48--------49--------50--------51--------52--------53--------54--------55--------56--------57--------58--------59--------60--------61--------62--------63--------64--------65--------66--------67--------68--------69--------70--------71--------72--------73--------74
     -22.957159     -29.013597     196.7      0.44      1.56      42.3         1         1      1000      1000    241.34   -16.174       7.2      36.5   242.234     0.560      56.2   0.06869      30.1         H               192.4  0.049833  0.015830  0.000408  1.697801  0.662837  2.561417  1.061977      3.66    4.3487   26.1274   0.10129   5.14382   0.25045   0.01188  46.96181   4.68658     256.3  0.493155  0.000801  0.000101  0.000162  0.145533  6.733674  0.565146    100.64  1.000140  1.000009     2.388    12.646      97.3      84.3      52.2     267.6     10.87      1.76     -0.88      2.16     -0.76     -0.58      1.80     -0.24      1.04      0.52      0.10      0.23     -0.31     -0.30      0.55     -5.67     -2.93     -1.44     -0.65      0.05
     -22.943771     -29.070730     100.4      0.42      1.56     109.3         1         2      1000      2313    217.92   -16.617       6.9      36.8   242.151     0.558      48.1   0.06737       6.4         H               192.4  0.048669  0.015952  0.000346  1.693415  0.658983  2.569741  1.059554      4.39    3.8783   21.2309   0.09735   4.93964   0.27028   0.01455  38.32802   4.22993     230.9  0.492220  0.000701  0.000081  0.000158  0.146072  6.738094  0.562774    100.37  1.000140  1.000009     2.364    12.307      99.7      82.2      42.5     231.3     10.87      1.40     -1.71      2.31      0.01      0.30      1.31     -0.54      0.72      0.19      0.32      0.04     -0.22     -0.36      0.84     -5.05     -0.86      0.74      0.22     -0.18
     -22.930481     -29.127350     100.4      0.44      1.56     109.3         1         3      1000      3626    218.12   -16.613       7.2      37.2   243.369     0.559      37.2   0.06682       6.4         H               192.4  0.048886  0.015649  0.000321  1.669269  0.671937  2.484264  1.060620      4.89    3.8855   21.3045   0.09587   4.94299   0.26981   0.01450  38.52400   4.24150     231.3  0.493499  0.000573  0.000045  0.000154  0.145607  6.731175  0.563420     98.46  1.000142  1.000010     2.349    12.027      99.7      82.1      42.6     216.7     10.78      1.98     -1.16      2.63     -0.28      0.16      1.39     -0.76      0.85      0.20      0.22     -0.05     -0.67     -0.46      0.75     -4.24     -1.89      0.09     -0.33     -0.10
     -23.009666     -29.027683     102.4      0.44      1.56     109.7         2         1      2445      1000    242.06   -16.161       7.3      36.5   243.752     0.563     117.5   0.06952       6.7         H               192.4  0.049147  0.016278  0.000469  1.729470  0.671706  2.574743  1.065129      3.92    4.3631   26.4273   0.10206   5.14941   0.25008   0.01185  47.46025   4.70343     257.8  0.495059  0.001676  0.000276  0.000163  0.145002  6.734104  0.568038     99.94  1.000131  1.000007     2.411    12.911     102.3      84.3      52.7     263.9     10.94      1.53     -1.58      1.85     -0.50      0.23      1.99     -0.26      0.83     -0.05      0.45     -0.17     -0.30     -0.50      0.97     -7.00     -2.46      0.60      0.76     -0.93
     -22.996273     -29.084839     100.4      0.42      1.56     105.1         2         2      2445      2313    220.16   -16.573       6.9      36.8   242.935     0.558      49.8   0.06699       6.4         H               192.4  0.048614  0.015745  0.000358  1.655761  0.658431  2.514709  1.060147      3.87    3.9233   21.6916   0.09626   4.96018   0.26838   0.01427  39.20710   4.27678     233.4  0.493230  0.000735  0.000088  0.000153  0.147434  6.737650  0.563429    100.38  1.000134  1.000008     2.381    12.627      99.7      82.4      43.4     235.4     10.96      1.82     -1.76      2.15     -0.18      0.38      1.32     -0.71      0.86      0.01      0.09     -0.11     -0.50     -0.65      0.59     -5.21     -1.17      0.83      0.18     -0.34
     -22.982977     -29.141483     248.8      0.44      1.56      28.6         2         3      2445      3626    218.68   -16.602       7.2      37.2   243.532     0.559      40.7   0.06623      69.8         H               192.4  0.048404  0.015732  0.000325  1.695501  0.652718  2.597602  1.060498      4.44    3.8972   21.4025   0.09513   4.94845   0.26920   0.01439  38.73269   4.25068     231.9  0.493868  0.000685  0.000050  0.000157  0.145770  6.744083  0.563637     98.97  1.000144  1.000009     2.376    12.497      99.7      82.2      43.0     229.4     10.88      2.04     -1.46      2.41     -0.62     -0.18      1.03     -0.56      1.04      0.28     -0.21      0.24     -0.89      0.06      0.62     -4.65     -2.33     -0.52     -0.92      0.63
     -23.062174     -29.041780     104.7      0.43      1.56      80.1         3         1      3890      1000    234.72   -16.294       7.1      36.5   244.022     0.565      72.6   0.06957       7.0         H               192.4  0.049883  0.016091  0.000410  1.739269  0.667772  2.604584  1.066553      4.02    4.2176   24.9511   0.10166   5.08847   0.25628   0.01260  44.82943   4.56390     250.3  0.497173  0.001159  0.000133  0.000165  0.144447  6.731232  0.570113     99.29  1.000145  1.000009     2.407    12.603     102.3      83.7      49.7     242.3     10.95      1.20     -1.21      2.24     -0.17      0.48      1.63     -0.23      0.24      0.26      0.32      0.24     -0.25     -0.44      1.25     -6.02     -1.33      1.37      0.02     -1.04
     -23.048775     -29.098959     269.5      0.43      1.56      27.4         3         2      3890      2313    225.64   -16.466       7.1      36.8   242.962     0.561      39.1   0.06820     100.0         H               192.4  0.049735  0.015986  0.000467  1.692194  0.652925  2.591714  1.062446      3.47    4.0325   22.8706   0.09925   5.00872   0.26358   0.01361  41.20114   4.38152     239.7  0.494207  0.000609  0.000047  0.000158  0.146048  6.738480  0.566122     99.11  1.000169  1.000011     2.399    12.889     102.3      82.8      45.7     251.0     11.06      1.49     -1.27      1.84      0.11      0.32      2.05     -0.37      1.45      0.32      0.12      0.08     -0.26     -0.21      0.79     -6.79     -1.08     -0.11     -0.39     -0.26
     -23.035469     -29.155626     100.3      0.44      1.56      99.5         3         3      3890      3626    219.50   -16.586       7.2      37.2   241.729     0.555      39.7   0.06559       6.4         H               192.4  0.047374  0.015800  0.000337  1.652791  0.663751  2.490075  1.056962      3.80    3.9133   21.4302   0.09403   4.95621   0.26826   0.01424  38.83016   4.26310     231.9  0.490877  0.000569  0.000056  0.000157  0.145893  6.742468  0.559585    100.33  1.000126  1.000008     2.343    11.998      99.7      82.3      43.0     216.5     10.75      1.64     -1.28      2.53     -0.58     -0.07      1.35     -0.39      0.84     -0.12     -0.02      0.14     -0.52     -0.29      0.43     -4.42     -2.35     -0.37     -0.64      0.48
