corner points
-21.72894859    8.853331566
-21.76463318    8.678091049
-21.90929222    8.889701843
-21.94488907    8.714497566
========== RESULTS WAVE VERSION 16.10.2018 ====================
IMAGE SIZE  X: 4466     Y:4785    col:row     POLARIZATION:VV
COVERAGE    X: 20.17696072km       Y: 19.8291498km 
RESOLUTION dX: 4.517904327m       dY:4.144022946m  
resolution of original product 4.517904327m x 4.144022946m;   raster step x:5999.776946m  
===============================================================
FLAGS: H=HIGH PROBABILITY SEA STATE, I=LAND(ISLAND), O=OUTLIER NO SEA STATE, N=NO WIND AVAILABLE, SEA STATE NOT VISIBLE, M=MEAN PROBABILITY SEA STATE, L= LOW PROBABILITY SEA STATE
Filtering wave length
 integration  Lmin=1m
 integration  Lmax=2200m
  peak        Lmin=100m
               FFT=1024pixels, 4626.334031m 
   mean-Hs (SWH_c)=0.2m
         mean-wind=6.316255093m/s
--------------0--------------1---------2---------3---------4---------5---------6---------7---------8---------9--------10--------11--------12--------13--------14--------15--------16--------17--------18--------19------------------20--------21--------22--------23--------24--------25--------26--------27--------28--------29--------30--------31--------32--------33--------34--------35--------36--------37--------38--------39--------40--------41--------42--------43--------44--------45--------46--------47--------48--------49--------50--------51--------52--------53--------54--------55--------56--------57--------58--------59--------60--------61--------62--------63--------64--------65--------66--------67--------68--------69--------70--------71--------72--------73
            LAT            LON  P-LENGHT     SWH_o     SWH_c     P-DIR      LINE     POINT     ROW-Y     COL-X  M-INTENC        dB      WIND INC-ANGLE  ENERGY-M  ENERGY-N  ENERGY-R ENERGY-NN  FG-DEPTH      FLAG         HEADING-DEG    E30-75   E75-390  E390-600 meanincut   meanout   cut/out  STD-NORM  SPEC-MAX   GL-MEAN    GL-VAR      CORR   ENTROPY   HOMOGEN    ENERGY  CONTRAST  DISSIMIL     STD-O    E 1-30 E600-2000   E2000 >      GODA  LONG-HIG     Tmean  CONVOLUT  MEAN-DIR  relation     Sy/Sx  SKEWNESS  KURTOSIS  cutoff-A >50/10000     INT*V   INT-LOG  S-1_g1f1  S-2_g1f2  S-3_g1f3  S-4_g2f1  S-5_g2f2  S-6_g2f3  S-7_g3f1  S-8_g3f2  S-9_g3f3 S-10_g1f4 S-11_g2f4 S-12_g3f4 S-13_g1f5 S-14_g2f5 S-15_g3f5 S-16_g4f1 S-17_g4f2 S-18_g4f3 S-19_g4f4 S-20_g4f5
--------------1--------------2---------3---------4---------5---------6---------7---------8---------9--------10--------11--------12--------13--------14--------15--------16--------17--------18--------19--------20------------------21--------22--------23--------24--------25--------26--------27--------28--------29--------30--------31--------32--------33--------34--------35--------36--------37--------38--------39--------40--------41--------42--------43--------44--------45--------46--------47--------48--------49--------50--------51--------52--------53--------54--------55--------56--------57--------58--------59--------60--------61--------62--------63--------64--------65--------66--------67--------68--------69--------70--------71--------72--------73--------74
       8.824947     -21.777245     384.4      0.37      1.60       4.8         1         1      1000      1000    182.63   -17.384       6.0      36.9   216.082     0.527      84.6   0.05299     100.0         H               192.0  0.035165  0.014436  0.001232  1.097850  0.601219  1.826039  1.031227     34.24    3.1766   14.1039   0.06482   4.59377   0.30330   0.01976  26.37929   3.54613     188.3  0.475390  0.001344  0.000140  0.000099  0.195645  6.987151  0.529359     12.86  0.999829  0.999994     2.172    10.405      88.6      79.0      29.5     168.5     13.29      3.85     -6.66     -3.54     -1.03      5.86      2.71      0.35     -1.79     -1.74      2.99     -0.58      3.18     -4.94      1.70    -18.22     -5.13     15.92      6.91    -11.35
       8.835810     -21.831068     297.4      0.39      1.60      11.1         1         2      1000      2328    188.12   -17.256       6.4      37.3   216.819     0.532     112.1   0.05456     100.0         H               192.0  0.035626  0.014766  0.001586  1.089584  0.607140  1.794618  1.035171     28.96    3.2885   15.0753   0.06855   4.65363   0.29713   0.01868  28.08362   3.65369     194.7  0.477991  0.001882  0.000194  0.000103  0.200025  6.988153  0.534072     10.75  0.999839  0.999993     2.191    10.570      88.6      79.7      31.3     172.6     13.92      5.73     -6.22     -5.26     -3.04      5.15      3.13      0.87     -1.17     -2.09      3.20     -0.90      2.26     -3.22      0.22    -22.47    -10.64     13.54      7.93     -5.63
       8.846570     -21.884434     323.2      0.40      1.60       8.0         1         3      1000      3656    182.05   -17.398       6.5      37.7   216.635     0.532     141.3   0.05450     100.0         H               192.0  0.035377  0.013977  0.001478  1.033800  0.607450  1.701869  1.034930     29.55    3.1662   14.1190   0.06923   4.58767   0.30434   0.01993  26.28301   3.53117     188.4  0.478193  0.002799  0.000249  0.000100  0.196266  6.956207  0.534383     10.36  0.999923  0.999997     2.212    10.822      94.9      78.9      29.4     171.7     13.68      5.01     -5.84     -5.03     -2.71      4.34      3.63      0.72      0.19     -1.72      2.47     -0.05      1.42     -2.15     -0.73    -22.54     -9.28      9.28      5.02     -1.72
       8.771946     -21.788031     325.6      0.40      1.60       4.0         2         1      2447      1000    198.57   -17.021       6.4      36.9   216.251     0.529      72.6   0.05376     100.0         H               192.0  0.035795  0.013907  0.000816  1.090257  0.599830  1.817609  1.031965     23.27    3.4935   16.7198   0.06648   4.75975   0.28513   0.01681  31.21636   3.86508     204.9  0.476832  0.001358  0.000103  0.000096  0.191951  6.944605  0.530158     13.79  0.999880  0.999995     2.159    10.193      83.0      80.7      34.6     177.5     12.91      3.85     -5.32     -2.26     -0.38      3.98      1.68     -0.71     -0.12     -0.88      1.73      0.65      1.97     -3.85      0.78    -14.11     -2.35      9.27      2.17     -7.40
       8.782810     -21.841846     349.6      0.39      1.60       8.7         2         2      2447      2328    183.05   -17.374       6.2      37.3   216.580     0.532     136.7   0.05521     100.0         H               192.0  0.035689  0.014400  0.001571  1.062153  0.615941  1.724439  1.035420     30.59    3.1873   14.2763   0.06987   4.59906   0.30334   0.01974  26.55757   3.55046     189.5  0.477356  0.002821  0.000228  0.000102  0.196650  6.971836  0.534239     10.21  0.999868  0.999995     2.198    10.639      92.7      79.0      29.7     168.6     13.59      4.33     -6.98     -4.94     -1.76      6.17      3.69      0.12     -1.68     -2.02      2.89     -0.12      2.85     -4.17      1.05    -22.60     -6.16     16.90      6.03     -9.18
       8.793575     -21.895206     349.6      0.40      1.60       8.7         2         3      2447      3656    184.72   -17.335       6.5      37.7   216.205     0.531     120.1   0.05429     100.0         H               192.0  0.035481  0.013936  0.001464  1.042013  0.601592  1.732091  1.033743     36.00    3.2191   14.5012   0.06968   4.61645   0.30104   0.01938  26.98148   3.58291     190.9  0.477405  0.002362  0.000195  0.000102  0.197005  6.955032  0.532975      9.33  0.999831  0.999993     2.182    10.415      90.6      79.2      30.2     167.2     13.75      4.12     -6.34     -5.07     -1.71      5.72      3.69      0.48     -1.44     -1.24      2.53     -0.34      3.19     -4.35      0.91    -22.77     -6.36     14.66      5.22     -9.24
       8.718944     -21.798819     323.2      0.39      1.60       8.0         3         1      3894      1000    194.74   -17.105       6.3      36.9   215.314     0.528     109.6   0.05436     100.0         H               192.0  0.035638  0.013695  0.001264  1.015944  0.616264  1.648553  1.031739     31.04    3.4168   16.0638   0.06894   4.72062   0.28955   0.01746  29.91298   3.78072     200.9  0.475492  0.002014  0.000193  0.000099  0.193956  6.942933  0.530094     10.74  0.999919  0.999997     2.178    10.497      86.6      80.3      33.3     184.3     13.38      1.72     -6.70     -4.26      1.28      5.67      3.45     -1.99     -0.72     -0.44      0.76      1.90      2.33     -3.02     -0.30    -20.25      4.60     13.70     -1.85     -4.16
       8.729812     -21.852629     380.5      0.38      1.60       9.5         3         2      3894      2328    181.44   -17.413       6.2      37.3   215.517     0.527      78.1   0.05341     100.0         H               192.0  0.035546  0.013663  0.001161  1.026468  0.609445  1.684267  1.030584     32.39    3.1551   13.8855   0.06633   4.58202   0.30450   0.01997  25.92892   3.51795     187.0  0.475500  0.001276  0.000127  0.000099  0.192210  6.940323  0.529032     12.46  0.999855  0.999994     2.153    10.144      88.6      78.9      29.1     157.7     13.20      3.59     -7.72     -3.75     -0.99      6.83      3.12     -0.26     -1.76     -2.45      3.06      0.29      3.39     -5.12      1.67    -18.75     -3.22     18.30      5.66    -12.06
       8.740580     -21.905979     380.5      0.39      1.60       9.5         3         3      3894      3656    177.20   -17.515       6.3      37.7   216.886     0.530      95.7   0.05364     100.0         H               192.0  0.035597  0.014289  0.001258  1.041990  0.611327  1.704472  1.033309     40.41    3.0693   13.3183   0.06637   4.53403   0.31016   0.02100  24.86898   3.43715     183.1  0.477455  0.001533  0.000184  0.000103  0.197265  6.961475  0.532207     12.39  0.999819  0.999993     2.183    10.491      90.6      78.3      27.9     161.1     13.70      3.79     -7.81     -4.76     -1.22      7.23      3.04     -0.39     -1.95     -2.35      2.87      0.41      3.95     -5.64      1.83    -20.44     -3.59     18.77      4.89    -13.08
