corner points
-22.45495415    5.312109947
-22.49059486    5.138778687
-22.63386154    5.349214077
-22.66945267    5.175920963
========== RESULTS WAVE VERSION 16.10.2018 ====================
IMAGE SIZE  X: 4466     Y:4733    col:row     POLARIZATION:VV
COVERAGE    X: 20.1878715km       Y: 19.62683233km 
RESOLUTION dX: 4.520347402m       dY:4.146805901m  
resolution of original product 4.520347402m x 4.146805901m;   raster step x:5998.501002m  
===============================================================
FLAGS: H=HIGH PROBABILITY SEA STATE, I=LAND(ISLAND), O=OUTLIER NO SEA STATE, N=NO WIND AVAILABLE, SEA STATE NOT VISIBLE, M=MEAN PROBABILITY SEA STATE, L= LOW PROBABILITY SEA STATE
Filtering wave length
 integration  Lmin=1m
 integration  Lmax=2200m
  peak        Lmin=100m
               FFT=1024pixels, 4628.83574m 
   mean-Hs (SWH_c)=0.2m
         mean-wind=4.012592793m/s
--------------0--------------1---------2---------3---------4---------5---------6---------7---------8---------9--------10--------11--------12--------13--------14--------15--------16--------17--------18--------19------------------20--------21--------22--------23--------24--------25--------26--------27--------28--------29--------30--------31--------32--------33--------34--------35--------36--------37--------38--------39--------40--------41--------42--------43--------44--------45--------46--------47--------48--------49--------50--------51--------52--------53--------54--------55--------56--------57--------58--------59--------60--------61--------62--------63--------64--------65--------66--------67--------68--------69--------70--------71--------72--------73
            LAT            LON  P-LENGHT     SWH_o     SWH_c     P-DIR      LINE     POINT     ROW-Y     COL-X  M-INTENC        dB      WIND INC-ANGLE  ENERGY-M  ENERGY-N  ENERGY-R ENERGY-NN  FG-DEPTH      FLAG         HEADING-DEG    E30-75   E75-390  E390-600 meanincut   meanout   cut/out  STD-NORM  SPEC-MAX   GL-MEAN    GL-VAR      CORR   ENTROPY   HOMOGEN    ENERGY  CONTRAST  DISSIMIL     STD-O    E 1-30 E600-2000   E2000 >      GODA  LONG-HIG     Tmean  CONVOLUT  MEAN-DIR  relation     Sy/Sx  SKEWNESS  KURTOSIS  cutoff-A >50/10000     INT*V   INT-LOG  S-1_g1f1  S-2_g1f2  S-3_g1f3  S-4_g2f1  S-5_g2f2  S-6_g2f3  S-7_g3f1  S-8_g3f2  S-9_g3f3 S-10_g1f4 S-11_g2f4 S-12_g3f4 S-13_g1f5 S-14_g2f5 S-15_g3f5 S-16_g4f1 S-17_g4f2 S-18_g4f3 S-19_g4f4 S-20_g4f5
--------------1--------------2---------3---------4---------5---------6---------7---------8---------9--------10--------11--------12--------13--------14--------15--------16--------17--------18--------19--------20------------------21--------22--------23--------24--------25--------26--------27--------28--------29--------30--------31--------32--------33--------34--------35--------36--------37--------38--------39--------40--------41--------42--------43--------44--------45--------46--------47--------48--------49--------50--------51--------52--------53--------54--------55--------56--------57--------58--------59--------60--------61--------62--------63--------64--------65--------66--------67--------68--------69--------70--------71--------72--------73--------74
       5.283890     -22.503000     384.7      0.24      1.60       4.8         1         1      1000      1000    100.68   -19.970       3.7      36.9   222.053     0.537     218.0   0.05053     100.0         H               192.0  0.033265  0.012559  0.001962  1.005908  0.575399  1.748193  1.041457     14.87    1.5553    4.3088   0.04878   3.41771   0.45371   0.06308   8.19711   1.92382     104.9  0.485159  0.004315  0.000438  0.000090  0.191562  6.930353  0.540644     41.17  1.000032  1.000001     2.230    10.962     166.7      62.7       9.5      89.7     13.80      2.08     -1.87     -5.78      0.53      0.56      5.56     -0.65      0.09      0.12      0.11      0.36      1.99     -2.70      0.62    -28.35      0.37      1.58     -0.29     -5.89
       5.294961     -22.556358     384.7      0.25      1.60       4.8         1         2      1000      2327     99.47   -20.023       3.8      37.3   219.497     0.528     180.7   0.04783     100.0         H               192.0  0.032615  0.011338  0.001169  0.912930  0.559801  1.630811  1.032112     14.34    1.5359    4.1245   0.04158   3.39943   0.45490   0.06330   7.90606   1.89890     102.7  0.479614  0.002586  0.000508  0.000090  0.185310  6.876459  0.529643     19.33  0.999661  0.999995     2.163    10.278     153.8      62.6       9.2      82.1     13.05      2.28     -2.84     -3.26     -0.13      1.65      3.42     -0.37     -0.78     -0.78      1.39     -0.24      2.71     -2.96      1.10    -19.85     -1.13      5.68      3.45     -7.78
       5.305933     -22.609262       0.0      0.00      0.00       0.0         1         3      1000      3654      0.00     0.000       0.0      37.7     0.000     0.000       0.0   0.00000       0.0         O               192.0  0.000000  0.000000  0.000000  0.000000  0.000000  0.000000  0.000000      0.00    0.0000    0.0000   0.00000   0.00000   0.00000   0.00000   0.00000   0.00000       0.0  0.000000  0.000000  0.000000  0.000000  0.000000  0.000000  0.000000      0.00  0.000000  0.000000     0.000     0.000       0.0       0.0       0.0       0.0      0.00      0.00      0.00      0.00      0.00      0.00      0.00      0.00      0.00      0.00      0.00      0.00      0.00      0.00      0.00      0.00      0.00      0.00      0.00      0.00
       5.230927     -22.513887     325.8      0.28      1.60       4.0         2         1      2446      1000    125.24   -19.023       4.3      36.9   221.933     0.546     202.7   0.05563     100.0         H               192.0  0.037224  0.015588  0.001980  1.211409  0.606121  1.998627  1.050056     22.44    2.0392    6.8264   0.06752   3.84567   0.39700   0.04216  12.73096   2.41360     131.5  0.487395  0.003940  0.000384  0.000094  0.194327  6.964642  0.550799     34.85  0.999758  0.999994     2.277    11.287     105.0      69.1      14.6     115.7     13.57      0.92     -5.49     -5.14      1.84      4.17      4.46     -1.18     -1.71      0.35     -0.61      1.15      1.59     -3.27      1.08    -25.31      3.75     13.39     -2.72     -7.13
       5.242001     -22.567242     384.7      0.26      1.60       4.8         2         2      2446      2327    102.20   -19.906       3.9      37.3   222.832     0.540     272.8   0.05147     100.0         H               192.0  0.033769  0.012225  0.001848  0.961882  0.570078  1.687282  1.044256     25.80    1.5900    4.4624   0.04998   3.45188   0.44926   0.06094   8.47883   1.95592     106.7  0.486695  0.004845  0.000654  0.000093  0.187765  6.897138  0.543113     15.24  0.999639  0.999994     2.249    11.080     166.7      63.3       9.8      91.1     13.51      2.59     -4.54     -5.61     -1.38      3.74      5.94      1.09     -1.94     -1.18      1.80     -0.34      2.91     -4.22      1.90    -28.15     -5.93     12.21      4.55    -11.38
       5.252977     -22.620140       0.0      0.00      0.00       0.0         2         3      2446      3654      0.00     0.000       0.0      37.7     0.000     0.000       0.0   0.00000       0.0         O               192.0  0.000000  0.000000  0.000000  0.000000  0.000000  0.000000  0.000000      0.00    0.0000    0.0000   0.00000   0.00000   0.00000   0.00000   0.00000   0.00000       0.0  0.000000  0.000000  0.000000  0.000000  0.000000  0.000000  0.000000      0.00  0.000000  0.000000     0.000     0.000       0.0       0.0       0.0       0.0      0.00      0.00      0.00      0.00      0.00      0.00      0.00      0.00      0.00      0.00      0.00      0.00      0.00      0.00      0.00      0.00      0.00      0.00      0.00      0.00
       5.177963     -22.524776     384.7      0.27      1.60       4.8         3         1      3892      1000    120.63   -19.185       4.2      36.9   221.223     0.539     193.0   0.05208     100.0         H               192.0  0.035520  0.012821  0.001714  1.003785  0.578991  1.733680  1.043276     22.57    1.9475    6.2431   0.05727   3.77230   0.40527   0.04491  11.77108   2.32538     125.8  0.485548  0.003420  0.000417  0.000093  0.186569  6.898978  0.542386     22.07  0.999659  0.999993     2.233    10.936     117.4      68.1      13.6     106.0     13.25      2.46     -5.25     -4.93     -0.35      3.45      5.08     -0.26     -1.03     -1.34      1.28      0.07      1.88     -3.23      1.42    -25.44     -2.32     10.92      3.23     -8.18
       5.189041     -22.578125       0.0      0.00      0.00       0.0         3         2      3892      2327      0.00     0.000       0.0      37.3     0.000     0.000       0.0   0.00000       0.0         O               192.0  0.000000  0.000000  0.000000  0.000000  0.000000  0.000000  0.000000      0.00    0.0000    0.0000   0.00000   0.00000   0.00000   0.00000   0.00000   0.00000       0.0  0.000000  0.000000  0.000000  0.000000  0.000000  0.000000  0.000000      0.00  0.000000  0.000000     0.000     0.000       0.0       0.0       0.0       0.0      0.00      0.00      0.00      0.00      0.00      0.00      0.00      0.00      0.00      0.00      0.00      0.00      0.00      0.00      0.00      0.00      0.00      0.00      0.00      0.00
       5.200020     -22.631020       0.0      0.00      0.00       0.0         3         3      3892      3654      0.00     0.000       0.0      37.7     0.000     0.000       0.0   0.00000       0.0         O               192.0  0.000000  0.000000  0.000000  0.000000  0.000000  0.000000  0.000000      0.00    0.0000    0.0000   0.00000   0.00000   0.00000   0.00000   0.00000   0.00000       0.0  0.000000  0.000000  0.000000  0.000000  0.000000  0.000000  0.000000      0.00  0.000000  0.000000     0.000     0.000       0.0       0.0       0.0       0.0      0.00      0.00      0.00      0.00      0.00      0.00      0.00      0.00      0.00      0.00      0.00      0.00      0.00      0.00      0.00      0.00      0.00      0.00      0.00      0.00
