corner points
-40.65528488    -57.10430527
-40.77289963    -57.27494049
-40.98721695    -57.03471756
-41.10634995    -57.20504379
========== RESULTS WAVE VERSION 16.10.2018 ====================
IMAGE SIZE  X: 5599     Y:4903    col:row     POLARIZATION:VV
COVERAGE    X: 21.46255933km       Y: 20.21108574km 
RESOLUTION dX: 3.833284396m       dY:4.122187587m  
resolution of original product 3.833284396m x 4.122187587m;   raster step x:5999.09008m  
===============================================================
FLAGS: H=HIGH PROBABILITY SEA STATE, I=LAND(ISLAND), O=OUTLIER NO SEA STATE, N=NO WIND AVAILABLE, SEA STATE NOT VISIBLE, M=MEAN PROBABILITY SEA STATE, L= LOW PROBABILITY SEA STATE
Filtering wave length
 integration  Lmin=1m
 integration  Lmax=2200m
  peak        Lmin=100m
               FFT=1024pixels, 3925.283222m 
   mean-Hs (SWH_c)=0.2m
         mean-wind=3.809259176m/s
--------------0--------------1---------2---------3---------4---------5---------6---------7---------8---------9--------10--------11--------12--------13--------14--------15--------16--------17--------18--------19------------------20--------21--------22--------23--------24--------25--------26--------27--------28--------29--------30--------31--------32--------33--------34--------35--------36--------37--------38--------39--------40--------41--------42--------43--------44--------45--------46--------47--------48--------49--------50--------51--------52--------53--------54--------55--------56--------57--------58--------59--------60--------61--------62--------63--------64--------65--------66--------67--------68--------69--------70--------71--------72--------73
            LAT            LON  P-LENGHT     SWH_o     SWH_c     P-DIR      LINE     POINT     ROW-Y     COL-X  M-INTENC        dB      WIND INC-ANGLE  ENERGY-M  ENERGY-N  ENERGY-R ENERGY-NN  FG-DEPTH      FLAG         HEADING-DEG    E30-75   E75-390  E390-600 meanincut   meanout   cut/out  STD-NORM  SPEC-MAX   GL-MEAN    GL-VAR      CORR   ENTROPY   HOMOGEN    ENERGY  CONTRAST  DISSIMIL     STD-O    E 1-30 E600-2000   E2000 >      GODA  LONG-HIG     Tmean  CONVOLUT  MEAN-DIR  relation     Sy/Sx  SKEWNESS  KURTOSIS  cutoff-A >50/10000     INT*V   INT-LOG  S-1_g1f1  S-2_g1f2  S-3_g1f3  S-4_g2f1  S-5_g2f2  S-6_g2f3  S-7_g3f1  S-8_g3f2  S-9_g3f3 S-10_g1f4 S-11_g2f4 S-12_g3f4 S-13_g1f5 S-14_g2f5 S-15_g3f5 S-16_g4f1 S-17_g4f2 S-18_g4f3 S-19_g4f4 S-20_g4f5
--------------1--------------2---------3---------4---------5---------6---------7---------8---------9--------10--------11--------12--------13--------14--------15--------16--------17--------18--------19--------20------------------21--------22--------23--------24--------25--------26--------27--------28--------29--------30--------31--------32--------33--------34--------35--------36--------37--------38--------39--------40--------41--------42--------43--------44--------45--------46--------47--------48--------49--------50--------51--------52--------53--------54--------55--------56--------57--------58--------59--------60--------61--------62--------63--------64--------65--------66--------67--------68--------69--------70--------71--------72--------73--------74
     -57.126389     -40.740345     137.2      0.24      1.47     135.6         1         1      1000      1000   1866.86    -7.289       3.7      22.4   213.210     0.663     292.9   0.13937      12.6         H               197.5  0.080748  0.035500  0.000914  3.690423  0.886173  4.164448  1.155442     13.20    3.2551   18.4261   0.24479   4.59260   0.33260   0.02439  27.83114   3.42218    2157.0  0.540478  0.005135  0.000237  0.000177  0.158234  6.784115  0.689693     87.20  1.000082  1.000009     2.839    16.838      61.3      77.0      34.6     232.5     10.31     -3.34     -1.50      4.20     -2.07      0.15      2.25      0.03      1.58     -0.07      0.05     -0.38     -2.57     -2.76     -0.59     -3.23     -0.48      0.99      0.33     -1.99
     -57.106728     -40.834408     159.7      0.22      1.47     132.9         1         2      1000      2565   1430.96    -8.444       3.2      22.9   213.318     0.662     234.0   0.13762      17.8         H               197.5  0.080988  0.036013  0.001147  3.718392  0.887259  4.190876  1.153920     14.03    2.4004   10.8277   0.24133   4.07419   0.39635   0.04038  16.42912   2.60923    1651.2  0.539205  0.004432  0.000179  0.000178  0.160138  6.786788  0.688962     87.94  1.000081  1.000008     2.861    17.422      63.2      70.4      20.7     186.5     10.74     -3.08     -0.89      3.35     -1.34      0.04      2.41     -0.23      1.33     -0.37     -0.21     -0.23     -2.28     -2.59     -0.48     -5.15      0.75      0.60     -0.15     -1.92
     -57.087368     -40.926579     169.5      0.26      1.47     136.3         1         3      1000      4130   1622.52    -7.898       4.0      23.3   212.918     0.658     411.0   0.13771      20.6         H               197.5  0.078042  0.031150  0.001220  3.212947  0.891735  3.603028  1.152421     11.96    2.7717   13.8292   0.24037   4.31769   0.36461   0.03162  21.01015   2.96339    1869.9  0.541166  0.006735  0.000520  0.000188  0.155149  6.751637  0.683892     89.98  1.000115  1.000009     2.892    18.038      67.5      73.7      26.3     211.1     10.64     -2.98     -1.52      2.97     -1.35      0.31      2.85     -0.16      1.13     -0.07      0.03     -0.32     -2.04     -2.53     -0.23     -6.49      0.20      1.63     -0.13     -2.43
     -57.177025     -40.775291     178.5      0.23      1.47     129.4         2         1      2455      1000   1774.32    -7.510       3.5      22.4   212.779     0.662     329.5   0.13909      23.4         H               197.5  0.081513  0.033268  0.001004  3.445085  0.898550  3.834050  1.154689     11.67    3.0782   16.6899   0.24396   4.49607   0.34400   0.02675  25.23644   3.25332    2048.9  0.540530  0.005287  0.000380  0.000190  0.157898  6.749316  0.688894     95.21  1.000112  1.000010     2.840    16.842      64.2      75.9      31.3     211.2     10.34     -3.13     -0.86      3.95     -1.83     -0.35      2.49     -0.09      1.63     -0.31     -0.20     -0.46     -2.44     -2.68     -0.02     -3.93     -0.43     -0.42      0.13     -2.41
     -57.157333     -40.869484     155.8      0.26      1.47     137.6         2         2      2455      2565   1789.00    -7.474       4.0      22.9   211.648     0.654     270.9   0.13621      16.8         H               197.5  0.079332  0.032521  0.000914  3.395183  0.884021  3.840611  1.148374     11.34    3.1021   16.7124   0.23963   4.51216   0.34074   0.02606  25.41528   3.27942    2054.5  0.537155  0.004447  0.000346  0.000183  0.156882  6.768945  0.679969     95.64  1.000121  1.000011     2.829    17.003      64.2      76.2      31.7     228.2     10.42     -2.78     -0.74      4.03     -1.55      0.65      2.53      0.00      1.39     -0.71      0.06     -0.40     -1.96     -2.53      0.05     -3.73      0.29      1.43      0.59     -2.16
     -57.137951     -40.961781     117.1      0.25      1.47     131.8         2         3      2455      4130   1521.35    -8.178       3.8      23.3   209.418     0.643     140.9   0.13064       8.9         H               197.5  0.078265  0.029987  0.000626  3.155934  0.852214  3.703219  1.137197      8.74    2.5766   11.8792   0.23108   4.19847   0.37789   0.03500  18.26837   2.77889    1730.1  0.531763  0.002317  0.000112  0.000199  0.153278  6.732344  0.666073     94.38  1.000115  1.000011     2.732    15.473      63.2      72.4      22.9     174.3     10.21     -2.72     -1.02      4.54     -1.24      0.57      2.07     -0.39      1.53      0.05     -0.43     -0.21     -2.18     -1.99     -0.18     -1.74      0.38      1.45     -1.10     -1.22
     -57.227650     -40.810333     144.0      0.27      1.47     138.7         3         1      3910      1000   2063.37    -6.854       4.1      22.4   210.383     0.648     211.4   0.13278      14.0         H               197.5  0.077372  0.028578  0.000909  2.957664  0.888999  3.326959  1.141662     10.86    3.6439   21.9968   0.23250   4.79593   0.30714   0.01956  33.76494   3.80180    2355.7  0.537100  0.004200  0.000165  0.000183  0.156247  6.725296  0.671653     94.86  1.000156  1.000014     2.768    15.895      62.2      79.5      41.6     240.7     10.49     -2.46     -0.91      3.36     -0.59     -0.31      2.56      0.21      1.75      0.05      0.12     -0.11     -1.78     -2.28      0.31     -4.95      1.40     -0.58      0.22     -2.54
     -57.207932     -40.904652     143.0      0.25      1.47     130.1         3         2      3910      2565   1735.93    -7.605       3.9      22.9   208.608     0.640     117.9   0.13028      13.8         H               197.5  0.075863  0.029727  0.000606  3.078992  0.857079  3.592427  1.134945     11.37    3.0030   15.4361   0.22952   4.46061   0.34468   0.02693  23.78674   3.19035    1970.0  0.532571  0.001877  0.000103  0.000190  0.156546  6.737248  0.663273     97.67  1.000096  1.000009     2.748    16.066      62.2      75.8      29.5     216.5     10.19     -2.40     -1.47      4.50     -1.35      0.55      1.98      0.05      1.69     -0.28      0.01     -0.19     -2.49     -2.37     -0.17     -1.75      0.17      1.78      0.08     -1.12
     -57.188526     -40.997074     131.0      0.26      1.47     138.1         3         3      3910      4130   1606.88    -7.940       4.0      23.3   210.282     0.648      81.8   0.13336      11.4         H               197.5  0.078374  0.031457  0.000627  3.266542  0.879715  3.713183  1.141506     11.70    2.7414   13.3168   0.23265   4.30253   0.36495   0.03172  20.43763   2.93826    1834.2  0.536114  0.001363  0.000042  0.000194  0.156803  6.764673  0.671270     98.97  1.000079  1.000006     2.810    16.849      60.3      73.7      25.5     196.2     10.03     -2.60     -1.44      4.90     -1.64      0.73      2.32     -0.64      1.77     -0.02     -0.01     -0.37     -2.19     -2.48     -0.71     -1.53      0.33      1.93     -0.26     -1.20
