corner points
-30.99889183    -36.48250961
-31.05600929    -36.66020203
-31.2266674    -36.43288803
-31.28442192    -36.610466
========== RESULTS WAVE VERSION 16.10.2018 ====================
IMAGE SIZE  X: 5599     Y:4916    col:row     POLARIZATION:VV
COVERAGE    X: 21.06414301km       Y: 20.36203192km 
RESOLUTION dX: 3.762125918m       dY:4.141991847m  
resolution of original product 3.762125918m x 4.141991847m;   raster step x:5996.828713m  
===============================================================
FLAGS: H=HIGH PROBABILITY SEA STATE, I=LAND(ISLAND), O=OUTLIER NO SEA STATE, N=NO WIND AVAILABLE, SEA STATE NOT VISIBLE, M=MEAN PROBABILITY SEA STATE, L= LOW PROBABILITY SEA STATE
Filtering wave length
 integration  Lmin=1m
 integration  Lmax=2200m
  peak        Lmin=100m
               FFT=1024pixels, 3852.41694m 
   mean-Hs (SWH_c)=1.274496384m
         mean-wind=10.69588375m/s
--------------0--------------1---------2---------3---------4---------5---------6---------7---------8---------9--------10--------11--------12--------13--------14--------15--------16--------17--------18--------19------------------20--------21--------22--------23--------24--------25--------26--------27--------28--------29--------30--------31--------32--------33--------34--------35--------36--------37--------38--------39--------40--------41--------42--------43--------44--------45--------46--------47--------48--------49--------50--------51--------52--------53--------54--------55--------56--------57--------58--------59--------60--------61--------62--------63--------64--------65--------66--------67--------68--------69--------70--------71--------72--------73
            LAT            LON  P-LENGHT     SWH_o     SWH_c     P-DIR      LINE     POINT     ROW-Y     COL-X  M-INTENC        dB      WIND INC-ANGLE  ENERGY-M  ENERGY-N  ENERGY-R ENERGY-NN  FG-DEPTH      FLAG         HEADING-DEG    E30-75   E75-390  E390-600 meanincut   meanout   cut/out  STD-NORM  SPEC-MAX   GL-MEAN    GL-VAR      CORR   ENTROPY   HOMOGEN    ENERGY  CONTRAST  DISSIMIL     STD-O    E 1-30 E600-2000   E2000 >      GODA  LONG-HIG     Tmean  CONVOLUT  MEAN-DIR  relation     Sy/Sx  SKEWNESS  KURTOSIS  cutoff-A >50/10000     INT*V   INT-LOG  S-1_g1f1  S-2_g1f2  S-3_g1f3  S-4_g2f1  S-5_g2f2  S-6_g2f3  S-7_g3f1  S-8_g3f2  S-9_g3f3 S-10_g1f4 S-11_g2f4 S-12_g3f4 S-13_g1f5 S-14_g2f5 S-15_g3f5 S-16_g4f1 S-17_g4f2 S-18_g4f3 S-19_g4f4 S-20_g4f5
--------------1--------------2---------3---------4---------5---------6---------7---------8---------9--------10--------11--------12--------13--------14--------15--------16--------17--------18--------19--------20------------------21--------22--------23--------24--------25--------26--------27--------28--------29--------30--------31--------32--------33--------34--------35--------36--------37--------38--------39--------40--------41--------42--------43--------44--------45--------46--------47--------48--------49--------50--------51--------52--------53--------54--------55--------56--------57--------58--------59--------60--------61--------62--------63--------64--------65--------66--------67--------68--------69--------70--------71--------72--------73--------74
     -36.509583     -31.052351     103.0      1.15      3.31      81.6         1         1      1000      1000   3876.20    -4.116      10.5      22.9   309.809     0.771      85.3   0.19004       6.8         H               193.3  0.093376  0.048647  0.001593  4.976308  0.973458  5.111991  1.244482     29.08    7.2083   83.7551   0.27489   5.99988   0.19925   0.00636 121.46382   7.15608    4823.7  0.626713  0.001170  0.000035  0.000215  0.172434  6.969551  0.808843     82.42  1.000241  1.000032     3.552    28.325     105.0      89.4     171.0     676.0     12.27      1.27      1.46      1.55     -0.05      3.89      2.15      1.02      1.78      0.65      1.11      0.79     -0.81      0.59      1.89     -7.55     -1.24      4.97      1.28      0.47
     -36.495308     -31.118002     105.8      1.29      3.31      74.1         1         2      1000      2594   3630.42    -4.400      10.8      23.4   312.710     0.781     101.4   0.19396       7.2         H               193.3  0.094263  0.052040  0.001913  5.098100  1.006704  5.064152  1.252659     38.14    6.7201   74.9002   0.27854   5.86866   0.21044   0.00728 108.07523   6.70043    4547.2  0.632284  0.001549  0.000043  0.000231  0.173801  7.014903  0.820825     80.22  1.000248  1.000034     3.608    27.898     107.8      88.4     150.2     617.9     12.24      0.59      1.40      0.94      0.96      3.82      2.90      1.21      2.08      1.32      1.10      1.76     -0.69      0.66      1.59     -8.70      0.80      5.35      0.11      1.24
     -36.481262     -31.182402     110.2      1.20      3.31      76.5         1         3      1000      4188   3312.18    -4.799      10.9      23.8   312.640     0.779      81.0   0.19319       7.8         H               193.3  0.095012  0.050853  0.001811  5.053741  0.983914  5.136364  1.251247     31.90    6.1093   63.6950   0.27756   5.69443   0.22551   0.00873  92.03197   6.14531    4144.1  0.631379  0.001109  0.000018  0.000231  0.173515  6.995728  0.818084     82.08  1.000242  1.000035     3.599    28.229     107.8      86.9     124.4     581.6     12.31      0.80      0.62      0.93      0.40      4.09      2.44      0.89      2.13      0.94      0.72      1.29     -0.72      0.65      1.43     -8.54     -0.15      5.45      0.50      1.59
     -36.561928     -31.069202     102.2      1.38      3.31      78.9         2         1      2448      1000   3918.82    -4.068      10.6      22.9   318.592     0.805      95.4   0.20413       6.6         H               193.3  0.098642  0.055386  0.002341  5.491553  1.009385  5.440493  1.272305     37.42    7.2690   86.7126   0.28438   6.00635   0.20032   0.00645 124.10817   7.20554    4985.5  0.648331  0.001379  0.000028  0.000242  0.172581  7.009786  0.847410     82.22  1.000246  1.000038     3.903    37.461     110.8      89.2     179.7     770.7     12.57      0.98      0.74      0.26      0.09      4.14      2.78      1.13      1.42      0.78      0.70      1.07     -1.20      1.33      1.53    -11.08     -1.27      6.58      0.66      2.60
     -36.547642     -31.134909     105.4      1.28      3.31      80.0         2         2      2448      2594   3597.77    -4.440      10.7      23.4   316.684     0.792      98.6   0.19638       7.1         H               193.3  0.095618  0.052522  0.001847  5.182247  1.013661  5.112404  1.261521     33.67    6.6584   74.0370   0.27821   5.85077   0.21206   0.00745 106.87936   6.65257    4538.4  0.641161  0.001489  0.000038  0.000221  0.174295  7.009359  0.832500     81.66  1.000220  1.000030     3.800    33.051     107.8      88.2     149.2     674.6     12.36      1.30      0.98      0.86      0.37      3.72      2.23      0.46      1.74      1.00      1.04      0.75     -1.02      0.78      2.07     -8.59     -0.27      5.46      0.91      1.13
     -36.533588     -31.199360     104.9      1.31      3.31      78.6         2         3      2448      4188   3271.18    -4.853      10.7      23.8   316.719     0.794      89.2   0.19834       7.0         H               193.3  0.098201  0.054910  0.002065  5.501972  1.007381  5.461658  1.263420     30.23    6.0231   62.8270   0.28267   5.66441   0.22853   0.00906  90.13419   6.05661    4132.9  0.638589  0.001296  0.000021  0.000241  0.172828  6.995799  0.835820     82.60  1.000251  1.000034     3.733    31.105     110.8      86.7     122.7     601.8     12.48      1.62      0.73      0.62     -0.04      4.23      2.37      0.70      1.81      0.61      1.56      0.92     -0.93      0.96      2.28     -9.38     -1.15      5.99      2.10      1.41
     -36.614269     -31.086077     104.4      1.29      3.31      77.2         3         1      3896      1000   3832.74    -4.165      10.3      22.9   319.507     0.812      91.3   0.20765       6.9         H               193.3  0.101932  0.055036  0.001849  5.589711  1.032631  5.413078  1.278021     28.32    7.1023   84.0265   0.28584   5.96136   0.20402   0.00677 120.01816   7.05649    4898.3  0.652337  0.001269  0.000032  0.000229  0.169944  6.972825  0.854132     83.91  1.000256  1.000036     3.821    31.925     110.8      88.9     172.6     706.5     12.16      0.90      0.94      1.33      0.49      3.96      2.55      0.79      2.07      1.00      1.09      0.93      0.12      0.28      1.58     -7.90     -0.16      5.46      0.85      0.34
     -36.599976     -31.151836     104.9      1.31      3.31      78.6         3         2      3896      2594   3630.43    -4.400      10.8      23.3   322.491     0.819      90.1   0.20942       7.0         H               193.3  0.104425  0.055158  0.001698  5.436889  1.047278  5.191448  1.283023     39.21    6.7107   76.8359   0.28841   5.85543   0.21309   0.00757 109.35269   6.69645    4657.4  0.656784  0.001277  0.000029  0.000247  0.167281  6.966045  0.862109     81.80  1.000244  1.000037     3.872    32.775     114.0      88.0     155.3     668.6     12.09      1.44      0.51      1.15     -0.12      4.06      2.46      0.74      1.88      0.70      1.21      0.94     -0.51      0.67      1.65     -7.75     -1.34      6.36      1.72      1.37
     -36.585911     -31.216339     103.0      1.26      3.31      81.6         3         3      3896      4188   3319.59    -4.789      10.9      23.8   317.983     0.804      83.4   0.20382       6.8         H               193.3  0.100948  0.053790  0.001853  5.278276  1.032473  5.112267  1.270782     44.16    6.1180   64.8934   0.28481   5.69132   0.22690   0.00886  92.82303   6.14822    4218.0  0.647409  0.001173  0.000022  0.000241  0.170436  6.974963  0.846640     82.67  1.000247  1.000036     3.894    36.500     110.8      86.8     127.6     645.0     12.24      1.39      1.30      1.29      0.25      3.95      2.41      0.82      1.69      1.04      1.07      0.66     -0.28      0.83      1.65     -8.01     -0.86      5.70      1.45      1.09
