corner points
-20.25774193    7.631189823
-20.29520988    7.450478077
-20.43905067    7.668794632
-20.47645569    7.488106251
========== RESULTS WAVE VERSION 16.10.2018 ====================
IMAGE SIZE  X: 5599     Y:4927    col:row     POLARIZATION:VV
COVERAGE    X: 20.36932663km       Y: 20.46642629km 
RESOLUTION dX: 3.638029404m       dY:4.153932676m  
resolution of original product 3.638029404m x 4.153932676m;   raster step x:5999.110487m  
===============================================================
FLAGS: H=HIGH PROBABILITY SEA STATE, I=LAND(ISLAND), O=OUTLIER NO SEA STATE, N=NO WIND AVAILABLE, SEA STATE NOT VISIBLE, M=MEAN PROBABILITY SEA STATE, L= LOW PROBABILITY SEA STATE
Filtering wave length
 integration  Lmin=1m
 integration  Lmax=2200m
  peak        Lmin=100m
               FFT=1024pixels, 3725.34211m 
   mean-Hs (SWH_c)=0.5925927734m
         mean-wind=3.628806114m/s
--------------0--------------1---------2---------3---------4---------5---------6---------7---------8---------9--------10--------11--------12--------13--------14--------15--------16--------17--------18--------19------------------20--------21--------22--------23--------24--------25--------26--------27--------28--------29--------30--------31--------32--------33--------34--------35--------36--------37--------38--------39--------40--------41--------42--------43--------44--------45--------46--------47--------48--------49--------50--------51--------52--------53--------54--------55--------56--------57--------58--------59--------60--------61--------62--------63--------64--------65--------66--------67--------68--------69--------70--------71--------72--------73
            LAT            LON  P-LENGHT     SWH_o     SWH_c     P-DIR      LINE     POINT     ROW-Y     COL-X  M-INTENC        dB      WIND INC-ANGLE  ENERGY-M  ENERGY-N  ENERGY-R ENERGY-NN  FG-DEPTH      FLAG         HEADING-DEG    E30-75   E75-390  E390-600 meanincut   meanout   cut/out  STD-NORM  SPEC-MAX   GL-MEAN    GL-VAR      CORR   ENTROPY   HOMOGEN    ENERGY  CONTRAST  DISSIMIL     STD-O    E 1-30 E600-2000   E2000 >      GODA  LONG-HIG     Tmean  CONVOLUT  MEAN-DIR  relation     Sy/Sx  SKEWNESS  KURTOSIS  cutoff-A >50/10000     INT*V   INT-LOG  S-1_g1f1  S-2_g1f2  S-3_g1f3  S-4_g2f1  S-5_g2f2  S-6_g2f3  S-7_g3f1  S-8_g3f2  S-9_g3f3 S-10_g1f4 S-11_g2f4 S-12_g3f4 S-13_g1f5 S-14_g2f5 S-15_g3f5 S-16_g4f1 S-17_g4f2 S-18_g4f3 S-19_g4f4 S-20_g4f5
--------------1--------------2---------3---------4---------5---------6---------7---------8---------9--------10--------11--------12--------13--------14--------15--------16--------17--------18--------19--------20------------------21--------22--------23--------24--------25--------26--------27--------28--------29--------30--------31--------32--------33--------34--------35--------36--------37--------38--------39--------40--------41--------42--------43--------44--------45--------46--------47--------48--------49--------50--------51--------52--------53--------54--------55--------56--------57--------58--------59--------60--------61--------62--------63--------64--------65--------66--------67--------68--------69--------70--------71--------72--------73--------74
       7.601401     -20.298563     340.9      0.83      1.88      15.9         1         1      1000      1000   1506.49    -8.220       4.1      23.7   404.751     0.650     474.7   0.13207     100.0         H               192.0  0.051930  0.049162  0.006698  2.969432  0.830853  3.573955  1.145205    206.14    2.5370   11.7091   0.23726   4.16881   0.38454   0.03680  17.86196   2.73384    1725.2  0.533032  0.009240  0.000351  0.000217  0.241723  7.496516  0.683349     14.05  0.999889  0.999991     2.758    15.918      73.8      71.7      22.5     180.8     15.52      6.48     -7.55     -8.43     -2.95      6.63      3.50     -0.00     -0.71     -5.74      6.54     -1.68      4.69     -5.99      1.24    -29.33     -8.30     14.61     15.77    -14.40
       7.612599     -20.352522     378.6      0.44      1.88      11.7         1         2      1000      2649   1157.42    -9.365       3.6      24.2   402.129     0.644     467.8   0.13015     100.0         H               192.0  0.052901  0.048039  0.005705  2.907368  0.860549  3.378503  1.139484    143.03    1.8519    6.8118   0.23460   3.65421   0.45397   0.06008  10.42747   2.06644    1318.9  0.527657  0.009710  0.000286  0.000184  0.234325  7.447695  0.676876     16.37  0.999936  0.999995     2.732    15.528      69.9      64.5      13.5     132.2     14.76      6.79     -7.43     -6.69     -3.04      4.62      2.46      0.33      1.34     -5.34      5.84     -1.17      3.73     -4.73      0.61    -25.56     -9.82      8.93     14.31    -11.02
       7.623588     -20.405508     322.3      1.02      1.88      10.0         1         3      1000      4298    937.79   -10.279       3.3      24.6   413.027     0.670     403.0   0.13953     100.0         H               192.0  0.053989  0.058877  0.008865  3.409682  0.887746  3.840830  1.160662    198.42    1.4283    4.6286   0.24215   3.24408   0.51646   0.09077   7.01559   1.64976    1088.4  0.540196  0.008176  0.000232  0.000205  0.246022  7.601537  0.706922     13.70  0.999971  0.999997     2.848    16.869      75.2      57.5       9.2     113.0     15.69      6.52     -3.71     -8.58     -2.96      1.50      3.48      0.95      2.05     -2.05      2.06      0.85      6.17     -7.66      1.99    -30.33    -10.81     -0.23      2.16    -19.26
       7.548429     -20.309544     316.4      0.54      1.88      14.8         2         1      2444      1000   1466.04    -8.339       4.0      23.7   398.239     0.635     472.8   0.12592     100.0         H               192.0  0.051346  0.044112  0.005223  2.856369  0.826182  3.457315  1.130782    136.36    2.4408   10.7028   0.22974   4.10842   0.39040   0.03834  16.48807   2.64104    1657.7  0.524741  0.009329  0.000411  0.000181  0.230250  7.421478  0.665839     16.12  0.999996  1.000000     2.687    15.266      72.4      71.2      20.8     171.3     14.66      6.42     -6.64     -6.48     -2.43      4.70      3.00      0.35      1.00     -4.60      5.24     -0.55      4.00     -5.91      1.59    -25.11     -8.44      8.82     11.76    -14.44
       7.559629     -20.363497     340.9      0.23      1.88      15.9         2         2      2444      2649   1105.00    -9.566       3.4      24.2   394.702     0.625     321.1   0.12224     100.0         H               192.0  0.051679  0.043888  0.004418  2.922758  0.837648  3.489244  1.121117    116.88    1.7483    6.0137   0.22375   3.56860   0.46274   0.06370   9.33622   1.96921    1238.8  0.518823  0.005840  0.000283  0.000162  0.219021  7.357986  0.654336     17.79  0.999894  0.999992     2.645    14.768      57.7      63.5      12.1     121.7     13.95      6.26     -6.84     -5.06     -2.13      3.90      2.78      0.78      0.94     -4.16      4.03      0.21      3.22     -4.90      0.92    -22.28     -8.68      8.85      8.53    -12.14
       7.570619     -20.416475     348.2      0.62      1.88      10.8         2         3      2444      4298    953.16   -10.208       3.3      24.6   401.469     0.642     311.1   0.12853     100.0         H               192.0  0.052017  0.050648  0.006607  3.093222  0.839756  3.683479  1.136886    175.07    1.4602    4.5998   0.23055   3.28548   0.50659   0.08477   7.07857   1.68260    1083.7  0.526413  0.006129  0.000162  0.000192  0.236090  7.492839  0.674327     12.82  0.999806  0.999985     2.728    15.429      65.3      58.7       9.3     100.2     14.96      6.03     -7.28     -7.21     -2.23      5.12      3.25      0.84      0.53     -3.69      4.45     -0.77      4.99     -6.46      1.24    -27.33     -8.99     10.86     10.26    -15.20
       7.495457     -20.320524     348.2      0.50      1.88      10.8         3         1      3888      1000   1470.92    -8.324       4.0      23.7   399.090     0.636     372.8   0.12742     100.0         H               192.0  0.052721  0.043837  0.006303  2.727311  0.841510  3.240971  1.132473    162.15    2.4694   10.9359   0.23118   4.12770   0.38792   0.03757  16.81537   2.66662    1665.6  0.525800  0.007958  0.000179  0.000191  0.231539  7.381871  0.667767     13.65  0.999924  0.999994     2.710    15.531      67.5      71.5      21.2     171.5     15.12      6.87     -7.80     -8.21     -3.50      5.98      4.12      1.41      0.12     -4.95      5.26     -0.39      4.36     -6.28      1.86    -30.12    -12.20     12.60     11.22    -15.73
       7.506659     -20.374472     322.3      0.50      1.88      10.0         3         2      3888      2649   1108.73    -9.552       3.4      24.2   400.433     0.637     387.8   0.12715     100.0         H               192.0  0.052859  0.049307  0.004147  2.983673  0.849825  3.510926  1.132007    168.61    1.7567    6.1837   0.23076   3.57232   0.46423   0.06441   9.51340   1.97589    1255.0  0.524667  0.006267  0.000389  0.000201  0.230229  7.425995  0.669008     13.52  0.999798  0.999983     2.690    15.125      63.2      63.4      12.4     123.0     14.40      6.97     -9.03     -5.65     -2.79      5.83      1.50      0.52      1.14     -5.18      5.10      0.10      4.17     -5.46     -0.01    -20.68     -9.71     12.61     10.65    -10.95
       7.517651     -20.427446     348.2      0.66      1.88      10.8         3         3      3888      4298   1032.42    -9.861       3.6      24.6   403.385     0.645     249.8   0.12916     100.0         H               192.0  0.052072  0.050965  0.007891  3.015270  0.848110  3.555284  1.139533    144.97    1.6058    5.3879   0.23063   3.43066   0.48516   0.07416   8.29048   1.83042    1176.4  0.529144  0.005429  0.000051  0.000182  0.238217  7.481545  0.678197     17.47  0.999997  0.999999     2.757    16.198      67.5      61.0      10.8     120.7     15.53      6.55     -3.61     -8.51     -3.34      1.27      3.88      1.39      1.99     -2.94      3.02      0.49      5.06     -5.88      0.64    -30.79    -11.83      0.47      5.55    -13.94
