corner points
-22.11560631    -1.232353568
-22.15351486    -1.413203835
-22.29569244    -1.193512082
-22.33365059    -1.374327302
========== RESULTS WAVE VERSION 16.10.2018 ====================
IMAGE SIZE  X: 5599     Y:4931    col:row     POLARIZATION:VV
COVERAGE    X: 20.43734403km       Y: 20.4991564km 
RESOLUTION dX: 3.650177536m       dY:4.15720065m  
resolution of original product 3.650177536m x 4.15720065m;   raster step x:5997.241692m  
===============================================================
FLAGS: H=HIGH PROBABILITY SEA STATE, I=LAND(ISLAND), O=OUTLIER NO SEA STATE, N=NO WIND AVAILABLE, SEA STATE NOT VISIBLE, M=MEAN PROBABILITY SEA STATE, L= LOW PROBABILITY SEA STATE
Filtering wave length
 integration  Lmin=1m
 integration  Lmax=2200m
  peak        Lmin=100m
               FFT=1024pixels, 3737.781797m 
   mean-Hs (SWH_c)=0.2m
         mean-wind=5.34537077m/s
--------------0--------------1---------2---------3---------4---------5---------6---------7---------8---------9--------10--------11--------12--------13--------14--------15--------16--------17--------18--------19------------------20--------21--------22--------23--------24--------25--------26--------27--------28--------29--------30--------31--------32--------33--------34--------35--------36--------37--------38--------39--------40--------41--------42--------43--------44--------45--------46--------47--------48--------49--------50--------51--------52--------53--------54--------55--------56--------57--------58--------59--------60--------61--------62--------63--------64--------65--------66--------67--------68--------69--------70--------71--------72--------73
            LAT            LON  P-LENGHT     SWH_o     SWH_c     P-DIR      LINE     POINT     ROW-Y     COL-X  M-INTENC        dB      WIND INC-ANGLE  ENERGY-M  ENERGY-N  ENERGY-R ENERGY-NN  FG-DEPTH      FLAG         HEADING-DEG    E30-75   E75-390  E390-600 meanincut   meanout   cut/out  STD-NORM  SPEC-MAX   GL-MEAN    GL-VAR      CORR   ENTROPY   HOMOGEN    ENERGY  CONTRAST  DISSIMIL     STD-O    E 1-30 E600-2000   E2000 >      GODA  LONG-HIG     Tmean  CONVOLUT  MEAN-DIR  relation     Sy/Sx  SKEWNESS  KURTOSIS  cutoff-A >50/10000     INT*V   INT-LOG  S-1_g1f1  S-2_g1f2  S-3_g1f3  S-4_g2f1  S-5_g2f2  S-6_g2f3  S-7_g3f1  S-8_g3f2  S-9_g3f3 S-10_g1f4 S-11_g2f4 S-12_g3f4 S-13_g1f5 S-14_g2f5 S-15_g3f5 S-16_g4f1 S-17_g4f2 S-18_g4f3 S-19_g4f4 S-20_g4f5
--------------1--------------2---------3---------4---------5---------6---------7---------8---------9--------10--------11--------12--------13--------14--------15--------16--------17--------18--------19--------20------------------21--------22--------23--------24--------25--------26--------27--------28--------29--------30--------31--------32--------33--------34--------35--------36--------37--------38--------39--------40--------41--------42--------43--------44--------45--------46--------47--------48--------49--------50--------51--------52--------53--------54--------55--------56--------57--------58--------59--------60--------61--------62--------63--------64--------65--------66--------67--------68--------69--------70--------71--------72--------73--------74
      -1.261919     -22.156298     384.9      0.32      1.61       5.9         1         1      1000      1000   1839.84    -7.352       5.0      23.6   402.748     0.673     162.6   0.14375     100.0         H               192.0  0.077795  0.034774  0.001152  3.603090  0.863204  4.174088  1.161167     15.76    3.2049   18.1301   0.24402   4.56517   0.33527   0.02499  27.41219   3.38317    2136.4  0.557309  0.002667  0.000154  0.000207  0.157307  6.846790  0.706043     83.73  1.000115  1.000010     3.016    21.253      71.1      76.6      34.0     280.6     12.08      3.15     -3.67      0.39      0.28      3.21      1.05     -1.09      1.02     -0.40      1.00      0.56      0.23     -1.71      1.41     -9.20     -0.82      7.70      1.83     -4.65
      -1.250398     -22.209711     379.0      0.35      1.61      11.7         1         2      1000      2643   1833.23    -7.368       5.6      24.1   400.377     0.668      92.0   0.14331     100.0         H               192.0  0.076234  0.033725  0.001078  3.493500  0.867223  4.028375  1.157481     15.48    3.1883   17.8233   0.24217   4.55814   0.33476   0.02488  27.01447   3.36862    2121.9  0.555670  0.001292  0.000063  0.000202  0.158162  6.849323  0.698915     83.06  1.000118  1.000011     2.986    20.056      69.9      76.7      33.5     268.2     11.90      3.54     -3.42      0.88     -0.11      3.85      1.37     -0.53      0.90     -0.22      1.28      0.58     -0.31     -1.59      1.21     -8.04     -1.87      9.54      2.35     -3.65
      -1.239085     -22.262156     303.1      0.33      1.61       4.7         1         3      1000      4286   1574.16    -8.029       5.3      24.6   400.699     0.665      58.7   0.14031     100.0         H               192.0  0.074724  0.034263  0.000911  3.561801  0.854542  4.168080  1.155960     14.45    2.6791   13.1360   0.23720   4.26022   0.37116   0.03330  20.04025   2.88539    1819.5  0.555163  0.000733  0.000020  0.000204  0.159376  6.875018  0.696033     81.75  1.000121  1.000011     2.936    18.419      69.9      73.0      25.0     199.6     11.87      3.24     -3.39      1.35      0.30      3.74      0.78     -1.07      1.17     -0.28      1.41      0.82     -0.16     -1.43      0.99     -6.89     -0.47      8.11      1.58     -2.82
      -1.314852     -22.167395     250.6      0.29      1.61      28.0         2         1      2443      1000   1669.09    -7.775       4.5      23.6   417.037     0.709     661.7   0.15835      72.8         M               192.0  0.081622  0.037397  0.001578  3.835751  0.929425  4.127017  1.199539     15.88    2.9008   16.1118   0.26070   4.37978   0.36333   0.03160  23.82300   3.09207    2002.0  0.577290  0.010419  0.000904  0.000195  0.160526  6.863300  0.746086     82.67  1.000131  1.000012     3.112    20.386      83.0      73.7      29.6     250.0     12.37      3.38     -2.83     -0.44     -0.24      1.73      1.15     -1.44      2.05     -0.62      0.78      0.93      0.41     -1.86      1.38    -11.41     -0.98      2.97      1.14     -5.49
      -1.303328     -22.220812     300.1      0.34      1.61     170.8         2         2      2443      2643   1802.37    -7.442       5.4      24.1   399.667     0.664      69.3   0.14017     100.0         H               192.0  0.075338  0.032838  0.000827  3.342944  0.856515  3.902962  1.154847     13.67    3.1377   17.2563   0.23856   4.53165   0.33752   0.02542  26.27949   3.32195    2081.4  0.554590  0.001005  0.000035  0.000190  0.160171  6.858443  0.695176     82.21  1.000105  1.000010     2.971    19.391      68.7      76.5      32.5     244.9     11.97      3.20     -3.53      0.99      0.38      2.73      0.34     -1.52      1.44     -0.14      0.57      0.69     -0.51     -0.91      0.41     -6.83     -0.05      6.25      0.31     -1.28
      -1.292011     -22.273262     265.4      0.36      1.61       4.1         2         3      2443      4286   1696.42    -7.705       5.8      24.6   400.578     0.669     143.8   0.14245     100.0         H               192.0  0.074824  0.034797  0.001055  3.566499  0.844515  4.223133  1.158689     11.98    2.9049   15.2118   0.24150   4.39630   0.35510   0.02937  23.07622   3.09745    1965.6  0.556392  0.002370  0.000120  0.000202  0.161597  6.879124  0.700910     83.31  1.000130  1.000013     2.928    18.380      75.2      74.7      28.6     226.5     12.16      1.50     -2.45      0.76      1.73      2.77      0.84     -1.71      1.78     -0.35      1.15      1.11     -1.31      0.02      0.33     -7.92      4.09      5.31      1.08      1.33
      -1.367784     -22.178493     300.1      0.33      1.61       9.2         3         1      3886      1000   1936.72    -7.129       5.2      23.6   405.854     0.685      75.6   0.14984     100.0         H               192.0  0.083380  0.032986  0.000803  3.531453  0.866150  4.077182  1.174676     13.15    3.4004   20.4662   0.24813   4.66584   0.32384   0.02274  30.77637   3.57475    2274.9  0.566943  0.001242  0.000035  0.000230  0.151534  6.783350  0.718054     85.54  1.000146  1.000015     3.085    20.976      78.1      77.7      38.1     285.4     11.74      2.78     -2.79      1.49      0.14      2.72      0.76     -0.98      1.42     -0.16      0.99      0.72     -0.45     -1.14      0.39     -6.37     -0.71      6.01      1.49     -1.30
      -1.356257     -22.231916     348.5      0.33      1.61      10.7         3         2      3886      2643   1731.24    -7.616       5.2      24.1   405.583     0.684      64.5   0.14911     100.0         H               192.0  0.082763  0.033003  0.000881  3.580663  0.877322  4.081354  1.171750     12.71    2.9882   16.3110   0.24717   4.44176   0.35025   0.02827  24.55892   3.17957    2028.4  0.567219  0.000888  0.000027  0.000226  0.152148  6.793124  0.717394     85.46  1.000138  1.000015     3.072    20.479      76.6      75.2      30.5     245.2     11.84      2.68     -3.41      1.19      0.01      2.89      0.56     -1.16      0.98     -0.09      0.91      0.68     -0.22     -1.74      0.76     -7.00     -0.52      7.05      0.74     -3.04
      -1.344938     -22.284369     353.2      0.33      1.61     174.6         3         3      3886      4286   1573.83    -8.030       5.3      24.6   408.912     0.693      68.9   0.15313     100.0         H               192.0  0.084078  0.036162  0.001014  3.809752  0.864545  4.406656  1.181225     16.80    2.6761   13.6115   0.25129   4.25127   0.37424   0.03426  20.38204   2.88208    1858.9  0.571191  0.000890  0.000038  0.000231  0.152176  6.815307  0.726919     84.70  1.000133  1.000014     3.168    22.902      78.1      72.6      25.5     246.0     12.05      2.81     -4.06      0.32     -0.61      3.56      0.91     -0.69      1.06     -0.56      1.43      0.52     -0.03     -1.61      1.51     -8.25     -1.76      8.48      2.18     -3.85
