corner points
-21.36927986    2.313334703
-21.40688133    2.132457018
-21.54922867    2.351620913
-21.58683586    2.170773506
========== RESULTS WAVE VERSION 16.10.2018 ====================
IMAGE SIZE  X: 5599     Y:4931    col:row     POLARIZATION:VV
COVERAGE    X: 20.39720745km       Y: 20.49450395km 
RESOLUTION dX: 3.643009011m       dY:4.156257138m  
resolution of original product 3.643009011m x 4.156257138m;   raster step x:5996.392832m  
===============================================================
FLAGS: H=HIGH PROBABILITY SEA STATE, I=LAND(ISLAND), O=OUTLIER NO SEA STATE, N=NO WIND AVAILABLE, SEA STATE NOT VISIBLE, M=MEAN PROBABILITY SEA STATE, L= LOW PROBABILITY SEA STATE
Filtering wave length
 integration  Lmin=1m
 integration  Lmax=2200m
  peak        Lmin=100m
               FFT=1024pixels, 3730.441227m 
   mean-Hs (SWH_c)=0.2m
         mean-wind=5.244238377m/s
--------------0--------------1---------2---------3---------4---------5---------6---------7---------8---------9--------10--------11--------12--------13--------14--------15--------16--------17--------18--------19------------------20--------21--------22--------23--------24--------25--------26--------27--------28--------29--------30--------31--------32--------33--------34--------35--------36--------37--------38--------39--------40--------41--------42--------43--------44--------45--------46--------47--------48--------49--------50--------51--------52--------53--------54--------55--------56--------57--------58--------59--------60--------61--------62--------63--------64--------65--------66--------67--------68--------69--------70--------71--------72--------73
            LAT            LON  P-LENGHT     SWH_o     SWH_c     P-DIR      LINE     POINT     ROW-Y     COL-X  M-INTENC        dB      WIND INC-ANGLE  ENERGY-M  ENERGY-N  ENERGY-R ENERGY-NN  FG-DEPTH      FLAG         HEADING-DEG    E30-75   E75-390  E390-600 meanincut   meanout   cut/out  STD-NORM  SPEC-MAX   GL-MEAN    GL-VAR      CORR   ENTROPY   HOMOGEN    ENERGY  CONTRAST  DISSIMIL     STD-O    E 1-30 E600-2000   E2000 >      GODA  LONG-HIG     Tmean  CONVOLUT  MEAN-DIR  relation     Sy/Sx  SKEWNESS  KURTOSIS  cutoff-A >50/10000     INT*V   INT-LOG  S-1_g1f1  S-2_g1f2  S-3_g1f3  S-4_g2f1  S-5_g2f2  S-6_g2f3  S-7_g3f1  S-8_g3f2  S-9_g3f3 S-10_g1f4 S-11_g2f4 S-12_g3f4 S-13_g1f5 S-14_g2f5 S-15_g3f5 S-16_g4f1 S-17_g4f2 S-18_g4f3 S-19_g4f4 S-20_g4f5
--------------1--------------2---------3---------4---------5---------6---------7---------8---------9--------10--------11--------12--------13--------14--------15--------16--------17--------18--------19--------20------------------21--------22--------23--------24--------25--------26--------27--------28--------29--------30--------31--------32--------33--------34--------35--------36--------37--------38--------39--------40--------41--------42--------43--------44--------45--------46--------47--------48--------49--------50--------51--------52--------53--------54--------55--------56--------57--------58--------59--------60--------61--------62--------63--------64--------65--------66--------67--------68--------69--------70--------71--------72--------73--------74
       2.283664     -21.409878     384.8      0.32      1.48       5.9         1         1      1000      1000   1872.23    -7.276       5.1      23.7   394.914     0.634      83.3   0.12757     100.0         H               192.0  0.063327  0.027051  0.001971  2.387491  0.835671  2.856975  1.129879     44.01    3.2697   17.7409   0.22253   4.61140   0.32465   0.02281  27.58625   3.45250    2115.4  0.540721  0.001120  0.000058  0.000141  0.184665  6.915202  0.660267     69.86  0.999974  0.999999     2.787    16.710      58.5      77.8      34.0     230.1     12.60      4.59     -5.33     -1.18      0.33      5.19      2.43     -0.51     -1.74     -1.13      2.33     -0.40     -0.05     -4.34      2.67    -14.84     -2.90     16.01      6.07     -9.93
       2.295042     -21.463341     384.8      0.34      1.48       5.9         1         2      1000      2646   1798.98    -7.450       5.5      24.2   392.503     0.633      77.4   0.12804     100.0         H               192.0  0.062728  0.027758  0.002164  2.325354  0.835778  2.782263  1.127560     59.76    3.1166   16.2792   0.22275   4.52793   0.33510   0.02479  25.30618   3.30233    2028.3  0.539533  0.001004  0.000033  0.000142  0.188940  6.951669  0.659205     50.59  0.999968  0.999998     2.767    16.504      58.5      76.9      31.2     217.8     13.00      4.83     -6.48     -2.32     -0.58      6.56      2.68      0.17     -1.69     -2.19      3.60     -0.35      0.85     -4.48      2.73    -16.42     -4.97     18.31      8.67    -10.63
       2.306212     -21.515839     384.8      0.31      1.48       5.9         1         3      1000      4292   1450.15    -8.386       4.9      24.6   392.785     0.627      62.4   0.12397     100.0         H               192.0  0.062125  0.028770  0.001199  2.483845  0.838186  2.963358  1.123639     32.98    2.4276   10.4534   0.21807   4.10452   0.38640   0.03729  16.34786   2.64363    1629.4  0.534498  0.000787  0.000029  0.000141  0.188940  6.972373  0.652893     62.98  0.999996  1.000000     2.734    15.993      57.7      71.6      20.6     173.5     12.25      4.64     -5.10      0.30      1.06      3.84      0.56     -0.88      0.71     -0.79      1.81      1.01     -0.62     -3.72      1.73     -9.12     -1.32      9.81      3.39     -6.47
       2.230723     -21.420883     353.1      0.34      1.48       5.4         2         1      2443      1000   1996.32    -6.998       5.5      23.7   391.611     0.625      57.4   0.12392     100.0         H               192.0  0.061755  0.027514  0.001316  2.368351  0.818251  2.894406  1.120765     37.00    3.5164   19.8972   0.21790   4.74075   0.30919   0.01993  31.12336   3.68506    2237.3  0.534299  0.000724  0.000017  0.000141  0.187324  6.950634  0.650591     66.48  0.999984  0.999999     2.717    15.874      56.9      79.3      38.2     240.5     12.49      4.79     -5.35     -0.43      0.57      4.45      1.20     -0.61      0.07     -0.82      2.06      0.31     -0.13     -3.80      1.43    -11.05     -2.26     11.52      4.59     -7.15
       2.242103     -21.474348     378.8      0.33      1.48      11.7         2         2      2443      2646   1740.46    -7.593       5.3      24.2   397.992     0.642      90.6   0.13079     100.0         H               192.0  0.063782  0.027718  0.001788  2.380680  0.856760  2.778700  1.137097     43.51    3.0044   15.4791   0.22417   4.46310   0.34273   0.02655  24.01830   3.20083    1979.0  0.548184  0.001283  0.000065  0.000138  0.185872  6.933504  0.669250     65.79  0.999994  1.000000     2.877    18.282      59.4      75.9      29.7     230.8     12.72      4.31     -5.71     -1.34     -0.16      5.52      1.94     -0.19     -0.95     -1.52      2.83     -0.37      0.53     -4.12      2.27    -14.02     -3.96     15.38      7.21     -9.06
       2.253276     -21.526846     384.8      0.30      1.48       5.9         2         3      2443      4292   1413.46    -8.497       4.8      24.6   398.350     0.640     209.0   0.12933     100.0         H               192.0  0.062608  0.028819  0.001670  2.433567  0.832565  2.922975  1.135924     39.57    2.3582   10.1765   0.22404   4.05219   0.39542   0.03996  15.79312   2.57784    1605.6  0.544526  0.002874  0.000271  0.000140  0.188124  6.963334  0.667364     62.42  1.000029  1.000002     2.813    17.182      60.3      70.6      19.8     184.0     12.54      4.52     -5.54     -0.85      0.43      4.17      1.38     -0.96      0.03     -1.84      1.88      0.70      0.41     -4.35      2.14    -12.42     -2.22     11.34      4.69     -9.33
       2.177782     -21.431890     384.8      0.36      1.48       5.9         3         1      3886      1000   2075.92    -6.828       5.8      23.7   392.890     0.631      89.6   0.12702     100.0         H               192.0  0.062507  0.026996  0.001629  2.360433  0.847739  2.784384  1.126019     33.50    3.6589   21.5501   0.22195   4.80915   0.30237   0.01872  33.53429   3.81918    2337.5  0.539079  0.001217  0.000060  0.000141  0.185767  6.942963  0.656967     68.70  0.999995  1.000000     2.770    16.637      57.7      80.0      41.2     252.6     12.34      4.61     -5.19     -0.21      0.79      4.68      1.55     -0.29     -0.99     -0.69      1.67     -0.17     -0.29     -4.21      2.26    -11.95     -3.03     13.95      4.91     -8.89
       2.189165     -21.485355     384.8      0.33      1.48       5.9         3         2      3886      2646   1705.28    -7.682       5.2      24.2   398.133     0.642     108.7   0.12977     100.0         H               192.0  0.062461  0.028473  0.002240  2.379912  0.824885  2.885146  1.136792     62.81    2.9185   14.7202   0.22280   4.41321   0.34891   0.02792  22.88125   3.12237    1938.6  0.547769  0.001412  0.000079  0.000142  0.191255  6.974379  0.668899     48.26  0.999978  0.999998     2.821    16.996      62.2      75.3      28.2     203.5     13.06      5.26     -6.50     -2.39     -0.87      6.60      2.59     -0.18     -1.80     -2.36      3.52     -0.33      1.00     -5.03      2.91    -16.67     -5.67     18.30      8.68    -11.77
       2.200341     -21.537853     384.8      0.33      1.48       5.9         3         3      3886      4292   1536.34    -8.135       5.2      24.6   392.442     0.628      84.5   0.12597     100.0         H               192.0  0.060927  0.027040  0.001389  2.358775  0.819117  2.879655  1.124210     29.62    2.5958   11.7641   0.21937   4.21645   0.37236   0.03348  18.36699   2.80488    1727.1  0.538189  0.001176  0.000061  0.000138  0.187218  6.950164  0.653796     63.83  1.000032  1.000003     2.731    15.855      56.1      73.0      22.9     180.7     12.57      5.04     -4.97     -0.51      0.04      3.81      0.63     -1.24     -0.08     -1.53      2.14      0.37     -0.53     -3.15      1.97    -11.27     -3.21     10.48      4.89     -6.43
