corner points
-23.56193161    0.00320706144
-23.59882545    -0.1720368266
-23.74005699    0.04151221365
-23.77695656    -0.133689031
========== RESULTS WAVE VERSION 16.10.2018 ====================
IMAGE SIZE  X: 4466     Y:4787    col:row     POLARIZATION:VV
COVERAGE    X: 20.2149054km       Y: 19.86660323km 
RESOLUTION dX: 4.526400671m       dY:4.15011557m  
resolution of original product 4.526400671m x 4.15011557m;   raster step x:5997.48089m  
===============================================================
FLAGS: H=HIGH PROBABILITY SEA STATE, I=LAND(ISLAND), O=OUTLIER NO SEA STATE, N=NO WIND AVAILABLE, SEA STATE NOT VISIBLE, M=MEAN PROBABILITY SEA STATE, L= LOW PROBABILITY SEA STATE
Filtering wave length
 integration  Lmin=1m
 integration  Lmax=2200m
  peak        Lmin=100m
               FFT=1024pixels, 4635.034287m 
   mean-Hs (SWH_c)=0.2m
         mean-wind=7.647736549m/s
--------------0--------------1---------2---------3---------4---------5---------6---------7---------8---------9--------10--------11--------12--------13--------14--------15--------16--------17--------18--------19------------------20--------21--------22--------23--------24--------25--------26--------27--------28--------29--------30--------31--------32--------33--------34--------35--------36--------37--------38--------39--------40--------41--------42--------43--------44--------45--------46--------47--------48--------49--------50--------51--------52--------53--------54--------55--------56--------57--------58--------59--------60--------61--------62--------63--------64--------65--------66--------67--------68--------69--------70--------71--------72--------73
            LAT            LON  P-LENGHT     SWH_o     SWH_c     P-DIR      LINE     POINT     ROW-Y     COL-X  M-INTENC        dB      WIND INC-ANGLE  ENERGY-M  ENERGY-N  ENERGY-R ENERGY-NN  FG-DEPTH      FLAG         HEADING-DEG    E30-75   E75-390  E390-600 meanincut   meanout   cut/out  STD-NORM  SPEC-MAX   GL-MEAN    GL-VAR      CORR   ENTROPY   HOMOGEN    ENERGY  CONTRAST  DISSIMIL     STD-O    E 1-30 E600-2000   E2000 >      GODA  LONG-HIG     Tmean  CONVOLUT  MEAN-DIR  relation     Sy/Sx  SKEWNESS  KURTOSIS  cutoff-A >50/10000     INT*V   INT-LOG  S-1_g1f1  S-2_g1f2  S-3_g1f3  S-4_g2f1  S-5_g2f2  S-6_g2f3  S-7_g3f1  S-8_g3f2  S-9_g3f3 S-10_g1f4 S-11_g2f4 S-12_g3f4 S-13_g1f5 S-14_g2f5 S-15_g3f5 S-16_g4f1 S-17_g4f2 S-18_g4f3 S-19_g4f4 S-20_g4f5
--------------1--------------2---------3---------4---------5---------6---------7---------8---------9--------10--------11--------12--------13--------14--------15--------16--------17--------18--------19--------20------------------21--------22--------23--------24--------25--------26--------27--------28--------29--------30--------31--------32--------33--------34--------35--------36--------37--------38--------39--------40--------41--------42--------43--------44--------45--------46--------47--------48--------49--------50--------51--------52--------53--------54--------55--------56--------57--------58--------59--------60--------61--------62--------63--------64--------65--------66--------67--------68--------69--------70--------71--------72--------73--------74
      -0.024731     -23.609982     385.0      0.45      1.82       4.8         1         1      1000      1000    242.13   -16.160       7.5      36.9   216.913     0.536      46.6   0.05970     100.0         H               192.0  0.040520  0.013809  0.000797  1.253519  0.639204  1.961062  1.039099     18.43    4.3595   25.2314   0.08253   5.15177   0.24731   0.01155  46.29816   4.70299     251.6  0.480887  0.000578  0.000074  0.000100  0.169963  6.840273  0.539467     73.87  0.999961  0.999998     2.209    10.696      79.7      84.4      51.1     229.9     11.77      2.31     -4.65     -0.25      0.69      4.48      3.05     -0.12     -1.25      0.14      1.09      0.17      1.69     -3.39      2.21    -12.27     -0.61     13.25      2.34     -9.01
      -0.013320     -23.663033     385.0      0.47      1.82       4.8         1         2      1000      2325    238.57   -16.224       7.7      37.2   216.544     0.535      39.7   0.05973     100.0         H               192.0  0.039921  0.013968  0.000945  1.252352  0.626668  1.998431  1.037779     22.97    4.2917   24.4243   0.08176   5.12378   0.24964   0.01182  44.85476   4.62944     247.6  0.480115  0.000546  0.000046  0.000102  0.171478  6.849066  0.538054     72.15  0.999942  0.999996     2.203    10.614      81.3      84.2      49.6     219.9     12.05      2.41     -5.46     -1.12      0.24      5.92      3.65     -0.08     -1.97     -0.22      1.77      0.10      2.25     -3.79      2.87    -14.79     -1.29     17.54      3.33    -11.00
      -0.002007     -23.715630     381.1      0.47      1.82       9.5         1         3      1000      3650    235.84   -16.274       7.9      37.6   216.397     0.535      34.1   0.05915     100.0         H               192.0  0.040313  0.014206  0.000729  1.294460  0.641330  2.018399  1.038079     13.05    4.2373   23.8915   0.08193   5.10086   0.25237   0.01211  43.86818   4.57804     244.8  0.479588  0.000445  0.000033  0.000100  0.170734  6.848272  0.538156     75.87  0.999956  0.999998     2.193    10.456      78.1      84.1      48.5     214.2     11.71      2.45     -4.14      0.21      0.53      4.41      2.68     -0.59     -0.64      0.17      0.79      0.83      1.14     -2.18      1.65    -10.83     -0.23     12.01      0.74     -5.93
      -0.077638     -23.621120     385.0      0.45      1.82     175.2         2         1      2445      1000    235.80   -16.275       7.4      36.9   217.935     0.539      40.7   0.06034     100.0         H               192.0  0.040488  0.014664  0.000915  1.309228  0.641214  2.041798  1.042045     21.80    4.2329   24.0475   0.08357   5.09858   0.25250   0.01219  44.07534   4.58099     245.7  0.482903  0.000545  0.000043  0.000101  0.172525  6.860247  0.542463     77.17  0.999936  0.999997     2.227    10.833      79.7      83.9      48.7     230.0     12.09      1.88     -5.57     -0.99      0.75      5.74      3.18     -0.47     -1.82      0.34      0.80      0.73      2.42     -4.00      2.60    -14.09      0.58     17.01      0.47    -11.21
      -0.066224     -23.674171     385.0      0.45      1.82       4.8         2         2      2445      2325    225.56   -16.467       7.4      37.2   216.803     0.537      39.1   0.05980     100.0         H               192.0  0.040434  0.013899  0.000779  1.253489  0.631004  1.986500  1.039551     16.90    4.0324   21.8919   0.08242   5.01213   0.26083   0.01322  40.17505   4.37407     234.5  0.481440  0.000550  0.000045  0.000101  0.170372  6.836011  0.540083     74.56  0.999939  0.999996     2.219    10.744      79.7      83.2      44.5     210.7     11.88      2.25     -5.04     -0.53      0.36      4.87      2.87     -0.41     -1.48      0.07      0.89      0.41      1.57     -3.37      2.10    -12.64     -0.40     14.51      1.47     -8.92
      -0.054907     -23.726768     385.0      0.48      1.82       4.8         2         3      2445      3650    239.67   -16.204       8.0      37.6   218.050     0.542      76.0   0.06222     100.0         H               192.0  0.041667  0.014329  0.000745  1.302600  0.655839  1.986157  1.045027     14.56    4.3122   24.9764   0.08761   5.13123   0.25013   0.01182  45.57614   4.64900     250.5  0.484437  0.000972  0.000169  0.000105  0.170005  6.835989  0.545333     77.90  0.999976  0.999998     2.280    11.570      83.0      84.3      50.5     247.4     12.13      1.19     -4.03     -0.63      1.38      3.54      2.24     -1.24     -0.40      0.11      0.99      0.74      0.05     -1.63      1.39    -11.97      3.21      9.99      0.96     -3.94
      -0.130545     -23.632261     353.1      0.46      1.82       4.4         3         1      3890      1000    242.76   -16.148       7.5      36.9   217.627     0.539      54.6   0.06094     100.0         H               192.0  0.040724  0.014737  0.000817  1.322632  0.631915  2.093053  1.041842     18.68    4.3717   25.4734   0.08406   5.15645   0.24704   0.01151  46.66419   4.71364     252.9  0.482135  0.000776  0.000092  0.000102  0.173721  6.870614  0.542091     72.27  0.999959  0.999997     2.249    11.224      79.7      84.5      51.6     247.7     12.03      2.31     -4.80     -0.45      0.63      4.62      2.48     -0.82     -0.98     -0.20      1.10      0.43      1.50     -2.99      1.98    -12.30      0.34     13.34      1.79     -7.97
      -0.119127     -23.685314     385.0      0.46      1.82     175.2         3         2      3890      2325    236.04   -16.270       7.7      37.2   217.074     0.539      36.8   0.06061     100.0         H               192.0  0.041644  0.013466  0.000665  1.250488  0.636196  1.965569  1.041671     11.28    4.2409   24.0744   0.08404   5.10200   0.25246   0.01213  44.10236   4.58210     245.9  0.482904  0.000510  0.000040  0.000107  0.165499  6.794451  0.542035     79.36  1.000001  1.000000     2.221    10.751      83.0      84.0      48.7     220.0     11.70      1.29     -3.82      0.16      1.20      3.46      2.40     -1.07     -0.70      0.76     -0.06      0.53      0.59     -1.82      1.67    -10.63      2.36     10.25     -1.29     -4.87
      -0.107806     -23.737909     385.0      0.46      1.82       4.8         3         3      3890      3650    227.67   -16.427       7.7      37.6   217.886     0.538      31.4   0.05950     100.0         H               192.0  0.040882  0.013361  0.000703  1.254801  0.633621  1.980367  1.040727     16.92    4.0742   22.3824   0.08030   5.03043   0.25925   0.01301  41.17057   4.42522     236.9  0.482828  0.000404  0.000028  0.000107  0.165226  6.805987  0.540646     77.01  0.999963  0.999998     2.228    10.942      83.0      83.4      45.4     222.5     11.71      1.60     -4.76     -0.22      0.46      4.93      2.97     -0.25     -1.57      0.19      1.09      0.14      1.46     -3.16      2.39    -11.74     -0.15     14.41      1.97     -8.70
