corner points
-26.72450256    -14.132864
-26.76591301    -14.30745411
-26.90822792    -14.09068012
-26.94979477    -14.26521206
========== RESULTS WAVE VERSION 16.10.2018 ====================
IMAGE SIZE  X: 4466     Y:4785    col:row     POLARIZATION:VV
COVERAGE    X: 20.31646831km       Y: 19.87434212km 
RESOLUTION dX: 4.549142032m       dY:4.153467527m  
resolution of original product 4.549142032m x 4.153467527m;   raster step x:5995.769198m  
===============================================================
FLAGS: H=HIGH PROBABILITY SEA STATE, I=LAND(ISLAND), O=OUTLIER NO SEA STATE, N=NO WIND AVAILABLE, SEA STATE NOT VISIBLE, M=MEAN PROBABILITY SEA STATE, L= LOW PROBABILITY SEA STATE
Filtering wave length
 integration  Lmin=1m
 integration  Lmax=2200m
  peak        Lmin=100m
               FFT=1024pixels, 4658.32144m 
   mean-Hs (SWH_c)=0.2m
         mean-wind=8.177983284m/s
--------------0--------------1---------2---------3---------4---------5---------6---------7---------8---------9--------10--------11--------12--------13--------14--------15--------16--------17--------18--------19------------------20--------21--------22--------23--------24--------25--------26--------27--------28--------29--------30--------31--------32--------33--------34--------35--------36--------37--------38--------39--------40--------41--------42--------43--------44--------45--------46--------47--------48--------49--------50--------51--------52--------53--------54--------55--------56--------57--------58--------59--------60--------61--------62--------63--------64--------65--------66--------67--------68--------69--------70--------71--------72--------73
            LAT            LON  P-LENGHT     SWH_o     SWH_c     P-DIR      LINE     POINT     ROW-Y     COL-X  M-INTENC        dB      WIND INC-ANGLE  ENERGY-M  ENERGY-N  ENERGY-R ENERGY-NN  FG-DEPTH      FLAG         HEADING-DEG    E30-75   E75-390  E390-600 meanincut   meanout   cut/out  STD-NORM  SPEC-MAX   GL-MEAN    GL-VAR      CORR   ENTROPY   HOMOGEN    ENERGY  CONTRAST  DISSIMIL     STD-O    E 1-30 E600-2000   E2000 >      GODA  LONG-HIG     Tmean  CONVOLUT  MEAN-DIR  relation     Sy/Sx  SKEWNESS  KURTOSIS  cutoff-A >50/10000     INT*V   INT-LOG  S-1_g1f1  S-2_g1f2  S-3_g1f3  S-4_g2f1  S-5_g2f2  S-6_g2f3  S-7_g3f1  S-8_g3f2  S-9_g3f3 S-10_g1f4 S-11_g2f4 S-12_g3f4 S-13_g1f5 S-14_g2f5 S-15_g3f5 S-16_g4f1 S-17_g4f2 S-18_g4f3 S-19_g4f4 S-20_g4f5
--------------1--------------2---------3---------4---------5---------6---------7---------8---------9--------10--------11--------12--------13--------14--------15--------16--------17--------18--------19--------20------------------21--------22--------23--------24--------25--------26--------27--------28--------29--------30--------31--------32--------33--------34--------35--------36--------37--------38--------39--------40--------41--------42--------43--------44--------45--------46--------47--------48--------49--------50--------51--------52--------53--------54--------55--------56--------57--------58--------59--------60--------61--------62--------63--------64--------65--------66--------67--------68--------69--------70--------71--------72--------73--------74
     -14.159813     -26.774786     265.4      0.49      1.43       3.3         1         1      1000      1000    274.78   -15.610       8.2      36.6   226.802     0.541      62.3   0.06372     100.0         H               192.1  0.044141  0.013349  0.000414  1.251930  0.651227  1.922416  1.043803      6.52    5.0113   32.7644   0.09110   5.40276   0.22540   0.00904  59.55930   5.32776     286.8  0.482753  0.000841  0.000125  0.000112  0.157600  6.744522  0.544961     87.96  1.000015  1.000000     2.243    10.997      79.7      86.7      66.2     257.4     11.13      1.18     -4.01      1.08     -1.15      1.51      1.56     -0.08      0.91     -1.01      1.06     -0.42      0.33     -0.70     -0.15     -7.13     -2.30      4.27      2.64     -0.73
     -14.147317     -26.829231     249.8      0.51      1.43       3.1         1         2      1000      2318    276.31   -15.586       8.5      37.0   226.560     0.541      62.6   0.06391      71.4         H               192.1  0.044109  0.013127  0.000374  1.277214  0.655277  1.949122  1.043916      6.28    5.0424   33.1666   0.09207   5.41385   0.22454   0.00898  60.22521   5.35797     288.4  0.482520  0.000963  0.000131  0.000110  0.154653  6.733578  0.544480     88.53  1.000013  1.000001     2.239    10.966      78.1      86.6      66.9     266.3     10.83      1.73     -3.05      1.89     -0.19      0.92      1.56     -0.48      0.57     -0.04      0.79      0.17      0.26     -1.02      0.35     -5.88     -0.93      3.24      1.44     -1.71
     -14.134916     -26.883200     235.1      0.50      1.43     174.2         1         3      1000      3636    259.40   -15.860       8.4      37.4   226.457     0.540      58.9   0.06288      53.3         H               192.1  0.043604  0.012955  0.000375  1.236280  0.648405  1.906648  1.043092      6.06    4.7064   29.1542   0.08961   5.28898   0.23533   0.01010  53.08344   5.02791     270.5  0.482555  0.000866  0.000107  0.000112  0.156866  6.735842  0.543734     88.15  1.000001  1.000000     2.248    11.147      78.1      85.8      58.9     255.2     11.05      1.15     -3.34      1.61     -0.31      1.39      1.15     -0.55      0.46     -0.36      0.71     -0.09      0.74     -1.04      0.42     -5.97     -0.66      4.07      1.58     -2.00
     -14.212507     -26.787292     265.4      0.49      1.43       3.3         2         1      2444      1000    273.61   -15.629       8.1      36.6   227.024     0.541      52.8   0.06311     100.0         H               192.1  0.043921  0.013017  0.000360  1.236496  0.650409  1.901104  1.043135      5.61    4.9881   32.4525   0.08961   5.39450   0.22612   0.00911  59.08906   5.30759     285.4  0.482801  0.000768  0.000099  0.000112  0.157032  6.740377  0.544099     87.14  1.000025  1.000001     2.230    10.853      78.1      86.6      65.6     262.8     11.02      1.87     -3.49      1.58     -0.49      1.08      1.21     -0.32      1.01     -0.59      1.17     -0.17     -0.08     -0.87      0.24     -5.79     -1.85      3.15      2.42     -0.94
     -14.200006     -26.841751     249.8      0.48      1.43       3.1         2         2      2444      2318    258.86   -15.869       8.1      37.0   227.021     0.542      50.9   0.06333      71.4         H               192.1  0.044270  0.013218  0.000335  1.268708  0.660010  1.922257  1.044854      4.55    4.6939   29.1551   0.09013   5.28399   0.23599   0.01020  53.05478   5.02383     270.5  0.483651  0.000745  0.000095  0.000109  0.156923  6.741158  0.545755     89.31  1.000034  1.000002     2.247    11.060      78.1      85.5      58.7     248.3     10.99      1.56     -2.73      1.99     -0.82      1.04      1.29     -0.23      0.92     -0.22      0.92     -0.21     -0.60     -0.29      0.50     -5.31     -2.35      2.88      1.91      0.23
     -14.187600     -26.895733     236.0      0.50      1.43     177.1         2         3      2444      3636    258.05   -15.883       8.4      37.4   226.718     0.539      42.3   0.06236      54.1         H               192.1  0.043750  0.012667  0.000336  1.220837  0.650569  1.876570  1.041861      4.65    4.6800   28.7942   0.08800   5.27906   0.23628   0.01019  52.52028   5.00464     268.9  0.481931  0.000657  0.000064  0.000112  0.153738  6.719114  0.542509     85.34  1.000031  1.000002     2.229    10.930      76.6      85.7      58.3     258.5     10.79      1.74     -3.22      1.98     -0.65      0.87      1.41     -0.38      0.71     -0.54      0.38      0.34     -0.06     -0.34      0.10     -5.36     -1.90      3.12      0.82      0.01
     -14.265202     -26.799807     334.3      0.47      1.43      30.2         3         1      3888      1000    264.54   -15.775       7.9      36.6   226.836     0.540      50.4   0.06302     100.0         H               192.1  0.044213  0.012896  0.000362  1.227133  0.646107  1.899273  1.042978      5.34    4.8077   30.3312   0.08960   5.32756   0.23187   0.00974  55.22642   5.12961     275.9  0.482487  0.000760  0.000083  0.000112  0.157156  6.735020  0.544009     87.59  1.000040  1.000002     2.229    10.877      81.3      86.0      61.2     253.6     11.07      2.16     -3.32      1.47     -0.54      1.14      1.22     -0.40      0.79     -0.45      1.08     -0.01     -0.58     -0.48      0.56     -6.06     -1.96      3.29      1.98     -0.14
     -14.252694     -26.854279     293.6      0.49      1.43      26.2         3         2      3888      2318    260.13   -15.848       8.1      37.0   226.449     0.539      43.3   0.06294     100.0         H               192.1  0.044023  0.012485  0.000337  1.235830  0.644792  1.916633  1.042240      3.88    4.7192   29.3084   0.08903   5.29393   0.23512   0.01008  53.39816   5.04636     271.1  0.482094  0.000698  0.000062  0.000113  0.154164  6.724748  0.542756     87.03  1.000043  1.000003     2.225    10.853      78.1      85.6      59.1     254.1     10.85      1.44     -2.34      2.15     -0.70      0.61      1.40     -0.32      0.91     -0.30      0.44      0.49     -0.61     -0.39      0.43     -5.22     -1.42      2.11      0.11     -0.34
     -14.240284     -26.908276     293.6      0.48      1.43      26.2         3         3      3888      3636    243.38   -16.137       8.0      37.4   227.008     0.541      73.5   0.06218     100.0         H               192.1  0.043511  0.012665  0.000333  1.228331  0.656042  1.872336  1.044161      4.85    4.3876   25.7190   0.08802   5.16255   0.24737   0.01146  46.91007   4.71909     254.1  0.483839  0.000941  0.000198  0.000111  0.153434  6.722846  0.545021     86.94  1.000036  1.000001     2.256    11.198      83.0      84.7      51.9     241.2     10.87      1.72     -3.02      1.70     -0.49      0.69      1.30     -0.43      0.21     -0.30      0.78      0.08     -0.24     -0.38      0.59     -5.70     -1.45      2.84      0.98     -0.52
