corner points
-33.95920563    -38.63150024
-34.02378082    -38.80254364
-34.18640518    -38.57761002
-34.25152588    -38.74852371
========== RESULTS WAVE VERSION 16.10.2018 ====================
IMAGE SIZE  X: 4466     Y:4775    col:row     POLARIZATION:VV
COVERAGE    X: 20.58803051km       Y: 19.78322611km 
RESOLUTION dX: 4.609948613m       dY:4.143084003m  
resolution of original product 4.609948613m x 4.143084003m;   raster step x:5997.543146m  
===============================================================
FLAGS: H=HIGH PROBABILITY SEA STATE, I=LAND(ISLAND), O=OUTLIER NO SEA STATE, N=NO WIND AVAILABLE, SEA STATE NOT VISIBLE, M=MEAN PROBABILITY SEA STATE, L= LOW PROBABILITY SEA STATE
Filtering wave length
 integration  Lmin=1m
 integration  Lmax=2200m
  peak        Lmin=100m
               FFT=1024pixels, 4720.58738m 
   mean-Hs (SWH_c)=1.932932892m
         mean-wind=15.84444523m/s
--------------0--------------1---------2---------3---------4---------5---------6---------7---------8---------9--------10--------11--------12--------13--------14--------15--------16--------17--------18--------19------------------20--------21--------22--------23--------24--------25--------26--------27--------28--------29--------30--------31--------32--------33--------34--------35--------36--------37--------38--------39--------40--------41--------42--------43--------44--------45--------46--------47--------48--------49--------50--------51--------52--------53--------54--------55--------56--------57--------58--------59--------60--------61--------62--------63--------64--------65--------66--------67--------68--------69--------70--------71--------72--------73
            LAT            LON  P-LENGHT     SWH_o     SWH_c     P-DIR      LINE     POINT     ROW-Y     COL-X  M-INTENC        dB      WIND INC-ANGLE  ENERGY-M  ENERGY-N  ENERGY-R ENERGY-NN  FG-DEPTH      FLAG         HEADING-DEG    E30-75   E75-390  E390-600 meanincut   meanout   cut/out  STD-NORM  SPEC-MAX   GL-MEAN    GL-VAR      CORR   ENTROPY   HOMOGEN    ENERGY  CONTRAST  DISSIMIL     STD-O    E 1-30 E600-2000   E2000 >      GODA  LONG-HIG     Tmean  CONVOLUT  MEAN-DIR  relation     Sy/Sx  SKEWNESS  KURTOSIS  cutoff-A >50/10000     INT*V   INT-LOG  S-1_g1f1  S-2_g1f2  S-3_g1f3  S-4_g2f1  S-5_g2f2  S-6_g2f3  S-7_g3f1  S-8_g3f2  S-9_g3f3 S-10_g1f4 S-11_g2f4 S-12_g3f4 S-13_g1f5 S-14_g2f5 S-15_g3f5 S-16_g4f1 S-17_g4f2 S-18_g4f3 S-19_g4f4 S-20_g4f5
--------------1--------------2---------3---------4---------5---------6---------7---------8---------9--------10--------11--------12--------13--------14--------15--------16--------17--------18--------19--------20------------------21--------22--------23--------24--------25--------26--------27--------28--------29--------30--------31--------32--------33--------34--------35--------36--------37--------38--------39--------40--------41--------42--------43--------44--------45--------46--------47--------48--------49--------50--------51--------52--------53--------54--------55--------56--------57--------58--------59--------60--------61--------62--------63--------64--------65--------66--------67--------68--------69--------70--------71--------72--------73--------74
     -38.655151     -34.024254     102.9      1.98      3.05      78.8         1         1      1000      1000    809.51   -10.918      15.9      36.1   268.095     0.581      70.8   0.08781       6.7         H               193.6  0.053950  0.021584  0.000849  2.184777  0.737432  2.962685  1.081532     10.56   15.1633  232.6656   0.12829   7.36060   0.09591   0.00115 405.63620  14.64706     875.5  0.503801  0.001293  0.000096  0.000147  0.169256  6.882613  0.586840     82.94  1.000173  1.000016     2.468    13.120     110.8      97.9     664.1     895.7     11.43      1.16      1.07      2.17      1.88      4.27      3.81      0.44      0.28      2.03      1.41      1.44     -0.38      0.08      2.30     -8.23      2.18      7.81     -0.24     -1.31
     -38.639397     -34.090759     143.3      1.85      3.05      70.3         1         2      1000      2301    756.45   -11.212      15.7      36.4   268.372     0.581      55.5   0.08716      13.9         H               193.6  0.053713  0.021136  0.000865  2.140555  0.743636  2.878500  1.081631     11.70   14.2325  211.4721   0.12832   7.26661   0.10095   0.00129 368.67169  13.85096     818.2  0.504899  0.001044  0.000049  0.000140  0.169217  6.868902  0.586964     82.15  1.000172  1.000015     2.509    13.927     107.8      97.6     577.0     881.4     11.53      1.64      0.88      1.90      1.90      4.11      3.65      0.05      0.14      2.37      1.44      1.43     -0.11      0.33      2.21     -8.73      2.50      7.84     -0.85     -0.83
     -38.623745     -34.156647     102.4      1.92      3.05      85.8         1         3      1000      3602    760.09   -11.191      15.9      36.8   266.913     0.577      67.4   0.08596       6.7         H               193.6  0.052815  0.021226  0.001137  2.124547  0.743229  2.858535  1.077412     16.60   14.3097  212.6972   0.12693   7.27797   0.10013   0.00128 371.40063  13.92369     818.9  0.500399  0.001471  0.000068  0.000143  0.168782  6.886142  0.582171     83.64  1.000135  1.000011     2.470    13.347     107.8      97.6     580.4     861.1     11.78      1.49     -0.06      0.50      1.22      4.55      4.45      0.25     -1.05      1.74      1.42      1.28     -0.12     -0.52      3.25    -12.76      1.34     11.40     -0.22     -4.09
     -38.707024     -34.043865     104.4      2.00      3.05      84.4         2         1      2448      1000    813.45   -10.897      15.9      36.1   266.521     0.578      58.7   0.08804       7.0         H               193.6  0.053747  0.021820  0.000749  2.186385  0.729432  2.997382  1.078662     13.21   15.2410  233.3025   0.12869   7.37010   0.09543   0.00113 406.55444  14.67935     877.4  0.501035  0.001014  0.000068  0.000145  0.168816  6.886264  0.583660     83.16  1.000174  1.000015     2.480    13.392     107.8      98.0     668.9     907.9     11.36      1.53      0.77      2.24      1.47      3.81      3.37      0.93      0.74      1.97      1.87      1.56     -0.29      0.59      1.91     -7.16      1.10      6.94      0.92      0.11
     -38.691257     -34.110420     104.4      1.94      3.05      84.4         2         2      2448      2301    780.59   -11.076      15.9      36.4   266.702     0.579      73.2   0.08790       7.0         H               193.6  0.053800  0.021436  0.000829  2.176664  0.726344  2.996741  1.079172     12.18   14.6673  221.2753   0.12894   7.31239   0.09853   0.00122 385.48920  14.21382     842.3  0.501475  0.001347  0.000100  0.000150  0.167654  6.890408  0.584234     82.70  1.000164  1.000015     2.468    13.281     107.8      97.8     614.4     887.5     11.39      1.55      0.41      1.87      1.52      3.94      3.49      0.46      0.22      1.43      1.78      0.96     -0.36      0.48      2.25     -8.54      0.95      8.06      1.07     -0.27
     -38.675591     -34.176353     100.2      1.94      3.05      85.9         2         3      2448      3602    752.35   -11.236      15.8      36.8   266.118     0.576      63.3   0.08578       6.4         H               193.6  0.052801  0.021788  0.000839  2.160479  0.735079  2.939111  1.076255     20.52   14.1730  209.6914   0.12773   7.26234   0.10099   0.00130 365.81665  13.80276     809.7  0.499407  0.001099  0.000071  0.000149  0.170314  6.917772  0.581194     83.45  1.000149  1.000011     2.436    12.753     107.8      97.5     567.3     830.6     11.56      1.15      0.28      1.51      1.30      3.76      3.41      0.80      0.40      1.50      1.50      1.19     -0.55      0.67      1.62     -8.88      0.90      7.08      0.65      0.81
     -38.758892     -34.063507     109.5      1.96      3.05      85.6         3         1      3896      1000    813.18   -10.898      15.9      36.1   267.080     0.578      61.0   0.08698       7.7         H               193.6  0.053303  0.021134  0.000863  2.112579  0.738769  2.859594  1.078972     15.21   15.2348  233.6573   0.12693   7.36886   0.09536   0.00113 407.99548  14.69999     877.4  0.502415  0.001140  0.000062  0.000138  0.168907  6.882987  0.583964     83.07  1.000168  1.000015     2.467    13.267     105.0      98.0     668.6     939.8     11.53      1.22      0.59      1.57      1.28      3.74      3.64      0.36      0.11      1.92      1.28      1.25     -0.03      0.28      2.18     -9.07      1.18      7.47     -0.34     -0.79
     -38.743111     -34.130108     111.0      1.94      3.05      81.0         3         2      3896      2301    770.89   -11.130      15.8      36.4   267.153     0.578      59.8   0.08716       7.9         H               193.6  0.053188  0.021668  0.000738  2.185367  0.723879  3.018967  1.078309     22.03   14.4992  217.2243   0.12820   7.29598   0.09905   0.00125 378.75262  14.08011     831.2  0.501592  0.000984  0.000072  0.000147  0.169665  6.901235  0.583156     82.34  1.000155  1.000015     2.459    13.076     105.0      97.7     598.5     849.5     11.37      1.35      1.01      2.22      1.46      3.82      3.43      0.85      0.73      1.80      2.00      1.39      0.02      0.39      2.27     -7.23      1.05      6.53      1.03     -0.26
     -38.727440     -34.196091     106.4      1.87      3.05      82.8         3         3      3896      3602    742.39   -11.294      15.7      36.8   267.078     0.576      53.6   0.08602       7.2         H               193.6  0.052369  0.021121  0.000915  2.122230  0.730007  2.907138  1.076110     14.94   13.9967  205.6311   0.12683   7.24389   0.10222   0.00133 359.09927  13.64867     798.9  0.500480  0.001019  0.000046  0.000144  0.169325  6.908545  0.580630     82.01  1.000152  1.000014     2.458    13.197     102.3      97.5     552.1     848.3     11.36      1.39      0.36      1.53      1.56      4.21      4.20     -0.09      0.42      1.75      1.24      1.75     -0.14      0.86      2.14     -9.39      2.70      9.00     -0.74      0.78
