corner points
-24.8424263    -13.62460136
-24.88304901    -13.80496407
-25.0283947    -13.58337402
-25.06923103    -13.76368332
========== RESULTS WAVE VERSION 16.10.2018 ====================
IMAGE SIZE  X: 5599     Y:4928    col:row     POLARIZATION:VV
COVERAGE    X: 20.57305855km       Y: 20.48363718km 
RESOLUTION dX: 3.674416601m       dY:4.15658222m  
resolution of original product 3.674416601m x 4.15658222m;   raster step x:5996.647893m  
===============================================================
FLAGS: H=HIGH PROBABILITY SEA STATE, I=LAND(ISLAND), O=OUTLIER NO SEA STATE, N=NO WIND AVAILABLE, SEA STATE NOT VISIBLE, M=MEAN PROBABILITY SEA STATE, L= LOW PROBABILITY SEA STATE
Filtering wave length
 integration  Lmin=1m
 integration  Lmax=2200m
  peak        Lmin=100m
               FFT=1024pixels, 3762.602599m 
   mean-Hs (SWH_c)=0.2m
         mean-wind=6.741975784m/s
--------------0--------------1---------2---------3---------4---------5---------6---------7---------8---------9--------10--------11--------12--------13--------14--------15--------16--------17--------18--------19------------------20--------21--------22--------23--------24--------25--------26--------27--------28--------29--------30--------31--------32--------33--------34--------35--------36--------37--------38--------39--------40--------41--------42--------43--------44--------45--------46--------47--------48--------49--------50--------51--------52--------53--------54--------55--------56--------57--------58--------59--------60--------61--------62--------63--------64--------65--------66--------67--------68--------69--------70--------71--------72--------73
            LAT            LON  P-LENGHT     SWH_o     SWH_c     P-DIR      LINE     POINT     ROW-Y     COL-X  M-INTENC        dB      WIND INC-ANGLE  ENERGY-M  ENERGY-N  ENERGY-R ENERGY-NN  FG-DEPTH      FLAG         HEADING-DEG    E30-75   E75-390  E390-600 meanincut   meanout   cut/out  STD-NORM  SPEC-MAX   GL-MEAN    GL-VAR      CORR   ENTROPY   HOMOGEN    ENERGY  CONTRAST  DISSIMIL     STD-O    E 1-30 E600-2000   E2000 >      GODA  LONG-HIG     Tmean  CONVOLUT  MEAN-DIR  relation     Sy/Sx  SKEWNESS  KURTOSIS  cutoff-A >50/10000     INT*V   INT-LOG  S-1_g1f1  S-2_g1f2  S-3_g1f3  S-4_g2f1  S-5_g2f2  S-6_g2f3  S-7_g3f1  S-8_g3f2  S-9_g3f3 S-10_g1f4 S-11_g2f4 S-12_g3f4 S-13_g1f5 S-14_g2f5 S-15_g3f5 S-16_g4f1 S-17_g4f2 S-18_g4f3 S-19_g4f4 S-20_g4f5
--------------1--------------2---------3---------4---------5---------6---------7---------8---------9--------10--------11--------12--------13--------14--------15--------16--------17--------18--------19--------20------------------21--------22--------23--------24--------25--------26--------27--------28--------29--------30--------31--------32--------33--------34--------35--------36--------37--------38--------39--------40--------41--------42--------43--------44--------45--------46--------47--------48--------49--------50--------51--------52--------53--------54--------55--------56--------57--------58--------59--------60--------61--------62--------63--------64--------65--------66--------67--------68--------69--------70--------71--------72--------73--------74
     -13.653660     -24.884769     232.4      0.45      1.32      10.7         1         1      1000      1000   2642.74    -5.779       7.5      23.5   390.488     0.712      55.4   0.16121      50.9         H               192.1  0.090651  0.028480  0.000530  2.962971  0.925220  3.202451  1.195645      9.13    4.7916   38.7067   0.25343   5.27229   0.25984   0.01256  57.79396   4.90731    3159.6  0.592128  0.000688  0.000024  0.000244  0.145372  6.662239  0.745986     87.60  1.000175  1.000020     3.299    24.125      81.3      83.9      73.0     421.6     11.39      2.06     -2.29      2.26     -0.29      1.20     -0.03     -0.63      1.17      0.29      1.04      0.11     -0.79     -0.45      0.37     -3.84     -1.40      2.44      1.09      0.15
     -13.641516     -24.939581     232.4      0.45      1.32      10.7         1         2      1000      2632   2374.54    -6.244       7.4      24.0   386.516     0.698     221.2   0.15613      50.9         H               192.1  0.087987  0.028037  0.000653  2.910993  0.906831  3.210072  1.185124     11.38    4.2489   30.8466   0.25240   5.05797   0.28118   0.01549  46.12186   4.38417    2814.1  0.578123  0.003245  0.000299  0.000234  0.145941  6.668606  0.730883     87.69  1.000167  1.000018     3.213    23.000      79.7      81.9      57.6     359.8     11.52      2.73     -2.87      1.62     -0.92      1.41      0.38     -0.47      1.42     -0.77      1.30      0.53     -0.60     -0.64      0.02     -5.56     -2.93      2.79      1.89     -0.27
     -13.629582     -24.993387     260.2      0.37      1.32      12.0         1         3      1000      4264   1824.32    -7.389       6.0      24.4   386.564     0.700      51.4   0.15708     102.3         H               192.1  0.089635  0.030838  0.000575  3.262267  0.931254  3.503092  1.185126     10.46    3.1778   18.5489   0.25225   4.54543   0.33761   0.02562  27.74059   3.36998    2162.0  0.578976  0.000626  0.000020  0.000234  0.147085  6.699853  0.733688     88.63  1.000182  1.000022     3.210    22.686      79.7      76.3      34.4     269.8     11.46      2.50     -2.55      2.02     -0.69      1.74      0.25     -0.70      1.40     -0.19      0.92     -0.04     -0.99     -0.55      0.61     -4.20     -1.88      3.56      1.39     -0.24
     -13.706481     -24.896677     234.6      0.44      1.32       7.2         2         1      2443      1000   2597.75    -5.854       7.3      23.5   387.833     0.702      76.4   0.15653      52.9         H               192.1  0.088650  0.028570  0.000618  2.979646  0.912347  3.265915  1.188473     11.71    4.7111   37.2053   0.25104   5.24391   0.26191   0.01284  55.72952   4.82731    3087.3  0.583434  0.001025  0.000064  0.000226  0.147036  6.683506  0.734967     90.84  1.000160  1.000018     3.242    24.026      76.6      83.7      70.0     421.9     11.42      2.65     -2.89      1.98     -0.71      1.46      0.11     -0.84      1.41     -0.77      1.23      0.03     -1.46     -0.48      0.44     -4.61     -2.24      3.30      2.32      0.45
     -13.694332     -24.951506     268.7      0.42      1.32      34.8         2         2      2443      2632   2244.73    -6.488       6.9      24.0   389.176     0.706     104.2   0.15949     100.0         H               192.1  0.090106  0.028406  0.000584  2.948018  0.915227  3.221079  1.191038     11.30    4.0024   28.0393   0.25361   4.94956   0.29291   0.01729  41.85695   4.15377    2673.4  0.585868  0.001437  0.000109  0.000243  0.145358  6.655979  0.739617     88.28  1.000182  1.000021     3.265    23.876      79.7      80.7      52.0     353.9     11.39      2.92     -2.46      2.14     -0.10      1.54      0.35     -1.02      1.61     -0.39      1.38      0.67     -0.89     -0.48      0.49     -4.36     -0.95      2.74      1.62      0.16
     -13.682394     -25.005331     244.9      0.39      1.32      23.0         2         3      2443      4264   1904.45    -7.202       6.3      24.4   388.348     0.702      59.8   0.15770      64.0         H               192.1  0.089220  0.029587  0.000620  3.105911  0.917854  3.383883  1.187356      9.46    3.3308   20.1857   0.25136   4.62721   0.32770   0.02355  30.22417   3.51583    2261.2  0.582035  0.000798  0.000036  0.000224  0.146913  6.690600  0.734535     89.17  1.000172  1.000020     3.256    23.129      78.1      77.4      37.4     283.1     11.12      1.96     -2.46      2.46     -0.08      1.48      0.76     -0.69      1.44      0.02      1.27      0.24     -0.83     -0.98      0.16     -4.06     -1.19      3.33      1.47     -0.67
     -13.759302     -24.908588     281.9      0.39      1.32      22.0         3         1      3886      1000   2336.87    -6.314       6.4      23.5   389.644     0.706      81.9   0.15887     100.0         H               192.1  0.089996  0.028821  0.000673  2.989020  0.919108  3.252087  1.191900     11.52    4.1863   30.3606   0.25250   5.03029   0.28377   0.01592  45.38956   4.33451    2785.1  0.586275  0.001163  0.000055  0.000229  0.146956  6.671751  0.740113     90.08  1.000154  1.000018     3.248    22.890      78.1      81.6      56.6     352.6     11.38      2.44     -2.71      1.83     -0.87      1.12      0.42     -0.71      1.23     -0.42      1.15      0.24     -1.09     -0.50      0.24     -5.13     -2.47      2.83      1.46      0.21
     -13.747149     -24.963438     320.8      0.40      1.32      25.2         3         2      3886      2632   2118.54    -6.740       6.4      23.9   386.868     0.699      62.2   0.15511     100.0         H               192.1  0.088187  0.029449  0.000572  3.079457  0.914929  3.365786  1.184768     10.95    3.7539   24.8264   0.24931   4.83774   0.30423   0.01921  37.27389   3.92274    2509.7  0.580200  0.000852  0.000038  0.000232  0.147350  6.679325  0.731722     90.98  1.000175  1.000020     3.190    22.348      79.7      79.7      46.0     321.5     11.53      2.66     -2.34      2.05     -0.41      1.46     -0.02     -0.61      1.05     -0.24      1.23     -0.18     -1.69     -0.58      0.80     -4.29     -1.85      3.02      2.08      0.04
     -13.735206     -25.017279     241.9      0.39      1.32      14.9         3         3      3886      4264   1920.36    -7.166       6.4      24.4   383.335     0.691      49.1   0.15292      60.4         H               192.1  0.086147  0.029181  0.000610  3.078305  0.894264  3.442279  1.178993     12.38    3.3624   20.1850   0.24821   4.64639   0.32540   0.02298  30.34981   3.54097    2264.1  0.574984  0.000678  0.000017  0.000230  0.146196  6.702845  0.723661     88.49  1.000159  1.000019     3.212    23.245      78.1      77.7      37.7     292.0     11.33      2.45     -2.70      2.02     -0.72      1.57      0.53     -0.38      1.32     -0.73      1.37      0.31     -1.00     -0.60      0.10     -4.61     -2.58      3.47      2.07      0.00
