corner points
-22.82089806    3.542617559
-22.85715294    3.367468357
-22.99936676    3.580108643
-23.03558922    3.404999256
========== RESULTS WAVE VERSION 16.10.2018 ====================
IMAGE SIZE  X: 4466     Y:4783    col:row     POLARIZATION:VV
COVERAGE    X: 20.19568534km       Y: 19.84006004km 
RESOLUTION dX: 4.52209703m       dY:4.148036806m  
resolution of original product 4.52209703m x 4.148036806m;   raster step x:5996.300662m  
===============================================================
FLAGS: H=HIGH PROBABILITY SEA STATE, I=LAND(ISLAND), O=OUTLIER NO SEA STATE, N=NO WIND AVAILABLE, SEA STATE NOT VISIBLE, M=MEAN PROBABILITY SEA STATE, L= LOW PROBABILITY SEA STATE
Filtering wave length
 integration  Lmin=1m
 integration  Lmax=2200m
  peak        Lmin=100m
               FFT=1024pixels, 4630.627359m 
   mean-Hs (SWH_c)=0.2m
         mean-wind=5.04351902m/s
--------------0--------------1---------2---------3---------4---------5---------6---------7---------8---------9--------10--------11--------12--------13--------14--------15--------16--------17--------18--------19------------------20--------21--------22--------23--------24--------25--------26--------27--------28--------29--------30--------31--------32--------33--------34--------35--------36--------37--------38--------39--------40--------41--------42--------43--------44--------45--------46--------47--------48--------49--------50--------51--------52--------53--------54--------55--------56--------57--------58--------59--------60--------61--------62--------63--------64--------65--------66--------67--------68--------69--------70--------71--------72--------73
            LAT            LON  P-LENGHT     SWH_o     SWH_c     P-DIR      LINE     POINT     ROW-Y     COL-X  M-INTENC        dB      WIND INC-ANGLE  ENERGY-M  ENERGY-N  ENERGY-R ENERGY-NN  FG-DEPTH      FLAG         HEADING-DEG    E30-75   E75-390  E390-600 meanincut   meanout   cut/out  STD-NORM  SPEC-MAX   GL-MEAN    GL-VAR      CORR   ENTROPY   HOMOGEN    ENERGY  CONTRAST  DISSIMIL     STD-O    E 1-30 E600-2000   E2000 >      GODA  LONG-HIG     Tmean  CONVOLUT  MEAN-DIR  relation     Sy/Sx  SKEWNESS  KURTOSIS  cutoff-A >50/10000     INT*V   INT-LOG  S-1_g1f1  S-2_g1f2  S-3_g1f3  S-4_g2f1  S-5_g2f2  S-6_g2f3  S-7_g3f1  S-8_g3f2  S-9_g3f3 S-10_g1f4 S-11_g2f4 S-12_g3f4 S-13_g1f5 S-14_g2f5 S-15_g3f5 S-16_g4f1 S-17_g4f2 S-18_g4f3 S-19_g4f4 S-20_g4f5
--------------1--------------2---------3---------4---------5---------6---------7---------8---------9--------10--------11--------12--------13--------14--------15--------16--------17--------18--------19--------20------------------21--------22--------23--------24--------25--------26--------27--------28--------29--------30--------31--------32--------33--------34--------35--------36--------37--------38--------39--------40--------41--------42--------43--------44--------45--------46--------47--------48--------49--------50--------51--------52--------53--------54--------55--------56--------57--------58--------59--------60--------61--------62--------63--------64--------65--------66--------67--------68--------69--------70--------71--------72--------73--------74
       3.514487     -22.868896     352.9      0.30      1.78       4.4         1         1      1000      1000    142.12   -18.473       4.8      36.9   219.121     0.535      86.9   0.05265     100.0         H               192.0  0.036976  0.013913  0.001054  1.054688  0.610787  1.726768  1.038935     27.43    2.3719    8.6313   0.06136   4.09581   0.36264   0.03256  16.20339   2.75174     147.7  0.482101  0.001102  0.000213  0.000098  0.187232  6.909818  0.537975     26.38  0.999698  0.999990     2.213    10.811      90.6      72.7      18.5     132.6     12.57      2.46     -7.88     -2.71      0.37      5.50      2.79     -0.30     -1.60     -0.97      1.06      0.13      3.29     -5.13      1.72    -16.64     -0.93     16.83      2.69    -12.31
       3.525665     -22.922085     384.8      0.27      1.78       4.8         1         2      1000      2326    113.33   -19.456       4.2      37.3   239.779     0.623    1210.9   0.08632     100.0         M               192.0  0.039630  0.023662  0.007575  1.660681  0.657110  2.527248  1.125138     38.62    1.8094    6.3685   0.12568   3.64217   0.42868   0.05317  11.13629   2.17331     127.5  0.524347  0.025121  0.002704  0.000111  0.234059  7.257919  0.638668     50.46  1.000308  1.000010     3.737    43.819     404.2      65.5      13.0     211.3     16.42      2.72      1.44    -12.23     -0.45     -2.52      8.64     -0.55      3.27     -1.39      2.40     -1.11      4.46     -4.06      0.98    -47.97     -2.37    -12.12      6.68    -10.80
       3.536744     -22.974821     380.9      0.28      1.78       9.5         1         3      1000      3652    115.26   -19.383       4.4      37.6   220.182     0.532     218.6   0.05018     100.0         H               192.0  0.034025  0.011189  0.001262  0.911557  0.576237  1.581913  1.036038     20.51    1.8434    5.6156   0.05047   3.68498   0.41566   0.04837  10.66435   2.21768     119.4  0.481453  0.003216  0.000689  0.000092  0.179307  6.846213  0.533879     19.11  0.999656  0.999992     2.182    10.451     124.8      67.0      12.4      98.4     12.46      2.76     -4.86     -3.13     -0.47      3.04      4.81      0.33     -1.63     -1.01      0.94      0.14      2.13     -3.83      2.26    -21.59     -3.56     10.89      2.12    -10.66
       3.461527     -22.879854     384.8      0.32      1.78       4.8         2         1      2446      1000    153.93   -18.127       5.1      36.9   217.811     0.532      63.2   0.05297     100.0         H               192.0  0.036893  0.013742  0.001147  1.068864  0.604369  1.768562  1.035595     33.09    2.6060   10.0793   0.06283   4.25402   0.34313   0.02782  18.89198   2.98327     159.4  0.479703  0.000770  0.000106  0.000098  0.187082  6.916317  0.534634     28.19  0.999789  0.999992     2.182    10.415      88.6      74.8      21.5     139.0     12.79      2.82     -7.72     -3.01      0.16      5.98      2.99     -0.37     -2.37     -1.26      1.43      0.03      3.30     -5.95      2.91    -17.81     -1.75     18.43      3.66    -15.23
       3.472709     -22.933043     384.8      0.33      1.78       4.8         2         2      2446      2326    148.72   -18.276       5.2      37.3   219.014     0.538     130.3   0.05484     100.0         H               192.0  0.037071  0.014869  0.001285  1.119553  0.610576  1.833601  1.041865     39.13    2.5069    9.5066   0.06811   4.18808   0.35192   0.02978  17.71830   2.87782     154.9  0.483113  0.001579  0.000370  0.000100  0.190230  6.933011  0.541351     12.59  0.999715  0.999990     2.234    10.999      86.6      74.0      20.2     142.8     12.75      3.63     -8.26     -3.01     -0.82      6.19      3.05      0.10     -2.34     -2.58      2.71     -0.31      3.38     -5.79      2.70    -18.31     -4.33     19.90      7.13    -15.01
       3.483791     -22.985775     374.6      0.32      1.78      14.0         2         3      2446      3652    137.50   -18.617       5.0      37.6   218.821     0.533      49.2   0.05208     100.0         H               192.0  0.036352  0.013618  0.001335  1.070615  0.596984  1.793374  1.035999     36.95    2.2824    8.0291   0.05867   4.03228   0.37028   0.03446  15.11604   2.65882     142.4  0.481264  0.000682  0.000061  0.000100  0.185732  6.908548  0.535464     13.99  0.999783  0.999992     2.199    10.658      94.9      72.0      17.3     124.8     12.87      4.18     -7.68     -3.45     -1.30      6.26      3.84      0.43     -2.71     -2.72      3.12     -0.41      2.91     -5.75      3.07    -20.08     -6.18     19.97      7.54    -15.17
       3.408568     -22.890818     384.8      0.32      1.78       4.8         3         1      3892      1000    151.52   -18.195       5.0      36.9   216.004     0.526      40.7   0.05128     100.0         H               192.0  0.035892  0.013158  0.000787  1.042001  0.595048  1.751121  1.029640     23.41    2.5581    9.6500   0.05882   4.22332   0.34580   0.02847  18.16489   2.93366     156.0  0.475874  0.000462  0.000055  0.000095  0.184936  6.912202  0.528088     24.61  0.999835  0.999994     2.157    10.374      90.6      74.5      20.7     140.7     12.40      2.72     -6.45     -1.65      0.27      4.28      2.02     -0.52     -0.81     -1.25      1.92      0.13      1.94     -4.21      1.50    -13.38     -1.28     12.20      4.39     -9.10
       3.419753     -22.944002     384.8      0.34      1.78       4.8         3         2      3892      2326    154.45   -18.112       5.4      37.3   218.384     0.534      66.7   0.05355     100.0         H               192.0  0.036564  0.014102  0.001053  1.061842  0.606790  1.749932  1.037274     35.14    2.6200   10.1725   0.06423   4.26301   0.34204   0.02747  19.03835   2.99308     160.2  0.481531  0.000874  0.000111  0.000100  0.192139  6.943939  0.536595     13.09  0.999818  0.999993     2.217    10.919      88.6      75.0      21.6     146.3     12.96      3.89     -7.95     -3.10     -0.64      5.90      2.46     -0.12     -1.37     -2.04      2.63     -0.14      2.66     -5.33      2.35    -16.96     -3.96     16.60      6.04    -12.40
       3.430839     -22.996731     323.5      0.34      1.78       8.0         3         3      3892      3652    149.74   -18.247       5.4      37.6   217.570     0.531      71.2   0.05248     100.0         H               192.0  0.036168  0.013771  0.000857  1.086124  0.599985  1.810253  1.034092     27.41    2.5246    9.4983   0.06164   4.20072   0.34929   0.02918  17.82556   2.89725     154.8  0.479174  0.000902  0.000162  0.000098  0.187248  6.935169  0.533254     14.23  0.999811  0.999995     2.189    10.611      88.6      74.3      20.3     137.4     12.36      3.83     -7.02     -1.65     -0.56      4.92      2.34     -0.10     -0.90     -2.27      2.46      0.23      2.19     -4.42      1.64    -14.00     -3.69     14.36      5.70     -9.88
