corner points
-27.15046692    -15.89577579
-27.19270897    -16.07013512
-27.33575058    -15.85300922
-27.37816811    -16.02730751
========== RESULTS WAVE VERSION 16.10.2018 ====================
IMAGE SIZE  X: 4466     Y:4782    col:row     POLARIZATION:VV
COVERAGE    X: 20.33543315km       Y: 19.86119371km 
RESOLUTION dX: 4.553388524m       dY:4.153323653m  
resolution of original product 4.553388524m x 4.153323653m;   raster step x:5996.812687m  
===============================================================
FLAGS: H=HIGH PROBABILITY SEA STATE, I=LAND(ISLAND), O=OUTLIER NO SEA STATE, N=NO WIND AVAILABLE, SEA STATE NOT VISIBLE, M=MEAN PROBABILITY SEA STATE, L= LOW PROBABILITY SEA STATE
Filtering wave length
 integration  Lmin=1m
 integration  Lmax=2200m
  peak        Lmin=100m
               FFT=1024pixels, 4662.669849m 
   mean-Hs (SWH_c)=0.2m
         mean-wind=8.448970795m/s
--------------0--------------1---------2---------3---------4---------5---------6---------7---------8---------9--------10--------11--------12--------13--------14--------15--------16--------17--------18--------19------------------20--------21--------22--------23--------24--------25--------26--------27--------28--------29--------30--------31--------32--------33--------34--------35--------36--------37--------38--------39--------40--------41--------42--------43--------44--------45--------46--------47--------48--------49--------50--------51--------52--------53--------54--------55--------56--------57--------58--------59--------60--------61--------62--------63--------64--------65--------66--------67--------68--------69--------70--------71--------72--------73
            LAT            LON  P-LENGHT     SWH_o     SWH_c     P-DIR      LINE     POINT     ROW-Y     COL-X  M-INTENC        dB      WIND INC-ANGLE  ENERGY-M  ENERGY-N  ENERGY-R ENERGY-NN  FG-DEPTH      FLAG         HEADING-DEG    E30-75   E75-390  E390-600 meanincut   meanout   cut/out  STD-NORM  SPEC-MAX   GL-MEAN    GL-VAR      CORR   ENTROPY   HOMOGEN    ENERGY  CONTRAST  DISSIMIL     STD-O    E 1-30 E600-2000   E2000 >      GODA  LONG-HIG     Tmean  CONVOLUT  MEAN-DIR  relation     Sy/Sx  SKEWNESS  KURTOSIS  cutoff-A >50/10000     INT*V   INT-LOG  S-1_g1f1  S-2_g1f2  S-3_g1f3  S-4_g2f1  S-5_g2f2  S-6_g2f3  S-7_g3f1  S-8_g3f2  S-9_g3f3 S-10_g1f4 S-11_g2f4 S-12_g3f4 S-13_g1f5 S-14_g2f5 S-15_g3f5 S-16_g4f1 S-17_g4f2 S-18_g4f3 S-19_g4f4 S-20_g4f5
--------------1--------------2---------3---------4---------5---------6---------7---------8---------9--------10--------11--------12--------13--------14--------15--------16--------17--------18--------19--------20------------------21--------22--------23--------24--------25--------26--------27--------28--------29--------30--------31--------32--------33--------34--------35--------36--------37--------38--------39--------40--------41--------42--------43--------44--------45--------46--------47--------48--------49--------50--------51--------52--------53--------54--------55--------56--------57--------58--------59--------60--------61--------62--------63--------64--------65--------66--------67--------68--------69--------70--------71--------72--------73--------74
     -15.922568     -27.201284     255.0      0.49      1.45      25.9         1         1      1000      1000    274.60   -15.613       8.1      36.6   230.185     0.546      47.9   0.06559      82.2         H               192.2  0.045646  0.013535  0.000349  1.332191  0.664901  2.003594  1.048692      4.54    5.0096   33.0106   0.09484   5.40142   0.22570   0.00909  59.75938   5.32594     287.9  0.486281  0.000718  0.000080  0.000117  0.154369  6.723550  0.550134     83.24  1.000055  1.000004     2.283    11.432      81.3      86.6      66.5     275.6     10.89      1.72     -2.40      1.99     -0.79      0.63      1.38     -0.28      0.75     -0.34      0.83      0.22     -0.38     -0.51      0.48     -5.13     -1.91      2.23      1.51     -0.44
     -15.909909     -27.256153     322.5      0.48      1.45      24.5         1         2      1000      2317    254.00   -15.952       7.9      37.0   231.233     0.547      65.1   0.06420     100.0         H               192.2  0.045198  0.012900  0.000369  1.269762  0.654423  1.940278  1.049405      4.20    4.5973   28.3308   0.09098   5.24583   0.23951   0.01064  51.50621   4.94002     266.6  0.487489  0.000894  0.000141  0.000116  0.152893  6.713925  0.550351     84.88  1.000042  1.000003     2.266    11.141      83.0      85.1      57.0     242.6     11.00      1.81     -2.61      1.70     -0.71      0.55      1.31     -0.55      0.48     -0.23      0.52     -0.07     -0.44     -0.04      0.47     -6.05     -2.07      2.09      0.71      0.41
     -15.897346     -27.310537     387.0      0.54      1.45      24.5         1         3      1000      3634    289.38   -15.385       9.1      37.4   231.527     0.550     232.7   0.06710     100.0         H               192.2  0.045402  0.013918  0.000636  1.329139  0.660584  2.012066  1.054078      6.77    5.3038   37.0402   0.10004   5.50455   0.21764   0.00830  66.66978   5.61367     305.0  0.487249  0.002864  0.000668  0.000118  0.156823  6.740184  0.555177     85.21  0.999999  0.999999     2.298    11.447      90.6      87.3      74.5     286.5     11.44      2.70     -3.00      0.20     -1.45      1.51      2.50     -0.05     -0.16     -0.92      1.19      0.13      0.03     -0.96      0.74    -10.44     -4.11      5.45      2.40     -2.54
     -15.975226     -27.214052     357.2      0.49      1.45      22.5         2         1      2444      1000    277.75   -15.563       8.2      36.6   230.538     0.548      95.8   0.06565     100.0         H               192.2  0.045830  0.013449  0.000348  1.330366  0.657432  2.023580  1.050408      4.24    5.0719   33.8761   0.09485   5.42376   0.22375   0.00890  61.32539   5.38805     291.7  0.487007  0.001146  0.000245  0.000117  0.154119  6.725239  0.551615     85.06  1.000066  1.000004     2.303    11.627      84.8      86.8      68.2     279.8     10.97      1.87     -2.33      2.07     -0.53      1.02      1.40     -0.19      0.86     -0.31      0.93      0.29     -0.66     -0.28      0.75     -5.17     -1.80      2.56      1.57     -0.24
     -15.962562     -27.268934     238.1      0.52      1.45      17.8         2         2      2444      2317    289.83   -15.379       8.8      37.0   229.982     0.548     121.9   0.06676      56.2         H               192.2  0.046266  0.013368  0.000435  1.307106  0.661049  1.977320  1.051067      5.68    5.3115   36.9213   0.09927   5.50760   0.21667   0.00823  66.51266   5.61985     304.6  0.486309  0.001621  0.000318  0.000120  0.153885  6.724787  0.552605     85.69  1.000046  1.000003     2.300    11.667      83.0      87.3      74.5     292.6     10.87      1.74     -2.60      1.70     -0.88      0.42      1.73      0.00      0.79     -0.64      0.94     -0.03     -0.30     -0.55      0.55     -6.59     -2.98      1.65      2.20     -0.63
     -15.949993     -27.323336     262.1      0.49      1.45      30.4         2         3      2444      3634    250.51   -16.012       8.1      37.4   232.652     0.552     215.6   0.06590     116.9         H               192.2  0.045548  0.013249  0.000489  1.283777  0.660457  1.943771  1.055366      4.51    4.5299   27.8215   0.09565   5.21829   0.24331   0.01102  50.32029   4.86521     264.4  0.489727  0.002621  0.000609  0.000117  0.155187  6.730871  0.556409     84.62  1.000085  1.000005     2.314    11.744      94.9      84.9      55.7     255.8     11.26      2.03     -1.94      1.02     -0.81     -0.11      1.90     -0.40      1.25     -0.45      0.77      0.12      0.35     -0.50      0.39     -8.13     -2.33     -0.74      1.32     -1.35
     -16.027884     -27.226826     241.6      0.49      1.45      15.0         3         1      3888      1000    276.50   -15.583       8.2      36.6   230.238     0.544      47.1   0.06436      60.0         H               192.2  0.045436  0.013385  0.000382  1.309727  0.650723  2.012726  1.046939      4.70    5.0471   33.3541   0.09175   5.41543   0.22395   0.00894  60.58745   5.36682     289.4  0.484689  0.000743  0.000073  0.000117  0.153995  6.720878  0.548190     83.92  1.000059  1.000004     2.268    11.250      83.0      86.7      67.3     270.9     11.07      1.78     -2.32      1.74     -0.79      0.63      1.44     -0.18      0.76     -0.22      0.81     -0.03     -0.07     -0.25      0.46     -6.21     -2.57      1.94      0.96     -0.43
     -16.015213     -27.281725     235.7      0.54      1.45      33.8         3         2      3888      2317    306.24   -15.139       9.2      37.0   228.501     0.543      94.7   0.06573      53.9         H               192.2  0.045535  0.012940  0.000386  1.273225  0.654035  1.946725  1.046436      4.99    5.6387   40.8577   0.09632   5.61787   0.20687   0.00734  73.84464   5.94017     320.4  0.483400  0.001154  0.000245  0.000119  0.153520  6.717636  0.547572     89.18  1.000032  1.000002     2.260    11.217      83.0      88.2      82.8     307.8     10.98      1.96     -2.78      1.55     -1.52      0.71      1.56     -0.51      0.59     -0.65      0.74     -0.10     -0.76     -0.34      0.51     -6.35     -3.14      2.63      1.56     -0.13
     -16.002640     -27.336140     312.9      0.51      1.45      28.0         3         3      3888      3634    265.16   -15.765       8.5      37.4   229.897     0.544      80.5   0.06428     100.0         H               192.2  0.045162  0.013065  0.000375  1.268805  0.654493  1.938607  1.046963      4.68    4.8209   30.6841   0.09298   5.33203   0.23182   0.00972  55.66211   5.14279     277.6  0.484676  0.001132  0.000181  0.000119  0.153692  6.708957  0.548310     86.67  1.000049  1.000003     2.272    11.351      84.8      86.1      61.8     270.7     10.97      1.53     -2.30      1.62     -1.06      0.40      1.63      0.22      0.84     -0.42      0.92      0.49     -0.38     -0.28      0.14     -6.12     -2.87      1.00      1.18      0.29
