corner points
-37.51375198    -52.02653503
-37.60680771    -52.19990921
-37.80992508    -51.96412659
-37.90419769    -52.13726425
========== RESULTS WAVE VERSION 16.10.2018 ====================
IMAGE SIZE  X: 5599     Y:4908    col:row     POLARIZATION:VV
COVERAGE    X: 21.39062089km       Y: 20.25519589km 
RESOLUTION dX: 3.82043595m       dY:4.126975529m  
resolution of original product 3.82043595m x 4.126975529m;   raster step x:5998.084442m  
===============================================================
FLAGS: H=HIGH PROBABILITY SEA STATE, I=LAND(ISLAND), O=OUTLIER NO SEA STATE, N=NO WIND AVAILABLE, SEA STATE NOT VISIBLE, M=MEAN PROBABILITY SEA STATE, L= LOW PROBABILITY SEA STATE
Filtering wave length
 integration  Lmin=1m
 integration  Lmax=2200m
  peak        Lmin=100m
               FFT=1024pixels, 3912.126413m 
   mean-Hs (SWH_c)=2.599941101m
         mean-wind=16.3409462m/s
--------------0--------------1---------2---------3---------4---------5---------6---------7---------8---------9--------10--------11--------12--------13--------14--------15--------16--------17--------18--------19------------------20--------21--------22--------23--------24--------25--------26--------27--------28--------29--------30--------31--------32--------33--------34--------35--------36--------37--------38--------39--------40--------41--------42--------43--------44--------45--------46--------47--------48--------49--------50--------51--------52--------53--------54--------55--------56--------57--------58--------59--------60--------61--------62--------63--------64--------65--------66--------67--------68--------69--------70--------71--------72--------73
            LAT            LON  P-LENGHT     SWH_o     SWH_c     P-DIR      LINE     POINT     ROW-Y     COL-X  M-INTENC        dB      WIND INC-ANGLE  ENERGY-M  ENERGY-N  ENERGY-R ENERGY-NN  FG-DEPTH      FLAG         HEADING-DEG    E30-75   E75-390  E390-600 meanincut   meanout   cut/out  STD-NORM  SPEC-MAX   GL-MEAN    GL-VAR      CORR   ENTROPY   HOMOGEN    ENERGY  CONTRAST  DISSIMIL     STD-O    E 1-30 E600-2000   E2000 >      GODA  LONG-HIG     Tmean  CONVOLUT  MEAN-DIR  relation     Sy/Sx  SKEWNESS  KURTOSIS  cutoff-A >50/10000     INT*V   INT-LOG  S-1_g1f1  S-2_g1f2  S-3_g1f3  S-4_g2f1  S-5_g2f2  S-6_g2f3  S-7_g3f1  S-8_g3f2  S-9_g3f3 S-10_g1f4 S-11_g2f4 S-12_g3f4 S-13_g1f5 S-14_g2f5 S-15_g3f5 S-16_g4f1 S-17_g4f2 S-18_g4f3 S-19_g4f4 S-20_g4f5
--------------1--------------2---------3---------4---------5---------6---------7---------8---------9--------10--------11--------12--------13--------14--------15--------16--------17--------18--------19--------20------------------21--------22--------23--------24--------25--------26--------27--------28--------29--------30--------31--------32--------33--------34--------35--------36--------37--------38--------39--------40--------41--------42--------43--------44--------45--------46--------47--------48--------49--------50--------51--------52--------53--------54--------55--------56--------57--------58--------59--------60--------61--------62--------63--------64--------65--------66--------67--------68--------69--------70--------71--------72--------73--------74
     -52.050453     -37.587185     100.3      2.70      3.85      88.6         1         1      1000      1000   6226.98    -2.057      16.5      22.5   256.493     0.829      92.3   0.21351       6.4         H               195.8  0.108046  0.068162  0.001730  5.461122  1.056970  5.166772  1.290295     62.67   11.4999  180.1320   0.28592   6.81356   0.14091   0.00264 257.25598  10.88255    8034.3  0.650878  0.001128  0.000032  0.000338  0.164895  7.030936  0.872792     89.96  1.000332  1.000053     3.909    33.637     133.1      94.5     480.8    1102.6     11.52      0.00      1.26      2.02     -0.36      5.28      3.58     -0.96      3.07      0.16     -1.14     -0.85     -0.25      2.39      3.51     -5.65      0.11      8.65     -2.32      3.88
     -52.032761     -37.671352     102.8      2.86      3.85      92.8         1         2      1000      2570   5745.11    -2.407      16.5      23.0   260.614     0.848     102.3   0.22140       6.7         H               195.8  0.108290  0.073575  0.002070  5.524049  1.082011  5.105354  1.303371     89.31   10.6309  161.6727   0.29239   6.67465   0.15171   0.00315 228.80334  10.13261    7487.8  0.662973  0.001458  0.000032  0.000365  0.166882  7.080230  0.893136     91.39  1.000334  1.000052     4.223    47.557     137.8      93.6     411.7    1107.9     11.61     -0.20      2.04      1.91     -0.86      5.41      4.01     -1.19      3.03     -0.59     -1.86     -1.35     -0.38      2.90      3.13     -6.44     -0.68      8.56     -2.82      4.78
     -52.015350     -37.753853     124.2      2.70      3.85     100.2         1         3      1000      4140   5223.17    -2.821      16.3      23.4   257.418     0.836     107.6   0.21801      10.1         H               195.8  0.107231  0.071173  0.002127  5.388846  1.056188  5.102165  1.296020     72.84    9.6949  139.9217   0.29384   6.51682   0.16248   0.00377 197.61418   9.32231    6768.2  0.654880  0.001539  0.000040  0.000348  0.166659  7.063405  0.880394     91.74  1.000325  1.000052     4.105    41.361     137.8      92.6     335.5    1017.2     11.39      0.63      1.73      2.02     -1.89      5.95      4.53     -1.01      3.36     -0.70     -1.57     -1.70     -0.33      2.74      3.92     -6.30     -3.60     10.06     -2.43      4.54
     -52.101780     -37.614777     102.9      2.57      3.85      91.4         2         1      2453      1000   5973.96    -2.237      15.8      22.5   260.880     0.853      84.8   0.22507       6.7         H               195.8  0.112426  0.069218  0.001968  5.677126  1.056183  5.375136  1.309611     87.09   11.0275  170.1829   0.29006   6.74006   0.14615   0.00289 241.63837  10.47603    7822.6  0.669681  0.001069  0.000020  0.000374  0.160758  6.997634  0.898150     92.10  1.000344  1.000059     4.414    50.882     133.1      94.1     447.0    1135.1     12.00      0.50      1.42      1.47     -0.82      4.21      2.83     -0.60      1.28      0.12     -1.17     -1.14     -1.19      1.92      1.64     -8.09     -2.26      6.91     -2.12      4.48
     -52.084072     -37.699047     100.2      2.52      3.85      92.7         2         2      2453      2570   5589.84    -2.526      16.1      23.0   255.466     0.826      90.9   0.21343       6.4         H               195.8  0.106098  0.065825  0.001671  5.647268  1.038193  5.439515  1.287506     66.60   10.3605  153.6758   0.28716   6.63799   0.15305   0.00325 219.09366   9.91463    7196.0  0.652113  0.001179  0.000028  0.000348  0.163323  7.002723  0.868670     91.80  1.000337  1.000054     3.989    36.806     133.1      93.5     382.1    1026.0     11.90      0.15      2.02      1.95     -1.19      4.34      2.85     -0.65      2.10      0.12     -1.45     -0.90     -0.79      1.95      2.83     -6.36     -1.83      6.56     -2.57      3.43
     -52.066639     -37.781647     100.2      2.56      3.85      92.7         2         3      2453      4140   5313.51    -2.746      16.5      23.4   253.548     0.819     100.5   0.21016       6.4         H               195.8  0.105275  0.065790  0.001711  5.564288  1.046116  5.318996  1.283158     58.67    9.8706  142.2492   0.28673   6.55519   0.15884   0.00357 202.92389   9.49397    6817.3  0.645335  0.001276  0.000040  0.000332  0.164555  7.016662  0.861153     92.74  1.000308  1.000047     3.969    37.969     133.1      93.0     342.4     990.1     11.86     -0.18      1.97      2.10     -1.04      4.82      3.18     -0.47      2.70     -0.76     -1.22     -0.95     -0.60      2.36      2.85     -6.33     -1.65      6.56     -1.19      4.02
     -52.153103     -37.642429     107.0      2.53      3.85     100.2         3         1      3906      1000   6151.63    -2.110      16.2      22.5   256.331     0.831      89.5   0.21509       7.3         H               195.8  0.109888  0.065286  0.001859  5.545928  1.059487  5.234541  1.292764     73.98   11.3644  176.5945   0.28555   6.79556   0.14211   0.00269 252.33545  10.76173    7952.7  0.653635  0.001242  0.000025  0.000338  0.160446  6.955018  0.874852     94.23  1.000279  1.000043     4.098    39.959     128.8      94.5     468.8    1145.7     12.22      0.84      0.88      1.04     -0.70      4.26      2.55     -0.13      1.15      0.33     -0.35     -1.06     -1.02      0.99      2.09     -8.57     -2.29      7.14     -0.40      2.27
     -52.135372     -37.726803     107.4      2.47      3.85      98.8         3         2      3906      2570   5728.43    -2.420      16.4      23.0   255.535     0.826      94.7   0.21205       7.4         H               195.8  0.107919  0.063512  0.001990  5.517676  1.036959  5.321019  1.288722     56.00   10.6161  158.6000   0.28541   6.68288   0.14930   0.00306 226.66623  10.13327    7382.1  0.652225  0.001389  0.000029  0.000348  0.158092  6.950664  0.869017     91.77  1.000315  1.000049     4.134    41.469     133.1      93.8     402.4    1066.9     12.02      0.01      1.17      1.10     -0.66      3.92      3.26     -0.43      1.78      0.86     -1.76     -0.49     -1.42      1.66      2.01     -8.96     -1.16      6.02     -3.36      3.70
     -52.117924     -37.809502     100.1      2.48      3.85      94.1         3         3      3906      4140   5413.79    -2.665      16.8      23.4   257.062     0.829     122.8   0.21425       6.4         H               195.8  0.108571  0.063489  0.001976  5.588272  1.042262  5.361678  1.291553     49.17   10.0544  145.9186   0.28421   6.58928   0.15627   0.00341 208.89525   9.65237    6992.2  0.654483  0.001784  0.000055  0.000328  0.162239  6.973220  0.871788     93.53  1.000292  1.000046     4.330    50.557     128.8      93.2     359.0    1044.0     12.07      0.34      1.56      1.10     -1.02      4.13      3.12      0.01      1.92      0.07     -0.64     -0.24     -0.86      1.71      2.11     -8.27     -1.95      6.09     -1.11      3.11
