corner points
-98.8655777    -62.82226181
-99.04789734    -62.97875214
-99.22995758    -62.73244095
-99.41374207    -62.8884697
========== RESULTS WAVE VERSION 16.10.2018 ====================
IMAGE SIZE  X: 4500     Y:4766    col:row     POLARIZATION:VV
COVERAGE    X: 21.00870762km       Y: 19.65725115km 
RESOLUTION dX: 4.668601694m       dY:4.124475692m  
resolution of original product 4.668601694m x 4.124475692m;   raster step x:5999.153176m  
===============================================================
FLAGS: H=HIGH PROBABILITY SEA STATE, I=LAND(ISLAND), O=OUTLIER NO SEA STATE, N=NO WIND AVAILABLE, SEA STATE NOT VISIBLE, M=MEAN PROBABILITY SEA STATE, L= LOW PROBABILITY SEA STATE
Filtering wave length
 integration  Lmin=1m
 integration  Lmax=2200m
  peak        Lmin=100m
               FFT=1024pixels, 4780.648134m 
   mean-Hs (SWH_c)=0.8171331024m
         mean-wind=8.58724308m/s
--------------0--------------1---------2---------3---------4---------5---------6---------7---------8---------9--------10--------11--------12--------13--------14--------15--------16--------17--------18--------19------------------20--------21--------22--------23--------24--------25--------26--------27--------28--------29--------30--------31--------32--------33--------34--------35--------36--------37--------38--------39--------40--------41--------42--------43--------44--------45--------46--------47--------48--------49--------50--------51--------52--------53--------54--------55--------56--------57--------58--------59--------60--------61--------62--------63--------64--------65--------66--------67--------68--------69--------70--------71--------72--------73
            LAT            LON  P-LENGHT     SWH_o     SWH_c     P-DIR      LINE     POINT     ROW-Y     COL-X  M-INTENC        dB      WIND INC-ANGLE  ENERGY-M  ENERGY-N  ENERGY-R ENERGY-NN  FG-DEPTH      FLAG         HEADING-DEG    E30-75   E75-390  E390-600 meanincut   meanout   cut/out  STD-NORM  SPEC-MAX   GL-MEAN    GL-VAR      CORR   ENTROPY   HOMOGEN    ENERGY  CONTRAST  DISSIMIL     STD-O    E 1-30 E600-2000   E2000 >      GODA  LONG-HIG     Tmean  CONVOLUT  MEAN-DIR  relation     Sy/Sx  SKEWNESS  KURTOSIS  cutoff-A >50/10000     INT*V   INT-LOG  S-1_g1f1  S-2_g1f2  S-3_g1f3  S-4_g2f1  S-5_g2f2  S-6_g2f3  S-7_g3f1  S-8_g3f2  S-9_g3f3 S-10_g1f4 S-11_g2f4 S-12_g3f4 S-13_g1f5 S-14_g2f5 S-15_g3f5 S-16_g4f1 S-17_g4f2 S-18_g4f3 S-19_g4f4 S-20_g4f5
--------------1--------------2---------3---------4---------5---------6---------7---------8---------9--------10--------11--------12--------13--------14--------15--------16--------17--------18--------19--------20------------------21--------22--------23--------24--------25--------26--------27--------28--------29--------30--------31--------32--------33--------34--------35--------36--------37--------38--------39--------40--------41--------42--------43--------44--------45--------46--------47--------48--------49--------50--------51--------52--------53--------54--------55--------56--------57--------58--------59--------60--------61--------62--------63--------64--------65--------66--------67--------68--------69--------70--------71--------72--------73--------74
     -62.834969     -98.985954     168.6      0.73      2.46      66.5         1         1      1000      1000    301.85   -15.202       7.9      35.5   311.434     0.581      52.2   0.07887      20.3         H               200.8  0.050102  0.026944  0.000502  2.770767  0.704578  3.932522  1.081616     25.70    5.5516   42.2218   0.11942   5.58325   0.21343   0.00788  74.35925   5.86509     326.5  0.503322  0.000554  0.000076  0.000134  0.192038  7.110600  0.584687     75.50  1.000209  1.000016     2.498    13.520     110.8      87.6      83.9     332.9     11.40      2.47      5.23      6.54      1.29      6.23      2.55     -0.22      2.79      2.09      1.63      0.24      0.48      1.97      2.97     -0.48     -0.29      3.61      0.20      1.89
     -62.809212     -99.090645     161.5      0.70      2.46      57.6         1         2      1000      2285    304.86   -15.159       8.2      35.9   308.427     0.574      78.6   0.07552      18.3         H               200.8  0.047656  0.025223  0.000445  2.587406  0.698609  3.703652  1.074869     27.04    5.6106   42.5036   0.11488   5.60413   0.21071   0.00766  75.24136   5.91972     327.7  0.499587  0.000994  0.000158  0.000130  0.192108  7.092338  0.577160     69.12  1.000180  1.000013     2.465    13.408     107.8      87.9      85.0     351.1     11.54      3.29      4.53      6.22      2.04      5.31      1.87     -0.40      2.53      2.03      2.30      0.57     -0.53      0.80      3.00     -0.80      0.09      2.88      1.10      1.19
     -62.783619     -99.194191     167.9      0.77      2.46      71.5         1         3      1000      3570    312.43   -15.052       8.7      36.2   308.235     0.573      62.1   0.07574      20.1         H               200.8  0.047639  0.025178  0.000530  2.560875  0.703672  3.639304  1.074086     25.98    5.7590   44.4952   0.11423   5.65194   0.20647   0.00729  78.82462   6.06476     335.6  0.499199  0.000859  0.000095  0.000129  0.192356  7.087464  0.576221     72.66  1.000195  1.000013     2.486    13.729     107.8      88.1      89.3     354.0     11.68      3.43      5.19      5.94      1.74      5.11      1.81     -0.76      2.24      3.01      2.16      0.17      0.10      1.50      2.70     -1.73     -0.38      1.52     -0.04      1.53
     -62.882698     -99.041611     168.6      0.81      2.46      66.5         2         1      2454      1000    332.89   -14.777       8.5      35.5   310.829     0.580     100.4   0.07854      20.3         H               200.8  0.049468  0.026227  0.000534  2.697177  0.710916  3.793946  1.080810     26.03    6.1678   50.9540   0.11880   5.77710   0.19718   0.00647  89.80165   6.46372     359.8  0.502586  0.001299  0.000232  0.000132  0.191053  7.091144  0.583552     76.21  1.000192  1.000014     2.523    14.211     114.0      89.2     102.7     404.1     11.47      2.88      5.11      6.38      1.33      5.91      2.54     -0.80      2.73      1.92      1.39     -0.21      0.11      1.48      2.76     -1.17     -0.56      3.03     -0.12      1.52
     -62.856903     -99.146423     160.4      0.87      2.46      70.0         2         2      2454      2285    332.34   -14.784       8.8      35.9   308.519     0.574      77.7   0.07650      18.0         H               200.8  0.048259  0.026123  0.000434  2.636065  0.710427  3.710535  1.074901     30.77    6.1560   50.2801   0.11640   5.77452   0.19712   0.00647  88.85500   6.44962     357.2  0.498259  0.001020  0.000133  0.000137  0.194936  7.101074  0.577271     73.74  1.000182  1.000013     2.469    13.591     110.8      89.1     101.6     387.9     11.52      2.99      5.60      6.77      1.57      6.18      2.26     -0.57      2.67      2.73      1.81      0.01      0.40      1.73      2.81     -0.20     -0.22      3.06     -0.00      1.65
     -62.831268     -99.250107     173.4      0.81      2.46      60.5         2         3      2454      3570    320.27   -14.945       8.9      36.2   307.916     0.572      79.4   0.07618      21.7         H               200.8  0.047630  0.025177  0.000634  2.579013  0.707996  3.642697  1.073560     26.41    5.9163   46.7455   0.11573   5.70156   0.20246   0.00695  82.67152   6.21842     343.8  0.498054  0.001103  0.000139  0.000127  0.190959  7.072295  0.575617     73.17  1.000206  1.000016     2.456    13.350     107.8      88.5      94.0     373.2     11.60      2.72      5.23      5.98      1.29      5.28      2.40     -0.42      2.62      2.17      1.13      0.19      0.50      1.25      2.80     -2.21     -0.82      1.61     -1.07      0.76
     -62.930405     -99.097443     160.4      1.00      2.46      70.0         3         1      3908      1000    346.58   -14.602       8.8      35.5   307.754     0.574      68.4   0.07734      18.0         H               200.8  0.047799  0.027634  0.000604  2.763723  0.698865  3.954586  1.075023     32.37    6.4399   54.4977   0.11904   5.85769   0.19076   0.00595  96.02135   6.71166     372.5  0.497279  0.001046  0.000087  0.000143  0.197595  7.156708  0.578165     70.03  1.000220  1.000016     2.493    14.053     110.8      89.7     110.9     414.9     11.64      3.53      5.71      6.40      1.74      5.80      2.46     -0.42      3.04      2.94      2.13      0.16      0.12      1.39      3.28     -1.39     -0.72      1.84      0.16      1.01
     -62.904572     -99.202385     169.9      0.88      2.46      73.6         3         2      3908      2285    338.75   -14.701       8.9      35.9   307.999     0.574      87.8   0.07662      20.7         H               200.8  0.048182  0.025984  0.000511  2.668803  0.704508  3.788178  1.074776     25.79    6.2846   52.3058   0.11700   5.81276   0.19402   0.00623  92.37202   6.57428     364.1  0.497911  0.001235  0.000163  0.000137  0.193779  7.105401  0.577175     73.20  1.000197  1.000014     2.442    12.960     110.8      89.4     105.8     374.7     11.51      3.62      5.32      6.67      2.03      6.04      2.21     -0.42      2.65      2.81      2.55      0.63      0.21      1.80      2.91     -0.88     -0.41      2.67      0.34      1.55
     -62.878895     -99.306190     152.6      0.79      2.46      73.2         3         3      3908      3570    302.12   -15.198       8.5      36.2   308.518     0.574      74.4   0.07610      16.0         H               200.8  0.047370  0.025854  0.000559  2.636722  0.693425  3.802463  1.075016     28.65    5.5548   41.8533   0.11586   5.58548   0.21260   0.00784  74.00845   5.86589     324.7  0.499260  0.001084  0.000120  0.000139  0.194748  7.107253  0.577287     71.97  1.000197  1.000013     2.442    12.886     114.0      87.7      83.5     327.6     11.80      3.59      5.74      6.10      1.65      5.45      2.04     -0.68      2.80      2.82      2.37      0.22      0.37      1.40      3.13     -1.76     -0.84      1.03      0.25      0.68
