corner points
-77.94008636    -28.44298744
-77.98880005    -28.62191391
-78.15133667    -28.39631462
-78.20052338    -28.57515144
========== RESULTS WAVE VERSION 16.10.2018 ====================
IMAGE SIZE  X: 5715     Y:4920    col:row     POLARIZATION:VV
COVERAGE    X: 21.25995108km       Y: 20.41198449km 
RESOLUTION dX: 3.720026435m       dY:4.148777335m  
resolution of original product 3.720026435m x 4.148777335m;   raster step x:5996.682613m  
===============================================================
FLAGS: H=HIGH PROBABILITY SEA STATE, I=LAND(ISLAND), O=OUTLIER NO SEA STATE, N=NO WIND AVAILABLE, SEA STATE NOT VISIBLE, M=MEAN PROBABILITY SEA STATE, L= LOW PROBABILITY SEA STATE
Filtering wave length
 integration  Lmin=1m
 integration  Lmax=2200m
  peak        Lmin=100m
               FFT=1024pixels, 3809.307069m 
   mean-Hs (SWH_c)=0.2054006195m
         mean-wind=5.705350399m/s
--------------0--------------1---------2---------3---------4---------5---------6---------7---------8---------9--------10--------11--------12--------13--------14--------15--------16--------17--------18--------19------------------20--------21--------22--------23--------24--------25--------26--------27--------28--------29--------30--------31--------32--------33--------34--------35--------36--------37--------38--------39--------40--------41--------42--------43--------44--------45--------46--------47--------48--------49--------50--------51--------52--------53--------54--------55--------56--------57--------58--------59--------60--------61--------62--------63--------64--------65--------66--------67--------68--------69--------70--------71--------72--------73
            LAT            LON  P-LENGHT     SWH_o     SWH_c     P-DIR      LINE     POINT     ROW-Y     COL-X  M-INTENC        dB      WIND INC-ANGLE  ENERGY-M  ENERGY-N  ENERGY-R ENERGY-NN  FG-DEPTH      FLAG         HEADING-DEG    E30-75   E75-390  E390-600 meanincut   meanout   cut/out  STD-NORM  SPEC-MAX   GL-MEAN    GL-VAR      CORR   ENTROPY   HOMOGEN    ENERGY  CONTRAST  DISSIMIL     STD-O    E 1-30 E600-2000   E2000 >      GODA  LONG-HIG     Tmean  CONVOLUT  MEAN-DIR  relation     Sy/Sx  SKEWNESS  KURTOSIS  cutoff-A >50/10000     INT*V   INT-LOG  S-1_g1f1  S-2_g1f2  S-3_g1f3  S-4_g2f1  S-5_g2f2  S-6_g2f3  S-7_g3f1  S-8_g3f2  S-9_g3f3 S-10_g1f4 S-11_g2f4 S-12_g3f4 S-13_g1f5 S-14_g2f5 S-15_g3f5 S-16_g4f1 S-17_g4f2 S-18_g4f3 S-19_g4f4 S-20_g4f5
--------------1--------------2---------3---------4---------5---------6---------7---------8---------9--------10--------11--------12--------13--------14--------15--------16--------17--------18--------19--------20------------------21--------22--------23--------24--------25--------26--------27--------28--------29--------30--------31--------32--------33--------34--------35--------36--------37--------38--------39--------40--------41--------42--------43--------44--------45--------46--------47--------48--------49--------50--------51--------52--------53--------54--------55--------56--------57--------58--------59--------60--------61--------62--------63--------64--------65--------66--------67--------68--------69--------70--------71--------72--------73--------74
     -28.470991     -77.987999     166.8      0.32      2.03     131.9         1         1      1000      1000   2096.17    -6.786       5.1      23.2   330.563     0.671     101.2   0.14409      19.8         H               192.7  0.068486  0.040653  0.000843  3.783693  0.878217  4.308383  1.162781     31.52    3.7129   23.4598   0.24055   4.82369   0.30534   0.01935  35.63303   3.87345    2437.2  0.560451  0.001318  0.000086  0.000152  0.198194  7.154655  0.701181    104.38  1.000145  1.000011     2.985    19.655      66.4      79.6      43.9     304.6     11.73     -1.94     -1.46      4.03      0.41      0.84     -1.36      2.60      2.15      1.28      0.14     -0.62     -4.94     -3.18      1.74     -2.83      0.64      1.11      0.06     -0.81
     -28.457680     -78.048332     154.2      0.36      2.03     136.5         1         2      1000      2612   2100.41    -6.777       5.8      23.6   329.116     0.666      82.0   0.14234      16.4         H               192.7  0.068102  0.036954  0.000728  3.474788  0.889809  3.905093  1.157972     21.65    3.7290   23.4610   0.23719   4.83360   0.30336   0.01896  35.79211   3.89164    2432.1  0.559511  0.001138  0.000041  0.000143  0.193964  7.102157  0.694539    106.75  1.000130  1.000009     2.959    18.913      65.3      79.8      44.0     285.6     11.73     -1.50     -2.01      3.57      0.56      1.03     -1.47      2.35      2.24      1.56      0.68     -0.69     -4.27     -2.59      1.58     -2.80      0.76      1.76      0.57     -0.69
     -28.444590     -78.107536     162.9      0.36      2.03     140.1         1         3      1000      4224   1871.70    -7.278       5.7      24.1   331.483     0.676      60.1   0.14662      18.7         H               192.7  0.071527  0.037794  0.000676  3.653285  0.907321  4.026453  1.164701     26.73    3.2691   18.8521   0.24133   4.59994   0.33002   0.02406  28.60489   3.45694    2179.9  0.565752  0.000749  0.000017  0.000148  0.188641  7.057780  0.705596    100.15  1.000146  1.000013     3.008    19.879      66.4      77.0      35.3     265.5     11.53     -1.29     -1.94      3.85      0.77      0.84     -1.26      2.30      2.61      1.56      0.29     -0.67     -4.06     -2.47      1.34     -2.23      0.61      1.28      0.16     -0.12
     -28.523584     -78.002335     166.8      0.35      2.03     131.9         2         1      2446      1000   2285.67    -6.410       5.6      23.1   331.494     0.674     149.7   0.14550      19.8         H               192.7  0.070194  0.036634  0.000801  3.472686  0.885173  3.923172  1.165352     21.85    4.0836   27.9054   0.24124   4.99226   0.28733   0.01639  42.34696   4.22875    2663.6  0.564759  0.002104  0.000162  0.000148  0.189594  7.050831  0.703733     94.07  1.000142  1.000012     2.984    19.124      67.5      81.3      52.3     307.6     11.52     -1.87     -1.87      3.70      0.10      0.73     -0.89      2.23      2.77      1.87      0.44     -0.93     -3.49     -2.59      1.14     -2.89      0.97      0.65      0.35     -1.13
     -28.510265     -78.062706     184.1      0.38      2.03     137.4         2         2      2446      2612   2194.12    -6.587       6.1      23.6   333.462     0.682     208.6   0.14858      25.3         H               192.7  0.070974  0.035657  0.000789  3.460762  0.895374  3.865158  1.170962     22.60    3.9014   26.0512   0.24363   4.90873   0.29683   0.01792  39.40865   4.06036    2569.1  0.571633  0.002812  0.000275  0.000145  0.188679  7.033335  0.711796     92.15  1.000151  1.000013     2.983    18.699      69.9      80.4      48.4     311.3     11.67     -1.62     -1.09      3.65      0.34      0.86     -0.91      2.51      2.20      1.64      0.33     -0.49     -3.70     -2.47      1.44     -3.06      0.25      0.76     -0.29     -0.61
     -28.497168     -78.121948     158.5      0.35      2.03     138.3         2         3      2446      4224   1848.54    -7.332       5.6      24.1   334.911     0.687     127.8   0.15080      17.5         H               192.7  0.071092  0.038527  0.000789  3.712515  0.900938  4.120724  1.175253     26.95    3.2237   18.7301   0.24463   4.57209   0.33494   0.02505  28.29610   3.41671    2172.4  0.575252  0.001834  0.000113  0.000152  0.190753  7.067728  0.717524    103.73  1.000152  1.000013     3.039    19.627      71.1      76.6      34.8     247.3     11.73     -1.79     -1.34      3.57     -0.07      1.17     -0.97      2.38      2.24      1.17      0.22     -0.32     -4.31     -2.61      1.83     -2.95      0.37      1.54      0.31     -0.65
     -28.576176     -78.016693     177.3      0.37      2.03     131.9         3         1      3892      1000   2367.78    -6.257       5.9      23.1   330.633     0.672      60.1   0.14380      23.0         H               192.7  0.068736  0.037159  0.000699  3.472966  0.872702  3.979554  1.162859     26.10    4.2549   29.9185   0.23868   5.06697   0.27911   0.01515  45.55484   4.39258    2753.3  0.564569  0.000784  0.000019  0.000148  0.193054  7.089730  0.700670     99.73  1.000146  1.000010     2.977    19.143      66.4      82.1      56.2     325.2     11.61     -1.84     -1.97      3.78      0.50      0.62     -1.34      2.33      2.78      1.53      0.41     -0.84     -4.07     -2.68      1.26     -2.51      0.91      0.52      0.52     -0.51
     -28.562851     -78.077103     183.5      0.36      2.03     133.7         3         2      3892      2612   2105.06    -6.767       5.8      23.6   333.109     0.681      79.7   0.14862      25.1         H               192.7  0.073212  0.035936  0.000686  3.504615  0.894796  3.916663  1.169743     28.38    3.7276   23.9355   0.24273   4.82893   0.30506   0.01933  36.25119   3.89758    2462.1  0.570737  0.001000  0.000065  0.000155  0.183866  7.000195  0.710820     92.99  1.000177  1.000014     3.053    20.847      69.9      79.5      44.7     312.1     11.54     -1.50     -1.10      3.99      0.35      0.73     -0.98      2.43      2.19      1.51      0.33     -0.47     -4.02     -2.32      1.56     -2.50      0.12      0.57      0.01     -0.13
     -28.549746     -78.136383     148.2      0.36      2.03      51.1         3         3      3892      4224   1918.42    -7.171       5.8      24.1   337.615     0.695      76.8   0.15488      15.0         H               192.7  0.076260  0.037449  0.000855  3.599516  0.945020  3.808932  1.181986     19.35    3.3669   20.3785   0.24777   4.64638   0.32656   0.02335  30.65855   3.55292    2267.5  0.579860  0.001048  0.000036  0.000149  0.186627  7.000759  0.725975     81.96  1.000162  1.000014     3.141    21.772      69.9      77.4      37.8     285.6     11.68     -0.31     -1.43      3.42      0.60      1.50     -0.52      1.85      2.27      1.51      0.57     -0.57     -3.42     -2.41      1.22     -3.29     -0.12      2.06      0.53     -0.75
