corner points
-100.8160858    -64.39706421
-101.0192566    -64.55098724
-101.1952972    -64.30238342
-101.3999863    -64.45579529
========== RESULTS WAVE VERSION 16.10.2018 ====================
IMAGE SIZE  X: 4500     Y:4765    col:row     POLARIZATION:VV
COVERAGE    X: 21.02581511km       Y: 19.64822671km 
RESOLUTION dX: 4.672403357m       dY:4.123447368m  
resolution of original product 4.672403357m x 4.123447368m;   raster step x:5999.36591m  
===============================================================
FLAGS: H=HIGH PROBABILITY SEA STATE, I=LAND(ISLAND), O=OUTLIER NO SEA STATE, N=NO WIND AVAILABLE, SEA STATE NOT VISIBLE, M=MEAN PROBABILITY SEA STATE, L= LOW PROBABILITY SEA STATE
Filtering wave length
 integration  Lmin=1m
 integration  Lmax=2200m
  peak        Lmin=100m
               FFT=1024pixels, 4784.541038m 
   mean-Hs (SWH_c)=1.174421768m
         mean-wind=10.96831322m/s
--------------0--------------1---------2---------3---------4---------5---------6---------7---------8---------9--------10--------11--------12--------13--------14--------15--------16--------17--------18--------19------------------20--------21--------22--------23--------24--------25--------26--------27--------28--------29--------30--------31--------32--------33--------34--------35--------36--------37--------38--------39--------40--------41--------42--------43--------44--------45--------46--------47--------48--------49--------50--------51--------52--------53--------54--------55--------56--------57--------58--------59--------60--------61--------62--------63--------64--------65--------66--------67--------68--------69--------70--------71--------72--------73
            LAT            LON  P-LENGHT     SWH_o     SWH_c     P-DIR      LINE     POINT     ROW-Y     COL-X  M-INTENC        dB      WIND INC-ANGLE  ENERGY-M  ENERGY-N  ENERGY-R ENERGY-NN  FG-DEPTH      FLAG         HEADING-DEG    E30-75   E75-390  E390-600 meanincut   meanout   cut/out  STD-NORM  SPEC-MAX   GL-MEAN    GL-VAR      CORR   ENTROPY   HOMOGEN    ENERGY  CONTRAST  DISSIMIL     STD-O    E 1-30 E600-2000   E2000 >      GODA  LONG-HIG     Tmean  CONVOLUT  MEAN-DIR  relation     Sy/Sx  SKEWNESS  KURTOSIS  cutoff-A >50/10000     INT*V   INT-LOG  S-1_g1f1  S-2_g1f2  S-3_g1f3  S-4_g2f1  S-5_g2f2  S-6_g2f3  S-7_g3f1  S-8_g3f2  S-9_g3f3 S-10_g1f4 S-11_g2f4 S-12_g3f4 S-13_g1f5 S-14_g2f5 S-15_g3f5 S-16_g4f1 S-17_g4f2 S-18_g4f3 S-19_g4f4 S-20_g4f5
--------------1--------------2---------3---------4---------5---------6---------7---------8---------9--------10--------11--------12--------13--------14--------15--------16--------17--------18--------19--------20------------------21--------22--------23--------24--------25--------26--------27--------28--------29--------30--------31--------32--------33--------34--------35--------36--------37--------38--------39--------40--------41--------42--------43--------44--------45--------46--------47--------48--------49--------50--------51--------52--------53--------54--------55--------56--------57--------58--------59--------60--------61--------62--------63--------64--------65--------66--------67--------68--------69--------70--------71--------72--------73--------74
     -64.408150    -100.944191     179.1      1.18      2.67      59.4         1         1      1000      1000    439.68   -13.569      10.5      35.5   309.235     0.575     126.7   0.07984      23.6         H               202.0  0.048371  0.025530  0.000687  2.575862  0.706636  3.645244  1.076698     30.45    8.2796   86.0037   0.12252   6.32207   0.15713   0.00372 150.93251   8.47467     473.4  0.499015  0.002026  0.000234  0.000135  0.196267  7.112440  0.579059     68.25  1.000203  1.000015     2.465    13.105     107.8      92.8     183.5     489.9     12.12      5.04      5.06      5.14      2.59      4.74      1.22     -0.45      1.87      4.76      3.39      0.55     -0.57      1.54      2.67     -3.30     -1.22      1.07     -0.23      2.01
     -64.381020    -101.053070     180.3      1.08      2.67      64.7         1         2      1000      2284    420.08   -13.767      10.5      35.8   308.660     0.570     104.4   0.07690      24.0         H               202.0  0.046116  0.023951  0.000677  2.392629  0.690965  3.462735  1.071396     28.23    7.8932   78.3779   0.11628   6.23498   0.16269   0.00404 138.52805   8.11913     450.1  0.497918  0.001825  0.000167  0.000125  0.196702  7.099548  0.572826     68.87  1.000190  1.000015     2.436    12.834     102.3      92.2     165.5     451.2     12.24      5.16      4.72      4.52      1.91      4.13      0.98     -0.84      1.41      4.39      3.02      0.30     -0.52      1.38      2.65     -4.07     -1.82      0.79      0.03      1.50
     -64.354057    -101.160736     180.7      1.10      2.67      56.2         1         3      1000      3568    413.70   -13.833      10.7      36.2   310.206     0.575     202.6   0.07875      24.1         H               202.0  0.046697  0.024149  0.000769  2.381921  0.724561  3.287401  1.076576     30.05    7.7656   76.6593   0.12059   6.20383   0.16468   0.00420 134.82996   7.99924     445.3  0.500327  0.002976  0.000464  0.000131  0.199468  7.121349  0.578282     66.62  1.000164  1.000013     2.480    13.463     105.0      91.9     161.4     471.3     12.38      5.83      4.69      4.46      2.41      4.18      0.84     -1.43      1.44      4.54      3.10     -0.01     -0.78      1.34      2.79     -4.88     -1.80      0.49     -0.45      1.74
     -64.455139    -101.006256     152.7      1.18      2.67      73.2         2         1      2455      1000    468.59   -13.292      11.0      35.5   311.081     0.578     122.5   0.08070      16.0         H               202.0  0.048421  0.024105  0.000675  2.451321  0.715726  3.424944  1.079157     27.98    8.8444   96.8920   0.12126   6.44364   0.14902   0.00329 170.28513   9.03461     505.7  0.502876  0.002182  0.000215  0.000133  0.192921  7.049112  0.581023     71.27  1.000165  1.000012     2.476    13.294     105.0      93.4     210.4     530.7     11.89      5.25      4.76      5.32      2.57      4.73      1.58     -0.73      1.80      4.63      3.44      0.71     -0.43      1.15      2.83     -3.24     -1.18      1.47     -0.12      1.24
     -64.427963    -101.115265     168.7      1.12      2.67      66.5         2         2      2455      2284    440.17   -13.564      10.8      35.8   311.414     0.577     130.7   0.07938      20.3         H               202.0  0.047911  0.024028  0.000770  2.390307  0.708287  3.374773  1.077887     33.27    8.2860   86.2438   0.11920   6.32354   0.15691   0.00372 151.92810   8.50701     474.4  0.502059  0.002150  0.000252  0.000135  0.193362  7.067631  0.579638     68.96  1.000180  1.000014     2.476    13.408     107.8      92.7     183.9     503.4     12.10      5.36      4.78      4.72      2.11      4.66      1.78     -0.25      2.07      4.42      3.61      0.91     -0.51      1.65      2.75     -4.36     -2.31      1.36      0.21      2.22
     -64.400955    -101.223068     173.8      1.15      2.67      70.8         2         3      2455      3568    447.12   -13.496      11.3      36.2   308.163     0.572     146.8   0.07928      21.8         H               202.0  0.047404  0.023334  0.000758  2.330626  0.700013  3.329404  1.073315     30.02    8.4247   88.2805   0.11989   6.35493   0.15472   0.00359 155.39209   8.61655     479.9  0.498137  0.002291  0.000311  0.000128  0.193092  7.057510  0.574612     71.44  1.000161  1.000012     2.448    13.102     105.0      92.9     189.1     510.2     12.21      5.23      4.35      4.51      2.16      4.57      1.38     -0.32      1.18      4.44      3.60      0.23     -0.73      1.74      2.17     -5.09     -2.60      1.59      0.44      2.53
     -64.502098    -101.068535     158.4      1.37      2.67      68.0         3         1      3910      1000    504.36   -12.973      11.5      35.4   309.255     0.576     130.4   0.08146      17.5         H               202.0  0.048320  0.025066  0.000677  2.466938  0.713978  3.455202  1.077016     34.84    9.5420  110.3145   0.12350   6.58296   0.14013   0.00284 193.38185   9.67825     543.2  0.499787  0.002175  0.000246  0.000138  0.194422  7.082491  0.579090     68.27  1.000168  1.000013     2.463    13.289     105.0      94.1     245.3     580.6     12.00      5.23      4.69      5.03      2.70      4.68      1.54     -0.52      1.99      4.79      3.27      0.92     -0.72      1.14      2.51     -3.40     -0.99      1.34     -0.67      2.10
     -64.474876    -101.177673     158.4      1.28      2.67      68.0         3         2      3910      2284    469.91   -13.280      11.3      35.8   307.863     0.572      91.9   0.08028      17.5         H               202.0  0.047419  0.024701  0.000726  2.483366  0.722533  3.437027  1.072907     29.70    8.8707   96.5424   0.12180   6.45025   0.14882   0.00326 169.56671   9.03283     504.2  0.497846  0.001552  0.000140  0.000132  0.193865  7.076230  0.574939     68.89  1.000155  1.000013     2.454    13.467      99.7      93.4     210.1     569.4     12.09      5.25      4.80      4.90      2.53      4.57      1.62     -0.46      1.60      4.29      3.70      0.64     -0.75      1.26      2.61     -4.03     -1.31      1.35      0.76      1.49
     -64.447823    -101.285599     165.8      1.12      2.67      69.3         3         3      3910      3568    443.96   -13.527      11.2      36.2   308.485     0.570     119.4   0.07811      19.5         H               202.0  0.047450  0.023085  0.000733  2.297865  0.719157  3.195219  1.071688     27.35    8.3615   86.6750   0.11821   6.34159   0.15515   0.00363 152.85654   8.56118     475.7  0.497120  0.002089  0.000213  0.000126  0.193699  7.053491  0.572954     69.24  1.000171  1.000013     2.469    13.775     102.3      92.7     186.1     532.7     12.18      5.21      4.28      4.35      1.65      4.07      1.35     -0.71      1.51      3.98      2.99      0.34     -1.11      1.43      2.53     -4.94     -2.81      0.64     -0.21      2.29
