corner points
-84.29223633    -41.06412888
-84.36139679    -41.23462296
-84.52892303    -41.00798798
-84.59868622    -41.1783371
========== RESULTS WAVE VERSION 16.10.2018 ====================
IMAGE SIZE  X: 4500     Y:4776    col:row     POLARIZATION:VV
COVERAGE    X: 20.76559514km       Y: 19.77885828km 
RESOLUTION dX: 4.614576698m       dY:4.141301984m  
resolution of original product 4.614576698m x 4.141301984m;   raster step x:5998.949708m  
===============================================================
FLAGS: H=HIGH PROBABILITY SEA STATE, I=LAND(ISLAND), O=OUTLIER NO SEA STATE, N=NO WIND AVAILABLE, SEA STATE NOT VISIBLE, M=MEAN PROBABILITY SEA STATE, L= LOW PROBABILITY SEA STATE
Filtering wave length
 integration  Lmin=1m
 integration  Lmax=2200m
  peak        Lmin=100m
               FFT=1024pixels, 4725.326539m 
   mean-Hs (SWH_c)=1.158998642m
         mean-wind=12.94490623m/s
--------------0--------------1---------2---------3---------4---------5---------6---------7---------8---------9--------10--------11--------12--------13--------14--------15--------16--------17--------18--------19------------------20--------21--------22--------23--------24--------25--------26--------27--------28--------29--------30--------31--------32--------33--------34--------35--------36--------37--------38--------39--------40--------41--------42--------43--------44--------45--------46--------47--------48--------49--------50--------51--------52--------53--------54--------55--------56--------57--------58--------59--------60--------61--------62--------63--------64--------65--------66--------67--------68--------69--------70--------71--------72--------73
            LAT            LON  P-LENGHT     SWH_o     SWH_c     P-DIR      LINE     POINT     ROW-Y     COL-X  M-INTENC        dB      WIND INC-ANGLE  ENERGY-M  ENERGY-N  ENERGY-R ENERGY-NN  FG-DEPTH      FLAG         HEADING-DEG    E30-75   E75-390  E390-600 meanincut   meanout   cut/out  STD-NORM  SPEC-MAX   GL-MEAN    GL-VAR      CORR   ENTROPY   HOMOGEN    ENERGY  CONTRAST  DISSIMIL     STD-O    E 1-30 E600-2000   E2000 >      GODA  LONG-HIG     Tmean  CONVOLUT  MEAN-DIR  relation     Sy/Sx  SKEWNESS  KURTOSIS  cutoff-A >50/10000     INT*V   INT-LOG  S-1_g1f1  S-2_g1f2  S-3_g1f3  S-4_g2f1  S-5_g2f2  S-6_g2f3  S-7_g3f1  S-8_g3f2  S-9_g3f3 S-10_g1f4 S-11_g2f4 S-12_g3f4 S-13_g1f5 S-14_g2f5 S-15_g3f5 S-16_g4f1 S-17_g4f2 S-18_g4f3 S-19_g4f4 S-20_g4f5
--------------1--------------2---------3---------4---------5---------6---------7---------8---------9--------10--------11--------12--------13--------14--------15--------16--------17--------18--------19--------20------------------21--------22--------23--------24--------25--------26--------27--------28--------29--------30--------31--------32--------33--------34--------35--------36--------37--------38--------39--------40--------41--------42--------43--------44--------45--------46--------47--------48--------49--------50--------51--------52--------53--------54--------55--------56--------57--------58--------59--------60--------61--------62--------63--------64--------65--------66--------67--------68--------69--------70--------71--------72--------73--------74
     -41.087242     -84.360001     194.3      1.12      3.27     120.3         1         1      1000      1000    550.14   -12.595      12.7      36.0   273.443     0.585      39.4   0.08565      29.1         H               193.8  0.056773  0.020469  0.000639  2.008597  0.726278  2.765603  1.084887     20.14   10.4152  128.4555   0.12711   6.73923   0.13078   0.00240 224.25473  10.47543     596.8  0.506821  0.000507  0.000025  0.000136  0.178243  6.842844  0.590542     95.87  1.000203  1.000015     2.614    16.391     110.8      94.9     296.9     720.2     12.34     -3.45      1.88      2.13     -1.07      2.81      0.62      1.17     -0.03     -1.96     -2.25      0.36     -2.38      0.17      2.13     -6.06      0.33      3.00     -2.19      1.02
     -41.070965     -84.428719     177.6      1.17      3.27     120.2         1         2      1000      2300    556.88   -12.542      13.1      36.4   272.590     0.583      47.6   0.08534      23.1         H               193.8  0.056334  0.020221  0.000695  2.022245  0.743156  2.721160  1.082841     19.17   10.5467  131.5203   0.12873   6.76175   0.12957   0.00236 229.17932  10.59965     603.0  0.505107  0.000728  0.000045  0.000133  0.177288  6.852043  0.588496     98.50  1.000185  1.000015     2.510    13.832     110.8      95.0     304.6     664.8     12.07     -3.09      1.99      2.58     -1.36      2.89      1.29      0.78      0.48     -2.18     -2.46      0.20     -2.16      0.25      1.94     -6.35      0.30      2.66     -1.80      1.67
     -41.054790     -84.496796     194.3      1.40      3.27     120.3         1         3      1000      3600    599.92   -12.219      14.0      36.8   273.842     0.587     179.4   0.08838      29.1         M               193.8  0.055993  0.020946  0.000747  2.065203  0.731770  2.822203  1.087495     22.96   11.3572  149.4224   0.13420   6.89060   0.12291   0.00205 258.73828  11.31605     652.4  0.506678  0.002101  0.000584  0.000135  0.179876  6.870329  0.592667     98.55  1.000138  1.000010     2.540    14.190     107.8      95.7     357.6     727.8     12.24     -3.65      1.63      2.29     -2.00      3.19      0.99      1.09     -0.15     -2.83     -2.47      0.41     -2.40     -0.26      2.24     -6.91     -0.25      4.01     -1.72      0.56
     -41.138939     -84.381004     191.3      1.15      3.27     125.9         2         1      2448      1000    567.20   -12.463      12.9      36.0   274.302     0.587      42.6   0.08698      28.0         H               193.8  0.058433  0.020412  0.000701  2.009056  0.735015  2.733355  1.087278     18.59   10.7380  135.7601   0.12996   6.79212   0.12783   0.00228 236.23300  10.76805     616.6  0.507667  0.000617  0.000029  0.000146  0.175092  6.818959  0.593368     94.53  1.000243  1.000019     2.572    14.890     114.0      95.2     317.7     705.2     12.20     -3.14      1.87      2.48     -1.95      2.99      1.13      1.49      0.19     -2.26     -2.06      0.56     -2.05      0.18      2.01     -6.71     -0.97      2.64     -1.09      1.20
     -41.122646     -84.449776     203.4      1.16      3.27     125.1         2         2      2448      2300    551.52   -12.584      13.0      36.4   273.660     0.586      39.6   0.08675      33.1         H               193.8  0.057539  0.020541  0.000673  2.033906  0.727861  2.794359  1.086297     19.94   10.4403  129.5184   0.13008   6.74245   0.13104   0.00241 225.34079  10.49363     599.1  0.507492  0.000500  0.000026  0.000148  0.175745  6.819098  0.592124     92.72  1.000210  1.000017     2.554    14.455     110.8      94.9     299.1     678.2     12.46     -3.87      2.19      2.32     -1.96      2.36      0.30      1.62      0.14     -2.95     -2.55      0.70     -2.68      0.24      2.31     -6.48     -0.74      1.29     -1.99      1.38
     -41.106461     -84.517899     177.6      1.11      3.27     120.2         2         3      2448      3600    540.26   -12.674      13.1      36.8   272.348     0.581      47.2   0.08440      23.1         H               193.8  0.056758  0.019640  0.000602  1.956228  0.715602  2.733683  1.080772     14.93   10.2289  124.6003   0.12755   6.70751   0.13273   0.00250 217.41528  10.30258     583.9  0.503271  0.000674  0.000051  0.000149  0.171814  6.800055  0.586174     90.00  1.000196  1.000016     2.502    13.860     107.8      94.8     284.7     652.4     12.05     -2.94      1.80      2.54     -1.78      2.26      0.88      0.84      0.15     -1.76     -2.18      0.17     -2.77      0.11      1.84     -5.92     -0.47      1.91     -1.78      1.72
     -41.190628     -84.402031     196.4      1.28      3.27     123.8         3         1      3896      1000    589.16   -12.298      13.2      36.0   274.835     0.589      45.4   0.08777      30.0         H               193.8  0.058392  0.021243  0.000608  2.139309  0.736593  2.904330  1.089003     21.22   11.1550  145.2820   0.13115   6.85955   0.12424   0.00213 252.45660  11.16261     641.6  0.508862  0.000560  0.000047  0.000147  0.175077  6.830223  0.595488     94.98  1.000208  1.000016     2.549    14.231     110.8      95.5     345.3     703.2     12.26     -3.01      2.17      2.76     -2.09      2.85      0.53      0.89      0.15     -2.45     -2.57      0.08     -2.80      0.22      2.40     -5.52     -1.22      2.59     -1.82      1.48
     -41.174324     -84.470863     198.8      1.19      3.27     118.0         3         2      3896      2300    537.25   -12.698      12.8      36.4   274.205     0.586      49.7   0.08565      31.0         H               193.8  0.057014  0.021413  0.000702  2.149532  0.732311  2.935272  1.086208     21.54   10.1669  123.8781   0.12920   6.69491   0.13392   0.00254 215.74597  10.24895     583.6  0.506877  0.000608  0.000058  0.000150  0.176306  6.829447  0.592394     93.17  1.000203  1.000014     2.563    14.674     114.0      94.7     283.0     667.9     12.41     -3.78      2.21      2.38     -1.94      3.00      0.53      1.45     -0.65     -2.68     -2.59      0.85     -2.58     -0.21      2.34     -6.55     -0.36      3.44     -2.04      0.50
     -41.158123     -84.539040     187.6      1.09      3.27     119.1         3         3      3896      3600    505.75   -12.961      12.6      36.8   272.391     0.579      43.2   0.08252      26.6         H               193.8  0.054723  0.020508  0.000599  2.047264  0.714210  2.866473  1.079409     24.68    9.5678  111.1309   0.12368   6.58729   0.14016   0.00284 194.77261   9.70359     545.9  0.503046  0.000598  0.000035  0.000142  0.178335  6.848622  0.584544     95.33  1.000207  1.000015     2.491    13.884     110.8      94.1     247.3     621.7     12.36     -3.59      1.88      2.62     -2.30      2.91      0.09      1.77      0.15     -2.84     -2.06      0.45     -2.55      0.11      2.40     -5.62     -1.43      2.53     -0.57      1.33
