corner points
-111.3672714    -70.34905243
-111.6993637    -70.48599243
-111.8027573    -70.22865295
-112.1359024    -70.36480713
========== RESULTS WAVE VERSION 16.10.2018 ====================
IMAGE SIZE  X: 4500     Y:4753    col:row     POLARIZATION:VV
COVERAGE    X: 21.07185588km       Y: 19.58047399km 
RESOLUTION dX: 4.682634641m       dY:4.119603196m  
resolution of original product 4.682634641m x 4.119603196m;   raster step x:5998.454975m  
===============================================================
FLAGS: H=HIGH PROBABILITY SEA STATE, I=LAND(ISLAND), O=OUTLIER NO SEA STATE, N=NO WIND AVAILABLE, SEA STATE NOT VISIBLE, M=MEAN PROBABILITY SEA STATE, L= LOW PROBABILITY SEA STATE
Filtering wave length
 integration  Lmin=1m
 integration  Lmax=2200m
  peak        Lmin=100m
               FFT=1024pixels, 4795.017872m 
   mean-Hs (SWH_c)=0m
         mean-wind=7.900926113m/s
--------------0--------------1---------2---------3---------4---------5---------6---------7---------8---------9--------10--------11--------12--------13--------14--------15--------16--------17--------18--------19------------------20--------21--------22--------23--------24--------25--------26--------27--------28--------29--------30--------31--------32--------33--------34--------35--------36--------37--------38--------39--------40--------41--------42--------43--------44--------45--------46--------47--------48--------49--------50--------51--------52--------53--------54--------55--------56--------57--------58--------59--------60--------61--------62--------63--------64--------65--------66--------67--------68--------69--------70--------71--------72--------73
            LAT            LON  P-LENGHT     SWH_o     SWH_c     P-DIR      LINE     POINT     ROW-Y     COL-X  M-INTENC        dB      WIND INC-ANGLE  ENERGY-M  ENERGY-N  ENERGY-R ENERGY-NN  FG-DEPTH      FLAG         HEADING-DEG    E30-75   E75-390  E390-600 meanincut   meanout   cut/out  STD-NORM  SPEC-MAX   GL-MEAN    GL-VAR      CORR   ENTROPY   HOMOGEN    ENERGY  CONTRAST  DISSIMIL     STD-O    E 1-30 E600-2000   E2000 >      GODA  LONG-HIG     Tmean  CONVOLUT  MEAN-DIR  relation     Sy/Sx  SKEWNESS  KURTOSIS  cutoff-A >50/10000     INT*V   INT-LOG  S-1_g1f1  S-2_g1f2  S-3_g1f3  S-4_g2f1  S-5_g2f2  S-6_g2f3  S-7_g3f1  S-8_g3f2  S-9_g3f3 S-10_g1f4 S-11_g2f4 S-12_g3f4 S-13_g1f5 S-14_g2f5 S-15_g3f5 S-16_g4f1 S-17_g4f2 S-18_g4f3 S-19_g4f4 S-20_g4f5
--------------1--------------2---------3---------4---------5---------6---------7---------8---------9--------10--------11--------12--------13--------14--------15--------16--------17--------18--------19--------20------------------21--------22--------23--------24--------25--------26--------27--------28--------29--------30--------31--------32--------33--------34--------35--------36--------37--------38--------39--------40--------41--------42--------43--------44--------45--------46--------47--------48--------49--------50--------51--------52--------53--------54--------55--------56--------57--------58--------59--------60--------61--------62--------63--------64--------65--------66--------67--------68--------69--------70--------71--------72--------73--------74
     -70.350868    -111.535309     397.9      0.42    -38.03     160.6         1         1      1000      1000    260.86   -15.836       6.8      35.4   795.633     1.985    5577.9   0.67440     100.0         H               209.4  0.254808  0.274751  0.064323 19.848215  4.583755  4.330121  2.008488    282.64    4.5941   56.8694   0.34738   5.06595   0.28384   0.01705  74.22743   4.91689     523.8  1.263612  0.117954  0.010875  0.000111  0.228095  7.429750  2.146309    115.63  0.999995  0.999999    33.482  4051.422     137.8      80.3     135.8    1137.1     15.40     -1.70     -0.71     -9.35     -0.48      2.20      7.95     -0.86     -1.45     -1.00     -0.95     -0.19     -0.40     -0.94     -0.15    -39.74      1.31      5.98     -0.55     -0.98
     -70.316437    -111.660103     397.9      0.42    -38.03     160.6         1         2      1000      2281    252.21   -15.982       6.9      35.7   547.019     1.225    4215.1   0.31891     100.0         H               209.4  0.117823  0.111218  0.033642  7.618960  2.308173  3.300862  1.578802    129.67    4.5117   53.1335   0.32439   5.05221   0.28405   0.01701  71.79633   4.85500     398.1  0.863410  0.091703  0.007760  0.000097  0.232310  7.458800  1.305027    107.77  0.999865  0.999991     6.775   146.535     222.8      80.5     100.6     778.4     15.43     -0.75     -1.76    -10.21      1.11      2.89      8.94     -1.15     -3.14      0.59     -0.90      0.79      0.94     -0.87      1.11    -45.44      4.35     12.25     -3.45     -4.76
     -70.282234    -111.783325     397.9      0.54    -38.03      19.4         1         3      1000      3562    336.79   -14.726       9.1      36.1   534.527     1.190    4682.3   0.30574     100.0         H               209.4  0.123144  0.115382  0.019414  7.759040  2.404726  3.226580  1.564390     92.23    6.1316   88.4275   0.32273   5.57241   0.24597   0.01183 119.78090   6.43726     526.9  0.846994  0.074245  0.011677  0.000097  0.229997  7.433181  1.265270     77.65  1.000030  1.000001     5.793   102.913     236.0      83.7     178.5     956.9     14.62     -0.32     -0.42     -6.25      0.80      0.08      4.32     -0.18      0.26     -1.68      1.71     -0.76      0.90      0.10      0.00    -29.63      2.09      0.01      4.98     -0.63
     -70.392799    -111.636955       0.0      0.00      0.00       0.0         2         1      2456      1000    280.43     0.000       0.0      35.4     0.000     0.000       0.0   0.00000       0.0         O               209.4  0.000000  0.000000  0.000000  0.000000  0.000000  0.000000  0.000000      0.00    0.0000    0.0000   0.00000   0.00000   0.00000   0.00000   0.00000   0.00000       0.0  0.000000  0.000000  0.000000  0.000000  0.000000  0.000000  0.000000      0.00  0.000000  0.000000     0.000     0.000       0.0       0.0       0.0       0.0      0.00      0.00      0.00      0.00      0.00      0.00      0.00      0.00      0.00      0.00      0.00      0.00      0.00      0.00      0.00      0.00      0.00      0.00      0.00      0.00
     -70.358299    -111.761841       0.0      0.00      0.00       0.0         2         2      2456      2281    220.63     0.000       0.0      35.7     0.000     0.000       0.0   0.00000       0.0         O               209.4  0.000000  0.000000  0.000000  0.000000  0.000000  0.000000  0.000000      0.00    0.0000    0.0000   0.00000   0.00000   0.00000   0.00000   0.00000   0.00000       0.0  0.000000  0.000000  0.000000  0.000000  0.000000  0.000000  0.000000      0.00  0.000000  0.000000     0.000     0.000       0.0       0.0       0.0       0.0      0.00      0.00      0.00      0.00      0.00      0.00      0.00      0.00      0.00      0.00      0.00      0.00      0.00      0.00      0.00      0.00      0.00      0.00      0.00      0.00
     -70.324028    -111.885155     382.3      0.53    -38.03     175.4         2         3      2456      3562    333.47   -14.769       9.0      36.1   489.801     1.067    3002.7   0.25844     100.0         H               209.4  0.105216  0.101726  0.021634  6.386492  2.014539  3.170201  1.475590    110.35    6.1037   82.8889   0.30504   5.57528   0.25642   0.01155 115.20963   6.30239     492.1  0.776766  0.056047  0.006238  0.000101  0.238066  7.489650  1.129208     77.12  0.999498  0.999963     4.356    36.568     160.0      84.3     161.2     710.1     15.28      0.38     -3.00     -8.79     -0.74      2.53      5.82      0.26     -1.04      1.02     -0.71      0.26      0.22     -0.15      0.47    -36.08     -1.84      8.63     -2.47     -0.92
     -70.434677    -111.739014     397.9      0.46    -38.03     160.6         3         1      3912      1000    298.90   -15.245       7.7      35.4  1322.079     3.083    6708.1   1.01314     100.0         H               209.4  0.390019  0.317803  0.056738 24.296619  5.790507  4.195940  2.502259    225.75    5.2667   73.5600   0.36629   5.28034   0.26642   0.01451  93.23256   5.54750     747.7  2.178867  0.125825  0.015871  0.000104  0.213287  7.241641  3.259771     96.92  0.999904  0.999988   138.242  9999.000     107.8      81.9     183.1    1201.7     14.36     -1.40     -0.50     -6.16      2.22      0.86      5.90     -1.48      0.39     -0.21     -0.77      0.76      1.98     -0.91      1.35    -31.85      6.76      2.41     -2.12     -4.86
     -70.400101    -111.863983     387.3      0.44    -38.03     117.3         3         2      3912      2281    265.74   -15.755       7.2      35.7   617.347     1.384    3644.3   0.36216     100.0         H               209.4  0.141258  0.152535  0.030588 10.582508  2.527104  4.187603  1.677951    202.54    4.7594   57.5539   0.31628   5.14468   0.27922   0.01637  78.70090   5.11857     445.8  0.984880  0.067302  0.008065  0.000102  0.238213  7.539551  1.473519     93.83  1.000186  1.000011    18.583  1751.386     153.8      80.8     115.0     958.2     15.39     -0.98      0.56     -7.85      3.08     -0.03      5.45     -2.04      0.90     -1.29      1.47     -0.99     -0.06      0.35     -0.40    -34.28      9.07     -1.73      4.90      1.22
     -70.365761    -111.987389     384.4      0.54    -38.03      74.1         3         3      3912      3562    344.13   -14.633       9.2      36.1   519.551     1.141    2408.7   0.27921     100.0         H               209.4  0.122136  0.113254  0.023044  7.881404  2.298987  3.428208  1.521501     86.91    6.2947   89.6176   0.30469   5.63297   0.24215   0.01133 124.62424   6.61832     523.6  0.830869  0.047873  0.004782  0.000093  0.229139  7.409255  1.207600     92.95  1.000159  1.000010     6.146   183.871     137.8      84.1     177.6     910.7     15.04      0.96     -0.24     -7.64     -0.93      0.79      5.77      0.72     -0.71      0.70     -0.55      0.44      1.12     -0.51      0.21    -34.47     -3.75      3.20     -2.25     -2.22
