corner points
-90.51685333    -57.78772736
-90.63866425    -57.95785904
-90.860672    -57.71564102
-90.98407745    -57.88544464
========== RESULTS WAVE VERSION 16.10.2018 ====================
IMAGE SIZE  X: 5715     Y:4901    col:row     POLARIZATION:VV
COVERAGE    X: 21.87466751km       Y: 20.19992346km 
RESOLUTION dX: 3.827588365m       dY:4.121592217m  
resolution of original product 3.827588365m x 4.121592217m;   raster step x:5997.830968m  
===============================================================
FLAGS: H=HIGH PROBABILITY SEA STATE, I=LAND(ISLAND), O=OUTLIER NO SEA STATE, N=NO WIND AVAILABLE, SEA STATE NOT VISIBLE, M=MEAN PROBABILITY SEA STATE, L= LOW PROBABILITY SEA STATE
Filtering wave length
 integration  Lmin=1m
 integration  Lmax=2200m
  peak        Lmin=100m
               FFT=1024pixels, 3919.450486m 
   mean-Hs (SWH_c)=1.968173828m
         mean-wind=5.158436298m/s
--------------0--------------1---------2---------3---------4---------5---------6---------7---------8---------9--------10--------11--------12--------13--------14--------15--------16--------17--------18--------19------------------20--------21--------22--------23--------24--------25--------26--------27--------28--------29--------30--------31--------32--------33--------34--------35--------36--------37--------38--------39--------40--------41--------42--------43--------44--------45--------46--------47--------48--------49--------50--------51--------52--------53--------54--------55--------56--------57--------58--------59--------60--------61--------62--------63--------64--------65--------66--------67--------68--------69--------70--------71--------72--------73
            LAT            LON  P-LENGHT     SWH_o     SWH_c     P-DIR      LINE     POINT     ROW-Y     COL-X  M-INTENC        dB      WIND INC-ANGLE  ENERGY-M  ENERGY-N  ENERGY-R ENERGY-NN  FG-DEPTH      FLAG         HEADING-DEG    E30-75   E75-390  E390-600 meanincut   meanout   cut/out  STD-NORM  SPEC-MAX   GL-MEAN    GL-VAR      CORR   ENTROPY   HOMOGEN    ENERGY  CONTRAST  DISSIMIL     STD-O    E 1-30 E600-2000   E2000 >      GODA  LONG-HIG     Tmean  CONVOLUT  MEAN-DIR  relation     Sy/Sx  SKEWNESS  KURTOSIS  cutoff-A >50/10000     INT*V   INT-LOG  S-1_g1f1  S-2_g1f2  S-3_g1f3  S-4_g2f1  S-5_g2f2  S-6_g2f3  S-7_g3f1  S-8_g3f2  S-9_g3f3 S-10_g1f4 S-11_g2f4 S-12_g3f4 S-13_g1f5 S-14_g2f5 S-15_g3f5 S-16_g4f1 S-17_g4f2 S-18_g4f3 S-19_g4f4 S-20_g4f5
--------------1--------------2---------3---------4---------5---------6---------7---------8---------9--------10--------11--------12--------13--------14--------15--------16--------17--------18--------19--------20------------------21--------22--------23--------24--------25--------26--------27--------28--------29--------30--------31--------32--------33--------34--------35--------36--------37--------38--------39--------40--------41--------42--------43--------44--------45--------46--------47--------48--------49--------50--------51--------52--------53--------54--------55--------56--------57--------58--------59--------60--------61--------62--------63--------64--------65--------66--------67--------68--------69--------70--------71--------72--------73--------74
     -57.809528     -90.603722     162.2      2.13      2.26     107.9         1         1      1000      1000   2466.67    -6.079       5.0      22.4   241.682     0.796      85.3   0.19808      18.5         H               197.7  0.090037  0.091753  0.001067  6.823094  0.997005  6.843590  1.265123    115.74    4.4493   37.7841   0.29654   5.10493   0.28814   0.01663  53.15839   4.55075    3120.4  0.613471  0.000607  0.000010  0.000256  0.204266  7.413845  0.840182    101.87  1.000232  1.000028     3.504    25.643     102.3      81.1      68.6     408.1     11.95     -1.99      7.43      8.08     -1.33      8.93      1.59      0.31      2.98     -1.98     -1.83     -0.41      2.94      3.93      2.30      1.15     -0.58      4.98     -1.00      2.23
     -57.789536     -90.699371     178.3      1.98      2.26     107.2         1         2      1000      2567   2307.99    -6.368       5.3      22.9   239.154     0.783     106.0   0.19236      23.3         H               197.7  0.088394  0.086283  0.000820  6.770452  0.996453  6.794553  1.254836    101.48    4.1381   32.7446   0.29095   4.98062   0.29969   0.01853  46.43493   4.26366    2896.1  0.606546  0.001028  0.000048  0.000245  0.201849  7.399441  0.824409    102.01  1.000226  1.000026     3.482    25.822      99.7      79.9      59.2     382.6     11.81     -2.20      7.03      7.84     -1.60      8.50      1.53      0.11      3.18     -2.22     -2.22     -0.78      2.55      3.51      2.66      1.83     -0.88      5.31     -1.32      2.44
     -57.769855     -90.793091     173.4      2.24      2.26     111.7         1         3      1000      4134   2089.21    -6.800       5.3      23.4   239.288     0.778     103.5   0.18863      21.7         H               197.7  0.083210  0.089783  0.000914  6.538517  0.959581  6.813927  1.250960    106.34    3.7052   26.8690   0.28757   4.78531   0.32126   0.02245  38.28403   3.85696    2613.3  0.603792  0.000969  0.000033  0.000249  0.207663  7.474246  0.819371    104.31  1.000210  1.000024     3.428    24.606     102.3      77.8      48.1     329.2     12.10     -2.07      7.34      7.88     -1.64      8.60      0.90     -0.10      2.20     -2.54     -2.30     -0.55      2.08      2.94      1.96      1.19     -0.91      4.95     -1.39      1.97
     -57.860031     -90.639931     172.7      1.76      2.26     104.2         2         1      2455      1000   2436.23    -6.133       5.0      22.4   236.779     0.770      82.5   0.18717      21.5         H               197.7  0.088197  0.082348  0.000933  6.939073  1.010830  6.864726  1.241892     68.96    4.3941   35.7322   0.28751   5.09316   0.28651   0.01632  50.91741   4.49936    3025.4  0.598533  0.000677  0.000018  0.000219  0.197174  7.327654  0.810393     98.41  1.000232  1.000028     3.465    26.146      97.3      81.3      65.4     422.7     11.63     -1.29      6.16      7.53     -0.79      8.00      1.78      0.26      3.32     -0.75     -0.81     -0.64      2.40      3.39      2.37      1.32     -0.43      5.31     -0.47      2.53
     -57.840012     -90.735710     165.6      2.09      2.26     103.6         2         2      2455      2567   2312.42    -6.359       5.3      22.9   240.205     0.787     120.3   0.19404      19.4         H               197.7  0.087764  0.088617  0.000939  6.991272  0.984446  7.101730  1.257721    115.45    4.1385   32.7753   0.29218   4.98104   0.29922   0.01843  46.39750   4.25904    2908.4  0.608624  0.001187  0.000062  0.000245  0.203719  7.421382  0.828859    100.96  1.000204  1.000023     3.591    28.130      99.7      80.0      59.6     403.8     12.01     -1.70      7.07      7.70     -0.73      8.70      1.13      0.34      2.62     -1.24     -1.50     -0.46      3.11      3.66      2.00      1.13      0.02      5.25     -0.90      1.63
     -57.820305     -90.829567     176.0      2.07      2.26     109.5         2         3      2455      4134   2107.73    -6.762       5.4      23.4   237.983     0.775      90.8   0.18807      22.5         H               197.7  0.085512  0.086852  0.000825  6.748536  0.987741  6.832295  1.246975     85.45    3.7395   27.1125   0.28803   4.80338   0.31872   0.02192  38.60674   3.88249    2627.9  0.601295  0.000675  0.000025  0.000227  0.205941  7.439594  0.815690    100.83  1.000190  1.000021     3.495    27.077      97.3      78.1      48.8     361.3     12.06     -1.61      6.75      7.66     -1.30      8.09      0.70      0.31      2.21     -1.32     -1.61     -0.71      2.31      2.75      1.47      1.27     -1.06      4.77     -1.23      1.76
     -57.910530     -90.676231     174.3      1.83      2.26     101.9         3         1      3910      1000   2414.56    -6.172       4.9      22.4   236.744     0.770      81.0   0.18669      22.0         H               197.7  0.088213  0.084116  0.000899  7.307639  0.984084  7.425826  1.242816     86.23    4.3493   35.2230   0.28804   5.07345   0.28876   0.01670  50.15423   4.45788    3000.8  0.596371  0.000588  0.000014  0.000215  0.199120  7.341588  0.810546     97.70  1.000220  1.000024     3.397    24.270      94.9      81.1      64.2     387.6     11.81     -1.43      5.91      7.35     -0.86      7.71      1.24      0.43      2.99     -0.66     -0.62     -0.13      1.72      2.71      2.08      1.07     -0.18      4.99     -0.44      1.88
     -57.890480     -90.772141     175.7      1.75      2.26      99.6         3         2      3910      2567   2192.12    -6.591       5.0      22.9   234.336     0.757     108.8   0.18148      22.4         H               197.7  0.085121  0.080618  0.000797  6.768679  0.977404  6.925161  1.234163     80.79    3.9041   28.6737   0.28400   4.88412   0.30813   0.01999  41.06026   4.03620    2705.4  0.590303  0.001007  0.000060  0.000218  0.201737  7.372657  0.796686     96.34  1.000230  1.000025     3.371    24.563      94.9      79.1      52.0     358.2     11.95     -1.81      6.17      7.52     -0.62      7.67      0.67      0.93      2.62     -0.69     -0.55      0.06      1.93      2.86      2.25      1.15      0.08      4.49     -0.27      1.65
     -57.870747     -90.866127     175.7      1.87      2.26      99.6         3         3      3910      4134   2060.31    -6.861       5.2      23.3   235.053     0.756      89.1   0.17891      22.4         H               197.7  0.082398  0.081105  0.000822  6.714745  0.947584  7.086177  1.233170     93.94    3.6434   25.3157   0.27877   4.76452   0.32076   0.02225  36.51681   3.79609    2540.7  0.591260  0.000688  0.000033  0.000220  0.203445  7.379556  0.793925     95.93  1.000230  1.000026     3.439    26.642      94.9      77.9      45.8     351.4     12.13     -0.51      6.63      7.62     -0.30      8.02      0.54      0.29      2.17      0.22     -0.05     -0.69      2.51      3.06      1.70      0.79     -0.51      4.30     -0.17      1.37
