corner points
-91.51830292    -54.6626091
-91.63342285    -54.82712173
-91.81941223    -54.59067917
-91.93562317    -54.75491714
========== RESULTS WAVE VERSION 16.10.2018 ====================
IMAGE SIZE  X: 4500     Y:4766    col:row     POLARIZATION:VV
COVERAGE    X: 20.92310216km       Y: 19.6862581km 
RESOLUTION dX: 4.649578258m       dY:4.130561918m  
resolution of original product 4.649578258m x 4.130561918m;   raster step x:5997.955953m  
===============================================================
FLAGS: H=HIGH PROBABILITY SEA STATE, I=LAND(ISLAND), O=OUTLIER NO SEA STATE, N=NO WIND AVAILABLE, SEA STATE NOT VISIBLE, M=MEAN PROBABILITY SEA STATE, L= LOW PROBABILITY SEA STATE
Filtering wave length
 integration  Lmin=1m
 integration  Lmax=2200m
  peak        Lmin=100m
               FFT=1024pixels, 4761.168136m 
   mean-Hs (SWH_c)=0.7724214172m
         mean-wind=8.704937935m/s
--------------0--------------1---------2---------3---------4---------5---------6---------7---------8---------9--------10--------11--------12--------13--------14--------15--------16--------17--------18--------19------------------20--------21--------22--------23--------24--------25--------26--------27--------28--------29--------30--------31--------32--------33--------34--------35--------36--------37--------38--------39--------40--------41--------42--------43--------44--------45--------46--------47--------48--------49--------50--------51--------52--------53--------54--------55--------56--------57--------58--------59--------60--------61--------62--------63--------64--------65--------66--------67--------68--------69--------70--------71--------72--------73
            LAT            LON  P-LENGHT     SWH_o     SWH_c     P-DIR      LINE     POINT     ROW-Y     COL-X  M-INTENC        dB      WIND INC-ANGLE  ENERGY-M  ENERGY-N  ENERGY-R ENERGY-NN  FG-DEPTH      FLAG         HEADING-DEG    E30-75   E75-390  E390-600 meanincut   meanout   cut/out  STD-NORM  SPEC-MAX   GL-MEAN    GL-VAR      CORR   ENTROPY   HOMOGEN    ENERGY  CONTRAST  DISSIMIL     STD-O    E 1-30 E600-2000   E2000 >      GODA  LONG-HIG     Tmean  CONVOLUT  MEAN-DIR  relation     Sy/Sx  SKEWNESS  KURTOSIS  cutoff-A >50/10000     INT*V   INT-LOG  S-1_g1f1  S-2_g1f2  S-3_g1f3  S-4_g2f1  S-5_g2f2  S-6_g2f3  S-7_g3f1  S-8_g3f2  S-9_g3f3 S-10_g1f4 S-11_g2f4 S-12_g3f4 S-13_g1f5 S-14_g2f5 S-15_g3f5 S-16_g4f1 S-17_g4f2 S-18_g4f3 S-19_g4f4 S-20_g4f5
--------------1--------------2---------3---------4---------5---------6---------7---------8---------9--------10--------11--------12--------13--------14--------15--------16--------17--------18--------19--------20------------------21--------22--------23--------24--------25--------26--------27--------28--------29--------30--------31--------32--------33--------34--------35--------36--------37--------38--------39--------40--------41--------42--------43--------44--------45--------46--------47--------48--------49--------50--------51--------52--------53--------54--------55--------56--------57--------58--------59--------60--------61--------62--------63--------64--------65--------66--------67--------68--------69--------70--------71--------72--------73--------74
     -54.681007     -91.610291     167.9      0.90      2.58      80.9         1         1      1000      1000    368.51   -14.336       9.4      35.7   295.604     0.574      51.9   0.07696      20.1         H               196.8  0.047876  0.024921  0.000522  2.534100  0.703501  3.602124  1.074679     21.37    6.8756   61.3304   0.11603   5.97917   0.18076   0.00524 108.42793   7.14121     396.0  0.499963  0.000552  0.000085  0.000127  0.187033  7.061167  0.577424     80.59  1.000186  1.000014     2.494    13.798     107.8      90.7     126.2     423.9     11.57      0.09      4.46      5.47      0.52      5.80      1.99      1.23      1.94      0.66      1.22      1.70      1.11      2.47      2.37     -1.83      0.97      3.85      1.15      1.90
     -54.660313     -91.697090     159.9      0.80      2.58      76.9         1         2      1000      2290    357.81   -14.464       9.5      36.1   293.900     0.569      38.6   0.07521      17.9         H               196.8  0.047440  0.023365  0.000508  2.349252  0.700670  3.352865  1.069888     17.24    6.6635   57.5745   0.11248   5.92196   0.18516   0.00552 102.19678   6.93784     382.8  0.497121  0.000449  0.000034  0.000127  0.184765  7.032503  0.571802     78.04  1.000187  1.000014     2.443    13.052     105.0      90.2     117.9     391.1     11.36      0.42      4.12      5.39      0.84      5.72      2.67      1.40      2.29      1.33      1.68      1.43      1.05      2.53      2.52     -1.74      0.53      4.59      1.20      2.10
     -54.639740     -91.783020     172.6      0.86      2.58      78.2         1         3      1000      3580    340.21   -14.683       9.5      36.4   295.616     0.572      49.6   0.07561      21.5         H               196.8  0.046885  0.024303  0.000507  2.459611  0.698804  3.519744  1.072781     20.98    6.3137   52.4845   0.11247   5.82196   0.19266   0.00614  93.16353   6.61322     365.0  0.499667  0.000557  0.000075  0.000131  0.187104  7.063337  0.575091     78.58  1.000179  1.000013     2.462    13.533     110.8      89.6     106.5     399.3     11.40      0.39      4.79      5.81      1.11      5.80      2.47      1.36      2.36      1.06      2.01      1.63      1.63      2.66      2.31     -1.56      1.25      3.39      2.20      1.86
     -54.731125     -91.645409     166.7      0.79      2.58      78.6         2         1      2452      1000    319.52   -14.955       8.4      35.7   295.765     0.575      47.6   0.07669      19.7         H               196.8  0.047503  0.025894  0.000476  2.623925  0.688470  3.811243  1.075453     29.22    5.9033   46.6077   0.11541   5.69748   0.20269   0.00696  82.45783   6.20439     343.6  0.500387  0.000549  0.000060  0.000134  0.189439  7.092166  0.578637     80.14  1.000217  1.000017     2.493    13.883     114.0      88.7      93.7     374.9     11.52     -0.20      4.94      6.08      0.69      6.43      2.11      1.13      2.12      0.96      1.39      1.16      1.81      3.00      2.58     -1.09      1.10      4.32      1.11      2.19
     -54.710403     -91.732307     148.9      0.74      2.58      75.7         2         2      2452      2290    309.76   -15.090       8.5      36.1   297.356     0.577      66.5   0.07730      15.1         H               196.8  0.048114  0.025345  0.000470  2.588273  0.693544  3.731954  1.078313     20.13    5.7083   44.0854   0.11553   5.63518   0.20796   0.00743  77.98459   6.02090     334.0  0.502845  0.000752  0.000144  0.000131  0.188848  7.081707  0.581233     80.74  1.000203  1.000014     2.498    13.685     114.0      88.0      88.2     344.0     11.51      0.27      5.06      6.08      0.72      6.28      2.34      1.09      2.40      0.78      1.56      1.46      1.79      2.87      2.70     -0.97      1.02      4.03      1.88      1.97
     -54.689808     -91.818329     163.1      0.81      2.58      83.4         2         3      2452      3580    306.06   -15.142       8.7      36.4   296.974     0.576      46.7   0.07722      18.7         H               196.8  0.047901  0.025772  0.000445  2.633694  0.707034  3.724987  1.076360     27.34    5.6336   42.9207   0.11516   5.61129   0.21025   0.00760  75.95535   5.94296     329.4  0.501153  0.000524  0.000062  0.000136  0.189950  7.095197  0.579163     82.15  1.000214  1.000017     2.500    13.826     114.0      87.9      86.0     351.3     11.68      0.11      5.47      6.30      0.54      6.61      1.90      1.34      2.14      0.94      1.26      1.44      1.94      3.52      2.71     -0.93      0.71      3.93      1.13      2.49
     -54.781231     -91.680611     185.9      0.73      2.58     116.1         3         1      3904      1000    317.93   -14.977       8.3      35.7   297.009     0.577      54.9   0.07730      25.9         H               196.8  0.048627  0.025477  0.000488  2.594629  0.715161  3.628032  1.078140     21.52    5.8709   46.2903   0.11683   5.68688   0.20337   0.00703  81.76434   6.17263     342.8  0.502457  0.000561  0.000087  0.000128  0.188884  7.083428  0.581396     87.25  1.000203  1.000016     2.540    14.624     107.8      88.6      93.2     389.1     11.55     -0.37      4.84      5.87      0.21      5.73      1.89      1.49      1.84      0.01      1.14      1.46      0.86      2.15      2.54     -1.30      0.52      3.71      1.77      1.94
     -54.760487     -91.767601     167.3      0.63      2.58      71.6         3         2      3904      2290    285.42   -15.445       8.0      36.0   295.200     0.575      43.6   0.07768      19.9         H               196.8  0.048557  0.025287  0.000553  2.568522  0.713750  3.598631  1.075862     17.89    5.2230   37.3247   0.11771   5.47261   0.22200   0.00874  65.86235   5.53288     307.1  0.500459  0.000466  0.000044  0.000128  0.187600  7.071471  0.579361     79.87  1.000191  1.000014     2.510    14.278     110.8      86.8      74.4     343.5     11.59     -0.21      4.72      5.46      0.67      5.65      2.19      1.63      2.03      0.64      1.37      1.80      1.04      2.40      2.26     -2.02      0.93      3.53      1.47      1.91
     -54.739864     -91.853722     166.7      0.69      2.58      78.6         3         3      3904      3580    276.23   -15.587       8.1      36.4   297.455     0.578      44.6   0.07774      19.7         H               196.8  0.048309  0.025878  0.000507  2.632383  0.704335  3.737404  1.079074     26.15    5.0407   35.2339   0.11712   5.40747   0.22767   0.00933  62.21370   5.36482     298.1  0.503577  0.000481  0.000046  0.000131  0.189570  7.087510  0.582696     81.98  1.000213  1.000016     2.525    14.471     110.8      86.3      69.9     340.3     11.67      0.15      5.23      5.90      0.81      6.64      2.27      1.11      2.22      0.71      1.24      1.41      2.04      3.23      2.39     -1.53      0.88      4.18      1.10      2.28
