corner points
-97.10987854    -61.22447586
-97.27427673    -61.3829689
-97.46000671    -61.13901901
-97.62580872    -61.29710007
========== RESULTS WAVE VERSION 16.10.2018 ====================
IMAGE SIZE  X: 4500     Y:4762    col:row     POLARIZATION:VV
COVERAGE    X: 20.98995317km       Y: 19.64620991km 
RESOLUTION dX: 4.664434039m       dY:4.12562157m  
resolution of original product 4.664434039m x 4.12562157m;   raster step x:5998.462174m  
===============================================================
FLAGS: H=HIGH PROBABILITY SEA STATE, I=LAND(ISLAND), O=OUTLIER NO SEA STATE, N=NO WIND AVAILABLE, SEA STATE NOT VISIBLE, M=MEAN PROBABILITY SEA STATE, L= LOW PROBABILITY SEA STATE
Filtering wave length
 integration  Lmin=1m
 integration  Lmax=2200m
  peak        Lmin=100m
               FFT=1024pixels, 4776.380456m 
   mean-Hs (SWH_c)=0.8873592377m
         mean-wind=7.147119522m/s
--------------0--------------1---------2---------3---------4---------5---------6---------7---------8---------9--------10--------11--------12--------13--------14--------15--------16--------17--------18--------19------------------20--------21--------22--------23--------24--------25--------26--------27--------28--------29--------30--------31--------32--------33--------34--------35--------36--------37--------38--------39--------40--------41--------42--------43--------44--------45--------46--------47--------48--------49--------50--------51--------52--------53--------54--------55--------56--------57--------58--------59--------60--------61--------62--------63--------64--------65--------66--------67--------68--------69--------70--------71--------72--------73
            LAT            LON  P-LENGHT     SWH_o     SWH_c     P-DIR      LINE     POINT     ROW-Y     COL-X  M-INTENC        dB      WIND INC-ANGLE  ENERGY-M  ENERGY-N  ENERGY-R ENERGY-NN  FG-DEPTH      FLAG         HEADING-DEG    E30-75   E75-390  E390-600 meanincut   meanout   cut/out  STD-NORM  SPEC-MAX   GL-MEAN    GL-VAR      CORR   ENTROPY   HOMOGEN    ENERGY  CONTRAST  DISSIMIL     STD-O    E 1-30 E600-2000   E2000 >      GODA  LONG-HIG     Tmean  CONVOLUT  MEAN-DIR  relation     Sy/Sx  SKEWNESS  KURTOSIS  cutoff-A >50/10000     INT*V   INT-LOG  S-1_g1f1  S-2_g1f2  S-3_g1f3  S-4_g2f1  S-5_g2f2  S-6_g2f3  S-7_g3f1  S-8_g3f2  S-9_g3f3 S-10_g1f4 S-11_g2f4 S-12_g3f4 S-13_g1f5 S-14_g2f5 S-15_g3f5 S-16_g4f1 S-17_g4f2 S-18_g4f3 S-19_g4f4 S-20_g4f5
--------------1--------------2---------3---------4---------5---------6---------7---------8---------9--------10--------11--------12--------13--------14--------15--------16--------17--------18--------19--------20------------------21--------22--------23--------24--------25--------26--------27--------28--------29--------30--------31--------32--------33--------34--------35--------36--------37--------38--------39--------40--------41--------42--------43--------44--------45--------46--------47--------48--------49--------50--------51--------52--------53--------54--------55--------56--------57--------58--------59--------60--------61--------62--------63--------64--------65--------66--------67--------68--------69--------70--------71--------72--------73--------74
     -61.238609     -97.223297     149.3      0.88      2.37      75.7         1         1      1000      1000    259.64   -15.856       6.9      35.5   310.279     0.589      61.8   0.08180      15.2         H               199.8  0.050869  0.031725  0.000529  3.248242  0.714650  4.545219  1.089106     29.64    4.7120   31.7302   0.12608   5.28273   0.24084   0.01075  55.45888   5.03604     282.7  0.505391  0.000772  0.000079  0.000151  0.193794  7.149282  0.594505     78.45  1.000208  1.000016     2.560    14.865     124.8      85.0      62.4     328.9     11.45      2.56      5.50      6.86      2.10      6.94      2.62     -0.22      3.41      2.21      2.22      0.58      1.14      2.48      3.18     -0.10      0.81      4.25      0.89      1.96
     -61.214088     -97.323959     165.7      0.82      2.37      64.4         1         2      1000      2286    248.81   -16.041       7.0      35.9   311.138     0.591      55.3   0.08178      19.5         H               199.8  0.051240  0.030975  0.000535  3.206619  0.713544  4.493930  1.090448     29.55    4.4949   29.2652   0.12592   5.19737   0.24891   0.01169  51.16005   4.82769     271.3  0.507710  0.000714  0.000058  0.000150  0.190136  7.138643  0.596330     74.41  1.000232  1.000019     2.550    14.051     124.8      84.3      57.4     288.7     11.35      3.22      5.15      6.82      2.48      6.95      2.88     -0.07      3.40      3.15      2.74      0.61      1.08      2.15      3.23     -0.22      0.38      4.44      0.65      1.46
     -61.189716     -97.423553     168.5      0.76      2.37      66.5         1         3      1000      3572    245.02   -16.108       7.2      36.3   307.986     0.581      59.5   0.07951      20.3         H               199.8  0.049644  0.029308  0.000543  3.030844  0.701219  4.322250  1.081564     24.66    4.4174   27.9366   0.12232   5.16735   0.25134   0.01199  49.03843   4.74618     265.0  0.501181  0.000808  0.000068  0.000138  0.191833  7.131790  0.585858     77.03  1.000207  1.000016     2.484    13.389     114.0      84.0      55.0     270.2     11.51      2.93      5.04      6.42      1.86      6.16      2.29     -0.44      3.07      2.19      1.84      0.29      0.14      1.75      3.31     -0.70     -0.03      3.42      0.40      1.63
     -61.286991     -97.273537     155.4      0.99      2.37      70.7         2         1      2454      1000    265.22   -15.764       7.0      35.5   311.916     0.593      65.6   0.08354      16.7         H               199.8  0.051389  0.033183  0.000469  3.223223  0.705966  4.565695  1.093085     49.87    4.8228   33.3188   0.12921   5.32400   0.23736   0.01036  58.02724   5.14215     289.9  0.507824  0.000841  0.000085  0.000162  0.195949  7.190524  0.599365     72.28  1.000212  1.000016     2.597    15.131     121.0      85.4      65.4     334.1     11.50      3.31      5.51      7.19      2.57      7.05      2.60     -0.08      3.86      3.20      2.99      0.77      0.44      2.19      3.25      0.42      0.47      3.76      0.69      2.09
     -61.262436     -97.374321     173.5      0.86      2.37      70.8         2         2      2454      2286    253.15   -15.966       7.1      35.9   309.855     0.587      60.6   0.08112      21.8         H               199.8  0.050163  0.031050  0.000542  3.055479  0.700442  4.362216  1.087152     40.98    4.5818   30.1197   0.12528   5.23224   0.24553   0.01128  52.69257   4.90711     275.2  0.505022  0.000785  0.000068  0.000154  0.194985  7.169706  0.592430     71.92  1.000230  1.000019     2.516    13.594     121.0      84.6      59.0     270.1     11.72      3.01      5.71      6.76      2.26      6.84      2.15     -0.07      2.78      3.15      2.86      0.51      0.57      2.07      2.69     -0.75      0.17      3.37      0.83      1.78
     -61.238029     -97.474030     165.5      0.89      2.37      69.3         2         3      2454      3572    250.29   -16.016       7.3      36.3   310.951     0.587      60.6   0.08056      19.4         H               199.8  0.049936  0.030818  0.000491  3.003922  0.711000  4.224925  1.087118     41.62    4.5221   29.4147   0.12305   5.20883   0.24751   0.01156  51.58966   4.85750     272.1  0.505572  0.000812  0.000071  0.000153  0.195752  7.160313  0.592549     71.74  1.000187  1.000013     2.547    14.434     121.0      84.3      57.8     300.6     11.66      3.70      5.78      6.93      2.36      6.71      1.93     -0.80      2.67      3.41      3.01     -0.10      0.63      1.98      2.95     -0.18      0.06      3.29      0.62      1.39
     -61.335358     -97.323921     160.3      1.04      2.37      70.0         3         1      3908      1000    278.98   -15.544       7.4      35.5   311.465     0.596     100.5   0.08578      18.0         H               199.8  0.051557  0.033129  0.000720  3.251062  0.711770  4.567573  1.095814     39.07    5.0973   37.0615   0.13363   5.42356   0.22928   0.00944  64.21812   5.40572     305.7  0.509677  0.001274  0.000205  0.000161  0.195879  7.195714  0.602536     75.31  1.000218  1.000018     2.577    14.309     128.8      86.2      72.7     320.5     11.56      2.88      6.32      6.93      2.22      7.02      3.07     -0.17      3.49      2.86      2.24      0.69      1.43      2.55      3.08     -1.02      0.56      2.95     -0.13      1.58
     -61.310764     -97.424835     155.9      0.85      2.37      66.1         3         2      3908      2286    253.28   -15.964       7.1      35.9   311.682     0.592      67.1   0.08272      16.8         H               199.8  0.051499  0.031261  0.000575  3.237983  0.707145  4.578952  1.091259     29.23    4.5847   30.3628   0.12725   5.23265   0.24582   0.01134  52.99837   4.91454     276.4  0.507768  0.000886  0.000091  0.000149  0.193854  7.158352  0.597294     74.04  1.000227  1.000018     2.546    14.029     121.0      84.5      59.4     284.6     11.46      2.54      5.45      6.78      2.08      6.92      2.73      0.12      3.24      2.20      2.25      0.77      0.78      2.09      3.38     -0.49      0.33      4.14      0.83      1.53
     -61.286320     -97.524666     160.3      0.90      2.37      70.0         3         3      3908      3572    248.64   -16.044       7.3      36.3   310.058     0.587      46.7   0.08018      18.0         H               199.8  0.049958  0.031068  0.000543  3.146607  0.703008  4.475921  1.086588     37.59    4.4890   29.0157   0.12338   5.19561   0.24860   0.01171  50.87143   4.82644     270.1  0.504910  0.000581  0.000034  0.000153  0.193415  7.159510  0.592070     76.16  1.000214  1.000017     2.535    14.056     121.0      84.2      56.9     281.1     11.57      2.70      5.93      6.94      1.57      7.05      2.73     -0.47      3.38      2.39      1.86     -0.22      1.42      2.46      2.81     -0.46     -0.30      3.35      0.41      1.61
