corner points
-76.0776062    -21.406744
-76.12154388    -21.58625793
-76.27646637    -21.36255455
-76.32073975    -21.541996
========== RESULTS WAVE VERSION 16.10.2018 ====================
IMAGE SIZE  X: 5715     Y:4918    col:row     POLARIZATION:VV
COVERAGE    X: 21.12621205km       Y: 20.42642669km 
RESOLUTION dX: 3.696625031m       dY:4.153401116m  
resolution of original product 3.696625031m x 4.153401116m;   raster step x:5999.622425m  
===============================================================
FLAGS: H=HIGH PROBABILITY SEA STATE, I=LAND(ISLAND), O=OUTLIER NO SEA STATE, N=NO WIND AVAILABLE, SEA STATE NOT VISIBLE, M=MEAN PROBABILITY SEA STATE, L= LOW PROBABILITY SEA STATE
Filtering wave length
 integration  Lmin=1m
 integration  Lmax=2200m
  peak        Lmin=100m
               FFT=1024pixels, 3785.344032m 
   mean-Hs (SWH_c)=0.4688774872m
         mean-wind=3.139712095m/s
--------------0--------------1---------2---------3---------4---------5---------6---------7---------8---------9--------10--------11--------12--------13--------14--------15--------16--------17--------18--------19------------------20--------21--------22--------23--------24--------25--------26--------27--------28--------29--------30--------31--------32--------33--------34--------35--------36--------37--------38--------39--------40--------41--------42--------43--------44--------45--------46--------47--------48--------49--------50--------51--------52--------53--------54--------55--------56--------57--------58--------59--------60--------61--------62--------63--------64--------65--------66--------67--------68--------69--------70--------71--------72--------73
            LAT            LON  P-LENGHT     SWH_o     SWH_c     P-DIR      LINE     POINT     ROW-Y     COL-X  M-INTENC        dB      WIND INC-ANGLE  ENERGY-M  ENERGY-N  ENERGY-R ENERGY-NN  FG-DEPTH      FLAG         HEADING-DEG    E30-75   E75-390  E390-600 meanincut   meanout   cut/out  STD-NORM  SPEC-MAX   GL-MEAN    GL-VAR      CORR   ENTROPY   HOMOGEN    ENERGY  CONTRAST  DISSIMIL     STD-O    E 1-30 E600-2000   E2000 >      GODA  LONG-HIG     Tmean  CONVOLUT  MEAN-DIR  relation     Sy/Sx  SKEWNESS  KURTOSIS  cutoff-A >50/10000     INT*V   INT-LOG  S-1_g1f1  S-2_g1f2  S-3_g1f3  S-4_g2f1  S-5_g2f2  S-6_g2f3  S-7_g3f1  S-8_g3f2  S-9_g3f3 S-10_g1f4 S-11_g2f4 S-12_g3f4 S-13_g1f5 S-14_g2f5 S-15_g3f5 S-16_g4f1 S-17_g4f2 S-18_g4f3 S-19_g4f4 S-20_g4f5
--------------1--------------2---------3---------4---------5---------6---------7---------8---------9--------10--------11--------12--------13--------14--------15--------16--------17--------18--------19--------20------------------21--------22--------23--------24--------25--------26--------27--------28--------29--------30--------31--------32--------33--------34--------35--------36--------37--------38--------39--------40--------41--------42--------43--------44--------45--------46--------47--------48--------49--------50--------51--------52--------53--------54--------55--------56--------57--------58--------59--------60--------61--------62--------63--------64--------65--------66--------67--------68--------69--------70--------71--------72--------73--------74
     -21.435324     -76.122299     206.8      0.54      1.54     157.5         1         1      1000      1000   1157.03    -9.367       3.0      23.3   355.103     0.658     300.8   0.13417      34.7         H               192.3  0.057172  0.053885  0.000997  3.346811  0.870804  3.843357  1.151024     88.89    1.8569    6.9773   0.23416   3.65551   0.45480   0.06097  10.68693   2.08132    1331.7  0.540892  0.005081  0.000297  0.000222  0.222790  7.523266  0.690868    154.67  0.999954  0.999996     2.774    15.986      68.7      64.2      13.7     131.0     11.92     -4.39     -6.88      2.07      1.44     -0.90     -3.75      4.19      4.72      4.74     -0.59     -3.93     -1.55     -2.01     -0.11     -3.37      2.01      0.28     -0.51     -1.94
     -21.422636     -76.179466     208.7      0.27      1.54     146.5         1         2      1000      2623    986.68   -10.058       2.9      23.8   351.438     0.648     247.1   0.13021      35.7         H               192.3  0.056685  0.048240  0.001116  2.961874  0.858443  3.450288  1.142147     63.71    1.5204    4.9583   0.22818   3.34568   0.49814   0.08097   7.65386   1.75022    1126.9  0.538333  0.004230  0.000187  0.000198  0.223434  7.473870  0.679622    150.20  0.999953  0.999998     2.737    15.935      62.2      59.4       9.9     120.2     12.11     -4.07     -6.71      1.51      1.49     -1.28     -3.77      3.68      4.60      4.15     -0.84     -3.47     -1.33     -1.37      0.60     -4.55      1.60     -0.41     -0.67     -1.77
     -21.410162     -76.235565     186.2      0.41      1.54     156.8         1         3      1000      4246    938.31   -10.277       3.0      24.3   351.871     0.650     193.7   0.13032      26.0         H               192.3  0.056527  0.050061  0.001205  2.995163  0.884945  3.384576  1.143188     79.15    1.4317    4.5077   0.22755   3.25381   0.51207   0.08846   6.96395   1.66079    1072.6  0.538809  0.003700  0.000112  0.000217  0.224498  7.521030  0.681835    154.59  0.999974  0.999998     2.743    16.037      65.3      57.8       9.1     113.3     11.92     -3.94     -6.91      1.79      1.40     -1.40     -3.59      3.38      4.75      4.15     -0.83     -3.68     -1.46     -1.32      0.02     -4.49      1.84     -0.62     -0.62     -0.63
     -21.488039     -76.135223     217.5      0.57      1.54     144.9         2         1      2444      1000   1430.25    -8.446       3.6      23.3   349.897     0.648     140.6   0.13135      40.5         H               192.3  0.056080  0.047931  0.000751  2.861079  0.851831  3.358741  1.141327     91.62    2.3910   10.5226   0.23001   4.07150   0.39621   0.04019  16.20472   2.60189    1632.3  0.541345  0.002018  0.000100  0.000222  0.224370  7.497651  0.678062    148.44  0.999986  0.999999     2.752    16.015      65.3      70.4      20.3     173.0     12.01     -5.11     -6.67      2.24      1.29     -0.82     -4.29      4.55      4.30      4.85     -0.69     -3.72     -3.41     -1.36      1.16     -2.80      1.73      0.66     -1.13     -0.32
     -21.475346     -76.192413     194.0      0.43      1.54     155.8         2         2      2444      2623    840.92   -10.752       2.5      23.8   356.687     0.664     410.6   0.13708      29.0         H               192.3  0.056641  0.052075  0.001107  3.035251  0.856326  3.544502  1.157270     75.52    1.2366    3.6557   0.23363   3.03195   0.54769   0.11023   5.60318   1.46321     973.2  0.547762  0.006766  0.000488  0.000234  0.228397  7.564965  0.697512    152.71  1.000000  1.000001     2.779    15.820      67.5      53.8       7.3      92.0     12.13     -5.32     -6.80      1.77      1.32     -0.86     -3.95      4.05      4.71      5.11     -0.89     -4.26     -1.66     -1.71      0.31     -4.22      2.66     -0.12     -0.93     -1.27
     -21.462864     -76.248543     194.0      0.51      1.54     155.8         2         3      2444      4246   1093.03    -9.614       3.4      24.2   347.957     0.642     191.2   0.12946      29.0         H               192.3  0.054900  0.050260  0.001230  2.959826  0.861654  3.435052  1.137912     70.41    1.7370    6.0996   0.22900   3.55379   0.46730   0.06600   9.40557   1.96050    1243.7  0.533055  0.003179  0.000146  0.000230  0.226131  7.561926  0.673448    153.20  0.999975  0.999998     2.705    15.348      66.4      62.9      12.2     127.7     12.03     -4.39     -7.16      1.78      1.46     -1.08     -3.79      3.66      4.76      4.67     -0.91     -3.73     -1.98     -1.42      0.13     -4.55      2.13      0.34     -1.30     -0.50
     -21.540754     -76.148148     235.1      0.77      1.54     146.0         3         1      3888      1000   1307.86    -8.834       3.3      23.3   349.845     0.648     196.7   0.13240      53.3         H               192.3  0.055462  0.052374  0.000802  2.926046  0.863341  3.389211  1.142709    103.19    2.1584    8.8510   0.23313   3.90089   0.41974   0.04775  13.57509   2.37144    1494.6  0.537238  0.002771  0.000191  0.000249  0.231011  7.586984  0.679911    147.14  0.999973  0.999998     2.725    15.533      67.5      68.0      17.2     158.7     12.34     -5.87     -7.04      1.66      1.37     -0.58     -4.82      4.81      4.64      5.10     -1.18     -4.04     -3.22     -1.27      1.55     -3.11      1.71      0.69     -1.20     -0.87
     -21.528053     -76.205368     221.2      0.49      1.54     152.1         3         2      3888      2623   1057.69    -9.756       3.0      23.8   349.386     0.642     201.4   0.12826      42.7         H               192.3  0.053958  0.050764  0.000808  3.099988  0.858698  3.610103  1.137145     78.06    1.6626    5.6805   0.22588   3.48569   0.47688   0.07030   8.79471   1.88999    1202.6  0.533945  0.003061  0.000178  0.000207  0.225017  7.543921  0.672666    149.34  0.999949  0.999996     2.723    15.636      66.4      61.9      11.4     123.8     11.92     -3.90     -6.99      2.21      1.58     -1.06     -4.00      3.59      4.51      3.90     -1.35     -3.06     -2.20     -1.58      0.34     -3.08      1.68      0.30     -1.38     -0.84
     -21.515566     -76.261528     221.2      0.24      1.54     152.1         3         3      3888      4246   1169.79    -9.319       3.6      24.2   345.658     0.634     239.0   0.12561      42.7         H               192.3  0.054049  0.044674  0.000833  2.862650  0.832906  3.436941  1.129690     55.28    1.8747    6.8410   0.22389   3.67744   0.44791   0.05799  10.61883   2.09942    1321.4  0.530719  0.003708  0.000234  0.000197  0.224987  7.480570  0.662817    149.82  0.999982  0.999998     2.680    15.184      63.2      65.0      13.6     133.4     12.19     -3.90     -6.74      1.68      1.77     -0.63     -3.92      3.83      4.50      4.17     -1.12     -3.32     -2.47     -1.79      0.68     -3.91      1.89      0.35     -1.13     -1.02
