corner points
-80.04059601    -35.44704819
-80.09638977    -35.62490845
-80.2691803    -35.39713287
-80.32559967    -35.57487869
========== RESULTS WAVE VERSION 16.10.2018 ====================
IMAGE SIZE  X: 5715     Y:4916    col:row     POLARIZATION:VV
COVERAGE    X: 21.40238458km       Y: 20.36697624km 
RESOLUTION dX: 3.744949183m       dY:4.142997607m  
resolution of original product 3.744949183m x 4.142997607m;   raster step x:5999.40859m  
===============================================================
FLAGS: H=HIGH PROBABILITY SEA STATE, I=LAND(ISLAND), O=OUTLIER NO SEA STATE, N=NO WIND AVAILABLE, SEA STATE NOT VISIBLE, M=MEAN PROBABILITY SEA STATE, L= LOW PROBABILITY SEA STATE
Filtering wave length
 integration  Lmin=1m
 integration  Lmax=2200m
  peak        Lmin=100m
               FFT=1024pixels, 3834.827963m 
   mean-Hs (SWH_c)=0.2m
         mean-wind=4.597324848m/s
--------------0--------------1---------2---------3---------4---------5---------6---------7---------8---------9--------10--------11--------12--------13--------14--------15--------16--------17--------18--------19------------------20--------21--------22--------23--------24--------25--------26--------27--------28--------29--------30--------31--------32--------33--------34--------35--------36--------37--------38--------39--------40--------41--------42--------43--------44--------45--------46--------47--------48--------49--------50--------51--------52--------53--------54--------55--------56--------57--------58--------59--------60--------61--------62--------63--------64--------65--------66--------67--------68--------69--------70--------71--------72--------73
            LAT            LON  P-LENGHT     SWH_o     SWH_c     P-DIR      LINE     POINT     ROW-Y     COL-X  M-INTENC        dB      WIND INC-ANGLE  ENERGY-M  ENERGY-N  ENERGY-R ENERGY-NN  FG-DEPTH      FLAG         HEADING-DEG    E30-75   E75-390  E390-600 meanincut   meanout   cut/out  STD-NORM  SPEC-MAX   GL-MEAN    GL-VAR      CORR   ENTROPY   HOMOGEN    ENERGY  CONTRAST  DISSIMIL     STD-O    E 1-30 E600-2000   E2000 >      GODA  LONG-HIG     Tmean  CONVOLUT  MEAN-DIR  relation     Sy/Sx  SKEWNESS  KURTOSIS  cutoff-A >50/10000     INT*V   INT-LOG  S-1_g1f1  S-2_g1f2  S-3_g1f3  S-4_g2f1  S-5_g2f2  S-6_g2f3  S-7_g3f1  S-8_g3f2  S-9_g3f3 S-10_g1f4 S-11_g2f4 S-12_g3f4 S-13_g1f5 S-14_g2f5 S-15_g3f5 S-16_g4f1 S-17_g4f2 S-18_g4f3 S-19_g4f4 S-20_g4f5
--------------1--------------2---------3---------4---------5---------6---------7---------8---------9--------10--------11--------12--------13--------14--------15--------16--------17--------18--------19--------20------------------21--------22--------23--------24--------25--------26--------27--------28--------29--------30--------31--------32--------33--------34--------35--------36--------37--------38--------39--------40--------41--------42--------43--------44--------45--------46--------47--------48--------49--------50--------51--------52--------53--------54--------55--------56--------57--------58--------59--------60--------61--------62--------63--------64--------65--------66--------67--------68--------69--------70--------71--------72--------73--------74
     -35.474285     -80.093094     193.0      0.29      1.87     149.8         1         1      1000      1000   1981.78    -7.029       4.6      23.0   311.643     0.695     111.5   0.15254      28.6         H               193.2  0.083995  0.038001  0.000836  3.038910  0.900188  3.375862  1.181383     44.74    3.4746   21.6003   0.25093   4.69967   0.32210   0.02244  32.36031   3.64670    2341.0  0.571178  0.001642  0.000083  0.000209  0.187426  6.896210  0.727648     97.13  1.000147  1.000014     3.054    19.643      69.9      77.8      39.9     268.5     12.22     -5.61     -4.44      1.83     -0.98     -0.27     -2.86      3.03      3.82      3.90      0.11     -3.38     -2.73     -1.58      0.93     -4.29      0.73     -0.16     -0.37     -0.56
     -35.460136     -80.157997     185.6      0.30      1.87     151.1         1         2      1000      2602   1828.46    -7.379       4.7      23.5   308.796     0.687     121.7   0.14974      25.8         H               193.2  0.082134  0.038236  0.000834  3.179949  0.880933  3.609751  1.176625     42.03    3.1945   18.4204   0.24860   4.55487   0.33867   0.02571  27.68224   3.37622    2151.4  0.564728  0.001693  0.000103  0.000200  0.185889  6.919367  0.718528     99.92  1.000146  1.000014     3.035    19.827      72.4      76.3      34.2     253.4     12.29     -5.70     -4.47      1.82     -1.20      0.15     -2.96      3.37      3.59      3.88      0.08     -3.23     -2.93     -1.58      0.95     -4.38      0.39      1.00     -0.50     -0.18
     -35.446220     -80.221672     225.1      0.29      1.87     148.1         1         3      1000      4204   1582.55    -8.006       4.5      23.9   314.240     0.707     150.7   0.15783      45.4         H               193.2  0.087816  0.041829  0.000965  3.421885  0.898765  3.807318  1.191421     48.15    2.6891   14.0336   0.25690   4.25329   0.37709   0.03521  20.85673   2.89346    1885.3  0.574581  0.002030  0.000152  0.000217  0.185751  6.926405  0.741115     94.44  1.000197  1.000019     3.077    19.732      75.2      72.2      25.9     217.4     12.47     -5.75     -4.44      1.48     -0.93     -0.28     -3.21      3.50      3.97      4.46     -0.30     -3.36     -2.53     -1.84      1.40     -4.82      0.68     -0.28     -1.35     -1.48
     -35.526680     -80.109558     185.6      0.29      1.87     151.1         2         1      2448      1000   1946.76    -7.107       4.5      23.0   312.043     0.700     137.4   0.15512      25.8         H               193.2  0.085469  0.039733  0.000754  3.024108  0.913027  3.312180  1.185233     52.88    3.4102   21.0047   0.25440   4.66539   0.32686   0.02335  31.32206   3.58266    2307.2  0.572019  0.002017  0.000123  0.000241  0.190038  6.903999  0.733000     93.53  1.000125  1.000012     3.102    21.282      72.4      77.4      38.7     289.4     12.08     -5.38     -4.96      2.30     -1.24     -0.27     -3.44      3.51      4.33      4.00      0.09     -3.20     -2.20     -1.66      0.54     -3.28     -0.02     -0.18     -0.85     -0.62
     -35.512524     -80.174515     194.0      0.31      1.87     156.1         2         2      2448      2602   1866.83    -7.289       4.8      23.5   306.761     0.683      84.9   0.14970      29.0         H               193.2  0.083411  0.036630  0.000744  2.949470  0.894405  3.297690  1.172316     45.57    3.2621   19.0006   0.24999   4.59210   0.33345   0.02471  28.50108   3.44000    2188.4  0.561334  0.001205  0.000038  0.000236  0.184241  6.876930  0.714259     90.20  1.000168  1.000017     2.963    18.388      72.4      76.8      35.3     251.5     12.22     -6.03     -4.36      2.15     -1.50     -0.12     -3.24      3.66      3.56      4.10     -0.24     -3.32     -3.26     -1.79      1.38     -3.84      0.16      0.23     -0.98     -0.54
     -35.498596     -80.238235     189.5      0.30      1.87     159.8         2         3      2448      4204   1639.15    -7.854       4.7      23.9   313.829     0.705     175.3   0.15779      27.3         H               193.2  0.087780  0.039608  0.000952  3.161089  0.910333  3.472455  1.191194     49.94    2.7972   14.9820   0.25654   4.32115   0.36843   0.03278  22.27709   2.99538    1952.5  0.574535  0.002519  0.000194  0.000232  0.187029  6.878444  0.738578     93.00  1.000186  1.000019     3.122    20.853      73.8      73.2      27.7     237.1     12.54     -6.10     -4.75      1.19     -0.97     -0.16     -3.23      3.71      4.25      4.87     -0.48     -3.63     -1.96     -1.84      0.93     -5.11      0.34     -0.51     -1.46     -1.68
     -35.579071     -80.126038     188.0      0.30      1.87     147.4         3         1      3896      1000   2060.18    -6.861       4.7      23.0   309.220     0.692      87.0   0.15240      26.7         H               193.2  0.083489  0.037493  0.000692  2.939596  0.905641  3.245871  1.178528     44.72    3.6467   23.3969   0.25047   4.78585   0.31178   0.02051  35.07325   3.81142    2427.9  0.569571  0.001200  0.000048  0.000214  0.186733  6.888842  0.723841     96.65  1.000149  1.000012     3.039    19.728      69.9      78.9      43.3     284.6     12.14     -5.66     -5.44      1.97     -1.06      0.12     -3.50      3.40      3.87      4.18     -0.21     -3.15     -2.48     -1.57      1.21     -3.37      0.34      1.25     -0.97     -1.03
     -35.564903     -80.191048     202.4      0.30      1.87     155.0         3         2      3896      2602   1802.40    -7.441       4.6      23.4   307.483     0.686      61.8   0.15019      32.6         H               193.2  0.084730  0.036937  0.000603  3.002305  0.899214  3.338811  1.173978     39.86    3.1244   17.6544   0.24959   4.51692   0.34251   0.02662  26.49589   3.30883    2115.9  0.563084  0.000732  0.000015  0.000221  0.183514  6.863798  0.717143     90.54  1.000145  1.000014     3.020    19.784      71.1      75.8      32.8     256.3     12.12     -5.84     -5.10      2.18     -1.27      0.13     -3.35      3.48      3.78      4.59     -0.46     -3.64     -2.49     -1.64      0.76     -3.15      0.16      0.88     -1.40     -0.60
     -35.550968     -80.254822     193.0      0.28      1.87     149.8         3         3      3896      4204   1495.49    -8.252       4.3      23.9   312.390     0.699      99.5   0.15497      28.6         H               193.2  0.085638  0.040716  0.000804  3.285524  0.885477  3.710459  1.185328     50.48    2.5221   12.4077   0.25352   4.14756   0.39007   0.03876  18.52414   2.73009    1772.5  0.570988  0.001396  0.000047  0.000214  0.185715  6.927889  0.732213    104.76  1.000150  1.000015     3.120    21.403      71.1      71.0      23.1     215.4     12.06     -5.82     -4.55      2.34     -1.81     -0.08     -2.98      3.17      3.60      4.29     -0.26     -3.47     -3.20     -1.85      1.11     -3.73      0.11      0.74     -1.25     -0.29
