corner points
-86.35253143    -51.01683807
-86.44180298    -51.1905365
-86.64761353    -50.95452499
-86.73806763    -51.12799835
========== RESULTS WAVE VERSION 16.10.2018 ====================
IMAGE SIZE  X: 5715     Y:4906    col:row     POLARIZATION:VV
COVERAGE    X: 21.74424732km       Y: 20.25200858km 
RESOLUTION dX: 3.804767685m       dY:4.128008272m  
resolution of original product 3.804767685m x 4.128008272m;   raster step x:5996.313872m  
===============================================================
FLAGS: H=HIGH PROBABILITY SEA STATE, I=LAND(ISLAND), O=OUTLIER NO SEA STATE, N=NO WIND AVAILABLE, SEA STATE NOT VISIBLE, M=MEAN PROBABILITY SEA STATE, L= LOW PROBABILITY SEA STATE
Filtering wave length
 integration  Lmin=1m
 integration  Lmax=2200m
  peak        Lmin=100m
               FFT=1024pixels, 3896.082109m 
   mean-Hs (SWH_c)=3.167902832m
         mean-wind=16.09999847m/s
--------------0--------------1---------2---------3---------4---------5---------6---------7---------8---------9--------10--------11--------12--------13--------14--------15--------16--------17--------18--------19------------------20--------21--------22--------23--------24--------25--------26--------27--------28--------29--------30--------31--------32--------33--------34--------35--------36--------37--------38--------39--------40--------41--------42--------43--------44--------45--------46--------47--------48--------49--------50--------51--------52--------53--------54--------55--------56--------57--------58--------59--------60--------61--------62--------63--------64--------65--------66--------67--------68--------69--------70--------71--------72--------73
            LAT            LON  P-LENGHT     SWH_o     SWH_c     P-DIR      LINE     POINT     ROW-Y     COL-X  M-INTENC        dB      WIND INC-ANGLE  ENERGY-M  ENERGY-N  ENERGY-R ENERGY-NN  FG-DEPTH      FLAG         HEADING-DEG    E30-75   E75-390  E390-600 meanincut   meanout   cut/out  STD-NORM  SPEC-MAX   GL-MEAN    GL-VAR      CORR   ENTROPY   HOMOGEN    ENERGY  CONTRAST  DISSIMIL     STD-O    E 1-30 E600-2000   E2000 >      GODA  LONG-HIG     Tmean  CONVOLUT  MEAN-DIR  relation     Sy/Sx  SKEWNESS  KURTOSIS  cutoff-A >50/10000     INT*V   INT-LOG  S-1_g1f1  S-2_g1f2  S-3_g1f3  S-4_g2f1  S-5_g2f2  S-6_g2f3  S-7_g3f1  S-8_g3f2  S-9_g3f3 S-10_g1f4 S-11_g2f4 S-12_g3f4 S-13_g1f5 S-14_g2f5 S-15_g3f5 S-16_g4f1 S-17_g4f2 S-18_g4f3 S-19_g4f4 S-20_g4f5
--------------1--------------2---------3---------4---------5---------6---------7---------8---------9--------10--------11--------12--------13--------14--------15--------16--------17--------18--------19--------20------------------21--------22--------23--------24--------25--------26--------27--------28--------29--------30--------31--------32--------33--------34--------35--------36--------37--------38--------39--------40--------41--------42--------43--------44--------45--------46--------47--------48--------49--------50--------51--------52--------53--------54--------55--------56--------57--------58--------59--------60--------61--------62--------63--------64--------65--------66--------67--------68--------69--------70--------71--------72--------73--------74
     -51.041080     -86.423920     115.9      3.20      3.92      78.9         1         1      1000      1000   6200.58    -2.076      16.7      22.6   271.416     0.825     143.9   0.21106       8.7         H               195.6  0.101655  0.078658  0.001794  6.373593  0.993121  6.417738  1.287495     61.87   11.4466  180.2022   0.29072   6.80220   0.14365   0.00274 255.62810  10.81384    7983.2  0.641945  0.001809  0.000063  0.000309  0.188766  7.236056  0.870938     82.46  1.000322  1.000049     3.756    30.218     137.8      94.3     474.1    1075.8     12.03      0.18      6.54      5.43      0.60      8.43      2.98      1.28      3.53      0.60      1.36      1.68      2.43      5.28      3.90     -1.93      0.70      7.13      1.49      4.82
     -51.023701     -86.506432     155.4      3.21      3.92      85.8         1         2      1000      2576   5929.92    -2.270      17.3      23.0   268.669     0.809     110.0   0.20489      16.7         H               195.6  0.099200  0.076550  0.001830  5.907463  0.975224  6.057547  1.275374     67.36   10.9997  168.3993   0.28915   6.74024   0.14706   0.00293 239.41528  10.43984    7562.2  0.630558  0.001349  0.000030  0.000311  0.193167  7.249804  0.852538     83.02  1.000336  1.000052     3.737    31.300     137.8      94.0     427.5    1033.8     11.90      0.92      6.69      5.71      1.28      9.12      3.53      1.19      3.91      1.76      2.08      1.40      3.39      5.82      3.77     -1.60      0.93      8.09      1.88      4.86
     -51.006599     -86.587334     136.5      3.31      3.92      78.8         1         3      1000      4152   5624.58    -2.499      17.7      23.5   265.787     0.796     103.4   0.19745      12.4         H               195.6  0.093708  0.076083  0.001561  5.653613  0.972426  5.813925  1.265096     85.70   10.4580  155.6437   0.28553   6.65653   0.15328   0.00325 222.40649   9.99913    7114.6  0.624083  0.001119  0.000032  0.000321  0.194807  7.270634  0.838616     81.06  1.000339  1.000049     3.589    28.367     137.8      93.4     378.3     944.0     11.69      1.18      6.66      6.03      1.91      9.06      3.68      1.76      4.58      1.87      3.24      2.88      3.24      5.49      4.49     -0.19      1.65      8.04      2.84      4.65
     -51.092525     -86.450401     148.4      3.07      3.92      81.9         2         1      2453      1000   5584.29    -2.530      15.0      22.6   276.376     0.853      98.4   0.22501      15.0         H               195.6  0.106476  0.083976  0.002084  6.525301  1.053334  6.194900  1.309501     79.53   10.3370  157.4529   0.30246   6.61659   0.15780   0.00347 219.65829   9.85512    7311.5  0.660084  0.001057  0.000013  0.000310  0.190532  7.230954  0.902168     84.15  1.000343  1.000055     3.939    34.059     142.7      93.0     390.9    1027.7     11.75      0.74      6.67      5.88      0.84      9.21      3.99      1.50      4.35      1.10      1.81      1.53      2.98      5.80      4.30     -1.45      0.12      8.09      2.29      5.22
     -51.075127     -86.533012     169.4      3.09      3.92      90.0         2         2      2453      2576   5454.92    -2.632      15.9      23.0   275.777     0.849     105.4   0.22250      20.5         H               195.6  0.107755  0.082113  0.002146  6.189242  1.031518  6.000131  1.305203     87.28   10.1109  151.5035   0.29928   6.58217   0.15983   0.00360 212.32164   9.67107    7119.7  0.656104  0.001270  0.000022  0.000318  0.190296  7.232072  0.897231     83.95  1.000365  1.000058     3.967    35.700     148.0      92.9     371.8    1021.4     12.03      0.58      7.03      5.53      1.30      8.88      3.46      1.11      3.60      1.20      1.85      2.03      3.09      5.80      3.92     -2.44      1.65      7.46      1.48      4.99
     -51.058006     -86.614006     162.2      3.17      3.92      87.8         2         3      2453      4152   5251.48    -2.797      16.6      23.5   274.096     0.837     107.2   0.21596      18.5         H               195.6  0.103457  0.080616  0.002028  6.450351  1.024498  6.296110  1.296412     71.28    9.7488  142.5567   0.29523   6.52236   0.16343   0.00383 200.93906   9.37880    6807.3  0.650276  0.001374  0.000021  0.000305  0.193094  7.239460  0.883920     83.10  1.000344  1.000053     3.927    35.513     142.7      92.5     339.3     969.2     12.07      0.85      6.94      5.25      0.78      8.59      3.10      1.37      3.29      1.12      1.57      2.09      2.88      5.59      3.91     -2.10      0.44      7.72      1.36      4.91
     -51.143963     -86.476936     138.5      3.05      3.92      84.4         3         1      3906      1000   5562.51    -2.547      14.9      22.6   278.654     0.867     107.8   0.23154      12.8         H               195.6  0.111268  0.085619  0.002214  6.431170  1.042694  6.167838  1.318550     73.35   10.2901  158.0929   0.30616   6.60227   0.15955   0.00359 219.38431   9.82130    7333.6  0.667183  0.001176  0.000025  0.000330  0.188076  7.227006  0.917393     83.05  1.000344  1.000057     3.933    33.782     142.7      92.8     392.4    1013.6     11.92      0.72      6.05      4.86      0.79      8.24      3.55      1.71      4.02      0.95      1.85      1.91      2.08      5.36      4.43     -2.42      0.07      7.93      2.12      5.50
     -51.126549     -86.559647     149.5      3.15      3.92      85.9         3         2      3906      2576   5183.98    -2.853      15.1      23.0   282.398     0.879     108.7   0.23492      15.3         H               195.6  0.112459  0.088977  0.002329  6.883083  1.085781  6.339291  1.327806    100.77    9.5896  142.6424   0.30750   6.47699   0.16890   0.00414 197.56073   9.22304    6882.5  0.674136  0.001274  0.000020  0.000330  0.190709  7.244339  0.930179     82.16  1.000349  1.000058     4.025    34.908     148.0      92.0     341.8     963.9     11.67      0.88      6.39      5.46      1.25      9.19      4.27      1.71      4.42      1.22      2.39      2.29      2.97      5.57      4.85     -1.69      1.02      9.43      3.08      5.07
     -51.109409     -86.640732     138.0      3.25      3.92      82.5         3         3      3906      4152   4999.37    -3.011      15.8      23.5   278.003     0.858     118.9   0.22645      12.7         H               195.6  0.106832  0.087191  0.002254  6.392894  1.047352  6.103865  1.313537     90.32    9.2801  134.4235   0.30399   6.42460   0.17215   0.00435 187.12167   8.96130    6566.7  0.660166  0.001622  0.000024  0.000334  0.193704  7.272085  0.907012     81.96  1.000333  1.000053     3.865    31.388     148.0      91.7     312.4     879.1     11.74      1.12      6.63      5.39      1.27      8.90      3.92      1.62      4.26      1.64      2.26      2.57      3.26      5.43      4.37     -1.70      0.91      8.47      2.06      4.84
