corner points
-94.71061707    -62.75842667
-94.8735199    -62.92429733
-95.10367584    -62.67556763
-95.26856995    -62.84098434
========== RESULTS WAVE VERSION 16.10.2018 ====================
IMAGE SIZE  X: 5715     Y:4899    col:row     POLARIZATION:VV
COVERAGE    X: 22.00732346km       Y: 20.16994521km 
RESOLUTION dX: 3.850800255m       dY:4.117155585m  
resolution of original product 3.850800255m x 4.117155585m;   raster step x:5999.546797m  
===============================================================
FLAGS: H=HIGH PROBABILITY SEA STATE, I=LAND(ISLAND), O=OUTLIER NO SEA STATE, N=NO WIND AVAILABLE, SEA STATE NOT VISIBLE, M=MEAN PROBABILITY SEA STATE, L= LOW PROBABILITY SEA STATE
Filtering wave length
 integration  Lmin=1m
 integration  Lmax=2200m
  peak        Lmin=100m
               FFT=1024pixels, 3943.219461m 
   mean-Hs (SWH_c)=1.946503143m
         mean-wind=5.758024693m/s
--------------0--------------1---------2---------3---------4---------5---------6---------7---------8---------9--------10--------11--------12--------13--------14--------15--------16--------17--------18--------19------------------20--------21--------22--------23--------24--------25--------26--------27--------28--------29--------30--------31--------32--------33--------34--------35--------36--------37--------38--------39--------40--------41--------42--------43--------44--------45--------46--------47--------48--------49--------50--------51--------52--------53--------54--------55--------56--------57--------58--------59--------60--------61--------62--------63--------64--------65--------66--------67--------68--------69--------70--------71--------72--------73
            LAT            LON  P-LENGHT     SWH_o     SWH_c     P-DIR      LINE     POINT     ROW-Y     COL-X  M-INTENC        dB      WIND INC-ANGLE  ENERGY-M  ENERGY-N  ENERGY-R ENERGY-NN  FG-DEPTH      FLAG         HEADING-DEG    E30-75   E75-390  E390-600 meanincut   meanout   cut/out  STD-NORM  SPEC-MAX   GL-MEAN    GL-VAR      CORR   ENTROPY   HOMOGEN    ENERGY  CONTRAST  DISSIMIL     STD-O    E 1-30 E600-2000   E2000 >      GODA  LONG-HIG     Tmean  CONVOLUT  MEAN-DIR  relation     Sy/Sx  SKEWNESS  KURTOSIS  cutoff-A >50/10000     INT*V   INT-LOG  S-1_g1f1  S-2_g1f2  S-3_g1f3  S-4_g2f1  S-5_g2f2  S-6_g2f3  S-7_g3f1  S-8_g3f2  S-9_g3f3 S-10_g1f4 S-11_g2f4 S-12_g3f4 S-13_g1f5 S-14_g2f5 S-15_g3f5 S-16_g4f1 S-17_g4f2 S-18_g4f3 S-19_g4f4 S-20_g4f5
--------------1--------------2---------3---------4---------5---------6---------7---------8---------9--------10--------11--------12--------13--------14--------15--------16--------17--------18--------19--------20------------------21--------22--------23--------24--------25--------26--------27--------28--------29--------30--------31--------32--------33--------34--------35--------36--------37--------38--------39--------40--------41--------42--------43--------44--------45--------46--------47--------48--------49--------50--------51--------52--------53--------54--------55--------56--------57--------58--------59--------60--------61--------62--------63--------64--------65--------66--------67--------68--------69--------70--------71--------72--------73--------74
     -62.777439     -94.814804     158.5      1.84      2.79      74.7         1         1      1000      1000   2804.22    -5.522       5.6      22.3   234.473     0.902     105.6   0.24484      17.5         H               200.3  0.124304  0.096408  0.001518  9.074235  1.095086  8.286321  1.347310     84.63    5.0930   52.3429   0.31995   5.31903   0.27200   0.01438  71.19181   5.16998    3777.5  0.679926  0.001035  0.000019  0.000253  0.188763  7.187320  0.955101     85.27  1.000291  1.000047     4.153    37.552     121.0      82.4      97.4     566.9     12.17      2.21      6.01      6.50      1.32      7.82      1.62     -0.17      2.98      2.27      1.89      0.21      1.22      2.78      2.79     -0.75     -0.25      5.19      0.31      2.34
     -62.754581     -94.923592     160.0      1.77      2.79      76.8         1         2      1000      2558   2525.16    -5.977       5.7      22.7   233.492     0.898     106.2   0.24355      17.9         H               200.3  0.123718  0.094356  0.001539  8.941341  1.111996  8.040806  1.344417     72.22    4.5486   43.2197   0.31936   5.11503   0.29269   0.01761  58.83424   4.66390    3394.8  0.678403  0.000986  0.000023  0.000257  0.188235  7.172272  0.950087     86.71  1.000294  1.000048     4.061    35.049     124.8      80.3      78.0     502.3     12.19      2.63      6.13      6.25      1.24      7.50      1.60     -0.47      2.79      1.96      1.59      0.20      1.05      2.43      2.99     -1.09     -0.11      4.86      0.73      1.66
     -62.732082     -95.030128     167.4      1.95      2.79      69.1         1         3      1000      4116   2302.17    -6.379       5.8      23.2   237.008     0.917     140.0   0.25171      19.9         H               200.3  0.126360  0.100517  0.002002  9.385141  1.077823  8.707498  1.358255     70.96    4.1038   36.6925   0.32402   4.92692   0.31347   0.02126  49.60726   4.23909    3126.9  0.687321  0.001631  0.000062  0.000262  0.187617  7.182243  0.970807     86.63  1.000279  1.000047     4.290    40.553     128.8      78.3      65.5     477.3     12.23      2.22      5.79      5.84      0.97      7.59      1.89      0.02      3.06      1.65      1.92      0.49      0.83      2.86      3.00     -1.85     -0.68      5.36      1.08      2.73
     -62.826763     -94.863289     164.9      1.87      2.79      67.0         2         1      2457      1000   2804.54    -5.521       5.6      22.3   233.838     0.900     119.3   0.24600      19.2         H               200.3  0.123149  0.096805  0.001527  8.851903  1.096683  8.071524  1.345698     88.48    5.1003   52.6663   0.32176   5.32021   0.27165   0.01441  71.44118   5.17850    3773.4  0.678579  0.001175  0.000035  0.000255  0.189424  7.194330  0.953029     84.17  1.000272  1.000045     4.042    34.275     121.0      82.3      97.4     539.2     12.11      2.49      6.05      6.79      1.63      8.15      1.90     -0.36      3.07      2.29      1.83      0.10      0.76      2.52      2.65     -0.60      0.05      5.64      0.33      2.44
     -62.803867     -94.972237     184.7      1.88      2.79      69.5         2         2      2457      2558   2618.00    -5.820       6.0      22.7   232.466     0.895     126.5   0.24451      25.5         H               200.3  0.123222  0.096046  0.001458  9.115048  1.082394  8.421192  1.337790     64.71    4.7386   46.1639   0.32138   5.18905   0.28515   0.01638  62.65600   4.83423    3501.8  0.673536  0.001396  0.000051  0.000254  0.188552  7.180200  0.947348     87.80  1.000309  1.000049     4.059    36.997     124.8      81.1      84.2     537.5     12.31      2.06      6.16      6.29      0.85      7.70      1.17     -0.65      2.55      1.26      0.87      0.03      0.84      2.81      3.08     -0.85     -0.37      5.17     -0.04      2.44
     -62.781334     -95.078941     171.8      2.04      2.79      73.4         2         3      2457      4116   2302.61    -6.378       5.8      23.2   234.821     0.908     123.9   0.24823      21.2         H               200.3  0.122414  0.101447  0.001640  9.393538  1.107742  8.479894  1.352476     86.11    4.1097   36.4790   0.32193   4.93219   0.31266   0.02106  49.47101   4.24368    3114.2  0.681949  0.001271  0.000038  0.000256  0.192602  7.238818  0.962144     85.10  1.000301  1.000048     4.248    40.836     124.8      78.5      65.1     491.1     12.34      2.13      6.55      6.40      1.15      8.13      1.45     -0.21      2.63      1.98      2.05     -0.05      1.69      2.74      2.73     -0.95     -0.52      5.45      1.02      1.94
     -62.876072     -94.911934     173.7      1.89      2.79      75.7         3         1      3914      1000   2758.56    -5.593       5.5      22.3   232.492     0.899     121.7   0.24672      21.8         H               200.3  0.123598  0.098236  0.001340  8.691739  1.099782  7.903145  1.345531     79.31    5.0047   50.9677   0.32370   5.28508   0.27566   0.01499  68.93800   5.07947    3711.4  0.675469  0.001254  0.000048  0.000250  0.191139  7.197510  0.952513     85.85  1.000288  1.000047     4.026    34.275     121.0      81.9      93.9     543.1     12.09      2.10      6.51      7.01      1.29      8.14      1.55     -0.41      3.10      1.77      1.55      0.35      1.04      3.30      3.30      0.08      0.05      5.13      0.50      2.91
     -62.853142     -95.021049     168.0      2.05      2.79      78.5         3         2      3914      2558   2624.62    -5.809       6.0      22.7   235.330     0.911     135.6   0.25076      20.1         H               200.3  0.124449  0.101213  0.001626  8.893501  1.112522  7.993998  1.352434     82.97    4.7426   46.6434   0.32365   5.18759   0.28573   0.01646  63.09401   4.83597    3549.0  0.683322  0.001520  0.000061  0.000259  0.190517  7.212217  0.965408     86.60  1.000289  1.000046     4.266    41.891     124.8      81.1      85.4     568.2     12.18      2.77      6.21      6.69      1.07      8.10      1.48     -0.35      2.88      1.85      1.77      0.26      0.90      2.95      3.07     -0.77     -0.63      5.43      1.09      2.48
     -62.830566     -95.127907     182.5      2.23      2.79      61.6         3         3      3914      4116   2347.91    -6.293       5.9      23.2   234.048     0.897     112.1   0.24322      24.7         H               200.3  0.117171  0.103714  0.001443  9.137414  1.091203  8.373708  1.340323     98.67    4.1970   37.4118   0.31962   4.97220   0.30781   0.02024  50.90820   4.32510    3146.5  0.673914  0.001093  0.000026  0.000256  0.189903  7.263510  0.948910     83.21  1.000259  1.000039     4.194    42.494     121.0      78.9      67.0     523.4     12.13      3.42      6.06      6.61      1.84      7.52      1.07     -0.63      2.46      3.00      2.54     -0.21      0.77      2.12      2.50     -0.31     -0.39      5.02      1.03      2.39
