corner points
-94.06307983    -57.97335815
-94.19932556    -58.13539886
-94.38723755    -57.89532852
-94.5247345    -58.05702972
========== RESULTS WAVE VERSION 16.10.2018 ====================
IMAGE SIZE  X: 4500     Y:4767    col:row     POLARIZATION:VV
COVERAGE    X: 20.96589876km       Y: 19.67807678km 
RESOLUTION dX: 4.659088613m       dY:4.127979186m  
resolution of original product 4.659088613m x 4.127979186m;   raster step x:5996.247045m  
===============================================================
FLAGS: H=HIGH PROBABILITY SEA STATE, I=LAND(ISLAND), O=OUTLIER NO SEA STATE, N=NO WIND AVAILABLE, SEA STATE NOT VISIBLE, M=MEAN PROBABILITY SEA STATE, L= LOW PROBABILITY SEA STATE
Filtering wave length
 integration  Lmin=1m
 integration  Lmax=2200m
  peak        Lmin=100m
               FFT=1024pixels, 4770.906739m 
   mean-Hs (SWH_c)=0.8503649139m
         mean-wind=6.111728191m/s
--------------0--------------1---------2---------3---------4---------5---------6---------7---------8---------9--------10--------11--------12--------13--------14--------15--------16--------17--------18--------19------------------20--------21--------22--------23--------24--------25--------26--------27--------28--------29--------30--------31--------32--------33--------34--------35--------36--------37--------38--------39--------40--------41--------42--------43--------44--------45--------46--------47--------48--------49--------50--------51--------52--------53--------54--------55--------56--------57--------58--------59--------60--------61--------62--------63--------64--------65--------66--------67--------68--------69--------70--------71--------72--------73
            LAT            LON  P-LENGHT     SWH_o     SWH_c     P-DIR      LINE     POINT     ROW-Y     COL-X  M-INTENC        dB      WIND INC-ANGLE  ENERGY-M  ENERGY-N  ENERGY-R ENERGY-NN  FG-DEPTH      FLAG         HEADING-DEG    E30-75   E75-390  E390-600 meanincut   meanout   cut/out  STD-NORM  SPEC-MAX   GL-MEAN    GL-VAR      CORR   ENTROPY   HOMOGEN    ENERGY  CONTRAST  DISSIMIL     STD-O    E 1-30 E600-2000   E2000 >      GODA  LONG-HIG     Tmean  CONVOLUT  MEAN-DIR  relation     Sy/Sx  SKEWNESS  KURTOSIS  cutoff-A >50/10000     INT*V   INT-LOG  S-1_g1f1  S-2_g1f2  S-3_g1f3  S-4_g2f1  S-5_g2f2  S-6_g2f3  S-7_g3f1  S-8_g3f2  S-9_g3f3 S-10_g1f4 S-11_g2f4 S-12_g3f4 S-13_g1f5 S-14_g2f5 S-15_g3f5 S-16_g4f1 S-17_g4f2 S-18_g4f3 S-19_g4f4 S-20_g4f5
--------------1--------------2---------3---------4---------5---------6---------7---------8---------9--------10--------11--------12--------13--------14--------15--------16--------17--------18--------19--------20------------------21--------22--------23--------24--------25--------26--------27--------28--------29--------30--------31--------32--------33--------34--------35--------36--------37--------38--------39--------40--------41--------42--------43--------44--------45--------46--------47--------48--------49--------50--------51--------52--------53--------54--------55--------56--------57--------58--------59--------60--------61--------62--------63--------64--------65--------66--------67--------68--------69--------70--------71--------72--------73--------74
     -57.989864     -94.164696     163.0      1.13      2.04     112.7         1         1      1000      1000    237.24   -16.248       6.4      35.6   306.933     0.584      40.6   0.07759      18.7         H               198.1  0.047549  0.035320  0.000333  3.433982  0.693350  4.952740  1.083877     42.08    4.2659   26.3210   0.12086   5.10485   0.25760   0.01276  46.27958   4.60144     257.2  0.500522  0.000296  0.000033  0.000156  0.196218  7.277605  0.590178    109.52  1.000117  1.000009     2.483    13.186     105.0      83.5      51.7     250.1     11.14     -2.14      5.03      7.79     -2.36      7.16      2.29     -0.56      3.26     -2.82     -2.97     -1.13      0.84      1.41      1.64      1.85     -1.33      4.68     -1.36      0.99
     -57.967461     -94.257950     165.6      1.11      2.04     115.5         1         2      1000      2287    227.25   -16.435       6.5      36.0   306.530     0.580      33.3   0.07658      19.4         H               198.1  0.047099  0.034821  0.000316  3.391827  0.696146  4.872294  1.080660     41.07    4.0666   23.9993   0.11878   5.01975   0.26545   0.01383  42.29759   4.40000     245.6  0.498359  0.000194  0.000014  0.000155  0.197683  7.283850  0.586528    113.02  1.000098  1.000007     2.499    13.605     105.0      82.7      47.3     246.2     11.27     -2.48      4.51      7.64     -2.18      6.72      1.79     -0.52      2.88     -3.08     -3.12     -0.85     -0.29      0.41      1.65      1.59     -0.81      4.54     -1.62      1.06
     -57.945194     -94.350235     176.8      1.25      2.04     112.1         1         3      1000      3574    225.26   -16.473       6.7      36.3   306.989     0.581      37.6   0.07650      22.8         H               198.1  0.046219  0.035721  0.000348  3.571146  0.696579  5.126695  1.081490     34.93    4.0246   23.6372   0.11791   5.00107   0.26713   0.01412  41.69996   4.36664     243.6  0.499027  0.000264  0.000022  0.000149  0.199774  7.321650  0.587210    110.01  1.000100  1.000009     2.500    13.547     102.3      82.5      46.5     244.3     11.44     -2.19      4.50      7.33     -1.91      6.16      1.16     -0.55      2.20     -2.82     -2.82     -0.81     -0.50      0.18      1.14      1.09     -0.62      3.90     -1.38      0.63
     -58.039249     -94.206268     168.3      0.87      2.04     113.5         2         1      2453      1000    224.61   -16.486       6.1      35.6   306.899     0.579      45.1   0.07501      20.2         H               198.1  0.046923  0.032246  0.000327  3.337827  0.680321  4.906255  1.080143     28.42    4.0148   23.4166   0.11408   4.99752   0.26801   0.01410  41.49078   4.35721     242.6  0.499930  0.000353  0.000060  0.000142  0.191360  7.207840  0.584865    107.23  1.000117  1.000009     2.469    13.147     105.0      82.6      46.2     238.5     11.01     -1.85      4.43      7.56     -1.75      6.64      2.37     -0.57      3.14     -2.37     -2.68     -1.20      0.42      0.98      1.45      1.59     -0.97      4.54     -1.41      0.82
     -58.016815     -94.299629     169.6      0.78      2.04     106.3         2         2      2453      2287    210.00   -16.778       6.1      36.0   304.588     0.573      50.6   0.07253      20.6         H               198.1  0.046261  0.031158  0.000301  3.202534  0.668477  4.790795  1.073537     30.30    3.7231   20.2254   0.11076   4.86458   0.28034   0.01598  35.97026   4.06755     225.5  0.494696  0.000435  0.000084  0.000138  0.193961  7.206114  0.577774    108.12  1.000103  1.000008     2.434    12.874     102.3      81.1      40.2     222.6     11.24     -1.95      4.20      7.21     -1.83      6.13      1.70     -0.66      2.75     -2.49     -2.63     -1.15     -0.07      0.73      1.48      1.31     -1.15      4.12     -1.49      0.88
     -57.994518     -94.392021     163.0      0.64      2.04     112.7         2         3      2453      3574    199.44   -17.002       6.1      36.3   304.107     0.567      36.5   0.06866      18.7         H               198.1  0.044289  0.028709  0.000280  2.929632  0.662785  4.420187  1.068525     30.47    3.5107   18.0761   0.10199   4.76242   0.29024   0.01759  32.46505   3.87095     213.1  0.493790  0.000301  0.000040  0.000134  0.192024  7.200650  0.571300    112.03  1.000108  1.000007     2.393    12.410      99.7      80.2      36.1     209.8     11.03     -2.07      3.98      7.32     -2.09      5.89      1.97     -0.56      2.67     -2.77     -2.84     -1.09     -0.31      0.40      1.22      1.52     -1.38      3.99     -1.17      0.65
     -58.088619     -94.247955     158.0      0.84      2.04     112.0         3         1      3906      1000    212.23   -16.732       5.8      35.6   306.210     0.580      44.6   0.07464      17.4         H               198.1  0.047084  0.032671  0.000345  3.335613  0.677772  4.921436  1.080279     33.16    3.7690   20.9113   0.11487   4.88524   0.27868   0.01574  37.01837   4.11724     229.3  0.499427  0.000360  0.000053  0.000148  0.192654  7.217917  0.585543    108.99  1.000115  1.000007     2.478    13.314     105.0      81.5      41.3     221.3     10.97     -1.95      4.19      7.49     -2.14      6.86      2.65     -0.85      3.39     -2.44     -2.85     -1.91      0.10      0.74      1.64      1.66     -1.68      5.17     -1.68      0.99
     -58.066158     -94.341423     158.0      0.46      2.04     112.0         3         2      3906      2287    185.92   -17.307       5.4      36.0   303.501     0.567      50.3   0.06802      17.4         H               198.1  0.044621  0.027927  0.000277  2.868930  0.656406  4.370667  1.068199     24.29    3.2448   15.6718   0.10031   4.62500   0.30499   0.02004  28.19956   3.60474     198.6  0.493594  0.000448  0.000086  0.000132  0.189074  7.165697  0.571018    106.24  1.000120  1.000006     2.416    12.926     105.0      78.7      31.6     202.1     11.00     -1.38      3.97      7.33     -1.52      6.27      2.23     -0.54      2.93     -1.91     -1.94     -0.86      0.26      1.17      1.66      1.42     -1.02      4.49     -0.81      1.13
     -58.043831     -94.433929     160.5      0.57      2.04     114.7         3         3      3906      3574    189.12   -17.233       5.8      36.3   303.564     0.565      42.0   0.06793      18.0         H               198.1  0.043967  0.028322  0.000249  2.908804  0.658730  4.415773  1.066533     27.68    3.3051   16.1828   0.09995   4.65714   0.30101   0.01944  29.13044   3.66790     201.7  0.492211  0.000339  0.000056  0.000137  0.192324  7.184883  0.569017    111.21  1.000103  1.000006     2.384    12.323     102.3      79.1      32.6     194.1     10.99     -2.42      4.15      7.49     -2.09      5.96      1.97     -0.30      2.93     -2.71     -2.92     -0.72     -0.11      0.59      1.43      1.81     -0.83      3.63     -1.53      0.87
