corner points
-95.51111603    -59.60806274
-95.66047668    -59.76858139
-95.8480072    -59.52648926
-95.99869537    -59.68663788
========== RESULTS WAVE VERSION 16.10.2018 ====================
IMAGE SIZE  X: 4500     Y:4768    col:row     POLARIZATION:VV
COVERAGE    X: 20.98592309km       Y: 19.6767198km 
RESOLUTION dX: 4.663538465m       dY:4.126828817m  
resolution of original product 4.663538465m x 4.126828817m;   raster step x:5997.310467m  
===============================================================
FLAGS: H=HIGH PROBABILITY SEA STATE, I=LAND(ISLAND), O=OUTLIER NO SEA STATE, N=NO WIND AVAILABLE, SEA STATE NOT VISIBLE, M=MEAN PROBABILITY SEA STATE, L= LOW PROBABILITY SEA STATE
Filtering wave length
 integration  Lmin=1m
 integration  Lmax=2200m
  peak        Lmin=100m
               FFT=1024pixels, 4775.463389m 
   mean-Hs (SWH_c)=1.085373993m
         mean-wind=7.224074364m/s
--------------0--------------1---------2---------3---------4---------5---------6---------7---------8---------9--------10--------11--------12--------13--------14--------15--------16--------17--------18--------19------------------20--------21--------22--------23--------24--------25--------26--------27--------28--------29--------30--------31--------32--------33--------34--------35--------36--------37--------38--------39--------40--------41--------42--------43--------44--------45--------46--------47--------48--------49--------50--------51--------52--------53--------54--------55--------56--------57--------58--------59--------60--------61--------62--------63--------64--------65--------66--------67--------68--------69--------70--------71--------72--------73
            LAT            LON  P-LENGHT     SWH_o     SWH_c     P-DIR      LINE     POINT     ROW-Y     COL-X  M-INTENC        dB      WIND INC-ANGLE  ENERGY-M  ENERGY-N  ENERGY-R ENERGY-NN  FG-DEPTH      FLAG         HEADING-DEG    E30-75   E75-390  E390-600 meanincut   meanout   cut/out  STD-NORM  SPEC-MAX   GL-MEAN    GL-VAR      CORR   ENTROPY   HOMOGEN    ENERGY  CONTRAST  DISSIMIL     STD-O    E 1-30 E600-2000   E2000 >      GODA  LONG-HIG     Tmean  CONVOLUT  MEAN-DIR  relation     Sy/Sx  SKEWNESS  KURTOSIS  cutoff-A >50/10000     INT*V   INT-LOG  S-1_g1f1  S-2_g1f2  S-3_g1f3  S-4_g2f1  S-5_g2f2  S-6_g2f3  S-7_g3f1  S-8_g3f2  S-9_g3f3 S-10_g1f4 S-11_g2f4 S-12_g3f4 S-13_g1f5 S-14_g2f5 S-15_g3f5 S-16_g4f1 S-17_g4f2 S-18_g4f3 S-19_g4f4 S-20_g4f5
--------------1--------------2---------3---------4---------5---------6---------7---------8---------9--------10--------11--------12--------13--------14--------15--------16--------17--------18--------19--------20------------------21--------22--------23--------24--------25--------26--------27--------28--------29--------30--------31--------32--------33--------34--------35--------36--------37--------38--------39--------40--------41--------42--------43--------44--------45--------46--------47--------48--------49--------50--------51--------52--------53--------54--------55--------56--------57--------58--------59--------60--------61--------62--------63--------64--------65--------66--------67--------68--------69--------70--------71--------72--------73--------74
     -59.623447     -95.618355     162.3      1.04      2.41     107.9         1         1      1000      1000    269.71   -15.691       7.2      35.5   307.845     0.581      68.0   0.07834      18.5         H               198.9  0.048237  0.032558  0.000487  3.162617  0.704172  4.491254  1.081647     42.63    4.9124   33.8066   0.12306   5.35956   0.23358   0.00990  59.29233   5.22354     291.7  0.499244  0.000735  0.000110  0.000151  0.197475  7.233247  0.586557    102.30  1.000146  1.000011     2.477    13.261     107.8      85.8      66.7     289.4     11.50     -0.34      5.41      7.21      0.01      6.93      2.25     -0.72      3.14     -1.26     -1.15     -0.79      0.66      1.81      2.40      0.05      0.67      3.59     -0.04      1.56
     -59.600044     -95.715202     162.3      1.01      2.41     107.9         1         2      1000      2286    260.37   -15.844       7.3      35.9   307.948     0.583     111.7   0.07916      18.5         H               198.9  0.048592  0.032147  0.000542  3.292121  0.700495  4.699708  1.083191     26.92    4.7255   31.6180   0.12479   5.28886   0.23997   0.01062  55.34443   5.03941     282.0  0.499982  0.001442  0.000231  0.000136  0.196545  7.185917  0.588598     94.57  1.000156  1.000011     2.510    13.685     110.8      85.1      62.2     293.8     11.64     -0.07      5.35      6.54      0.60      6.21      1.97     -0.32      2.99     -0.57      0.04     -0.35      0.70      1.89      2.48     -0.50      0.66      2.99      0.52      1.65
     -59.576782     -95.811035     167.7      0.98      2.41     108.5         1         3      1000      3572    245.53   -16.099       7.2      36.3   307.070     0.577      41.9   0.07633      20.0         H               198.9  0.047825  0.031683  0.000449  3.119492  0.685943  4.547743  1.077648     37.28    4.4274   27.8296   0.11791   5.17264   0.25021   0.01184  49.09669   4.75551     264.6  0.497071  0.000476  0.000025  0.000147  0.197173  7.218417  0.582269    104.86  1.000154  1.000011     2.501    14.020     110.8      84.1      55.0     287.1     11.48     -0.67      5.03      6.80     -0.43      6.45      1.95     -0.92      3.18     -1.86     -1.62     -0.68     -0.02      1.95      3.06      0.39      0.20      4.04     -0.52      2.12
     -59.672356     -95.663910     160.3      0.90      2.41     110.0         2         1      2453      1000    263.62   -15.790       7.0      35.5   308.194     0.583      97.1   0.07883      18.0         H               198.9  0.049191  0.031278  0.000487  3.220860  0.707140  4.554772  1.083375     30.39    4.7909   32.3644   0.12314   5.31408   0.23754   0.01034  56.75748   5.10871     285.6  0.500669  0.001202  0.000211  0.000138  0.191629  7.167975  0.588371     97.72  1.000163  1.000013     2.534    14.271     110.8      85.4      63.8     310.6     11.40      0.31      4.89      6.73      0.09      6.65      2.37     -0.42      3.21     -0.59     -0.19     -0.47      0.37      1.89      2.80      0.01     -0.22      4.39      0.26      2.11
     -59.648918     -95.760880     165.5      1.19      2.41     110.6         2         2      2453      2286    280.95   -15.514       7.7      35.9   308.410     0.586      89.4   0.08176      19.4         H               198.9  0.050472  0.033941  0.000578  3.497718  0.711544  4.915670  1.086647     32.20    5.1359   36.9690   0.12964   5.43919   0.22695   0.00920  64.35283   5.43491     305.3  0.500465  0.000980  0.000191  0.000147  0.195266  7.211104  0.592880    100.77  1.000175  1.000014     2.527    13.893     114.0      86.4      72.9     318.4     11.40     -0.55      5.45      6.90      0.19      6.83      2.61     -0.61      3.62     -1.15     -0.82     -0.79      0.87      2.35      2.94      0.04      0.76      3.83      0.13      2.07
     -59.625626     -95.856827     160.3      1.32      2.41     110.0         2         3      2453      3572    257.17   -15.898       7.5      36.3   311.212     0.590      65.0   0.08175      18.0         H               198.9  0.048949  0.035955  0.000678  3.584001  0.696011  5.149344  1.090062     38.88    4.6596   31.2423   0.12727   5.26192   0.24324   0.01107  54.53208   4.98628     280.3  0.504045  0.000871  0.000075  0.000153  0.197559  7.262489  0.596619    103.70  1.000171  1.000013     2.521    13.653     114.0      84.7      61.2     284.8     11.59     -0.46      5.23      6.53     -0.14      6.74      2.57     -1.11      3.43     -1.50     -1.24     -1.11      0.39      1.87      2.57     -0.98      0.42      3.79     -0.15      1.94
     -59.721249     -95.709602     160.3      1.02      2.41     110.0         3         1      3906      1000    239.75   -16.202       6.5      35.5   312.025     0.592      67.3   0.08041      18.0         H               198.9  0.050243  0.034663  0.000530  3.574256  0.699807  5.107489  1.091439     28.77    4.3162   27.1897   0.12383   5.12474   0.25583   0.01255  47.64551   4.65404     261.7  0.505737  0.000770  0.000100  0.000147  0.193465  7.205987  0.598123     97.04  1.000167  1.000013     2.591    15.069     117.4      83.7      53.3     293.9     11.37      0.29      4.89      6.79      0.16      6.88      2.58     -0.82      3.79     -0.48     -0.66     -0.82      0.71      2.38      3.01      0.13     -0.37      4.46     -0.87      2.37
     -59.697781     -95.806679     157.2      1.40      2.41     107.3         3         2      3906      2286    281.70   -15.502       7.8      35.9   311.282     0.595     133.6   0.08543      17.2         H               198.9  0.050689  0.036899  0.000732  3.588544  0.718963  4.991279  1.094971     45.17    5.1510   37.7332   0.13592   5.44259   0.22775   0.00927  65.20932   5.45136     308.4  0.505201  0.001758  0.000286  0.000158  0.196332  7.238123  0.602706    104.23  1.000165  1.000016     2.563    14.074     121.0      86.3      74.1     321.6     11.53     -0.39      5.32      6.68     -0.12      6.99      2.91     -1.17      3.83     -1.33     -1.34     -1.20      0.71      2.19      2.87     -0.83      0.54      4.13     -0.26      1.98
     -59.674454     -95.902740     160.3      0.90      2.41     110.0         3         3      3906      3572    230.17   -16.380       6.8      36.3   309.555     0.584      69.5   0.07793      18.0         H               198.9  0.049333  0.032011  0.000639  3.323079  0.701568  4.736645  1.084269     30.00    4.1215   24.7874   0.12062   5.04296   0.26351   0.01360  43.59515   4.46510     249.6  0.501385  0.000975  0.000097  0.000145  0.193347  7.178966  0.589904    101.37  1.000183  1.000013     2.495    13.455     117.4      82.7      48.6     249.2     11.36      0.13      5.20      6.68     -0.04      6.62      3.03     -1.18      3.81     -0.96     -0.90     -1.09      0.62      1.76      3.05     -0.63      0.25      3.67     -0.34      1.27
