corner points
-119.7779922    4.927143574
-119.8154526    5.108001232
-119.6017609    4.964194775
-119.6391983    5.14502573
========== RESULTS WAVE VERSION 16.10.2018 ====================
IMAGE SIZE  X: 5471     Y:4930    col:row     POLARIZATION:VV
COVERAGE    X: 19.90670872km       Y: 20.48642222km 
RESOLUTION dX: 3.638586862m       dY:4.155460896m  
resolution of original product 3.638586862m x 4.155460896m;   raster step x:5996.391148m  
===============================================================
FLAGS: H=HIGH PROBABILITY SEA STATE, I=LAND(ISLAND), O=OUTLIER NO SEA STATE, N=NO WIND AVAILABLE, SEA STATE NOT VISIBLE, M=MEAN PROBABILITY SEA STATE, L= LOW PROBABILITY SEA STATE
Filtering wave length
 integration  Lmin=1m
 integration  Lmax=2200m
  peak        Lmin=100m
               FFT=1024pixels, 3725.912947m 
   mean-Hs (SWH_c)=0.2m
         mean-wind=4.082304478m/s
--------------0--------------1---------2---------3---------4---------5---------6---------7---------8---------9--------10--------11--------12--------13--------14--------15--------16--------17--------18--------19------------------20--------21--------22--------23--------24--------25--------26--------27--------28--------29--------30--------31--------32--------33--------34--------35--------36--------37--------38--------39--------40--------41--------42--------43--------44--------45--------46--------47--------48--------49--------50--------51--------52--------53--------54--------55--------56--------57--------58--------59--------60--------61--------62--------63--------64--------65--------66--------67--------68--------69--------70--------71--------72--------73
            LAT            LON  P-LENGHT     SWH_o     SWH_c     P-DIR      LINE     POINT     ROW-Y     COL-X  M-INTENC        dB      WIND INC-ANGLE  ENERGY-M  ENERGY-N  ENERGY-R ENERGY-NN  FG-DEPTH      FLAG         HEADING-DEG    E30-75   E75-390  E390-600 meanincut   meanout   cut/out  STD-NORM  SPEC-MAX   GL-MEAN    GL-VAR      CORR   ENTROPY   HOMOGEN    ENERGY  CONTRAST  DISSIMIL     STD-O    E 1-30 E600-2000   E2000 >      GODA  LONG-HIG     Tmean  CONVOLUT  MEAN-DIR  relation     Sy/Sx  SKEWNESS  KURTOSIS  cutoff-A >50/10000     INT*V   INT-LOG  S-1_g1f1  S-2_g1f2  S-3_g1f3  S-4_g2f1  S-5_g2f2  S-6_g2f3  S-7_g3f1  S-8_g3f2  S-9_g3f3 S-10_g1f4 S-11_g2f4 S-12_g3f4 S-13_g1f5 S-14_g2f5 S-15_g3f5 S-16_g4f1 S-17_g4f2 S-18_g4f3 S-19_g4f4 S-20_g4f5
--------------1--------------2---------3---------4---------5---------6---------7---------8---------9--------10--------11--------12--------13--------14--------15--------16--------17--------18--------19--------20------------------21--------22--------23--------24--------25--------26--------27--------28--------29--------30--------31--------32--------33--------34--------35--------36--------37--------38--------39--------40--------41--------42--------43--------44--------45--------46--------47--------48--------49--------50--------51--------52--------53--------54--------55--------56--------57--------58--------59--------60--------61--------62--------63--------64--------65--------66--------67--------68--------69--------70--------71--------72--------73--------74
       4.970781    -119.752563     295.2      0.26      1.59      13.8         1         1      1000      1000   1439.39    -8.418       3.9      23.7   406.565     0.649     136.2   0.13373     100.0         H               348.0  0.064937  0.039749  0.001223  2.868010  0.851738  3.367245  1.143053     48.72    2.4276   10.8240   0.23220   4.09638   0.39247   0.03917  16.62127   2.63700    1645.3  0.541567  0.002080  0.000072  0.000145  0.201976  7.107275  0.678770     54.71  0.999911  0.999992     2.769    16.085      57.7      70.8      20.8     175.9     13.05      1.88     -8.15     -1.34     -1.31      2.83     -2.00     -0.55      3.01     -2.16      1.89      0.59      1.47     -2.36     -0.79     -9.11     -1.81      6.72      3.49     -3.54
       4.982054    -119.698952     308.8      0.28      1.59      19.4         1         2      1000      2648   1447.11    -8.395       4.4      24.2   403.470     0.643     222.1   0.13145     100.0         H               348.0  0.062857  0.037236  0.001137  2.660048  0.831203  3.200237  1.138052     62.02    2.4196   10.6806   0.22935   4.09257   0.39205   0.03894  16.46179   2.62924    1646.9  0.538821  0.003433  0.000189  0.000150  0.202331  7.091231  0.671799     29.04  0.999958  0.999998     2.745    15.712      58.5      71.0      20.7     165.9     13.22      2.64     -8.15     -1.60     -2.09      3.25     -2.20     -0.99      2.82     -3.91      2.76      0.91      1.32     -2.11     -0.66     -9.21     -3.15      7.37      5.06     -3.17
       4.993118    -119.646309     288.9      0.29      1.59      18.1         1         3      1000      4296   1335.41    -8.744       4.5      24.7   399.911     0.634     126.6   0.12831     100.0         H               348.0  0.063718  0.033951  0.000972  2.556441  0.840746  3.040682  1.129097     47.44    2.1970    8.9272   0.22394   3.93516   0.41135   0.04492  13.85607   2.41574    1507.8  0.534369  0.001746  0.000110  0.000143  0.197452  7.036124  0.661330     46.79  0.999982  0.999999     2.696    15.286      56.9      68.9      17.6     154.5     12.97      2.04     -7.44     -1.00     -1.59      2.62     -2.16     -0.49      2.82     -2.57      1.93      0.90      1.01     -2.19     -0.53     -8.24     -2.43      6.02      3.49     -3.19
       5.023727    -119.763535     316.5      0.27      1.59      14.8         2         1      2443      1000   1491.72    -8.263       4.1      23.7   406.809     0.648     161.3   0.13247     100.0         H               348.0  0.063833  0.041833  0.001268  2.928807  0.838164  3.494314  1.141745     72.40    2.5197   11.5188   0.23128   4.15868   0.38491   0.03690  17.70949   2.72385    1703.0  0.539343  0.002186  0.000120  0.000152  0.207906  7.170599  0.677761     27.86  0.999903  0.999992     2.754    15.973      60.3      71.7      22.1     180.3     13.33      2.15     -8.91     -1.92     -2.13      3.57     -2.19     -0.50      2.70     -3.55      2.35      0.56      1.96     -3.11     -0.71     -9.79     -3.43      8.34      5.05     -4.75
       5.034997    -119.709915     322.4      0.27      1.59      10.0         2         2      2443      2648   1343.86    -8.716       4.1      24.2   399.865     0.634     101.1   0.12790     100.0         H               348.0  0.062740  0.037714  0.000984  2.770649  0.825941  3.354537  1.130026     52.01    2.2254    9.1091   0.22524   3.95600   0.40953   0.04413  14.11463   2.43793    1518.6  0.531897  0.001231  0.000059  0.000144  0.201415  7.096509  0.661913     42.74  0.999960  0.999996     2.747    17.164      58.5      69.2      17.9     177.1     13.00      2.19     -7.73     -0.96     -2.02      2.79     -2.40     -0.65      2.68     -2.71      1.94      0.90      0.64     -1.92     -0.28     -7.87     -3.13      7.06      3.39     -3.04
       5.046060    -119.657272     322.4      0.26      1.59      10.0         2         3      2443      4296   1160.28    -9.354       4.0      24.7   403.826     0.645     239.5   0.13232     100.0         H               348.0  0.063551  0.036754  0.001288  2.697140  0.868217  3.106526  1.139844     60.83    1.8547    6.8306   0.23048   3.65760   0.45156   0.05942  10.51259   2.07821    1322.5  0.539523  0.003707  0.000177  0.000145  0.200364  7.083354  0.673465     33.70  0.999946  0.999997     2.758    15.983      58.5      64.6      13.5     135.2     13.26      2.48     -8.15     -1.94     -2.03      3.48     -1.72     -0.42      2.51     -3.65      2.41      0.46      1.30     -2.49     -0.25    -10.27     -3.32      8.16      5.23     -4.20
       5.076673    -119.774498     300.0      0.27      1.59       9.3         3         1      3886      1000   1547.95    -8.102       4.2      23.7   402.364     0.639     160.0   0.13022     100.0         H               348.0  0.063804  0.037509  0.000810  2.737451  0.840112  3.258437  1.134447     59.75    2.6285   12.2191   0.22855   4.23236   0.37401   0.03398  18.85289   2.82771    1756.0  0.535000  0.002099  0.000169  0.000146  0.200796  7.074934  0.666941     35.22  0.999951  0.999996     2.704    15.311      57.7      72.8      23.6     183.5     12.92      1.88     -7.90     -0.88     -1.75      2.62     -2.30     -0.86      3.00     -2.76      1.82      0.86      1.34     -2.39     -0.82     -7.74     -2.09      5.91      3.14     -3.16
       5.087941    -119.720879     288.9      0.25      1.59      18.1         3         2      3886      2648   1257.37    -9.005       3.8      24.2   402.546     0.640     115.6   0.13028     100.0         H               348.0  0.063417  0.037486  0.001167  2.737090  0.822562  3.327519  1.134305     59.31    2.0566    8.0516   0.22699   3.82567   0.42733   0.05026  12.44798   2.27713    1426.3  0.536671  0.001565  0.000081  0.000145  0.202413  7.096951  0.668269     33.62  0.999923  0.999994     2.714    15.328      58.5      67.3      15.8     142.1     13.19      2.51     -7.96     -1.55     -2.05      3.17     -2.08     -0.85      2.45     -3.43      2.57      0.68      1.58     -2.34     -0.55     -9.37     -3.13      7.53      5.15     -3.81
       5.099001    -119.668236     288.9      0.24      1.59      18.1         3         3      3886      4296   1054.21    -9.771       3.6      24.7   403.555     0.640     181.3   0.12906     100.0         H               348.0  0.062155  0.038031  0.001191  2.851754  0.823087  3.464708  1.134099     42.12    1.6427    5.5491   0.22437   3.46784   0.47815   0.07090   8.60811   1.87247    1195.5  0.535837  0.002685  0.000188  0.000143  0.200299  7.106605  0.667709     50.08  0.999964  0.999997     2.711    15.340      56.1      61.7      11.1     117.5     12.88      2.51     -7.17     -0.82     -1.77      1.82     -2.14     -0.54      3.01     -2.63      1.80      0.73      0.36     -1.67     -0.52     -8.44     -2.94      4.82      3.78     -2.23
