corner points
-117.9541321    4.387219429
-117.9902496    4.562502861
-117.7791214    4.423759937
-117.8152008    4.599004745
========== RESULTS WAVE VERSION 16.10.2018 ====================
IMAGE SIZE  X: 4376     Y:4786    col:row     POLARIZATION:VV
COVERAGE    X: 19.77868045km       Y: 19.85058117km 
RESOLUTION dX: 4.519808146m       dY:4.147635013m  
resolution of original product 4.519808146m x 4.147635013m;   raster step x:5997.78541m  
===============================================================
FLAGS: H=HIGH PROBABILITY SEA STATE, I=LAND(ISLAND), O=OUTLIER NO SEA STATE, N=NO WIND AVAILABLE, SEA STATE NOT VISIBLE, M=MEAN PROBABILITY SEA STATE, L= LOW PROBABILITY SEA STATE
Filtering wave length
 integration  Lmin=1m
 integration  Lmax=2200m
  peak        Lmin=100m
               FFT=1024pixels, 4628.283542m 
   mean-Hs (SWH_c)=0.2m
         mean-wind=7.20532465m/s
--------------0--------------1---------2---------3---------4---------5---------6---------7---------8---------9--------10--------11--------12--------13--------14--------15--------16--------17--------18--------19------------------20--------21--------22--------23--------24--------25--------26--------27--------28--------29--------30--------31--------32--------33--------34--------35--------36--------37--------38--------39--------40--------41--------42--------43--------44--------45--------46--------47--------48--------49--------50--------51--------52--------53--------54--------55--------56--------57--------58--------59--------60--------61--------62--------63--------64--------65--------66--------67--------68--------69--------70--------71--------72--------73
            LAT            LON  P-LENGHT     SWH_o     SWH_c     P-DIR      LINE     POINT     ROW-Y     COL-X  M-INTENC        dB      WIND INC-ANGLE  ENERGY-M  ENERGY-N  ENERGY-R ENERGY-NN  FG-DEPTH      FLAG         HEADING-DEG    E30-75   E75-390  E390-600 meanincut   meanout   cut/out  STD-NORM  SPEC-MAX   GL-MEAN    GL-VAR      CORR   ENTROPY   HOMOGEN    ENERGY  CONTRAST  DISSIMIL     STD-O    E 1-30 E600-2000   E2000 >      GODA  LONG-HIG     Tmean  CONVOLUT  MEAN-DIR  relation     Sy/Sx  SKEWNESS  KURTOSIS  cutoff-A >50/10000     INT*V   INT-LOG  S-1_g1f1  S-2_g1f2  S-3_g1f3  S-4_g2f1  S-5_g2f2  S-6_g2f3  S-7_g3f1  S-8_g3f2  S-9_g3f3 S-10_g1f4 S-11_g2f4 S-12_g3f4 S-13_g1f5 S-14_g2f5 S-15_g3f5 S-16_g4f1 S-17_g4f2 S-18_g4f3 S-19_g4f4 S-20_g4f5
--------------1--------------2---------3---------4---------5---------6---------7---------8---------9--------10--------11--------12--------13--------14--------15--------16--------17--------18--------19--------20------------------21--------22--------23--------24--------25--------26--------27--------28--------29--------30--------31--------32--------33--------34--------35--------36--------37--------38--------39--------40--------41--------42--------43--------44--------45--------46--------47--------48--------49--------50--------51--------52--------53--------54--------55--------56--------57--------58--------59--------60--------61--------62--------63--------64--------65--------66--------67--------68--------69--------70--------71--------72--------73--------74
       4.432297    -117.921242     302.7      0.44      2.11       3.7         1         1      1000      1000    231.16   -16.361       7.3      36.9   217.217     0.547     259.6   0.06457     100.0         H               348.0  0.040127  0.015788  0.000766  1.159789  0.661510  1.753245  1.051521     35.46    4.1426   23.5458   0.09467   5.05795   0.25861   0.01290  42.63354   4.47875     243.0  0.486732  0.003327  0.000751  0.000102  0.198168  6.951881  0.551222     15.64  0.999917  0.999995     2.288    11.408      84.8      83.4      47.4     222.3     13.56      1.40     -6.35     -3.05     -0.75      3.69     -0.46     -0.86      1.76     -1.41      1.07      0.62      3.66     -3.85      0.30    -12.79     -0.15      6.50      1.75     -7.56
       4.443415    -117.867981     302.7      0.45      2.11       3.7         1         2      1000      2327    224.65   -16.485       7.4      37.3   214.455     0.537     100.7   0.06130     100.0         H               348.0  0.039280  0.014388  0.000654  1.103823  0.645962  1.708806  1.039894     16.49    4.0140   21.7307   0.08737   5.00334   0.26255   0.01337  39.66423   4.34300     233.6  0.481076  0.001511  0.000232  0.000096  0.188963  6.909309  0.539716     39.62  0.999987  0.999999     2.221    10.769      71.1      83.2      44.2     210.0     12.85      0.76     -5.68     -1.82     -0.28      2.43     -0.33     -1.35      1.80     -1.31      0.76      0.49      1.27     -1.34     -0.41    -10.98      1.53      4.81      1.37     -1.36
       4.454435    -117.815178     325.9      0.43      2.11       4.0         1         3      1000      3654    201.28   -16.962       7.0      37.7   213.298     0.534      61.9   0.06040     100.0         H               348.0  0.038680  0.014672  0.000516  1.065884  0.640323  1.664605  1.036731     26.23    3.5484   17.3308   0.08488   4.78518   0.28461   0.01658  31.71939   3.88731     208.7  0.479107  0.000936  0.000103  0.000098  0.194743  6.935267  0.536459     15.52  0.999933  0.999996     2.187    10.420      71.1      80.9      35.6     179.7     13.04      1.10     -6.93     -1.94     -1.04      3.80     -0.87     -0.19      1.51     -1.33      1.11      0.37      2.27     -2.50     -0.34    -10.06     -1.07      7.49      1.97     -3.55
       4.485264    -117.932152     302.7      0.41      2.11       3.7         2         1      2446      1000    207.24   -16.835       6.7      36.9   215.975     0.542     179.0   0.06268     100.0         H               348.0  0.039273  0.015844  0.000682  1.154068  0.649042  1.778110  1.046247     20.52    3.6662   18.7247   0.09016   4.84160   0.27995   0.01588  34.07275   4.01010     216.8  0.484258  0.002179  0.000482  0.000097  0.197778  6.973760  0.546133     31.58  0.999918  0.999995     2.256    11.147      78.1      81.3      38.1     205.8     13.13      1.58     -6.45     -2.12     -0.83      3.34     -0.69     -0.75      1.48     -1.39      1.13      0.20      1.81     -2.51      0.15    -11.04     -0.72      7.42      2.52     -4.45
       4.496379    -117.878891     323.5      0.46      2.11       8.0         2         2      2446      2327    229.38   -16.394       7.6      37.3   213.879     0.536      93.4   0.06160     100.0         H               348.0  0.039370  0.015008  0.000572  1.113792  0.643925  1.729692  1.038682     25.18    4.1086   22.6069   0.08746   5.04496   0.25845   0.01283  41.25923   4.43447     238.2  0.479368  0.001318  0.000202  0.000100  0.192300  6.919587  0.538404     22.09  0.999946  0.999997     2.204    10.597      71.1      83.6      46.0     213.0     13.09      1.63     -6.82     -2.37     -0.98      3.34     -0.57     -0.85      1.61     -2.11      1.45      0.38      1.70     -2.05     -0.09    -11.07     -0.68      6.81      2.97     -3.12
       4.507395    -117.826080     302.7      0.44      2.11       3.7         2         3      2446      3654    207.55   -16.829       7.2      37.7   214.490     0.538     139.9   0.06175     100.0         H               348.0  0.039173  0.014990  0.000588  1.111767  0.647977  1.715752  1.041048     22.22    3.6732   18.5830   0.08906   4.84557   0.27912   0.01572  33.85590   4.00785     216.0  0.481199  0.001735  0.000387  0.000098  0.193413  6.927484  0.541093     25.22  0.999922  0.999996     2.218    10.727      75.2      81.5      37.9     190.9     13.07      1.39     -6.20     -1.91     -0.73      2.90     -0.94     -0.41      1.57     -1.57      1.38      0.20      1.74     -2.03     -0.06    -10.40     -0.91      5.95      2.98     -3.21
       4.538231    -117.943062     391.2      0.42      2.11      68.4         3         1      3892      1000    216.87   -16.638       6.9      36.9   230.153     0.613     939.4   0.09279     100.0         M               348.0  0.042319  0.026093  0.008480  1.871494  0.694388  2.695173  1.115030     39.18    3.8548   22.8012   0.14785   4.91892   0.27532   0.01523  38.86014   4.18188     241.8  0.515630  0.019014  0.001945  0.000114  0.238720  7.285380  0.628246     51.17  1.000176  1.000012     3.347    31.215     210.9      81.8      45.0     364.5     17.05      4.27      1.65    -13.46     -5.65     -1.14      9.00      4.23      2.07      0.11      0.10     -0.00      2.05     -0.78     -0.43    -49.83    -20.05     -7.21     -0.08     -0.97
       4.549342    -117.889801     325.9      0.44      2.11       4.0         3         2      3892      2327    217.32   -16.629       7.2      37.3   215.149     0.539      71.0   0.06196     100.0         H               348.0  0.038923  0.015957  0.000642  1.148242  0.650850  1.764218  1.041555     24.82    3.8689   20.3904   0.08691   4.93765   0.26929   0.01432  37.23657   4.20426     226.3  0.482270  0.000939  0.000124  0.000098  0.198121  6.961849  0.541498     21.84  0.999917  0.999995     2.229    10.950      69.9      82.5      41.5     208.2     13.26      1.67     -7.19     -2.38     -0.79      3.37     -1.12     -1.05      1.81     -1.52      1.21      0.24      1.80     -2.35      0.01    -11.11     -0.36      7.30      2.83     -3.79
       4.560355    -117.836983     300.8      0.44      2.11       7.5         3         3      3892      3654    211.76   -16.742       7.3      37.7   214.160     0.536      84.2   0.06093     100.0         H               348.0  0.038623  0.015351  0.000600  1.138242  0.639057  1.781128  1.038941     28.33    3.7572   19.2697   0.08539   4.88600   0.27421   0.01502  35.24839   4.09480     220.0  0.480356  0.001105  0.000167  0.000099  0.197029  6.957262  0.538842     14.43  0.999928  0.999994     2.213    10.766      72.4      82.0      39.3     202.4     13.24      1.70     -6.57     -2.29     -1.10      3.45     -0.98     -0.54      1.52     -1.97      1.78      0.28      1.89     -2.34     -0.06    -10.64     -1.30      7.00      3.61     -3.69
