corner points
-116.8411255    -0.9228144884
-116.8781586    -0.747571528
-116.666626    -0.8850815296
-116.7036743    -0.7098811269
========== RESULTS WAVE VERSION 16.10.2018 ====================
IMAGE SIZE  X: 4376     Y:4787    col:row     POLARIZATION:VV
COVERAGE    X: 19.80424432km       Y: 19.86971971km 
RESOLUTION dX: 4.525649982m       dY:4.150766599m  
resolution of original product 4.525649982m x 4.150766599m;   raster step x:5996.486226m  
===============================================================
FLAGS: H=HIGH PROBABILITY SEA STATE, I=LAND(ISLAND), O=OUTLIER NO SEA STATE, N=NO WIND AVAILABLE, SEA STATE NOT VISIBLE, M=MEAN PROBABILITY SEA STATE, L= LOW PROBABILITY SEA STATE
Filtering wave length
 integration  Lmin=1m
 integration  Lmax=2200m
  peak        Lmin=100m
               FFT=1024pixels, 4634.265582m 
   mean-Hs (SWH_c)=0.2082434845m
         mean-wind=8.180041313m/s
--------------0--------------1---------2---------3---------4---------5---------6---------7---------8---------9--------10--------11--------12--------13--------14--------15--------16--------17--------18--------19------------------20--------21--------22--------23--------24--------25--------26--------27--------28--------29--------30--------31--------32--------33--------34--------35--------36--------37--------38--------39--------40--------41--------42--------43--------44--------45--------46--------47--------48--------49--------50--------51--------52--------53--------54--------55--------56--------57--------58--------59--------60--------61--------62--------63--------64--------65--------66--------67--------68--------69--------70--------71--------72--------73
            LAT            LON  P-LENGHT     SWH_o     SWH_c     P-DIR      LINE     POINT     ROW-Y     COL-X  M-INTENC        dB      WIND INC-ANGLE  ENERGY-M  ENERGY-N  ENERGY-R ENERGY-NN  FG-DEPTH      FLAG         HEADING-DEG    E30-75   E75-390  E390-600 meanincut   meanout   cut/out  STD-NORM  SPEC-MAX   GL-MEAN    GL-VAR      CORR   ENTROPY   HOMOGEN    ENERGY  CONTRAST  DISSIMIL     STD-O    E 1-30 E600-2000   E2000 >      GODA  LONG-HIG     Tmean  CONVOLUT  MEAN-DIR  relation     Sy/Sx  SKEWNESS  KURTOSIS  cutoff-A >50/10000     INT*V   INT-LOG  S-1_g1f1  S-2_g1f2  S-3_g1f3  S-4_g2f1  S-5_g2f2  S-6_g2f3  S-7_g3f1  S-8_g3f2  S-9_g3f3 S-10_g1f4 S-11_g2f4 S-12_g3f4 S-13_g1f5 S-14_g2f5 S-15_g3f5 S-16_g4f1 S-17_g4f2 S-18_g4f3 S-19_g4f4 S-20_g4f5
--------------1--------------2---------3---------4---------5---------6---------7---------8---------9--------10--------11--------12--------13--------14--------15--------16--------17--------18--------19--------20------------------21--------22--------23--------24--------25--------26--------27--------28--------29--------30--------31--------32--------33--------34--------35--------36--------37--------38--------39--------40--------41--------42--------43--------44--------45--------46--------47--------48--------49--------50--------51--------52--------53--------54--------55--------56--------57--------58--------59--------60--------61--------62--------63--------64--------65--------66--------67--------68--------69--------70--------71--------72--------73--------74
      -0.877482    -116.808540     281.3      0.50      1.94       7.0         1         1      1000      1000    274.40   -15.616       8.3      36.9   219.610     0.559      48.2   0.07077     100.0         H               348.0  0.045855  0.019199  0.000406  1.751557  0.671937  2.606728  1.060693     16.80    5.0012   33.7232   0.10605   5.39601   0.22780   0.00932  60.29313   5.31623     291.0  0.493219  0.000513  0.000084  0.000131  0.173971  6.900946  0.564273     76.96  1.000049  1.000003     2.348    11.934      84.8      86.3      67.4     275.2     12.12      2.86     -4.20      0.47     -0.05      2.98      0.11      0.03      1.81     -0.28      1.15      1.16     -0.19     -1.33     -0.10     -6.18     -0.63      5.78      1.13     -0.96
      -0.866020    -116.755524     288.5      0.48      1.94      18.1         1         2      1000      2325    250.35   -16.015       8.0      37.3   220.114     0.558      56.7   0.06872     100.0         H               348.0  0.045562  0.018643  0.000407  1.687397  0.668032  2.525922  1.059995     12.74    4.5253   28.0248   0.10177   5.21555   0.24348   0.01109  50.34513   4.85692     265.4  0.493061  0.000650  0.000110  0.000124  0.173291  6.892627  0.563412     76.89  1.000045  1.000004     2.358    12.263      84.8      84.8      55.9     267.1     12.15      2.36     -4.13     -0.12     -0.20      2.69      0.33     -0.20      1.09     -0.07      0.82      0.85     -0.45     -1.28      0.38     -6.97     -0.22      5.95      0.86     -1.40
      -0.854655    -116.702957     301.0      0.50      1.94       7.5         1         3      1000      3650    251.67   -15.992       8.3      37.6   219.969     0.557      47.3   0.06913     100.0         H               348.0  0.045456  0.018880  0.000498  1.729150  0.663903  2.604523  1.059632     13.57    4.5522   28.3308   0.10269   5.22600   0.24311   0.01100  50.84274   4.88087     266.7  0.492330  0.000531  0.000083  0.000130  0.173729  6.904461  0.562604     76.14  1.000034  1.000002     2.334    11.794      86.6      84.9      56.6     251.4     12.17      2.18     -3.96     -0.03     -0.32      2.90      0.59     -0.26      0.95      0.31      0.46      1.16     -0.08     -1.20      0.17     -7.71     -0.35      6.67     -0.11     -1.46
      -0.824576    -116.819725     297.9      0.47      1.94      11.1         2         1      2445      1000    256.69   -15.906       7.9      36.9   219.301     0.556      34.1   0.06914     100.0         H               348.0  0.045730  0.017566  0.000360  1.621447  0.666515  2.432723  1.058054     12.19    4.6492   29.3606   0.10126   5.26434   0.23896   0.01055  52.77459   4.97823     271.6  0.492432  0.000384  0.000031  0.000127  0.170583  6.875584  0.560914     76.82  1.000048  1.000004     2.350    12.260      86.6      85.2      58.7     280.5     12.07      2.84     -3.59      0.40     -0.78      2.21     -0.09     -0.35      1.36     -0.17      0.89      0.64     -0.47     -0.65      0.29     -5.96     -1.53      4.55      1.25     -0.30
      -0.813117    -116.766708     302.9      0.49      1.94       3.7         2         2      2445      2325    259.06   -15.866       8.3      37.3   220.032     0.557      55.4   0.06956     100.0         H               348.0  0.045490  0.018811  0.000395  1.700769  0.675775  2.516767  1.059117     21.11    4.6992   29.9719   0.10240   5.28359   0.23759   0.01037  53.80534   5.02309     274.3  0.492234  0.000652  0.000094  0.000125  0.176896  6.915819  0.562281     74.22  1.000012  1.000001     2.337    11.860      84.8      85.4      59.9     256.8     12.20      2.83     -3.98      0.02     -0.02      2.95      0.31     -0.10      1.51      0.49      0.53      1.00      0.24     -1.81     -0.11     -6.63     -0.42      5.70      0.05     -1.86
      -0.801756    -116.714134     302.9      0.50      1.94       3.7         2         3      2445      3650    257.39   -15.894       8.5      37.6   218.384     0.552      37.5   0.06807     100.0         H               348.0  0.044599  0.018262  0.000451  1.673166  0.659383  2.537471  1.054083     11.69    4.6655   29.3184   0.10018   5.27120   0.23842   0.01047  52.76270   4.98948     271.3  0.488333  0.000495  0.000031  0.000129  0.172181  6.891375  0.556619     77.00  1.000018  1.000001     2.294    11.481      84.8      85.3      58.7     256.3     12.06      2.65     -3.63      0.14     -0.67      2.41      0.61     -0.18      1.06      0.23      0.89      0.57     -0.42     -0.99      0.27     -7.23     -1.08      5.47      1.07     -1.17
      -0.771669    -116.830902     326.1      0.48      1.94     176.0         3         1      3890      1000    263.06   -15.799       8.1      36.9   219.179     0.559      47.3   0.07095     100.0         H               348.0  0.046625  0.018313  0.000413  1.708053  0.679542  2.513534  1.060704      9.63    4.7770   31.0197   0.10544   5.31277   0.23557   0.01011  55.49800   5.09768     279.0  0.493267  0.000560  0.000079  0.000134  0.167894  6.862832  0.564145     78.25  1.000081  1.000005     2.355    12.039      88.6      85.7      61.9     271.9     11.90      1.68     -3.21      0.69     -0.33      2.18      0.47      0.00      0.93      0.41      0.51      0.79     -0.20     -0.55      0.46     -6.43     -0.50      4.92      0.27     -0.87
      -0.760214    -116.777885     302.9      0.48      1.94       3.7         3         2      3890      2325    251.27   -15.999       8.1      37.3   218.765     0.553      84.2   0.06830     100.0         H               348.0  0.045010  0.017276  0.000380  1.576899  0.667483  2.362457  1.055712     13.85    4.5441   27.9881   0.09994   5.22357   0.24298   0.01097  50.38211   4.87043     265.3  0.489721  0.000970  0.000219  0.000124  0.170448  6.855090  0.557862     75.81  1.000049  1.000003     2.322    11.947      86.6      84.9      56.1     266.2     12.07      2.20     -4.02      0.01     -0.65      2.64      0.32      0.23      1.14     -0.45      0.96      0.73     -0.20     -1.10      0.66     -6.86     -1.18      5.55      1.62     -1.62
      -0.748857    -116.725319     281.3      0.49      1.94       7.0         3         3      3890      3650    245.93   -16.092       8.2      37.6   219.926     0.556      44.1   0.06799     100.0         H               348.0  0.045476  0.018270  0.000404  1.651234  0.656647  2.514644  1.058462     18.00    4.4384   26.9967   0.09963   5.18089   0.24704   0.01147  48.61375   4.77211     260.3  0.491892  0.000558  0.000051  0.000126  0.172826  6.880376  0.561343     77.63  1.000034  1.000002     2.343    11.931      88.6      84.5      54.0     245.7     12.16      2.41     -4.50     -0.15     -0.78      2.96      0.33     -0.31      1.55     -0.49      0.92      1.26      0.11     -1.35      0.06     -7.05     -0.96      5.73      0.78     -1.14
