corner points
-104.1051102    -44.70088959
-104.182045    -44.53160095
-103.861557    -44.643116
-103.9391785    -44.47399139
========== RESULTS WAVE VERSION 16.10.2018 ====================
IMAGE SIZE  X: 4376     Y:4770    col:row     POLARIZATION:VV
COVERAGE    X: 20.25477676km       Y: 19.74092898km 
RESOLUTION dX: 4.628605293m       dY:4.138559535m  
resolution of original product 4.628605293m x 4.138559535m;   raster step x:5998.67246m  
===============================================================
FLAGS: H=HIGH PROBABILITY SEA STATE, I=LAND(ISLAND), O=OUTLIER NO SEA STATE, N=NO WIND AVAILABLE, SEA STATE NOT VISIBLE, M=MEAN PROBABILITY SEA STATE, L= LOW PROBABILITY SEA STATE
Filtering wave length
 integration  Lmin=1m
 integration  Lmax=2200m
  peak        Lmin=100m
               FFT=1024pixels, 4739.69182m 
   mean-Hs (SWH_c)=0.8957102966m
         mean-wind=8.367694855m/s
--------------0--------------1---------2---------3---------4---------5---------6---------7---------8---------9--------10--------11--------12--------13--------14--------15--------16--------17--------18--------19------------------20--------21--------22--------23--------24--------25--------26--------27--------28--------29--------30--------31--------32--------33--------34--------35--------36--------37--------38--------39--------40--------41--------42--------43--------44--------45--------46--------47--------48--------49--------50--------51--------52--------53--------54--------55--------56--------57--------58--------59--------60--------61--------62--------63--------64--------65--------66--------67--------68--------69--------70--------71--------72--------73
            LAT            LON  P-LENGHT     SWH_o     SWH_c     P-DIR      LINE     POINT     ROW-Y     COL-X  M-INTENC        dB      WIND INC-ANGLE  ENERGY-M  ENERGY-N  ENERGY-R ENERGY-NN  FG-DEPTH      FLAG         HEADING-DEG    E30-75   E75-390  E390-600 meanincut   meanout   cut/out  STD-NORM  SPEC-MAX   GL-MEAN    GL-VAR      CORR   ENTROPY   HOMOGEN    ENERGY  CONTRAST  DISSIMIL     STD-O    E 1-30 E600-2000   E2000 >      GODA  LONG-HIG     Tmean  CONVOLUT  MEAN-DIR  relation     Sy/Sx  SKEWNESS  KURTOSIS  cutoff-A >50/10000     INT*V   INT-LOG  S-1_g1f1  S-2_g1f2  S-3_g1f3  S-4_g2f1  S-5_g2f2  S-6_g2f3  S-7_g3f1  S-8_g3f2  S-9_g3f3 S-10_g1f4 S-11_g2f4 S-12_g3f4 S-13_g1f5 S-14_g2f5 S-15_g3f5 S-16_g4f1 S-17_g4f2 S-18_g4f3 S-19_g4f4 S-20_g4f5
--------------1--------------2---------3---------4---------5---------6---------7---------8---------9--------10--------11--------12--------13--------14--------15--------16--------17--------18--------19--------20------------------21--------22--------23--------24--------25--------26--------27--------28--------29--------30--------31--------32--------33--------34--------35--------36--------37--------38--------39--------40--------41--------42--------43--------44--------45--------46--------47--------48--------49--------50--------51--------52--------53--------54--------55--------56--------57--------58--------59--------60--------61--------62--------63--------64--------65--------66--------67--------68--------69--------70--------71--------72--------73--------74
     -44.652088    -104.064941     295.5      0.91      2.84     119.2         1         1      1000      1000    313.78   -15.034       8.4      35.9   288.222     0.602     732.7   0.08939     100.0         H               345.6  0.047313  0.027369  0.001345  2.634772  0.727834  3.620015  1.104675     26.26    5.7875   47.3069   0.14461   5.65313   0.21046   0.00759  80.93130   6.06514     346.7  0.514149  0.009665  0.002062  0.000112  0.206034  7.151343  0.610892    100.26  1.000257  1.000018     2.626    14.740     153.8      87.9      93.5     358.4     14.09     -3.77      5.95     -0.31      1.02      1.57      0.20      1.98     -0.85     -2.49      0.57      0.93     -0.20      1.72      1.39    -11.44      2.10     -1.27      2.17      1.55
     -44.634945    -103.992561     300.3      0.87      2.84     124.5         1         2      1000      2296    280.67   -15.518       8.0      36.3   282.446     0.579     302.2   0.07965     100.0         H               345.6  0.044728  0.027291  0.001102  2.658694  0.695316  3.823719  1.080974     25.77    5.1269   36.5461   0.12521   5.43697   0.22651   0.00917  63.93949   5.43141     303.4  0.501411  0.003927  0.000796  0.000117  0.208030  7.197811  0.585700    100.17  1.000244  1.000017     2.486    13.381     124.8      86.4      72.3     305.8     14.08     -4.20      7.06      0.41      1.47      1.05     -0.45      2.00     -0.64     -2.74      0.75      1.00      0.20      1.80      1.08     -9.32      3.33     -3.25      2.81      1.75
     -44.617905    -103.920868     271.4      0.94      2.84     120.8         1         3      1000      3592    297.67   -15.263       8.7      36.6   283.373     0.582     370.1   0.08122     100.0         H               345.6  0.044817  0.026795  0.001148  2.602465  0.703434  3.699657  1.084273     27.46    5.4678   41.2239   0.12737   5.55404   0.21661   0.00816  71.94547   5.75816     322.7  0.503595  0.004704  0.001036  0.000115  0.209688  7.206146  0.588381    101.57  1.000197  1.000014     2.514    13.837     124.8      87.4      81.9     341.5     14.09     -3.90      6.45      0.19      1.70      1.69     -0.09      2.30     -0.61     -1.82      0.34      1.62     -0.47      1.99      1.10     -9.75      2.36     -1.60      0.08      2.30
     -44.600666    -104.088387     258.6      1.05      2.84     119.2         2         1      2449      1000    329.47   -14.822       8.8      35.9   284.452     0.589     314.2   0.08496      94.0         H               345.6  0.047147  0.028321  0.001246  2.716298  0.731512  3.713266  1.090558     29.11    6.0996   50.7800   0.13491   5.75323   0.20043   0.00674  87.85835   6.36999     359.3  0.507594  0.004338  0.000786  0.000118  0.206799  7.167210  0.596758     99.68  1.000198  1.000013     2.558    14.192     117.4      88.8     101.6     375.4     14.18     -4.38      6.14     -0.39      1.26      0.89     -0.31      2.44     -0.84     -3.12      0.38      2.19     -0.75      1.72      1.27    -10.41      2.71     -2.12      0.97      2.07
     -44.583534    -104.016068     264.5      0.64      2.84     128.6         2         2      2449      2296    258.92   -15.868       7.5      36.3   281.472     0.572     161.0   0.07497     100.0         H               345.6  0.043978  0.025362  0.001014  2.477568  0.688419  3.598925  1.073426     27.84    4.6937   30.7198   0.11508   5.27859   0.23979   0.01062  54.36906   5.01915     277.9  0.499188  0.001840  0.000458  0.000114  0.206872  7.168179  0.576975    107.62  1.000160  1.000010     2.455    13.264     110.8      85.1      60.8     283.5     13.88     -4.47      6.41      0.42      1.56      1.32     -0.25      2.29     -0.72     -3.36      0.88      2.05     -0.62      1.78      1.57     -8.53      2.95     -1.43      1.76      2.02
     -44.566509    -103.944435     273.2      1.01      2.84     112.8         2         3      2449      3592    307.85   -15.117       8.9      36.6   284.505     0.585     298.9   0.08237     100.0         H               345.6  0.045665  0.027348  0.001518  2.612068  0.707869  3.690046  1.086140     21.74    5.6698   44.1067   0.12859   5.62020   0.21113   0.00764  76.86976   5.95381     334.4  0.505415  0.004166  0.000815  0.000115  0.210283  7.187423  0.591280     94.62  1.000208  1.000014     2.558    14.521     121.0      87.9      88.0     369.5     14.36     -3.43      6.61     -0.97      0.78      0.90      0.54      2.20     -0.41     -2.26      0.35      1.35     -0.12      2.35      0.70    -12.69      1.12     -2.98      1.27      3.69
     -44.549236    -104.111794     266.1      1.05      2.84     116.1         3         1      3898      1000    328.72   -14.832       8.8      35.9   283.485     0.586     256.1   0.08432     100.0         H               345.6  0.046596  0.028283  0.001288  2.662354  0.713508  3.731357  1.087238     34.04    6.0852   50.3436   0.13220   5.74944   0.20091   0.00677  87.37575   6.35527     357.4  0.505767  0.003794  0.000597  0.000119  0.211854  7.206972  0.593030    105.93  1.000242  1.000018     2.521    13.865     117.4      88.8     100.8     376.9     14.42     -4.71      6.81     -0.36      2.03      1.09     -0.50      2.74     -1.00     -3.33      1.22      2.19     -1.17      2.67      1.17    -10.81      3.24     -2.61      2.33      4.14
     -44.532124    -104.039536     344.7      1.02      2.84     119.2         3         2      3898      2296    296.83   -15.275       8.4      36.3   284.333     0.585     271.8   0.08211     100.0         H               345.6  0.046021  0.028735  0.001432  2.764902  0.712199  3.882206  1.085996     29.26    5.4497   41.2018   0.12938   5.54724   0.21772   0.00828  71.74241   5.74634     322.3  0.503899  0.004230  0.000633  0.000117  0.212777  7.212727  0.591922    101.20  1.000235  1.000015     2.505    13.538     121.0      87.2      81.5     330.5     14.55     -4.58      7.22     -0.80      1.74      0.37     -0.47      1.64     -0.95     -3.36      0.94      1.55     -0.15      1.81      0.70    -11.58      4.45     -3.71      2.78      2.64
     -44.515110    -103.967957     235.8      0.58      2.84     116.4         3         3      3898      3592    255.60   -15.924       7.7      36.7   280.575     0.569     273.8   0.07432      54.0         H               345.6  0.043378  0.024088  0.001000  2.342593  0.687513  3.407343  1.071507     27.44    4.6305   29.8351   0.11459   5.25453   0.24214   0.01084  52.83241   4.94901     273.9  0.496199  0.003691  0.000703  0.000111  0.206297  7.149655  0.574201    108.11  1.000189  1.000011     2.415    12.648     117.4      85.0      59.2     265.1     13.99     -5.26      6.14      0.22      1.68      1.00     -0.43      2.31     -0.69     -3.83      1.19      1.63     -0.69      1.30      1.59     -9.42      4.55     -2.38      3.83      1.34
