corner points
-115.9527435    -12.78684902
-115.9930115    -12.60638618
-115.7716141    -12.74673748
-115.8120804    -12.56632614
========== RESULTS WAVE VERSION 16.10.2018 ====================
IMAGE SIZE  X: 5471     Y:4929    col:row     POLARIZATION:VV
COVERAGE    X: 20.09338575km       Y: 20.4901203km 
RESOLUTION dX: 3.672708051m       dY:4.15705423m  
resolution of original product 3.672708051m x 4.15705423m;   raster step x:5997.532248m  
===============================================================
FLAGS: H=HIGH PROBABILITY SEA STATE, I=LAND(ISLAND), O=OUTLIER NO SEA STATE, N=NO WIND AVAILABLE, SEA STATE NOT VISIBLE, M=MEAN PROBABILITY SEA STATE, L= LOW PROBABILITY SEA STATE
Filtering wave length
 integration  Lmin=1m
 integration  Lmax=2200m
  peak        Lmin=100m
               FFT=1024pixels, 3760.853045m 
   mean-Hs (SWH_c)=1.443597412m
         mean-wind=9.570987701m/s
--------------0--------------1---------2---------3---------4---------5---------6---------7---------8---------9--------10--------11--------12--------13--------14--------15--------16--------17--------18--------19------------------20--------21--------22--------23--------24--------25--------26--------27--------28--------29--------30--------31--------32--------33--------34--------35--------36--------37--------38--------39--------40--------41--------42--------43--------44--------45--------46--------47--------48--------49--------50--------51--------52--------53--------54--------55--------56--------57--------58--------59--------60--------61--------62--------63--------64--------65--------66--------67--------68--------69--------70--------71--------72--------73
            LAT            LON  P-LENGHT     SWH_o     SWH_c     P-DIR      LINE     POINT     ROW-Y     COL-X  M-INTENC        dB      WIND INC-ANGLE  ENERGY-M  ENERGY-N  ENERGY-R ENERGY-NN  FG-DEPTH      FLAG         HEADING-DEG    E30-75   E75-390  E390-600 meanincut   meanout   cut/out  STD-NORM  SPEC-MAX   GL-MEAN    GL-VAR      CORR   ENTROPY   HOMOGEN    ENERGY  CONTRAST  DISSIMIL     STD-O    E 1-30 E600-2000   E2000 >      GODA  LONG-HIG     Tmean  CONVOLUT  MEAN-DIR  relation     Sy/Sx  SKEWNESS  KURTOSIS  cutoff-A >50/10000     INT*V   INT-LOG  S-1_g1f1  S-2_g1f2  S-3_g1f3  S-4_g2f1  S-5_g2f2  S-6_g2f3  S-7_g3f1  S-8_g3f2  S-9_g3f3 S-10_g1f4 S-11_g2f4 S-12_g3f4 S-13_g1f5 S-14_g2f5 S-15_g3f5 S-16_g4f1 S-17_g4f2 S-18_g4f3 S-19_g4f4 S-20_g4f5
--------------1--------------2---------3---------4---------5---------6---------7---------8---------9--------10--------11--------12--------13--------14--------15--------16--------17--------18--------19--------20------------------21--------22--------23--------24--------25--------26--------27--------28--------29--------30--------31--------32--------33--------34--------35--------36--------37--------38--------39--------40--------41--------42--------43--------44--------45--------46--------47--------48--------49--------50--------51--------52--------53--------54--------55--------56--------57--------58--------59--------60--------61--------62--------63--------64--------65--------66--------67--------68--------69--------70--------71--------72--------73--------74
     -12.742721    -115.926964     104.2      1.52      2.56      85.8         1         1      1000      1000   3234.37    -4.902       9.8      23.5   428.483     0.826      93.8   0.21313       6.9         H               347.9  0.105380  0.065247  0.001502  5.905810  1.007577  5.861398  1.286691     61.44    5.9346   63.2070   0.29402   5.62673   0.23491   0.00968  89.24637   5.96926    4161.7  0.653204  0.001264  0.000040  0.000305  0.164816  7.016714  0.874331     86.77  1.000275  1.000043     3.835    31.969     117.4      86.1     122.4     606.2     11.43      0.89      0.60      1.97     -0.76      4.79      3.14      0.57      3.28     -0.68      1.14     -0.05     -0.52      1.90      2.72     -5.49     -2.52      7.49      1.54      3.40
     -12.730636    -115.872360     109.7      1.40      2.56      82.6         1         2      1000      2633   2863.91    -5.430       9.4      24.0   423.388     0.808      96.0   0.20537       7.7         H               347.9  0.100379  0.062423  0.001377  5.561168  0.978428  5.683780  1.273522     61.26    5.2184   49.8420   0.28933   5.39698   0.25540   0.01211  70.84299   5.29972    3647.1  0.643068  0.001261  0.000053  0.000298  0.167412  7.024949  0.853777     87.00  1.000265  1.000042     3.809    32.774     114.0      84.1      93.8     539.4     11.08      1.49      1.14      2.44     -1.21      4.97      3.58      0.46      3.64     -0.64      1.12     -0.08     -1.00      2.94      2.88     -4.42     -2.90      7.88      2.50      5.95
     -12.718760    -115.818756     113.3      1.31      2.56      83.9         1         3      1000      4266   2588.76    -5.869       9.3      24.4   425.326     0.814      83.7   0.20836       8.3         H               347.9  0.102446  0.061801  0.001296  5.817456  1.004446  5.791707  1.279431     56.03    4.6838   41.4753   0.29093   5.20038   0.27564   0.01479  58.81662   4.79514    3311.8  0.648314  0.001100  0.000030  0.000281  0.166710  7.016974  0.860943     86.56  1.000273  1.000041     3.938    35.329     114.0      82.3      77.0     500.1     11.09      1.30      0.77      2.59     -0.66      4.98      3.42      0.33      3.94     -0.54      0.99      0.25     -0.47      2.17      2.86     -3.89     -1.85      7.51      1.87      3.98
     -12.689881    -115.938766     104.2      1.54      2.56      94.2         2         1      2443      1000   3345.73    -4.755      10.2      23.5   427.698     0.821      89.3   0.21194       6.9         H               347.9  0.105783  0.064397  0.001470  5.977405  1.005760  5.943173  1.283692     47.54    6.1647   67.1009   0.29270   5.69685   0.22877   0.00904  94.92050   6.18123    4294.7  0.649486  0.001158  0.000035  0.000294  0.164553  7.001853  0.868768     87.77  1.000276  1.000044     3.812    31.232     117.4      86.6     131.7     597.5     11.61      1.87      0.23      1.53     -1.39      4.48      2.95      0.23      3.07     -0.30      0.91     -0.09     -1.36      2.04      1.75     -6.09     -3.15      7.18      1.64      4.80
     -12.677801    -115.884186     109.7      1.45      2.56      82.6         2         2      2443      2633   2810.54    -5.512       9.2      24.0   428.299     0.824      92.5   0.21182       7.7         H               347.9  0.103271  0.065332  0.001534  6.038866  1.001804  6.027994  1.287120     56.07    5.1194   48.8320   0.29210   5.35887   0.25988   0.01268  69.13611   5.21200    3617.0  0.653058  0.001169  0.000040  0.000285  0.165720  7.024676  0.871286     86.52  1.000264  1.000041     3.961    36.164     114.0      83.7      91.9     548.2     11.09      1.01      0.74      2.37     -1.16      5.23      3.82      0.35      3.56     -1.01      0.66     -0.17     -0.73      1.99      2.76     -4.67     -2.85      8.88      1.65      3.80
     -12.665930    -115.830597     110.6      1.33      2.56      91.5         2         3      2443      4266   2551.93    -5.931       9.2      24.4   419.993     0.800      82.1   0.20279       7.9         H               347.9  0.099924  0.061971  0.001268  5.568060  0.989056  5.629672  1.266883     53.09    4.6238   40.2668   0.28918   5.17967   0.27677   0.01498  57.24488   4.74306    3232.8  0.636468  0.000973  0.000034  0.000281  0.168073  7.042630  0.845466     87.45  1.000273  1.000040     3.718    30.858     110.8      82.1      74.1     474.5     10.95      1.39      0.80      2.63     -0.67      5.18      3.60      0.00      4.08     -0.72      0.86     -0.02     -0.26      2.21      3.16     -3.35     -1.93      8.26      1.64      4.00
     -12.637041    -115.950569     106.2      1.65      2.56      81.4         3         1      3886      1000   3344.74    -4.756      10.2      23.5   429.350     0.824      81.7   0.21288       7.2         H               347.9  0.104355  0.066557  0.001224  6.016464  1.024000  5.875454  1.284298     65.92    6.1634   67.2249   0.29427   5.69553   0.22917   0.00907  94.88464   6.17352    4295.4  0.651793  0.001039  0.000023  0.000300  0.165930  7.022957  0.872334     85.58  1.000262  1.000041     3.803    31.748     114.0      86.7     131.9     635.8     11.16      0.97      0.24      2.46     -0.61      5.00      2.88     -0.00      3.39     -0.21      0.50     -0.05     -1.08      1.64      3.07     -3.79     -1.43      8.50      0.83      3.53
     -12.624966    -115.895996     108.8      1.43      2.56      79.7         3         2      3886      2633   2866.82    -5.426       9.5      24.0   424.883     0.812      96.7   0.20663       7.6         H               347.9  0.101545  0.063509  0.001105  5.581241  0.991010  5.631870  1.277416     59.05    5.2285   50.3318   0.29144   5.39765   0.25671   0.01227  71.32637   5.30809    3662.0  0.645275  0.001263  0.000048  0.000297  0.166021  7.025086  0.858298     86.89  1.000269  1.000042     3.736    30.022     114.0      84.0      94.5     510.4     10.54      0.55      1.17      3.29     -0.33      4.89      3.80      0.39      4.72     -0.44      0.67      0.22     -0.03      1.99      3.22     -1.84     -0.67      7.27      1.27      3.90
     -12.613098    -115.842430     105.8      1.37      2.56      80.0         3         3      3886      4266   2573.02    -5.896       9.3      24.4   423.434     0.807      77.0   0.20535       7.2         H               347.9  0.101857  0.063183  0.001342  5.980089  1.025606  5.830787  1.272908     50.93    4.6585   41.0829   0.29020   5.19071   0.27648   0.01494  58.32062   4.77654    3274.9  0.640512  0.000966  0.000024  0.000275  0.166250  7.030967  0.853293     84.96  1.000249  1.000037     3.744    30.951     107.8      82.2      75.6     475.4     10.93      1.22      0.70      2.71     -0.55      4.88      3.56      0.07      3.86     -0.08      0.56      0.28     -0.75      2.15      2.38     -3.57     -1.40      7.92      0.93      4.48
