corner points
-115.5476303    -14.55501842
-115.5884933    -14.37464237
-115.3648682    -14.51447582
-115.4059601    -14.33415413
========== RESULTS WAVE VERSION 16.10.2018 ====================
IMAGE SIZE  X: 5471     Y:4929    col:row     POLARIZATION:VV
COVERAGE    X: 20.13173303km       Y: 20.4876624km 
RESOLUTION dX: 3.679717243m       dY:4.15655557m  
resolution of original product 3.679717243m x 4.15655557m;   raster step x:5997.939105m  
===============================================================
FLAGS: H=HIGH PROBABILITY SEA STATE, I=LAND(ISLAND), O=OUTLIER NO SEA STATE, N=NO WIND AVAILABLE, SEA STATE NOT VISIBLE, M=MEAN PROBABILITY SEA STATE, L= LOW PROBABILITY SEA STATE
Filtering wave length
 integration  Lmin=1m
 integration  Lmax=2200m
  peak        Lmin=100m
               FFT=1024pixels, 3768.030456m 
   mean-Hs (SWH_c)=1.066322327m
         mean-wind=8.585185051m/s
--------------0--------------1---------2---------3---------4---------5---------6---------7---------8---------9--------10--------11--------12--------13--------14--------15--------16--------17--------18--------19------------------20--------21--------22--------23--------24--------25--------26--------27--------28--------29--------30--------31--------32--------33--------34--------35--------36--------37--------38--------39--------40--------41--------42--------43--------44--------45--------46--------47--------48--------49--------50--------51--------52--------53--------54--------55--------56--------57--------58--------59--------60--------61--------62--------63--------64--------65--------66--------67--------68--------69--------70--------71--------72--------73
            LAT            LON  P-LENGHT     SWH_o     SWH_c     P-DIR      LINE     POINT     ROW-Y     COL-X  M-INTENC        dB      WIND INC-ANGLE  ENERGY-M  ENERGY-N  ENERGY-R ENERGY-NN  FG-DEPTH      FLAG         HEADING-DEG    E30-75   E75-390  E390-600 meanincut   meanout   cut/out  STD-NORM  SPEC-MAX   GL-MEAN    GL-VAR      CORR   ENTROPY   HOMOGEN    ENERGY  CONTRAST  DISSIMIL     STD-O    E 1-30 E600-2000   E2000 >      GODA  LONG-HIG     Tmean  CONVOLUT  MEAN-DIR  relation     Sy/Sx  SKEWNESS  KURTOSIS  cutoff-A >50/10000     INT*V   INT-LOG  S-1_g1f1  S-2_g1f2  S-3_g1f3  S-4_g2f1  S-5_g2f2  S-6_g2f3  S-7_g3f1  S-8_g3f2  S-9_g3f3 S-10_g1f4 S-11_g2f4 S-12_g3f4 S-13_g1f5 S-14_g2f5 S-15_g3f5 S-16_g4f1 S-17_g4f2 S-18_g4f3 S-19_g4f4 S-20_g4f5
--------------1--------------2---------3---------4---------5---------6---------7---------8---------9--------10--------11--------12--------13--------14--------15--------16--------17--------18--------19--------20------------------21--------22--------23--------24--------25--------26--------27--------28--------29--------30--------31--------32--------33--------34--------35--------36--------37--------38--------39--------40--------41--------42--------43--------44--------45--------46--------47--------48--------49--------50--------51--------52--------53--------54--------55--------56--------57--------58--------59--------60--------61--------62--------63--------64--------65--------66--------67--------68--------69--------70--------71--------72--------73--------74
     -14.510828    -115.521660     104.6      0.98      2.29      91.4         1         1      1000      1000   2876.44    -5.411       8.3      23.5   411.942     0.803      78.8   0.20514       7.0         H               347.9  0.106353  0.057172  0.001239  5.449190  0.987986  5.515454  1.269773     48.79    5.2515   50.0403   0.28968   5.41049   0.25419   0.01189  71.08861   5.32268    3652.3  0.637736  0.000967  0.000031  0.000273  0.162499  6.934803  0.848787     92.33  1.000252  1.000038     3.875    36.108     105.0      84.3      94.6     565.5     11.54      0.51     -0.61      1.84     -0.75      3.28      1.78      0.62      2.51     -1.24      0.64      0.15     -1.77      0.93      1.65     -5.33     -1.93      5.56      2.05      2.84
     -14.498635    -115.466667     104.4      0.96      2.29      94.2         1         2      1000      2630   2596.54    -5.856       8.3      23.9   409.333     0.784      87.1   0.19422       7.0         H               347.9  0.100248  0.055760  0.001149  5.633506  0.976992  5.766177  1.255545     39.74    4.7019   40.7466   0.28269   5.21434   0.27268   0.01435  58.45523   4.81354    3259.8  0.626034  0.001104  0.000044  0.000258  0.162339  6.933955  0.827054     92.34  1.000251  1.000035     3.620    28.125     102.3      82.6      75.3     440.9     11.38      0.28     -0.09      2.28     -0.73      3.67      2.13      0.62      2.50     -1.20      0.41     -0.12     -1.70      1.07      2.15     -4.58     -1.96      6.27      1.32      3.10
     -14.486653    -115.412682     112.7      0.96      2.29      99.1         1         3      1000      4260   2390.67    -6.215       8.4      24.4   410.522     0.787      75.1   0.19540       8.2         H               347.9  0.101596  0.056162  0.001336  5.539972  0.960195  5.769630  1.255644     40.08    4.2928   34.8441   0.28341   5.05058   0.28945   0.01686  49.93799   4.43086    3001.8  0.627522  0.000865  0.000024  0.000258  0.164162  6.964561  0.830708     91.10  1.000247  1.000036     3.663    29.793     105.0      80.9      63.7     423.4     11.60      1.24     -0.22      1.59     -1.75      4.49      2.57      0.48      2.75     -1.46      0.63      0.05     -0.94      1.73      2.51     -5.79     -3.76      7.83      1.79      3.37
     -14.458014    -115.533646     107.7      1.11      2.29      90.0         2         1      2443      1000   2988.21    -5.246       8.7      23.5   414.072     0.802      76.5   0.20211       7.4         H               347.9  0.102812  0.057919  0.001181  5.536260  0.998286  5.545767  1.269808     45.85    5.4678   53.6425   0.28696   5.48480   0.24659   0.01100  76.49812   5.53546    3794.0  0.639458  0.000927  0.000026  0.000276  0.161393  6.948766  0.846968     92.25  1.000265  1.000040     3.820    33.190     107.8      85.0     102.3     552.6     11.41      0.83      0.09      2.00     -0.70      3.37      2.24     -0.20      3.23     -0.98      0.18      0.03     -1.46      0.98      2.26     -4.80     -1.23      5.05      0.47      2.80
     -14.445827    -115.478661     104.4      1.15      2.29      94.2         2         2      2443      2630   2701.34    -5.684       8.7      23.9   410.754     0.793      74.8   0.19856       7.0         H               347.9  0.101074  0.059012  0.001269  5.581462  0.964052  5.789584  1.261302     50.68    4.9132   44.4129   0.28534   5.29176   0.26515   0.01332  63.47936   5.01600    3407.2  0.630944  0.000861  0.000027  0.000279  0.162317  6.962311  0.837352     91.55  1.000237  1.000035     3.632    27.939     107.8      83.2      82.5     471.8     11.33      0.80     -0.22      2.13     -0.73      4.15      2.60      0.12      3.01     -0.90      0.12     -0.34     -0.91      1.05      2.15     -4.85     -1.98      6.98      0.70      2.42
     -14.433849    -115.424698     110.5      1.17      2.29      85.5         2         3      2443      4260   2447.33    -6.113       8.6      24.4   409.894     0.787      87.0   0.19540       7.8         H               347.9  0.098209  0.059554  0.001332  5.557256  0.975610  5.696187  1.257488     45.92    4.4032   36.2969   0.28462   5.09673   0.28400   0.01604  51.93118   4.53012    3077.3  0.627435  0.001031  0.000040  0.000268  0.166080  7.003463  0.831178     91.57  1.000262  1.000038     3.745    31.785     107.8      81.4      67.0     457.9     11.08      0.89      0.50      2.29     -1.82      4.44      3.42      0.52      3.63     -1.08     -0.09     -0.41     -1.38      2.27      2.43     -4.25     -3.81      7.36      0.69      5.24
     -14.405200    -115.545616     107.3      1.07      2.29      85.7         3         1      3886      1000   3015.80    -5.206       8.8      23.5   413.398     0.799      74.8   0.20116       7.4         H               347.9  0.103710  0.056753  0.001136  5.249445  0.995703  5.272100  1.267634     53.48    5.5225   54.6144   0.28754   5.50226   0.24494   0.01086  77.82021   5.58700    3822.6  0.637201  0.000910  0.000026  0.000275  0.162345  6.944908  0.844343     91.69  1.000261  1.000040     3.706    30.111     107.8      85.1     104.0     541.9     11.25      0.49      0.43      2.43     -0.58      3.28      2.31      0.28      2.72     -0.54     -0.19     -0.11     -1.58      1.25      1.99     -4.26     -1.38      4.94      0.13      3.20
     -14.393018    -115.490662     107.3      1.07      2.29      94.3         3         2      3886      2630   2697.19    -5.691       8.7      23.9   412.849     0.797      68.8   0.19961       7.4         H               347.9  0.102806  0.057723  0.001106  5.332120  0.977024  5.457512  1.266908     60.29    4.8994   44.3994   0.28686   5.28515   0.26562   0.01345  63.32593   5.00422    3417.1  0.635609  0.000796  0.000021  0.000281  0.163520  6.960392  0.842544     93.94  1.000256  1.000037     3.707    30.295     107.8      83.1      82.3     493.3     10.86      0.12      0.37      2.69     -0.55      3.89      3.03      0.25      3.62     -0.80     -0.12     -0.20     -1.02      1.77      2.41     -3.27     -1.04      6.48      0.51      3.90
     -14.381044    -115.436714     110.8      1.13      2.29      91.5         3         3      3886      4260   2463.31    -6.085       8.7      24.4   410.481     0.786      85.8   0.19424       7.9         H               347.9  0.097759  0.058013  0.001388  5.425669  0.973201  5.575074  1.255664     57.55    4.4407   36.8841   0.28226   5.11178   0.28235   0.01581  52.94604   4.57082    3092.9  0.628289  0.001070  0.000038  0.000280  0.165573  6.993690  0.829389     90.86  1.000278  1.000040     3.723    32.564     107.8      81.6      67.9     468.1     11.08      0.94      0.43      2.20     -1.67      4.29      3.41      0.55      3.62     -1.30      0.38     -0.28     -1.33      2.09      2.92     -4.79     -3.82      7.17      1.67      4.28
