corner points
-112.3316422    -20.33756256
-112.3763275    -20.16342926
-112.145401    -20.29410934
-112.1903076    -20.1200428
========== RESULTS WAVE VERSION 16.10.2018 ====================
IMAGE SIZE  X: 4376     Y:4785    col:row     POLARIZATION:VV
COVERAGE    X: 19.96655688km       Y: 19.87070819km 
RESOLUTION dX: 4.562741516m       dY:4.152708085m  
resolution of original product 4.562741516m x 4.152708085m;   raster step x:5995.442353m  
===============================================================
FLAGS: H=HIGH PROBABILITY SEA STATE, I=LAND(ISLAND), O=OUTLIER NO SEA STATE, N=NO WIND AVAILABLE, SEA STATE NOT VISIBLE, M=MEAN PROBABILITY SEA STATE, L= LOW PROBABILITY SEA STATE
Filtering wave length
 integration  Lmin=1m
 integration  Lmax=2200m
  peak        Lmin=100m
               FFT=1024pixels, 4672.247313m 
   mean-Hs (SWH_c)=0.4768538284m
         mean-wind=9.566460609m/s
--------------0--------------1---------2---------3---------4---------5---------6---------7---------8---------9--------10--------11--------12--------13--------14--------15--------16--------17--------18--------19------------------20--------21--------22--------23--------24--------25--------26--------27--------28--------29--------30--------31--------32--------33--------34--------35--------36--------37--------38--------39--------40--------41--------42--------43--------44--------45--------46--------47--------48--------49--------50--------51--------52--------53--------54--------55--------56--------57--------58--------59--------60--------61--------62--------63--------64--------65--------66--------67--------68--------69--------70--------71--------72--------73
            LAT            LON  P-LENGHT     SWH_o     SWH_c     P-DIR      LINE     POINT     ROW-Y     COL-X  M-INTENC        dB      WIND INC-ANGLE  ENERGY-M  ENERGY-N  ENERGY-R ENERGY-NN  FG-DEPTH      FLAG         HEADING-DEG    E30-75   E75-390  E390-600 meanincut   meanout   cut/out  STD-NORM  SPEC-MAX   GL-MEAN    GL-VAR      CORR   ENTROPY   HOMOGEN    ENERGY  CONTRAST  DISSIMIL     STD-O    E 1-30 E600-2000   E2000 >      GODA  LONG-HIG     Tmean  CONVOLUT  MEAN-DIR  relation     Sy/Sx  SKEWNESS  KURTOSIS  cutoff-A >50/10000     INT*V   INT-LOG  S-1_g1f1  S-2_g1f2  S-3_g1f3  S-4_g2f1  S-5_g2f2  S-6_g2f3  S-7_g3f1  S-8_g3f2  S-9_g3f3 S-10_g1f4 S-11_g2f4 S-12_g3f4 S-13_g1f5 S-14_g2f5 S-15_g3f5 S-16_g4f1 S-17_g4f2 S-18_g4f3 S-19_g4f4 S-20_g4f5
--------------1--------------2---------3---------4---------5---------6---------7---------8---------9--------10--------11--------12--------13--------14--------15--------16--------17--------18--------19--------20------------------21--------22--------23--------24--------25--------26--------27--------28--------29--------30--------31--------32--------33--------34--------35--------36--------37--------38--------39--------40--------41--------42--------43--------44--------45--------46--------47--------48--------49--------50--------51--------52--------53--------54--------55--------56--------57--------58--------59--------60--------61--------62--------63--------64--------65--------66--------67--------68--------69--------70--------71--------72--------73--------74
     -20.291142    -112.297943     358.6      0.55      2.29      32.5         1         1      1000      1000    330.90   -14.803       9.3      36.5   239.776     0.571      79.2   0.07737     100.0         H               347.7  0.049811  0.021158  0.001115  1.861797  0.687983  2.706168  1.072478     31.33    6.1309   49.7878   0.11804   5.76681   0.19826   0.00654  87.82198   6.40607     354.8  0.498225  0.001038  0.000130  0.000132  0.180683  6.913448  0.577870     63.68  1.000112  1.000008     2.413    12.574      92.7      89.1     100.5     353.5     13.62      6.26     -4.08     -2.84     -4.36      2.59      0.09     -0.53      1.30     -5.26      3.07      1.71     -3.71      2.33      0.23    -14.18    -10.70      5.26      6.75      6.37
     -20.278057    -112.241829     231.0      0.55      2.29      29.6         1         2      1000      2314    315.94   -15.004       9.3      36.9   239.702     0.571     113.5   0.07676      49.8         H               347.7  0.050350  0.019670  0.001058  1.800564  0.699907  2.572576  1.072285     22.77    5.8288   45.4689   0.11786   5.67368   0.20518   0.00718  80.22015   6.12133     338.8  0.498404  0.001595  0.000228  0.000129  0.171769  6.861425  0.577955     76.28  1.000094  1.000006     2.419    12.754      92.7      88.3      91.2     352.0     13.08      4.73     -3.88     -2.14     -2.67      2.51      0.92     -0.61      0.74     -3.87      2.20      1.50     -2.36      0.93      0.68    -13.92     -7.06      6.23      4.70      2.73
     -20.265068    -112.186211     220.5      0.56      2.29      28.2         1         3      1000      3628    311.59   -15.064       9.5      37.3   239.510     0.569      82.8   0.07582      42.3         H               347.7  0.049915  0.019166  0.000901  1.788041  0.695284  2.571669  1.070071     18.36    5.7469   44.0412   0.11391   5.64856   0.20739   0.00732  78.04890   6.03938     333.4  0.497552  0.001225  0.000155  0.000137  0.168368  6.851645  0.574723     79.94  1.000124  1.000009     2.412    12.659      92.7      88.2      88.4     330.9     12.86      4.42     -3.13     -1.68     -2.53      1.37      0.73     -0.96      1.28     -3.46      1.58      1.97     -2.99      1.69      0.63    -12.54     -5.63      2.86      2.61      4.31
     -20.238586    -112.311455     269.5      0.58      2.29      27.5         2         1      2444      1000    357.18   -14.471       9.8      36.5   238.232     0.569      71.5   0.07888     100.0         H               347.7  0.050871  0.020434  0.001036  1.785774  0.719827  2.480837  1.070605     28.81    6.6537   57.6489   0.12200   5.91766   0.18675   0.00563 101.23112   6.89979     382.4  0.496266  0.001120  0.000094  0.000132  0.176444  6.876328  0.576449     66.14  1.000098  1.000009     2.386    12.331      88.6      90.1     117.3     381.3     13.22      5.95     -4.73     -2.30     -3.27      2.82      0.25     -1.25      1.26     -5.02      3.29      1.72     -2.48      1.19      0.51    -13.10     -7.82      5.99      6.45      3.67
     -20.225508    -112.255356     229.9      0.56      2.29      23.2         2         2      2444      2314    330.72   -14.805       9.6      36.9   239.453     0.568      79.2   0.07626      49.0         H               347.7  0.048950  0.019572  0.000986  1.789828  0.690479  2.592154  1.069615     20.21    6.1244   49.5276   0.11531   5.76540   0.19793   0.00653  87.63321   6.40732     353.7  0.497700  0.001314  0.000114  0.000131  0.173434  6.873878  0.574536     77.24  1.000128  1.000009     2.399    12.519      92.7      89.1     100.0     362.3     13.34      5.18     -2.93     -2.23     -3.31      1.50      0.46     -0.07      1.67     -3.39      1.33      2.27     -1.82      1.02      0.50    -13.54     -8.91      2.32      2.29      2.53
     -20.212524    -112.199753     241.9      0.57      2.29      24.5         2         3      2444      3628    317.65   -14.981       9.6      37.3   237.788     0.564      71.1   0.07510      60.3         H               347.7  0.048883  0.019760  0.000999  1.752853  0.677218  2.588314  1.065444     31.16    5.8678   45.4077   0.11470   5.68738   0.20391   0.00702  80.39841   6.14541     338.4  0.493182  0.001131  0.000093  0.000134  0.175263  6.886041  0.570150     59.13  1.000117  1.000008     2.371    12.218      92.7      88.6      91.5     332.3     13.20      4.76     -4.08     -2.24     -2.64      2.23      0.14     -1.04      1.39     -5.22      2.88      2.17     -2.47      1.11      0.75    -13.08     -6.36      4.41      5.90      2.99
     -20.186029    -112.324951     236.6      0.57      2.29      27.1         3         1      3888      1000    349.09   -14.571       9.7      36.5   238.848     0.570      64.5   0.07762      54.7         H               347.7  0.050700  0.019922  0.001022  1.802723  0.704216  2.559903  1.070980     24.72    6.4925   55.0485   0.11850   5.87296   0.18947   0.00586  97.05046   6.75236     373.8  0.497350  0.001033  0.000077  0.000132  0.171734  6.859238  0.576438     77.72  1.000108  1.000008     2.416    12.761      92.7      89.9     112.3     380.1     12.99      4.63     -4.18     -2.04     -2.84      2.96      0.94     -0.92      0.71     -4.45      2.48      1.32     -2.26      1.07      0.54    -13.38     -6.71      7.12      5.80      3.12
     -20.172956    -112.268875     229.9      0.56      2.29      23.2         3         2      3888      2314    329.74   -14.818       9.6      36.9   240.060     0.572      86.8   0.07812      49.0         H               347.7  0.050207  0.020139  0.000898  1.824045  0.697835  2.613862  1.073420     25.65    6.1034   49.5665   0.11888   5.75812   0.19879   0.00661  87.34811   6.39014     353.9  0.499889  0.001402  0.000134  0.000135  0.173154  6.873011  0.578887     70.45  1.000111  1.000008     2.411    12.494      92.7      89.0      99.7     344.0     12.93      4.68     -3.57     -1.32     -2.76      2.39      0.19     -1.07      0.98     -4.61      2.40      1.94     -2.57      1.29      0.46    -11.65     -6.27      5.00      4.94      3.67
     -20.159981    -112.213295     225.3      0.57      2.29      25.7         3         3      3888      3628    318.01   -14.976       9.7      37.3   237.871     0.565      85.4   0.07497      45.5         H               347.7  0.048675  0.019329  0.000987  1.741162  0.686382  2.536726  1.067246     23.47    5.8749   45.6524   0.11485   5.68932   0.20354   0.00702  80.81838   6.15973     339.3  0.495456  0.001200  0.000162  0.000130  0.173283  6.880218  0.572018     75.84  1.000111  1.000008     2.378    12.262      92.7      88.6      91.9     333.7     13.14      4.94     -3.59     -2.16     -3.23      2.52      0.78     -0.29      0.66     -4.06      2.65      1.55     -2.13      1.18      0.50    -13.58     -7.99      5.70      5.23      3.07
