corner points
-115.2974472    -7.995922089
-115.33638    -7.820870399
-115.1212463    -7.95639658
-115.1602554    -7.781394482
========== RESULTS WAVE VERSION 16.10.2018 ====================
IMAGE SIZE  X: 4376     Y:4788    col:row     POLARIZATION:VV
COVERAGE    X: 19.8494477km       Y: 19.8852529km 
RESOLUTION dX: 4.535979823m       dY:4.15314388m  
resolution of original product 4.535979823m x 4.15314388m;   raster step x:5996.565326m  
===============================================================
FLAGS: H=HIGH PROBABILITY SEA STATE, I=LAND(ISLAND), O=OUTLIER NO SEA STATE, N=NO WIND AVAILABLE, SEA STATE NOT VISIBLE, M=MEAN PROBABILITY SEA STATE, L= LOW PROBABILITY SEA STATE
Filtering wave length
 integration  Lmin=1m
 integration  Lmax=2200m
  peak        Lmin=100m
               FFT=1024pixels, 4644.843338m 
   mean-Hs (SWH_c)=1.655426941m
         mean-wind=12.39341545m/s
--------------0--------------1---------2---------3---------4---------5---------6---------7---------8---------9--------10--------11--------12--------13--------14--------15--------16--------17--------18--------19------------------20--------21--------22--------23--------24--------25--------26--------27--------28--------29--------30--------31--------32--------33--------34--------35--------36--------37--------38--------39--------40--------41--------42--------43--------44--------45--------46--------47--------48--------49--------50--------51--------52--------53--------54--------55--------56--------57--------58--------59--------60--------61--------62--------63--------64--------65--------66--------67--------68--------69--------70--------71--------72--------73
            LAT            LON  P-LENGHT     SWH_o     SWH_c     P-DIR      LINE     POINT     ROW-Y     COL-X  M-INTENC        dB      WIND INC-ANGLE  ENERGY-M  ENERGY-N  ENERGY-R ENERGY-NN  FG-DEPTH      FLAG         HEADING-DEG    E30-75   E75-390  E390-600 meanincut   meanout   cut/out  STD-NORM  SPEC-MAX   GL-MEAN    GL-VAR      CORR   ENTROPY   HOMOGEN    ENERGY  CONTRAST  DISSIMIL     STD-O    E 1-30 E600-2000   E2000 >      GODA  LONG-HIG     Tmean  CONVOLUT  MEAN-DIR  relation     Sy/Sx  SKEWNESS  KURTOSIS  cutoff-A >50/10000     INT*V   INT-LOG  S-1_g1f1  S-2_g1f2  S-3_g1f3  S-4_g2f1  S-5_g2f2  S-6_g2f3  S-7_g3f1  S-8_g3f2  S-9_g3f3 S-10_g1f4 S-11_g2f4 S-12_g3f4 S-13_g1f5 S-14_g2f5 S-15_g3f5 S-16_g4f1 S-17_g4f2 S-18_g4f3 S-19_g4f4 S-20_g4f5
--------------1--------------2---------3---------4---------5---------6---------7---------8---------9--------10--------11--------12--------13--------14--------15--------16--------17--------18--------19--------20------------------21--------22--------23--------24--------25--------26--------27--------28--------29--------30--------31--------32--------33--------34--------35--------36--------37--------38--------39--------40--------41--------42--------43--------44--------45--------46--------47--------48--------49--------50--------51--------52--------53--------54--------55--------56--------57--------58--------59--------60--------61--------62--------63--------64--------65--------66--------67--------68--------69--------70--------71--------72--------73--------74
      -7.950229    -115.264870     116.2      1.70      2.35      77.4         1         1      1000      1000    498.12   -13.027      12.5      36.8   232.486     0.612     112.4   0.09996       8.7         H               348.0  0.059582  0.030871  0.000707  2.875307  0.753686  3.814994  1.110125     55.24    9.4013  112.3407   0.15434   6.54327   0.14638   0.00310 190.00206   9.48037     553.0  0.519538  0.001636  0.000226  0.000246  0.165732  6.972012  0.623012     79.50  1.000182  1.000018     2.643    15.037     121.0      93.7     248.1     613.4     10.77      1.60      0.08      2.03      1.17      3.99      3.97      1.30      3.47      0.89      2.49      2.87     -0.79      1.69      2.14     -4.52      1.98      6.82      3.18      3.64
      -7.938251    -115.211449     114.6      1.61      2.35      80.7         1         2      1000      2322    462.90   -13.345      12.3      37.2   232.047     0.612     152.7   0.09943       8.5         H               348.0  0.059348  0.030658  0.000781  2.936084  0.755415  3.886716  1.110055     40.87    8.7211   98.6777   0.15466   6.40630   0.15551   0.00357 166.83047   8.84138     513.9  0.518772  0.002188  0.000341  0.000233  0.166057  6.958796  0.622876     80.50  1.000207  1.000021     2.644    15.028     124.8      92.9     212.8     563.9     10.95      1.75      0.79      1.95      0.89      3.91      4.15      1.50      2.84      1.17      2.54      2.39     -1.00      2.25      2.43     -5.56      1.24      6.54      3.69      4.44
      -7.926371    -115.158493     116.9      1.79      2.35      78.9         1         3      1000      3644    457.23   -13.399      12.4      37.5   232.263     0.611     156.1   0.09794       8.9         H               348.0  0.057069  0.032245  0.000811  2.814847  0.734113  3.834351  1.109547     67.95    8.6104   96.5258   0.15282   6.38321   0.15679   0.00366 163.55127   8.75280     507.3  0.518532  0.002330  0.000337  0.000280  0.169806  7.021093  0.622034     79.98  1.000182  1.000019     2.646    15.210     128.8      92.8     206.9     575.4     10.72      1.63      0.35      2.12      1.78      4.49      4.59      1.12      3.91      1.03      2.87      3.11     -0.57      1.77      2.57     -4.91      3.73      7.41      4.17      3.44
      -7.897428    -115.276619     109.5      1.60      2.35      75.1         2         1      2444      1000    494.35   -13.060      12.4      36.8   231.505     0.606     108.0   0.09649       7.7         H               348.0  0.057979  0.029148  0.000688  2.847090  0.736911  3.863545  1.104456     36.39    9.3321  110.1404   0.14786   6.53189   0.14632   0.00311 187.71164   9.43707     546.0  0.516554  0.001699  0.000194  0.000224  0.164600  6.964135  0.615693     78.59  1.000181  1.000018     2.606    14.569     124.8      93.7     242.7     595.0     10.88      1.01      0.45      2.18      1.75      3.52      3.72      1.26      2.96      1.32      2.01      2.90     -0.87      1.77      1.70     -4.82      3.19      5.82      2.18      3.99
      -7.885456    -115.223206     117.5      1.60      2.35      80.5         2         2      2444      2322    470.27   -13.276      12.4      37.2   231.305     0.609      81.5   0.09823       8.9         H               348.0  0.058876  0.029996  0.000759  2.885492  0.760030  3.796549  1.106700     48.23    8.8621  100.7080   0.15118   6.43714   0.15272   0.00343 170.96658   8.97512     520.4  0.517931  0.001293  0.000126  0.000233  0.163935  6.960053  0.619174     80.80  1.000190  1.000019     2.662    15.421     124.8      93.1     218.9     583.0     10.65      1.27      0.49      2.04      1.49      4.02      4.47      1.31      3.24      1.51      2.41      2.73     -0.06      1.79      2.45     -4.94      2.95      7.24      3.00      3.43
      -7.873579    -115.170258     112.7      1.73      2.35      83.9         2         3      2444      3644    447.34   -13.494      12.2      37.5   231.120     0.606     144.2   0.09647       8.2         H               348.0  0.056085  0.031657  0.000848  2.968455  0.735558  4.035649  1.105290     43.70    8.4170   92.1096   0.15022   6.34312   0.15892   0.00379 156.54642   8.55976     494.5  0.515755  0.001962  0.000334  0.000239  0.169904  7.039824  0.617112     81.25  1.000199  1.000020     2.644    15.179     124.8      92.6     196.6     554.8     10.89      1.83      0.96      1.92      0.69      4.25      4.70      1.88      3.81      1.10      2.42      3.16     -0.45      2.24      2.52     -5.45      0.69      6.65      2.75      4.66
      -7.844627    -115.288361     113.4      1.62      2.35      77.7         3         1      3888      1000    490.28   -13.096      12.4      36.8   231.777     0.609      93.2   0.09902       8.3         H               348.0  0.058858  0.029931  0.000728  2.914132  0.752251  3.873881  1.106994     44.01    9.2520  108.8200   0.15138   6.51565   0.14754   0.00317 184.69299   9.35410     542.7  0.517974  0.001496  0.000153  0.000225  0.164009  6.954089  0.618960     78.42  1.000191  1.000020     2.632    15.005     121.0      93.5     239.3     612.3     10.79      1.34      0.44      2.22      1.06      3.71      4.06      1.55      3.14      1.11      2.00      2.48     -0.66      1.61      1.60     -4.86      1.70      6.00      2.66      3.72
      -7.832658    -115.234962     110.0      1.60      2.35      84.1         3         2      3888      2322    478.58   -13.200      12.5      37.2   230.983     0.608     113.1   0.09885       7.8         H               348.0  0.059250  0.029696  0.000888  2.891895  0.750335  3.854140  1.106732     42.55    9.0248  104.1036   0.15307   6.46981   0.15034   0.00333 176.33810   9.12243     529.7  0.516758  0.001781  0.000212  0.000232  0.164219  6.956523  0.619032     81.28  1.000202  1.000022     2.645    15.151     121.0      93.2     226.9     590.7     11.12      0.77      0.70      1.86      1.65      3.65      4.31      0.73      2.88      1.57      1.70      2.34     -0.51      1.65      1.79     -7.05      3.84      5.51      1.59      3.49
      -7.820786    -115.182022     108.3      1.65      2.35      78.2         3         3      3888      3644    456.35   -13.407      12.4      37.5   231.144     0.605     109.4   0.09637       7.5         H               348.0  0.056799  0.030281  0.000851  2.967088  0.739319  4.013270  1.103593     38.19    8.5955   95.2467   0.14978   6.38187   0.15618   0.00364 161.96111   8.72965     503.6  0.515468  0.001844  0.000182  0.000224  0.168110  6.997955  0.615527     78.72  1.000181  1.000019     2.628    15.055     121.0      92.9     204.6     561.2     10.86      1.35      0.95      2.05      1.70      3.88      4.51      1.60      3.58      1.62      2.62      3.03     -0.20      1.81      2.60     -5.68      2.46      6.33      3.13      2.90
