corner points
-108.6960754    -39.14075089
-108.7567139    -38.96344376
-108.4651566    -39.0907402
-108.5264893    -38.91356277
========== RESULTS WAVE VERSION 16.10.2018 ====================
IMAGE SIZE  X: 5471     Y:4917    col:row     POLARIZATION:VV
COVERAGE    X: 20.63065011km       Y: 20.35476797km 
RESOLUTION dX: 3.770910274m       dY:4.139672151m  
resolution of original product 3.770910274m x 4.139672151m;   raster step x:5999.518246m  
===============================================================
FLAGS: H=HIGH PROBABILITY SEA STATE, I=LAND(ISLAND), O=OUTLIER NO SEA STATE, N=NO WIND AVAILABLE, SEA STATE NOT VISIBLE, M=MEAN PROBABILITY SEA STATE, L= LOW PROBABILITY SEA STATE
Filtering wave length
 integration  Lmin=1m
 integration  Lmax=2200m
  peak        Lmin=100m
               FFT=1024pixels, 3861.41212m 
   mean-Hs (SWH_c)=0.4862005234m
         mean-wind=9.916666985m/s
--------------0--------------1---------2---------3---------4---------5---------6---------7---------8---------9--------10--------11--------12--------13--------14--------15--------16--------17--------18--------19------------------20--------21--------22--------23--------24--------25--------26--------27--------28--------29--------30--------31--------32--------33--------34--------35--------36--------37--------38--------39--------40--------41--------42--------43--------44--------45--------46--------47--------48--------49--------50--------51--------52--------53--------54--------55--------56--------57--------58--------59--------60--------61--------62--------63--------64--------65--------66--------67--------68--------69--------70--------71--------72--------73
            LAT            LON  P-LENGHT     SWH_o     SWH_c     P-DIR      LINE     POINT     ROW-Y     COL-X  M-INTENC        dB      WIND INC-ANGLE  ENERGY-M  ENERGY-N  ENERGY-R ENERGY-NN  FG-DEPTH      FLAG         HEADING-DEG    E30-75   E75-390  E390-600 meanincut   meanout   cut/out  STD-NORM  SPEC-MAX   GL-MEAN    GL-VAR      CORR   ENTROPY   HOMOGEN    ENERGY  CONTRAST  DISSIMIL     STD-O    E 1-30 E600-2000   E2000 >      GODA  LONG-HIG     Tmean  CONVOLUT  MEAN-DIR  relation     Sy/Sx  SKEWNESS  KURTOSIS  cutoff-A >50/10000     INT*V   INT-LOG  S-1_g1f1  S-2_g1f2  S-3_g1f3  S-4_g2f1  S-5_g2f2  S-6_g2f3  S-7_g3f1  S-8_g3f2  S-9_g3f3 S-10_g1f4 S-11_g2f4 S-12_g3f4 S-13_g1f5 S-14_g2f5 S-15_g3f5 S-16_g4f1 S-17_g4f2 S-18_g4f3 S-19_g4f4 S-20_g4f5
--------------1--------------2---------3---------4---------5---------6---------7---------8---------9--------10--------11--------12--------13--------14--------15--------16--------17--------18--------19--------20------------------21--------22--------23--------24--------25--------26--------27--------28--------29--------30--------31--------32--------33--------34--------35--------36--------37--------38--------39--------40--------41--------42--------43--------44--------45--------46--------47--------48--------49--------50--------51--------52--------53--------54--------55--------56--------57--------58--------59--------60--------61--------62--------63--------64--------65--------66--------67--------68--------69--------70--------71--------72--------73--------74
     -39.095337    -108.665077     275.0      0.59      2.49     121.3         1         1      1000      1000   3804.41    -4.197      10.1      22.8   290.877     0.723      64.0   0.16769     100.0         H               346.5  0.091805  0.035574  0.001223  3.122159  0.939597  3.322871  1.205383     38.06    7.0811   77.6997   0.25818   5.98112   0.19851   0.00630 115.27750   7.03968    4585.8  0.593990  0.000659  0.000014  0.000150  0.199531  6.985246  0.753988     90.60  1.000209  1.000023     3.271    23.533      90.6      89.5     157.2     619.1     13.26     -3.30      1.25      0.20      2.51      1.89     -0.46      2.92      0.73     -0.28      0.80      1.29     -3.83      1.79      1.80     -7.37      2.17      1.95      0.21      3.81
     -39.080662    -108.597214     270.4      0.59      2.49     129.6         1         2      1000      2591   3441.89    -4.632      10.1      23.3   288.739     0.717      69.6   0.16619     100.0         H               346.5  0.092704  0.034461  0.001073  2.979820  0.938031  3.176676  1.201446     52.95    6.3714   64.3023   0.25784   5.78874   0.21430   0.00759  95.44572   6.37281    4135.2  0.588504  0.000841  0.000020  0.000143  0.197698  6.984473  0.748033    103.73  1.000200  1.000022     3.275    23.435      92.7      88.1     126.7     545.0     13.32     -3.57      1.00     -0.04      2.88      2.04     -0.48      2.68      0.76     -0.70      0.93      1.59     -3.64      1.55      2.01     -7.51      3.02      2.00      0.65      2.69
     -39.066227    -108.530655     286.7      0.58      2.49     138.1         1         3      1000      4182   3097.30    -5.090       9.9      23.8   292.658     0.729      74.4   0.17057     100.0         H               346.5  0.095138  0.036114  0.000999  3.102494  0.969345  3.200609  1.210515     58.69    5.6912   53.4807   0.26143   5.57899   0.23312   0.00947  78.99769   5.74494    3749.4  0.596484  0.000836  0.000029  0.000147  0.199670  6.981407  0.761061    105.18  1.000235  1.000027     3.340    24.358      92.7      86.4     103.0     499.8     13.65     -3.83      1.69     -0.33      3.13      1.62     -1.09      2.57      0.45     -1.07      1.39      1.37     -3.91      2.32      1.62     -7.35      3.37      1.41      1.40      4.29
     -39.043083    -108.682999     272.8      0.59      2.49     135.1         2         1      2449      1000   3792.90    -4.210      10.1      22.8   286.137     0.706      56.7   0.16163     100.0         H               346.5  0.086671  0.033988  0.001033  3.030731  0.934371  3.243605  1.191354     40.32    7.0586   75.6779   0.25164   5.98117   0.19691   0.00617 113.26956   7.01557    4518.7  0.584541  0.000597  0.000010  0.000142  0.195421  6.984873  0.735736     95.63  1.000204  1.000022     3.230    23.118      86.6      89.7     153.7     599.6     13.04     -3.03      1.30      0.81      2.92      2.49     -0.25      2.14      0.65     -0.42      0.88      1.29     -3.41      1.51      1.75     -6.52      3.56      3.05      0.70      3.09
     -39.028419    -108.615196     272.8      0.58      2.49     135.1         2         2      2449      2591   3419.66    -4.660      10.0      23.3   289.567     0.717      77.5   0.16518     100.0         H               346.5  0.089964  0.034511  0.001165  3.085260  0.947105  3.257571  1.199980     39.05    6.3254   63.1133   0.25446   5.77774   0.21408   0.00762  94.10656   6.33745    4103.6  0.590558  0.000860  0.000044  0.000141  0.192991  6.970166  0.746996     92.27  1.000203  1.000023     3.412    28.625      88.6      88.1     125.1     608.0     12.96     -3.09      1.06      0.63      2.76      2.22      0.17      2.19      0.93     -0.45      0.86      1.20     -3.86      1.64      1.68     -7.18      3.09      2.50      0.79      3.68
     -39.013996    -108.548698     285.5      0.57      2.49     132.3         2         3      2449      4182   3050.29    -5.157       9.7      23.8   289.040     0.715      69.2   0.16441     100.0         H               346.5  0.089026  0.035250  0.001188  3.077970  0.936881  3.285337  1.199059     52.50    5.6026   51.3739   0.25570   5.55392   0.23437   0.00962  76.47533   5.66910    3657.4  0.589005  0.000737  0.000024  0.000146  0.195965  6.978141  0.745310     99.67  1.000212  1.000023     3.226    22.441      88.6      86.2      98.4     466.1     13.38     -3.06      1.34     -0.35      3.14      1.48     -0.24      2.25      0.55     -0.62      1.00      1.38     -4.78      2.32      1.64     -8.22      3.08      1.52      0.42      4.73
     -38.990826    -108.700905     286.7      0.56      2.49     138.1         3         1      3898      1000   3639.72    -4.389       9.6      22.8   288.010     0.712      58.0   0.16422     100.0         H               346.5  0.087207  0.034295  0.001050  3.194394  0.977567  3.267697  1.195681     30.29    6.7596   70.6077   0.25367   5.90057   0.20376   0.00669 105.39302   6.73657    4351.7  0.589145  0.000584  0.000012  0.000135  0.193640  6.995261  0.741576     85.89  1.000184  1.000019     3.273    23.494      83.0      89.1     141.7     568.6     12.75     -2.04      1.11      1.09      2.18      2.60      0.34      2.60      0.98     -0.02      0.81      1.68     -3.19      1.31      1.24     -6.27      1.53      2.90      0.22      3.37
     -38.976177    -108.633163     272.8      0.59      2.49     135.1         3         2      3898      2591   3451.69    -4.620      10.1      23.3   286.939     0.703      78.6   0.15821     100.0         H               346.5  0.084766  0.033383  0.001062  2.981018  0.919480  3.242071  1.189129     38.74    6.3872   63.4208   0.24890   5.79897   0.21165   0.00740  95.26971   6.39954    4104.3  0.583632  0.000880  0.000048  0.000136  0.194929  6.987735  0.732331    100.38  1.000211  1.000020     3.239    23.271      84.8      88.3     125.7     542.8     13.15     -3.33      1.07      0.36      2.65      1.87     -0.45      2.53      0.48     -0.99      1.19      1.66     -3.70      1.36      1.30     -7.14      3.13      2.16      1.12      3.80
     -38.961761    -108.566719     285.5      0.57      2.49     132.3         3         3      3898      4182   3027.27    -5.189       9.6      23.8   288.846     0.716      63.5   0.16609     100.0         H               346.5  0.089130  0.034996  0.001132  3.070416  0.943142  3.255517  1.199519     48.36    5.5564   50.5962   0.25652   5.53892   0.23534   0.00970  75.23438   5.62077    3631.1  0.590703  0.000617  0.000017  0.000136  0.195912  7.013953  0.746280    107.52  1.000192  1.000022     3.282    23.361      86.6      86.2      97.0     481.1     13.21     -3.30      0.77     -0.06      3.44      2.08     -0.04      1.61      0.61      0.29      0.27      0.91     -3.90      1.74      1.07     -7.80      4.54      2.37     -0.60      4.12
