corner points
-116.7516174    -9.249205589
-116.7909012    -9.068524361
-116.5727692    -9.209810257
-116.6121979    -9.029174805
========== RESULTS WAVE VERSION 16.10.2018 ====================
IMAGE SIZE  X: 5471     Y:4931    col:row     POLARIZATION:VV
COVERAGE    X: 20.06397338km       Y: 20.501739km 
RESOLUTION dX: 3.667332001m       dY:4.157724397m  
resolution of original product 3.667332001m x 4.157724397m;   raster step x:5999.755153m  
===============================================================
FLAGS: H=HIGH PROBABILITY SEA STATE, I=LAND(ISLAND), O=OUTLIER NO SEA STATE, N=NO WIND AVAILABLE, SEA STATE NOT VISIBLE, M=MEAN PROBABILITY SEA STATE, L= LOW PROBABILITY SEA STATE
Filtering wave length
 integration  Lmin=1m
 integration  Lmax=2200m
  peak        Lmin=100m
               FFT=1024pixels, 3755.347969m 
   mean-Hs (SWH_c)=1.480378723m
         mean-wind=11.06049347m/s
--------------0--------------1---------2---------3---------4---------5---------6---------7---------8---------9--------10--------11--------12--------13--------14--------15--------16--------17--------18--------19------------------20--------21--------22--------23--------24--------25--------26--------27--------28--------29--------30--------31--------32--------33--------34--------35--------36--------37--------38--------39--------40--------41--------42--------43--------44--------45--------46--------47--------48--------49--------50--------51--------52--------53--------54--------55--------56--------57--------58--------59--------60--------61--------62--------63--------64--------65--------66--------67--------68--------69--------70--------71--------72--------73
            LAT            LON  P-LENGHT     SWH_o     SWH_c     P-DIR      LINE     POINT     ROW-Y     COL-X  M-INTENC        dB      WIND INC-ANGLE  ENERGY-M  ENERGY-N  ENERGY-R ENERGY-NN  FG-DEPTH      FLAG         HEADING-DEG    E30-75   E75-390  E390-600 meanincut   meanout   cut/out  STD-NORM  SPEC-MAX   GL-MEAN    GL-VAR      CORR   ENTROPY   HOMOGEN    ENERGY  CONTRAST  DISSIMIL     STD-O    E 1-30 E600-2000   E2000 >      GODA  LONG-HIG     Tmean  CONVOLUT  MEAN-DIR  relation     Sy/Sx  SKEWNESS  KURTOSIS  cutoff-A >50/10000     INT*V   INT-LOG  S-1_g1f1  S-2_g1f2  S-3_g1f3  S-4_g2f1  S-5_g2f2  S-6_g2f3  S-7_g3f1  S-8_g3f2  S-9_g3f3 S-10_g1f4 S-11_g2f4 S-12_g3f4 S-13_g1f5 S-14_g2f5 S-15_g3f5 S-16_g4f1 S-17_g4f2 S-18_g4f3 S-19_g4f4 S-20_g4f5
--------------1--------------2---------3---------4---------5---------6---------7---------8---------9--------10--------11--------12--------13--------14--------15--------16--------17--------18--------19--------20------------------21--------22--------23--------24--------25--------26--------27--------28--------29--------30--------31--------32--------33--------34--------35--------36--------37--------38--------39--------40--------41--------42--------43--------44--------45--------46--------47--------48--------49--------50--------51--------52--------53--------54--------55--------56--------57--------58--------59--------60--------61--------62--------63--------64--------65--------66--------67--------68--------69--------70--------71--------72--------73--------74
      -9.205180    -116.726067     108.1      1.59      2.49      78.3         1         1      1000      1000   3508.60    -4.549      10.9      23.5   433.438     0.823      81.0   0.21284       7.5         H               348.0  0.107602  0.063541  0.001220  5.710183  1.022796  5.582915  1.287268     58.54    6.4842   72.9834   0.29471   5.78946   0.22014   0.00821 102.94808   6.47215    4516.3  0.650031  0.001026  0.000026  0.000297  0.164842  6.990627  0.871405     83.86  1.000259  1.000041     3.893    34.144     110.8      87.4     145.4     662.6     10.99      1.16      0.45      2.52      0.65      4.69      3.27      1.17      3.73      1.07      1.56      1.93     -0.84      1.86      2.19     -3.36      0.97      7.54      1.58      4.25
      -9.193288    -116.672043     105.7      1.50      2.49      80.0         1         2      1000      2636   3281.19    -4.840      11.2      24.0   426.129     0.796      82.8   0.19894       7.1         H               348.0  0.100232  0.058720  0.001216  5.555729  0.980093  5.668573  1.264044     46.14    6.0431   63.5181   0.28568   5.66798   0.22964   0.00915  90.74353   6.07000    4147.5  0.635565  0.001035  0.000031  0.000283  0.167110  6.995987  0.841313     86.01  1.000257  1.000037     3.679    29.623     110.8      86.5     123.5     593.6     11.52      1.09      0.85      2.14      0.52      4.40      2.60      0.84      3.59      0.61      1.37      1.36     -1.13      1.90      2.57     -4.25      0.26      6.64      1.60      3.99
      -9.181603    -116.619019     115.2      1.48      2.49      79.1         1         3      1000      4272   2950.77    -5.301      10.9      24.5   427.664     0.796      92.3   0.19880       8.6         H               348.0  0.099955  0.059451  0.001128  5.369900  0.989782  5.425338  1.264048     53.20    5.4010   52.0927   0.28436   5.46435   0.24813   0.01118  74.55831   5.47054    3729.7  0.634733  0.001277  0.000045  0.000286  0.166979  7.005203  0.840033     83.96  1.000263  1.000038     3.824    34.230     110.8      84.8      99.3     563.1     10.70      1.25      0.95      3.16      1.20      4.87      3.59      1.32      4.48      1.43      1.96      1.84     -0.72      1.90      2.76     -2.23      1.28      7.14      2.43      3.92
      -9.152298    -116.737572     114.6      1.50      2.49      71.1         2         1      2443      1000   3606.17    -4.430      11.2      23.5   424.772     0.798      80.0   0.20259       8.5         H               348.0  0.102930  0.058461  0.001133  5.358065  0.989372  5.415619  1.265095     47.35    6.6678   74.9517   0.28754   5.84715   0.21437   0.00766 106.80020   6.64111    4561.8  0.635444  0.000957  0.000038  0.000279  0.164570  6.978266  0.843362     84.13  1.000255  1.000038     3.705    30.375     107.8      87.9     150.1     653.3     10.85      1.44      0.29      2.89      1.08      4.73      3.35      0.93      3.98      0.88      2.17      2.04     -0.33      1.28      2.35     -2.97      1.22      7.28      2.48      2.65
      -9.140409    -116.683571     107.2      1.48      2.49      87.1         2         2      2443      2636   3203.60    -4.944      10.9      24.0   426.317     0.795      97.3   0.19850       7.3         H               348.0  0.099374  0.059094  0.001211  5.150502  0.981820  5.245873  1.264767     57.53    5.8943   60.9915   0.28536   5.62147   0.23461   0.00965  87.17371   5.93393    4051.9  0.634460  0.001285  0.000052  0.000286  0.166089  6.990804  0.839669     83.77  1.000251  1.000035     3.627    28.514     107.8      86.1     117.4     567.7     10.79      1.77      0.34      2.72      0.91      4.89      3.88      1.42      4.35      1.31      2.03      2.46     -0.42      1.69      2.35     -3.08      0.99      7.97      2.36      3.60
      -9.128730    -116.630554     114.6      1.44      2.49      77.6         2         3      2443      4272   3008.96    -5.216      11.2      24.5   422.243     0.784      95.7   0.19512       8.5         H               348.0  0.098395  0.057302  0.001147  5.457656  0.963854  5.662325  1.253574     51.28    5.5145   53.5371   0.28178   5.50493   0.24401   0.01068  76.90346   5.57435    3771.6  0.626986  0.001283  0.000054  0.000272  0.168230  7.010214  0.827915     83.61  1.000248  1.000035     3.695    31.495     107.8      85.3     102.3     556.0     10.79      1.65      0.93      3.11      1.14      5.06      3.68      1.09      4.27      0.79      2.19      2.32     -0.72      1.79      3.03     -2.48      1.12      7.75      2.79      3.56
      -9.099415    -116.749077     115.2      1.43      2.49      79.1         3         1      3886      1000   3563.75    -4.481      11.1      23.5   422.319     0.785      96.2   0.19452       8.6         H               348.0  0.098179  0.055994  0.001154  5.386974  0.963643  5.590218  1.256090     52.64    6.5931   72.9299   0.28127   5.83061   0.21476   0.00772 104.83534   6.58410    4476.4  0.629406  0.001403  0.000052  0.000267  0.167932  6.986682  0.828842     83.61  1.000235  1.000034     3.640    29.974     107.8      87.9     145.1     635.6     11.22      2.05      0.25      2.27      0.47      4.70      2.98      0.99      3.64      0.72      2.12      1.95     -0.86      1.52      2.27     -3.81      0.28      7.48      2.63      3.23
      -9.087530    -116.695084     112.8      1.34      2.49      82.4         3         2      3886      2636   3247.40    -4.885      11.1      24.0   417.981     0.775      93.6   0.19155       8.2         H               348.0  0.096703  0.054326  0.001178  5.096556  0.959173  5.313488  1.247989     50.90    5.9793   61.4319   0.28104   5.65319   0.23089   0.00921  88.33600   6.00638    4052.7  0.622413  0.001221  0.000052  0.000272  0.168705  6.980345  0.817711     83.99  1.000253  1.000034     3.490    25.460     107.8      86.5     118.3     525.0     11.23      2.33      0.29      1.90     -0.11      4.79      3.29      1.19      3.99      0.28      2.19      1.66     -0.93      2.17      2.25     -4.19     -1.28      7.49      3.24      4.55
      -9.075854    -116.642082     121.1      1.56      2.49      88.4         3         3      3886      4272   2984.80    -5.251      11.1      24.5   425.784     0.794      92.0   0.19854       9.6         H               348.0  0.097995  0.060306  0.001075  5.359471  0.982190  5.456654  1.262812     64.50    5.4733   53.4194   0.28500   5.48815   0.24595   0.01096  76.38983   5.54315    3768.8  0.634349  0.001243  0.000042  0.000289  0.169735  7.037354  0.838898     85.05  1.000280  1.000041     3.687    29.381     110.8      85.0     101.4     544.1     10.65      1.71      0.90      3.22      1.01      5.36      3.70      1.34      5.13      1.07      2.20      2.27     -0.08      2.50      3.35     -1.68      0.81      7.95      2.53      4.72
