corner points
-117.9059143    -3.935438871
-117.9441452    -3.754576206
-117.7295761    -3.897081137
-117.7678909    -3.716256618
========== RESULTS WAVE VERSION 16.10.2018 ====================
IMAGE SIZE  X: 5471     Y:4932    col:row     POLARIZATION:VV
COVERAGE    X: 19.97395131km       Y: 20.50636688km 
RESOLUTION dX: 3.650877593m       dY:4.157819725m  
resolution of original product 3.650877593m x 4.157819725m;   raster step x:5998.391885m  
===============================================================
FLAGS: H=HIGH PROBABILITY SEA STATE, I=LAND(ISLAND), O=OUTLIER NO SEA STATE, N=NO WIND AVAILABLE, SEA STATE NOT VISIBLE, M=MEAN PROBABILITY SEA STATE, L= LOW PROBABILITY SEA STATE
Filtering wave length
 integration  Lmin=1m
 integration  Lmax=2200m
  peak        Lmin=100m
               FFT=1024pixels, 3738.498655m 
   mean-Hs (SWH_c)=0.5784638214m
         mean-wind=8.888683319m/s
--------------0--------------1---------2---------3---------4---------5---------6---------7---------8---------9--------10--------11--------12--------13--------14--------15--------16--------17--------18--------19------------------20--------21--------22--------23--------24--------25--------26--------27--------28--------29--------30--------31--------32--------33--------34--------35--------36--------37--------38--------39--------40--------41--------42--------43--------44--------45--------46--------47--------48--------49--------50--------51--------52--------53--------54--------55--------56--------57--------58--------59--------60--------61--------62--------63--------64--------65--------66--------67--------68--------69--------70--------71--------72--------73
            LAT            LON  P-LENGHT     SWH_o     SWH_c     P-DIR      LINE     POINT     ROW-Y     COL-X  M-INTENC        dB      WIND INC-ANGLE  ENERGY-M  ENERGY-N  ENERGY-R ENERGY-NN  FG-DEPTH      FLAG         HEADING-DEG    E30-75   E75-390  E390-600 meanincut   meanout   cut/out  STD-NORM  SPEC-MAX   GL-MEAN    GL-VAR      CORR   ENTROPY   HOMOGEN    ENERGY  CONTRAST  DISSIMIL     STD-O    E 1-30 E600-2000   E2000 >      GODA  LONG-HIG     Tmean  CONVOLUT  MEAN-DIR  relation     Sy/Sx  SKEWNESS  KURTOSIS  cutoff-A >50/10000     INT*V   INT-LOG  S-1_g1f1  S-2_g1f2  S-3_g1f3  S-4_g2f1  S-5_g2f2  S-6_g2f3  S-7_g3f1  S-8_g3f2  S-9_g3f3 S-10_g1f4 S-11_g2f4 S-12_g3f4 S-13_g1f5 S-14_g2f5 S-15_g3f5 S-16_g4f1 S-17_g4f2 S-18_g4f3 S-19_g4f4 S-20_g4f5
--------------1--------------2---------3---------4---------5---------6---------7---------8---------9--------10--------11--------12--------13--------14--------15--------16--------17--------18--------19--------20------------------21--------22--------23--------24--------25--------26--------27--------28--------29--------30--------31--------32--------33--------34--------35--------36--------37--------38--------39--------40--------41--------42--------43--------44--------45--------46--------47--------48--------49--------50--------51--------52--------53--------54--------55--------56--------57--------58--------59--------60--------61--------62--------63--------64--------65--------66--------67--------68--------69--------70--------71--------72--------73--------74
      -3.891576    -117.880623     119.6      0.65      2.46      73.7         1         1      1000      1000   3013.19    -5.210       9.3      23.6   431.349     0.763      99.3   0.18593       9.3         H               348.0  0.095189  0.042800  0.001196  4.247107  0.957656  4.434897  1.237724     20.84    5.5189   52.6555   0.27257   5.51272   0.24156   0.01041  76.60645   5.59434    3729.2  0.623025  0.001710  0.000045  0.000217  0.169645  6.880115  0.802971     82.53  1.000203  1.000027     3.533    28.250      90.6      85.5     100.3     526.3     12.01      2.01     -0.53      1.37      0.50      2.63      1.57      0.89      2.79      0.19      1.70      1.36     -1.27     -0.34      0.26     -6.61     -0.14      2.22      2.57      0.85
      -3.879945    -117.827141     101.4      0.57      2.46      77.6         1         2      1000      2643   2642.04    -5.781       8.9      24.1   431.492     0.761     115.8   0.18416       6.5         H               348.0  0.093176  0.042650  0.001090  4.194396  0.967191  4.336679  1.236452     19.09    4.7850   40.9695   0.27158   5.25458   0.26591   0.01338  59.68616   4.90166    3266.5  0.622208  0.001897  0.000068  0.000210  0.171272  6.901437  0.799459     82.59  1.000203  1.000025     3.532    27.205      90.6      83.2      76.2     440.5     11.96      1.70     -0.77      1.53      0.90      3.01      1.34      0.63      2.51      0.60      1.44      1.37     -0.86     -0.37      0.26     -5.69      0.64      3.69      1.33      0.41
      -3.868522    -117.774628     124.4      0.53      2.46      64.0         1         3      1000      4286   2348.23    -6.293       8.7      24.6   429.269     0.755     122.9   0.18208      10.1         H               348.0  0.091060  0.042398  0.001326  4.198138  0.941253  4.460160  1.231249     20.92    4.2173   32.7007   0.27022   5.02852   0.28858   0.01670  47.72882   4.36601    2891.1  0.618420  0.002066  0.000086  0.000209  0.172087  6.914780  0.793229     82.16  1.000209  1.000025     3.471    25.509      92.7      81.1      59.9     373.5     12.07      1.72     -0.71      1.07      0.80      3.47      2.06      1.12      2.53      0.22      1.87      1.59     -1.33     -0.32      0.31     -7.27      0.17      4.48      2.51      0.61
      -3.838651    -117.891815     279.2      0.78      2.46      31.5         2         1      2443      1000   3037.54    -5.175       9.4      23.7   431.922     0.767     110.3   0.18797     100.0         H               348.0  0.094188  0.045244  0.001341  4.438471  0.985100  4.505605  1.241546     28.43    5.5809   53.8466   0.27529   5.53209   0.23960   0.01022  78.04573   5.64325    3771.1  0.624750  0.001850  0.000057  0.000215  0.173231  6.932146  0.807305     81.48  1.000216  1.000026     3.590    29.491      92.7      85.6     102.9     555.3     12.40      2.25     -0.94      0.59      0.10      2.83      1.10      0.35      2.51      0.36      1.53      1.19     -2.15      0.13      0.90     -7.70     -0.38      3.23      1.85      1.28
      -3.827024    -117.838341     101.4      0.53      2.46      77.6         2         2      2443      2643   2663.45    -5.746       9.0      24.1   426.217     0.748      95.7   0.17900       6.5         H               348.0  0.089992  0.040653  0.001077  3.998162  0.939405  4.256057  1.225669     23.07    4.8240   41.0327   0.26764   5.27240   0.26321   0.01305  60.10210   4.93948    3264.3  0.615466  0.001377  0.000059  0.000206  0.171807  6.908917  0.785693     81.33  1.000183  1.000021     3.421    25.250      88.6      83.5      76.4     433.8     12.23      2.31     -1.14      1.23     -0.50      2.90      0.79      0.71      2.28     -0.02      1.54      1.30     -1.20     -0.38      0.20     -6.39     -2.19      3.55      1.44      0.48
      -3.815604    -117.785835     103.6      0.51      2.46      75.9         2         3      2443      4286   2311.68    -6.361       8.5      24.6   424.518     0.741     113.1   0.17528       6.8         H               348.0  0.088428  0.040461  0.000970  3.992320  0.947038  4.215585  1.219994     20.10    4.1364   31.0306   0.26521   4.99767   0.29087   0.01709  45.60140   4.28944    2820.2  0.609326  0.001736  0.000078  0.000199  0.172518  6.905169  0.777433     82.14  1.000206  1.000023     3.405    26.001      86.6      80.8      57.1     389.9     11.77      1.91     -0.82      2.08      1.09      3.02      1.36      1.18      2.69      0.57      2.09      1.63     -1.40     -0.53      0.46     -4.92      0.58      3.69      2.59      0.53
      -3.785725    -117.903008     289.9      0.62      2.46      27.7         3         1      3886      1000   2946.19    -5.307       9.0      23.7   426.201     0.751     102.1   0.18127     100.0         H               348.0  0.091205  0.042056  0.001240  4.112319  0.966017  4.256984  1.228328     22.17    5.3922   49.9406   0.27027   5.47300   0.24490   0.01080  72.88589   5.46630    3618.6  0.615075  0.001765  0.000040  0.000204  0.172515  6.914268  0.789168     81.99  1.000206  1.000025     3.436    25.988      88.6      85.2      94.8     500.7     12.30      2.04     -1.45      0.70      0.52      2.80      0.95      0.68      2.42      0.28      1.41      1.14     -1.89     -0.57      0.85     -7.38     -0.19      3.56      1.35      0.35
      -3.774101    -117.849541     289.2      0.55      2.46      18.0         3         2      3886      2643   2644.29    -5.777       8.9      24.1   423.352     0.739      81.2   0.17576     100.0         H               348.0  0.088700  0.041002  0.001288  4.021624  0.948831  4.238503  1.219218     21.17    4.7798   39.9509   0.26546   5.25800   0.26431   0.01318  58.69098   4.89238    3223.8  0.607681  0.001224  0.000030  0.000210  0.170920  6.902162  0.776376     81.42  1.000180  1.000021     3.386    24.766      86.6      83.4      74.5     417.8     12.28      1.74     -1.76      0.57      0.64      3.25      1.43      0.46      2.33     -0.03      1.56      1.23     -1.41     -0.45      0.63     -7.99      0.33      4.86      2.24      0.34
      -3.762685    -117.797043     100.0      0.53      2.46      81.9         3         3      3886      4286   2269.06    -6.442       8.4      24.6   425.982     0.745      90.0   0.17709       6.4         H               348.0  0.088123  0.042906  0.001047  4.254295  0.959609  4.433362  1.224480     21.75    4.0529   30.1328   0.26535   4.96009   0.29520   0.01780  44.27419   4.21293    2778.4  0.612054  0.001318  0.000046  0.000202  0.172108  6.941678  0.782218     80.32  1.000193  1.000023     3.396    24.558      86.6      80.3      55.2     352.4     12.01      2.10     -1.17      1.51      1.16      3.23      1.16      0.65      2.12      0.49      1.88      1.08     -1.92     -0.36      0.55     -5.87      0.75      4.57      2.14      1.01
