corner points
-122.3718338    17.33706474
-122.4102554    17.51769066
-122.1880722    17.3728714
-122.2263031    17.55348587
========== RESULTS WAVE VERSION 16.10.2018 ====================
IMAGE SIZE  X: 5471     Y:4930    col:row     POLARIZATION:VV
COVERAGE    X: 19.8611931km       Y: 20.44560543km 
RESOLUTION dX: 3.630267429m       dY:4.147181629m  
resolution of original product 3.630267429m x 4.147181629m;   raster step x:5997.201792m  
===============================================================
FLAGS: H=HIGH PROBABILITY SEA STATE, I=LAND(ISLAND), O=OUTLIER NO SEA STATE, N=NO WIND AVAILABLE, SEA STATE NOT VISIBLE, M=MEAN PROBABILITY SEA STATE, L= LOW PROBABILITY SEA STATE
Filtering wave length
 integration  Lmin=1m
 integration  Lmax=2200m
  peak        Lmin=100m
               FFT=1024pixels, 3717.393847m 
   mean-Hs (SWH_c)=1.057042389m
         mean-wind=4.480452538m/s
--------------0--------------1---------2---------3---------4---------5---------6---------7---------8---------9--------10--------11--------12--------13--------14--------15--------16--------17--------18--------19------------------20--------21--------22--------23--------24--------25--------26--------27--------28--------29--------30--------31--------32--------33--------34--------35--------36--------37--------38--------39--------40--------41--------42--------43--------44--------45--------46--------47--------48--------49--------50--------51--------52--------53--------54--------55--------56--------57--------58--------59--------60--------61--------62--------63--------64--------65--------66--------67--------68--------69--------70--------71--------72--------73
            LAT            LON  P-LENGHT     SWH_o     SWH_c     P-DIR      LINE     POINT     ROW-Y     COL-X  M-INTENC        dB      WIND INC-ANGLE  ENERGY-M  ENERGY-N  ENERGY-R ENERGY-NN  FG-DEPTH      FLAG         HEADING-DEG    E30-75   E75-390  E390-600 meanincut   meanout   cut/out  STD-NORM  SPEC-MAX   GL-MEAN    GL-VAR      CORR   ENTROPY   HOMOGEN    ENERGY  CONTRAST  DISSIMIL     STD-O    E 1-30 E600-2000   E2000 >      GODA  LONG-HIG     Tmean  CONVOLUT  MEAN-DIR  relation     Sy/Sx  SKEWNESS  KURTOSIS  cutoff-A >50/10000     INT*V   INT-LOG  S-1_g1f1  S-2_g1f2  S-3_g1f3  S-4_g2f1  S-5_g2f2  S-6_g2f3  S-7_g3f1  S-8_g3f2  S-9_g3f3 S-10_g1f4 S-11_g2f4 S-12_g3f4 S-13_g1f5 S-14_g2f5 S-15_g3f5 S-16_g4f1 S-17_g4f2 S-18_g4f3 S-19_g4f4 S-20_g4f5
--------------1--------------2---------3---------4---------5---------6---------7---------8---------9--------10--------11--------12--------13--------14--------15--------16--------17--------18--------19--------20------------------21--------22--------23--------24--------25--------26--------27--------28--------29--------30--------31--------32--------33--------34--------35--------36--------37--------38--------39--------40--------41--------42--------43--------44--------45--------46--------47--------48--------49--------50--------51--------52--------53--------54--------55--------56--------57--------58--------59--------60--------61--------62--------63--------64--------65--------66--------67--------68--------69--------70--------71--------72--------73--------74
      17.380432    -122.345192     296.9      0.97      1.96      39.7         1         1      1000      1000   1629.85    -7.879       4.5      23.8   416.055     0.675     242.5   0.14417     100.0         H               347.8  0.058996  0.053863  0.002357  2.742500  0.847837  3.234703  1.166980     77.47    2.7929   14.3207   0.24403   4.32550   0.36672   0.03223  21.65217   2.98751    1902.0  0.556603  0.003247  0.000210  0.000190  0.247974  7.573996  0.706861     48.86  0.999846  0.999986     2.927    18.632      63.2      73.5      26.9     221.1     14.43      6.13     -7.60     -3.30     -3.69      2.22     -3.63     -1.16      2.84     -0.13      1.47     -0.95     -1.16      0.08     -0.17    -11.93     -7.85      6.59      2.96      0.57
      17.391359    -122.289146     296.9      1.02      1.96      39.7         1         2      1000      2652   1514.20    -8.198       4.7      24.2   411.202     0.663     180.4   0.13949     100.0         H               347.8  0.058064  0.053920  0.002753  2.619264  0.844790  3.100489  1.155449     90.75    2.5537   12.0566   0.24015   4.17632   0.38533   0.03703  18.32257   2.75249    1749.5  0.546639  0.002133  0.000103  0.000196  0.252187  7.557377  0.694549     42.48  0.999818  0.999986     2.798    16.189      66.4      71.6      22.9     180.9     14.96      7.26     -8.10     -4.83     -4.44      3.41     -3.05     -1.21      2.38     -1.04      1.83     -0.57     -1.17      0.17      0.41    -14.46     -9.44      8.81      4.00     -0.15
      17.402073    -122.234108     331.7      0.94      1.96      38.6         1         3      1000      4304   1267.12    -8.972       4.4      24.7   411.077     0.662     183.8   0.13881     100.0         H               347.8  0.058413  0.053410  0.003000  2.566112  0.845311  3.035703  1.154776    110.54    2.0749    8.4471   0.23856   3.83293   0.43023   0.05143  12.86385   2.29098    1463.2  0.545266  0.002234  0.000094  0.000207  0.254204  7.564119  0.693180     37.02  0.999823  0.999985     2.798    16.225      67.5      66.9      16.3     148.9     15.16      8.03     -8.07     -5.44     -5.55      3.59     -2.68     -0.68      2.08     -1.75      2.89     -0.98     -1.95      0.74      0.14    -15.99    -12.21      9.05      6.00      1.93
      17.433422    -122.356453     312.3      1.37      1.96      36.0         2         1      2446      1000   1563.08    -8.060       4.3      23.8   419.603     0.682     194.1   0.14557     100.0         H               347.8  0.058702  0.061884  0.002785  3.078982  0.867543  3.549082  1.171630    115.51    2.6648   13.3431   0.24699   4.24251   0.37876   0.03550  20.09486   2.86394    1831.2  0.557065  0.002124  0.000135  0.000221  0.257546  7.693467  0.716565     39.95  0.999829  0.999986     2.869    17.006      68.7      72.1      24.9     193.4     14.83      7.44     -7.13     -4.23     -4.96      2.54     -3.35     -1.29      2.47     -1.01      1.95     -0.49     -3.02      0.90      0.71    -13.14    -10.06      6.76      3.87      2.20
      17.444347    -122.300392     331.7      1.13      1.96      38.6         2         2      2446      2652   1453.74    -8.375       4.5      24.2   413.741     0.670     229.0   0.14304     100.0         H               347.8  0.058137  0.056530  0.002952  2.786786  0.850568  3.276383  1.161686    139.75    2.4451   11.3120   0.24488   4.10159   0.39499   0.03988  17.08361   2.64705    1688.8  0.550149  0.002968  0.000165  0.000212  0.255103  7.594422  0.702901     40.07  0.999872  0.999989     2.888    17.608      67.5      70.6      21.5     185.1     15.21      8.77     -6.83     -5.34     -6.00      2.81     -2.66     -1.03      1.84     -1.44      2.26     -0.52     -4.04      2.31      0.66    -15.89    -12.55      7.80      4.46      4.60
      17.455061    -122.245331     267.2      0.89      1.96      35.1         2         3      2446      4304   1314.88    -8.811       4.5      24.7   411.610     0.660     196.9   0.13765     100.0         H               347.8  0.057996  0.051784  0.002233  2.644790  0.853405  3.099102  1.151382     93.31    2.1626    9.0327   0.23617   3.90161   0.42038   0.04794  13.79899   2.37938    1513.9  0.546112  0.002519  0.000134  0.000195  0.248406  7.530889  0.690705     36.71  0.999816  0.999985     2.795    16.385      65.3      67.9      17.4     170.8     14.78      7.07     -7.69     -4.31     -4.20      2.76     -3.40     -1.40      2.97     -1.01      1.74     -0.05     -1.12      0.23      0.16    -13.00     -8.57      6.55      2.75      0.20
      17.486410    -122.367722     350.3      1.08      1.96      34.4         3         1      3892      1000   1645.69    -7.837       4.5      23.8   410.972     0.662     179.0   0.14010     100.0         H               347.8  0.057468  0.055115  0.002777  2.828185  0.846778  3.339939  1.154981     97.56    2.8233   14.3170   0.24087   4.34702   0.36314   0.03123  21.73688   3.01126    1900.7  0.544877  0.002202  0.000107  0.000198  0.249390  7.580849  0.692944     38.46  0.999869  0.999988     2.850    17.438      64.2      73.9      27.1     210.6     14.64      7.31     -7.39     -4.14     -5.03      2.59     -2.81     -1.32      2.28     -1.94      2.54     -0.16     -2.33      0.78      0.47    -14.00     -9.97      7.59      4.97      1.60
      17.497334    -122.311638     312.3      1.14      1.96      36.0         3         2      3892      2652   1435.14    -8.431       4.4      24.2   411.590     0.665     176.0   0.14013     100.0         H               347.8  0.057291  0.056455  0.002519  2.849571  0.848937  3.356633  1.156754    146.27    2.4013   10.8792   0.24124   4.07268   0.39829   0.04098  16.50939   2.60820    1660.1  0.547413  0.002092  0.000091  0.000217  0.253800  7.601086  0.697380     40.87  0.999833  0.999985     2.799    16.141      67.5      70.2      20.7     172.5     15.00      7.45     -7.26     -4.80     -5.85      2.68     -3.07     -0.79      2.54     -0.85      2.51     -0.99     -3.08      1.81      0.32    -14.24    -11.30      6.95      4.90      3.25
      17.508047    -122.256561     267.2      0.96      1.96      35.1         3         3      3892      4304   1333.79    -8.749       4.6      24.7   409.362     0.658     224.7   0.13714     100.0         H               347.8  0.055859  0.052003  0.002502  2.681500  0.825156  3.249689  1.151309     86.53    2.1954    9.2408   0.23712   3.92656   0.41645   0.04679  14.09898   2.41096    1535.6  0.545155  0.002819  0.000180  0.000195  0.249686  7.549232  0.688549     40.53  0.999851  0.999987     2.793    16.496      65.3      68.3      17.8     165.5     15.00      7.44     -7.53     -4.87     -4.70      3.20     -3.14     -1.28      2.23     -1.24      2.16     -0.70     -1.71      0.33      0.73    -14.23     -9.69      8.22      4.81     -0.15
