corner points
-95.75205994    -58.16353989
-95.88854218    -58.00145721
-95.43515015    -58.08722687
-95.57285309    -57.92547226
========== RESULTS WAVE VERSION 16.10.2018 ====================
IMAGE SIZE  X: 4376     Y:4769    col:row     POLARIZATION:VV
COVERAGE    X: 20.40409675km       Y: 19.68553326km 
RESOLUTION dX: 4.662727777m       dY:4.127811545m  
resolution of original product 4.662727777m x 4.127811545m;   raster step x:5996.267921m  
===============================================================
FLAGS: H=HIGH PROBABILITY SEA STATE, I=LAND(ISLAND), O=OUTLIER NO SEA STATE, N=NO WIND AVAILABLE, SEA STATE NOT VISIBLE, M=MEAN PROBABILITY SEA STATE, L= LOW PROBABILITY SEA STATE
Filtering wave length
 integration  Lmin=1m
 integration  Lmax=2200m
  peak        Lmin=100m
               FFT=1024pixels, 4774.633243m 
   mean-Hs (SWH_c)=3.416428528m
         mean-wind=12.01152325m/s
--------------0--------------1---------2---------3---------4---------5---------6---------7---------8---------9--------10--------11--------12--------13--------14--------15--------16--------17--------18--------19------------------20--------21--------22--------23--------24--------25--------26--------27--------28--------29--------30--------31--------32--------33--------34--------35--------36--------37--------38--------39--------40--------41--------42--------43--------44--------45--------46--------47--------48--------49--------50--------51--------52--------53--------54--------55--------56--------57--------58--------59--------60--------61--------62--------63--------64--------65--------66--------67--------68--------69--------70--------71--------72--------73
            LAT            LON  P-LENGHT     SWH_o     SWH_c     P-DIR      LINE     POINT     ROW-Y     COL-X  M-INTENC        dB      WIND INC-ANGLE  ENERGY-M  ENERGY-N  ENERGY-R ENERGY-NN  FG-DEPTH      FLAG         HEADING-DEG    E30-75   E75-390  E390-600 meanincut   meanout   cut/out  STD-NORM  SPEC-MAX   GL-MEAN    GL-VAR      CORR   ENTROPY   HOMOGEN    ENERGY  CONTRAST  DISSIMIL     STD-O    E 1-30 E600-2000   E2000 >      GODA  LONG-HIG     Tmean  CONVOLUT  MEAN-DIR  relation     Sy/Sx  SKEWNESS  KURTOSIS  cutoff-A >50/10000     INT*V   INT-LOG  S-1_g1f1  S-2_g1f2  S-3_g1f3  S-4_g2f1  S-5_g2f2  S-6_g2f3  S-7_g3f1  S-8_g3f2  S-9_g3f3 S-10_g1f4 S-11_g2f4 S-12_g3f4 S-13_g1f5 S-14_g2f5 S-15_g3f5 S-16_g4f1 S-17_g4f2 S-18_g4f3 S-19_g4f4 S-20_g4f5
--------------1--------------2---------3---------4---------5---------6---------7---------8---------9--------10--------11--------12--------13--------14--------15--------16--------17--------18--------19--------20------------------21--------22--------23--------24--------25--------26--------27--------28--------29--------30--------31--------32--------33--------34--------35--------36--------37--------38--------39--------40--------41--------42--------43--------44--------45--------46--------47--------48--------49--------50--------51--------52--------53--------54--------55--------56--------57--------58--------59--------60--------61--------62--------63--------64--------65--------66--------67--------68--------69--------70--------71--------72--------73--------74
     -58.111992     -95.707413     271.4      3.29      5.83     104.9         1         1      1000      1000    532.46   -12.737      12.0      35.6   323.728     0.660     229.8   0.12065     100.0         H               341.9  0.059089  0.055185  0.001997  4.349516  0.820058  5.303912  1.153327    113.23   10.0220  130.5501   0.18326   6.64282   0.14242   0.00288 213.25092  10.00299     614.0  0.540924  0.003296  0.000386  0.000193  0.236379  7.499360  0.674458     97.84  1.000312  1.000035     2.946    18.637     174.0      94.0     299.4     743.5     15.66     -0.71     11.91      0.31      0.93      2.78     -2.69      1.11     -4.45     -2.12      2.34      1.66      4.20      2.56     -0.56     -8.46      0.89      0.66      3.65      1.96
     -58.089520     -95.613945     271.4      3.32      5.83     104.9         1         2      1000      2286    489.41   -13.103      11.7      35.9   327.558     0.676     259.9   0.12775     100.0         H               341.9  0.062330  0.058470  0.002458  4.176773  0.832124  5.019413  1.167294     84.31    9.1935  113.9560   0.19003   6.48487   0.15327   0.00343 184.60269   9.23096     571.3  0.549871  0.003132  0.000475  0.000204  0.237383  7.506586  0.691890     88.35  1.000341  1.000040     3.260    26.909     190.7      93.0     254.7     828.9     15.83      0.47     12.29      0.34      0.28      3.80     -2.44      0.56     -5.01     -0.29      1.58      0.40      5.64      2.96     -1.04     -9.56     -0.93      2.00      1.96      1.40
     -58.067192     -95.521423     304.8      3.29      5.83     106.8         1         3      1000      3572    502.98   -12.984      12.2      36.3   323.689     0.658     375.9   0.11950     100.0         H               341.9  0.058289  0.054593  0.002063  4.103527  0.812893  5.048052  1.151931    100.83    9.4652  118.9079   0.18411   6.54048   0.14939   0.00324 194.03185   9.49571     579.4  0.537947  0.004234  0.000882  0.000196  0.238566  7.529438  0.671411     93.96  1.000283  1.000032     2.950    19.307     181.9      93.4     265.6     720.1     15.72     -0.49     12.30      0.36      1.25      2.96     -2.53      0.40     -4.21     -1.48      2.55      0.64      5.07      2.50     -0.17     -8.43      1.58      0.46      3.82      0.91
     -58.062626     -95.749146     266.5      3.26      5.83     108.4         2         1      2453      1000    519.91   -12.841      11.8      35.6   327.956     0.674     225.9   0.12584     100.0         H               341.9  0.062432  0.056970  0.002105  4.476749  0.826271  5.418018  1.165305     94.82    9.7751  126.0942   0.18580   6.59615   0.14569   0.00305 205.33279   9.78403     605.8  0.549850  0.002973  0.000387  0.000198  0.232516  7.459037  0.689070     96.84  1.000321  1.000039     3.212    26.045     181.9      93.7     288.7     845.5     15.44     -0.30     12.18      1.13      0.31      3.67     -2.33      0.19     -3.91     -1.44      1.06      0.50      4.53      3.47     -0.18     -7.80      0.71      0.49      2.63      2.24
     -58.040188     -95.655777     240.9      3.48      5.83     106.6         2         2      2453      2286    528.93   -12.766      12.3      35.9   322.534     0.657     179.7   0.12021      59.1         H               341.9  0.058800  0.057251  0.002166  4.175352  0.810924  5.148885  1.150412     86.88    9.9589  128.7469   0.18395   6.63274   0.14303   0.00291 210.12775   9.92938     608.5  0.537262  0.002018  0.000278  0.000208  0.236486  7.535032  0.671568     86.44  1.000254  1.000030     2.939    18.729     181.9      93.9     294.5     725.5     15.51      0.76     12.19      1.38      0.92      4.15     -2.67     -0.36     -4.52      0.24      1.88     -0.35      4.92      2.98     -0.34     -7.91      0.79      1.13      2.57      0.72
     -58.017887     -95.563377     275.4      3.25      5.83     101.3         2         3      2453      3572    479.24   -13.194      11.9      36.3   325.260     0.662     155.6   0.12052     100.0         H               341.9  0.060450  0.056113  0.002274  4.098135  0.819160  5.002850  1.154297    103.53    9.0079  109.0811   0.18035   6.45210   0.15476   0.00353 178.81407   9.08206     553.1  0.541445  0.001974  0.000179  0.000204  0.236037  7.495023  0.675785     88.18  1.000291  1.000033     3.114    23.706     181.9      92.9     240.4     746.6     15.71      0.48     12.22      0.27      0.80      3.22     -2.40      0.05     -4.30     -0.33      2.19      0.03      4.61      3.31     -0.38     -8.93      0.20      1.13      2.51      2.73
     -58.013248     -95.790764     287.2      3.63      5.83     105.8         3         1      3906      1000    526.98   -12.782      11.9      35.6   327.158     0.674     263.9   0.12673     100.0         H               341.9  0.060665  0.061445  0.001994  4.235405  0.826324  5.125601  1.165592    105.65    9.9070  129.5960   0.19202   6.61747   0.14482   0.00298 209.42140   9.88279     614.2  0.546950  0.003327  0.000456  0.000215  0.243137  7.590192  0.690735     86.52  1.000280  1.000033     3.044    20.126     190.7      93.8     297.2     766.4     15.85      1.03     12.41      0.51      0.75      3.25     -3.32      0.09     -4.79      0.01      2.55     -0.07      4.43      2.97     -0.35     -7.64     -0.51      1.11      2.89      1.73
     -57.990837     -95.697510     281.4      3.58      5.83     109.4         3         2      3906      2286    518.73   -12.851      12.2      35.9   327.964     0.673     210.4   0.12678     100.0         H               341.9  0.061033  0.060328  0.002426  4.193032  0.831023  5.045630  1.164252    118.86    9.7533  125.4436   0.18780   6.59191   0.14601   0.00305 203.76994   9.74790     603.9  0.546667  0.002848  0.000301  0.000213  0.239395  7.545123  0.688353     95.26  1.000282  1.000035     3.182    24.994     190.7      93.7     287.0     840.2     15.87     -0.34     12.62      0.36      1.10      3.09     -2.99      0.31     -4.70     -1.43      2.19      0.77      4.94      2.83     -0.50     -9.01      1.41     -0.19      3.04      1.29
     -57.968567     -95.605209     281.4      3.64      5.83     109.4         3         3      3906      3572    489.08   -13.106      12.0      36.3   328.489     0.676     276.5   0.12645     100.0         H               341.9  0.060205  0.061279  0.002741  4.115840  0.818495  5.028548  1.166777    115.66    9.1879  114.5142   0.19021   6.48258   0.15355   0.00346 185.46434   9.23726     570.6  0.547771  0.003494  0.000486  0.000223  0.247311  7.601784  0.691672     92.47  1.000283  1.000033     3.096    21.170     190.7      93.0     254.5     722.7     16.23     -0.05     13.16     -0.43      1.42      2.31     -2.97      0.17     -5.04     -0.41      2.00      0.70      5.37      2.44     -1.08    -10.04      1.79     -0.43      2.37      1.23
