corner points
-125.5092773    31.48964691
-125.5523224    31.66940689
-125.3029709    31.52510262
-125.3455734    31.70487595
========== RESULTS WAVE VERSION 16.10.2018 ====================
IMAGE SIZE  X: 5471     Y:4925    col:row     POLARIZATION:VV
COVERAGE    X: 19.90917992km       Y: 20.35086192km 
RESOLUTION dX: 3.639038552m       dY:4.132154704m  
resolution of original product 3.639038552m x 4.132154704m;   raster step x:5997.135534m  
===============================================================
FLAGS: H=HIGH PROBABILITY SEA STATE, I=LAND(ISLAND), O=OUTLIER NO SEA STATE, N=NO WIND AVAILABLE, SEA STATE NOT VISIBLE, M=MEAN PROBABILITY SEA STATE, L= LOW PROBABILITY SEA STATE
Filtering wave length
 integration  Lmin=1m
 integration  Lmax=2200m
  peak        Lmin=100m
               FFT=1024pixels, 3726.375477m 
   mean-Hs (SWH_c)=0.5431663132m
         mean-wind=7.504938126m/s
--------------0--------------1---------2---------3---------4---------5---------6---------7---------8---------9--------10--------11--------12--------13--------14--------15--------16--------17--------18--------19------------------20--------21--------22--------23--------24--------25--------26--------27--------28--------29--------30--------31--------32--------33--------34--------35--------36--------37--------38--------39--------40--------41--------42--------43--------44--------45--------46--------47--------48--------49--------50--------51--------52--------53--------54--------55--------56--------57--------58--------59--------60--------61--------62--------63--------64--------65--------66--------67--------68--------69--------70--------71--------72--------73
            LAT            LON  P-LENGHT     SWH_o     SWH_c     P-DIR      LINE     POINT     ROW-Y     COL-X  M-INTENC        dB      WIND INC-ANGLE  ENERGY-M  ENERGY-N  ENERGY-R ENERGY-NN  FG-DEPTH      FLAG         HEADING-DEG    E30-75   E75-390  E390-600 meanincut   meanout   cut/out  STD-NORM  SPEC-MAX   GL-MEAN    GL-VAR      CORR   ENTROPY   HOMOGEN    ENERGY  CONTRAST  DISSIMIL     STD-O    E 1-30 E600-2000   E2000 >      GODA  LONG-HIG     Tmean  CONVOLUT  MEAN-DIR  relation     Sy/Sx  SKEWNESS  KURTOSIS  cutoff-A >50/10000     INT*V   INT-LOG  S-1_g1f1  S-2_g1f2  S-3_g1f3  S-4_g2f1  S-5_g2f2  S-6_g2f3  S-7_g3f1  S-8_g3f2  S-9_g3f3 S-10_g1f4 S-11_g2f4 S-12_g3f4 S-13_g1f5 S-14_g2f5 S-15_g3f5 S-16_g4f1 S-17_g4f2 S-18_g4f3 S-19_g4f4 S-20_g4f5
--------------1--------------2---------3---------4---------5---------6---------7---------8---------9--------10--------11--------12--------13--------14--------15--------16--------17--------18--------19--------20------------------21--------22--------23--------24--------25--------26--------27--------28--------29--------30--------31--------32--------33--------34--------35--------36--------37--------38--------39--------40--------41--------42--------43--------44--------45--------46--------47--------48--------49--------50--------51--------52--------53--------54--------55--------56--------57--------58--------59--------60--------61--------62--------63--------64--------65--------66--------67--------68--------69--------70--------71--------72--------73--------74
      31.532824    -125.479355     284.2      0.54      2.41      66.2         1         1      1000      1000   2624.30    -5.810       7.9      23.7   392.873     0.680      65.1   0.15071     100.0         H               347.2  0.069938  0.038921  0.001121  3.399294  0.891300  3.813862  1.168267     37.21    4.7575   36.8328   0.24463   5.26579   0.25924   0.01246  55.64477   4.86155    3065.9  0.570388  0.000650  0.000015  0.000149  0.201140  7.099121  0.707221     68.99  1.000186  1.000016     3.058    20.817      69.9      84.0      69.7     394.2     13.44      6.83      2.81      0.86     -0.74      1.21     -1.20     -2.31      0.02      4.46      0.59     -0.93     -3.16      0.50      1.47     -6.54     -3.79      0.05     -1.47      1.58
      31.543627    -125.416565     329.5      0.58      2.41      62.1         1         2      1000      2648   2377.65    -6.239       7.8      24.1   396.505     0.688     105.7   0.15364     100.0         H               347.2  0.070587  0.040463  0.001321  3.557357  0.909527  3.911217  1.176625     44.83    4.2662   30.7593   0.24767   5.06650   0.28019   0.01534  46.28207   4.40086    2797.5  0.575013  0.001180  0.000078  0.000152  0.203116  7.112504  0.715219     70.56  1.000183  1.000015     3.049    19.674      73.8      82.0      57.4     330.7     13.81      7.60      4.24      0.51     -2.04      0.93     -1.15     -2.41     -0.16      5.44     -0.12     -1.19     -2.83      1.39      1.18     -7.68     -6.77     -1.68     -3.55      2.90
      31.554207    -125.354904     317.2      0.56      2.41      58.3         1         3      1000      4296   2071.85    -6.836       7.5      24.6   398.160     0.693      78.6   0.15669     100.0         H               347.2  0.072463  0.041935  0.001323  3.620984  0.910249  3.978015  1.181774     65.50    3.6696   23.6451   0.25018   4.79767   0.30915   0.02001  35.45940   3.83429    2448.4  0.576876  0.000807  0.000017  0.000152  0.207169  7.128077  0.720265     66.38  1.000186  1.000018     3.151    21.754      73.8      79.2      43.9     303.4     14.16      7.83      3.06     -0.60     -2.63      1.01     -1.38     -2.10      0.19      4.55     -0.16     -0.86     -3.96      2.08      1.25     -8.87     -7.26     -0.73     -2.85      4.75
      31.585833    -125.492012     224.9      0.58      2.41      64.8         2         1      2452      1000   2523.98    -5.979       7.5      23.7   391.566     0.672      68.3   0.14650      45.2         H               347.2  0.067203  0.040131  0.001118  3.211137  0.906311  3.543086  1.162826     51.91    4.5575   33.6937   0.24198   5.19021   0.26621   0.01335  51.08137   4.66723    2935.0  0.563170  0.000635  0.000018  0.000156  0.210008  7.158619  0.697527     65.07  1.000152  1.000012     3.047    21.096      67.5      83.4      63.8     379.6     13.98      7.95      3.93      0.50     -1.62      1.25     -2.00     -2.69     -0.63      5.82      0.41     -1.96     -3.34      1.19      1.47     -6.88     -6.02     -0.45     -2.33      2.62
      31.596638    -125.429192     317.2      0.59      2.41      58.3         2         2      2452      2648   2293.06    -6.396       7.5      24.1   394.057     0.679      71.5   0.15010     100.0         H               347.2  0.068304  0.041101  0.001069  3.499082  0.912934  3.832786  1.168632     56.12    4.0963   28.2111   0.24456   4.99687   0.28654   0.01624  42.62336   4.23740    2679.8  0.568836  0.000695  0.000019  0.000153  0.210063  7.164971  0.705901     64.13  1.000166  1.000013     3.062    20.347      69.9      81.5      52.9     323.9     13.76      8.11      3.25      0.80     -1.20      1.84     -1.57     -2.60      0.09      4.82      0.97     -0.85     -3.20      1.28      1.71     -6.56     -5.06      0.19     -1.47      2.41
      31.607218    -125.367485     237.3      0.53      2.41      55.9         2         3      2452      4296   2078.84    -6.822       7.5      24.6   396.489     0.687      87.4   0.15334      55.4         H               347.2  0.070528  0.040718  0.001288  3.407949  0.915907  3.720846  1.175033     46.80    3.6744   23.4927   0.24615   4.80206   0.30827   0.01981  35.41956   3.83825    2442.6  0.573692  0.000983  0.000040  0.000153  0.206354  7.125570  0.713253     64.99  1.000169  1.000013     3.152    22.975      72.4      79.3      43.8     327.8     13.89      7.34      3.28      0.44     -1.19      1.58     -1.76     -2.99     -0.06      4.59      0.61     -1.43     -2.90      0.92      1.99     -7.39     -4.71     -0.24     -1.97      1.91
      31.638842    -125.504684     317.2      0.53      2.41      58.3         3         1      3904      1000   2470.99    -6.071       7.3      23.7   391.390     0.672      82.5   0.14705     100.0         H               347.2  0.067344  0.039813  0.001435  3.234366  0.895650  3.611193  1.163657     68.49    4.4556   32.4390   0.24193   5.14971   0.27031   0.01386  49.18205   4.57428    2875.3  0.563235  0.000847  0.000029  0.000152  0.210266  7.144371  0.698190     60.41  1.000148  1.000013     3.019    19.774      67.5      83.0      61.3     346.8     14.31      8.67      3.23     -1.06     -3.17      0.05     -1.53     -2.37      0.28      5.75     -1.13     -1.01     -4.20      1.73      1.19     -9.63     -8.59     -2.64     -5.03      4.31
      31.649649    -125.441818     317.2      0.50      2.41      58.3         3         2      3904      2648   2278.75    -6.423       7.4      24.1   391.467     0.672      89.2   0.14721     100.0         H               347.2  0.067734  0.039220  0.001455  3.208241  0.886593  3.618618  1.163385     44.36    4.0719   27.6779   0.24285   4.98755   0.28709   0.01633  41.91229   4.20814    2651.0  0.563363  0.000899  0.000051  0.000151  0.208738  7.135286  0.697985     63.54  1.000144  1.000011     3.008    19.371      68.7      81.4      52.0     305.4     14.21      8.19      3.26     -0.54     -2.10      0.60     -1.79     -2.72     -0.19      4.99     -0.35     -1.14     -3.27      0.79      1.57     -8.97     -6.77     -1.28     -3.46      2.26
      31.660229    -125.380081     225.3      0.47      2.41      57.8         3         3      3904      4296   1993.97    -7.003       7.2      24.6   391.697     0.672      72.2   0.14675      45.5         H               347.2  0.067802  0.039820  0.001494  3.163282  0.894674  3.535680  1.162234     51.49    3.5004   21.1761   0.24139   4.71985   0.31618   0.02129  32.12887   3.67275    2317.3  0.562912  0.000685  0.000014  0.000154  0.211036  7.158050  0.697820     60.66  1.000160  1.000012     2.978    18.984      69.9      78.6      39.6     269.7     14.24      8.57      3.17     -0.54     -2.43      0.91     -1.80     -2.99     -0.26      4.96     -0.21     -1.66     -4.07      1.57      1.91     -9.30     -7.49     -0.97     -2.87      3.48
