corner points
-123.1277924    20.8795433
-123.1669312    21.05989265
-122.9400101    20.91513062
-122.9788971    21.09547424
========== RESULTS WAVE VERSION 16.10.2018 ====================
IMAGE SIZE  X: 5471     Y:4926    col:row     POLARIZATION:VV
COVERAGE    X: 19.86095km       Y: 20.41279412km 
RESOLUTION dX: 3.630222995m       dY:4.143888373m  
resolution of original product 3.630222995m x 4.143888373m;   raster step x:5997.128387m  
===============================================================
FLAGS: H=HIGH PROBABILITY SEA STATE, I=LAND(ISLAND), O=OUTLIER NO SEA STATE, N=NO WIND AVAILABLE, SEA STATE NOT VISIBLE, M=MEAN PROBABILITY SEA STATE, L= LOW PROBABILITY SEA STATE
Filtering wave length
 integration  Lmin=1m
 integration  Lmax=2200m
  peak        Lmin=100m
               FFT=1024pixels, 3717.348347m 
   mean-Hs (SWH_c)=1.665836792m
         mean-wind=3.39855957m/s
--------------0--------------1---------2---------3---------4---------5---------6---------7---------8---------9--------10--------11--------12--------13--------14--------15--------16--------17--------18--------19------------------20--------21--------22--------23--------24--------25--------26--------27--------28--------29--------30--------31--------32--------33--------34--------35--------36--------37--------38--------39--------40--------41--------42--------43--------44--------45--------46--------47--------48--------49--------50--------51--------52--------53--------54--------55--------56--------57--------58--------59--------60--------61--------62--------63--------64--------65--------66--------67--------68--------69--------70--------71--------72--------73
            LAT            LON  P-LENGHT     SWH_o     SWH_c     P-DIR      LINE     POINT     ROW-Y     COL-X  M-INTENC        dB      WIND INC-ANGLE  ENERGY-M  ENERGY-N  ENERGY-R ENERGY-NN  FG-DEPTH      FLAG         HEADING-DEG    E30-75   E75-390  E390-600 meanincut   meanout   cut/out  STD-NORM  SPEC-MAX   GL-MEAN    GL-VAR      CORR   ENTROPY   HOMOGEN    ENERGY  CONTRAST  DISSIMIL     STD-O    E 1-30 E600-2000   E2000 >      GODA  LONG-HIG     Tmean  CONVOLUT  MEAN-DIR  relation     Sy/Sx  SKEWNESS  KURTOSIS  cutoff-A >50/10000     INT*V   INT-LOG  S-1_g1f1  S-2_g1f2  S-3_g1f3  S-4_g2f1  S-5_g2f2  S-6_g2f3  S-7_g3f1  S-8_g3f2  S-9_g3f3 S-10_g1f4 S-11_g2f4 S-12_g3f4 S-13_g1f5 S-14_g2f5 S-15_g3f5 S-16_g4f1 S-17_g4f2 S-18_g4f3 S-19_g4f4 S-20_g4f5
--------------1--------------2---------3---------4---------5---------6---------7---------8---------9--------10--------11--------12--------13--------14--------15--------16--------17--------18--------19--------20------------------21--------22--------23--------24--------25--------26--------27--------28--------29--------30--------31--------32--------33--------34--------35--------36--------37--------38--------39--------40--------41--------42--------43--------44--------45--------46--------47--------48--------49--------50--------51--------52--------53--------54--------55--------56--------57--------58--------59--------60--------61--------62--------63--------64--------65--------66--------67--------68--------69--------70--------71--------72--------73--------74
      20.922846    -123.100548     281.4      1.45      1.86      37.3         1         1      1000      1000   1151.46    -9.388       3.2      23.8   420.653     0.689     286.8   0.14969     100.0         H               347.7  0.060027  0.071732  0.001975  3.898407  0.943464  4.132013  1.178228     79.70    1.8495    7.2482   0.25404   3.63721   0.46323   0.06481  10.81343   2.06225    1356.7  0.551457  0.004255  0.000261  0.000210  0.231871  7.666001  0.726088    134.02  0.999911  0.999991     2.863    16.757      63.2      63.3      13.9     142.1     12.93      2.06     -6.04     -0.10     -4.18      0.18     -2.96     -1.15      2.63      1.28      1.72     -0.92     -3.12     -0.96      0.94     -7.51     -4.64      2.69      0.78     -0.51
      20.933708    -123.043274     281.9      1.81      1.86      43.0         1         2      1000      2652   1126.37    -9.483       3.5      24.2   436.409     0.727     811.3   0.16521     100.0         H               347.7  0.061432  0.078135  0.002606  4.262893  0.945696  4.507675  1.210913    130.29    1.7812    7.2052   0.27057   3.56340   0.47908   0.07263  10.51152   1.99086    1363.9  0.572465  0.011864  0.001112  0.000220  0.238381  7.724972  0.769043     69.40  0.999936  0.999995     3.028    18.963      68.7      61.4      13.4     150.0     13.44      3.26     -5.42     -1.18     -5.68      0.05     -2.65     -1.21      2.71      0.08      1.83     -0.61     -4.38     -0.23      0.92     -9.53     -7.14      1.91      1.64      0.74
      20.944355    -122.987022     281.4      1.95      1.86      37.3         1         3      1000      4304    918.90   -10.367       3.3      24.7   428.909     0.710     548.8   0.15770     100.0         H               347.7  0.058995  0.078788  0.002499  4.090501  0.968307  4.224385  1.196893    142.15    1.3837    4.6554   0.26039   3.18209   0.53221   0.10105   6.88631   1.59884    1099.8  0.560918  0.008924  0.000530  0.000223  0.240311  7.768178  0.750374     48.91  0.999889  0.999990     2.972    18.219      61.3      55.6       9.0     116.8     13.44      4.62     -6.16     -1.24     -4.65      0.23     -3.30     -1.78      2.46     -0.52      2.40     -0.53     -3.94      0.37      0.94     -8.85     -6.79      2.98      3.26      1.48
      20.975834    -123.112030     281.4      1.55      1.86      37.3         2         1      2447      1000   1180.35    -9.280       3.3      23.8   429.863     0.708     405.8   0.15639     100.0         H               347.7  0.062099  0.074785  0.003187  4.351443  0.927375  4.692215  1.190676    151.16    1.8850    7.6833   0.25958   3.66188   0.46185   0.06452  11.37784   2.09868    1405.3  0.561702  0.006691  0.000354  0.000208  0.240266  7.671607  0.747066     45.28  0.999941  0.999994     2.935    17.657      62.2      63.3      14.5     153.7     13.81      4.99     -5.34     -2.13     -5.39      0.64     -2.42     -1.79      2.14     -1.09      2.23     -0.20     -4.19     -0.07      1.41    -11.44     -7.96      3.20      3.36     -0.32
      20.986694    -123.054733     281.4      1.71      1.86      37.3         2         2      2447      2652   1219.87    -9.137       3.8      24.2   418.308     0.686     201.2   0.14941     100.0         H               347.7  0.059537  0.070447  0.002323  3.756430  0.910571  4.125356  1.173315    135.65    1.9606    7.9417   0.25319   3.73208   0.44941   0.05888  11.86195   2.17026    1431.2  0.551204  0.003073  0.000101  0.000223  0.241242  7.703668  0.722439     61.40  0.999919  0.999992     2.861    16.891      63.2      64.8      15.2     146.6     13.69      4.57     -5.51     -1.64     -5.39      0.40     -2.95     -1.75      2.47     -0.55      2.53     -0.34     -4.80      0.14      1.20     -9.86     -7.23      2.29      2.76      1.84
      20.997341    -122.998466     313.3      1.71      1.86      42.4         2         3      2447      4304    906.28   -10.427       3.2      24.7   429.143     0.708     416.5   0.15633     100.0         H               347.7  0.061324  0.075861  0.003540  4.135984  0.946099  4.371620  1.195448    100.09    1.3790    4.6082   0.25840   3.17868   0.53171   0.10085   6.83488   1.59644    1083.4  0.560855  0.006171  0.000432  0.000209  0.233874  7.705265  0.746848    119.27  0.999877  0.999989     2.986    18.558      63.2      55.6       8.9     115.0     13.15      2.17     -5.43     -0.87     -4.76      0.17     -1.82     -0.55      2.26      1.00      1.39     -1.20     -4.02     -1.05      0.92    -10.66     -6.60      3.11      1.66     -0.38
      21.028820    -123.123520     267.1      1.35      1.86      35.1         3         1      3894      1000   1279.53    -8.930       3.6      23.8   414.838     0.677     222.3   0.14561     100.0         H               347.7  0.060431  0.064934  0.002218  3.975974  0.917621  4.332917  1.168076     94.15    2.0970    8.7879   0.24963   3.84362   0.43280   0.05247  13.18819   2.30349    1494.5  0.546634  0.003324  0.000130  0.000189  0.236039  7.605901  0.711822     46.41  0.999911  0.999992     2.855    17.167      62.2      66.6      16.8     160.7     13.55      4.82     -5.42     -1.28     -4.40      0.57     -2.98     -2.37      2.64     -0.43      1.49      0.10     -4.15     -0.46      1.16     -9.05     -6.62      2.35      1.32      0.17
      21.039682    -123.066200     296.8      1.65      1.86      39.7         3         2      3894      2652   1180.36    -9.280       3.6      24.2   418.496     0.687     285.0   0.14807     100.0         H               347.7  0.059232  0.069378  0.002207  4.037855  0.893804  4.517606  1.175734    137.36    1.9093    7.6138   0.25210   3.68918   0.45535   0.06149  11.38871   2.12216    1387.7  0.552016  0.004096  0.000239  0.000214  0.243220  7.707275  0.722926     49.75  0.999924  0.999994     2.891    17.745      63.2      64.1      14.6     156.8     13.75      4.78     -5.42     -1.61     -5.18      0.48     -3.17     -1.87      2.67      0.24      1.61     -0.88     -4.84      0.58      0.67     -9.30     -7.75      2.43      1.76      2.30
      21.050329    -123.009911     296.0      1.81      1.86      45.8         3         3      3894      4304    854.61   -10.682       3.1      24.7   430.914     0.711     325.6   0.15704     100.0         H               347.7  0.061793  0.078349  0.002654  4.095145  0.964018  4.247999  1.196533    164.32    1.2786    4.1024   0.25701   3.06635   0.54903   0.11188   6.09605   1.49599    1022.6  0.563369  0.004955  0.000263  0.000230  0.240771  7.744131  0.750247     65.25  0.999902  0.999992     3.003    18.915      62.2      53.7       8.0     115.0     13.58      4.10     -4.85     -1.22     -5.24     -0.30     -3.05     -1.41      1.90      1.56      1.20     -1.39     -5.28      0.41      1.70     -9.47     -7.22      2.42      0.96      1.59
