corner points
-117.586853    2.617043018
-117.6232605    2.792455673
-117.412178    2.653970242
-117.4485626    2.829343081
========== RESULTS WAVE VERSION 16.10.2018 ====================
IMAGE SIZE  X: 4376     Y:4790    col:row     POLARIZATION:VV
COVERAGE    X: 19.78720983km       Y: 19.872793km 
RESOLUTION dX: 4.521757275m       dY:4.14880856m  
resolution of original product 4.521757275m x 4.14880856m;   raster step x:5995.850146m  
===============================================================
FLAGS: H=HIGH PROBABILITY SEA STATE, I=LAND(ISLAND), O=OUTLIER NO SEA STATE, N=NO WIND AVAILABLE, SEA STATE NOT VISIBLE, M=MEAN PROBABILITY SEA STATE, L= LOW PROBABILITY SEA STATE
Filtering wave length
 integration  Lmin=1m
 integration  Lmax=2200m
  peak        Lmin=100m
               FFT=1024pixels, 4630.279449m 
   mean-Hs (SWH_c)=0.2m
         mean-wind=9.234156609m/s
--------------0--------------1---------2---------3---------4---------5---------6---------7---------8---------9--------10--------11--------12--------13--------14--------15--------16--------17--------18--------19------------------20--------21--------22--------23--------24--------25--------26--------27--------28--------29--------30--------31--------32--------33--------34--------35--------36--------37--------38--------39--------40--------41--------42--------43--------44--------45--------46--------47--------48--------49--------50--------51--------52--------53--------54--------55--------56--------57--------58--------59--------60--------61--------62--------63--------64--------65--------66--------67--------68--------69--------70--------71--------72--------73
            LAT            LON  P-LENGHT     SWH_o     SWH_c     P-DIR      LINE     POINT     ROW-Y     COL-X  M-INTENC        dB      WIND INC-ANGLE  ENERGY-M  ENERGY-N  ENERGY-R ENERGY-NN  FG-DEPTH      FLAG         HEADING-DEG    E30-75   E75-390  E390-600 meanincut   meanout   cut/out  STD-NORM  SPEC-MAX   GL-MEAN    GL-VAR      CORR   ENTROPY   HOMOGEN    ENERGY  CONTRAST  DISSIMIL     STD-O    E 1-30 E600-2000   E2000 >      GODA  LONG-HIG     Tmean  CONVOLUT  MEAN-DIR  relation     Sy/Sx  SKEWNESS  KURTOSIS  cutoff-A >50/10000     INT*V   INT-LOG  S-1_g1f1  S-2_g1f2  S-3_g1f3  S-4_g2f1  S-5_g2f2  S-6_g2f3  S-7_g3f1  S-8_g3f2  S-9_g3f3 S-10_g1f4 S-11_g2f4 S-12_g3f4 S-13_g1f5 S-14_g2f5 S-15_g3f5 S-16_g4f1 S-17_g4f2 S-18_g4f3 S-19_g4f4 S-20_g4f5
--------------1--------------2---------3---------4---------5---------6---------7---------8---------9--------10--------11--------12--------13--------14--------15--------16--------17--------18--------19--------20------------------21--------22--------23--------24--------25--------26--------27--------28--------29--------30--------31--------32--------33--------34--------35--------36--------37--------38--------39--------40--------41--------42--------43--------44--------45--------46--------47--------48--------49--------50--------51--------52--------53--------54--------55--------56--------57--------58--------59--------60--------61--------62--------63--------64--------65--------66--------67--------68--------69--------70--------71--------72--------73--------74
       2.662205    -117.554092     323.6      0.54      1.85       8.0         1         1      1000      1000    311.08   -15.071       9.2      36.9   215.787     0.547      97.7   0.06741     100.0         H               348.0  0.043604  0.014578  0.000610  1.220248  0.655305  1.862105  1.049378     18.70    5.7338   42.3659   0.09839   5.64794   0.20521   0.00715  76.39516   6.02870     326.4  0.486540  0.001338  0.000221  0.000104  0.179772  6.827117  0.549879     60.99  1.000026  1.000001     2.284    11.393      78.1      88.5      85.9     310.9     12.88      1.68     -4.47     -1.71     -0.85      2.67      0.09     -0.60      0.68     -0.93      1.12      0.20      0.86     -1.69      0.44    -10.84     -0.74      5.34      1.97     -2.34
       2.673432    -117.500977     300.9      0.52      1.85       7.5         1         2      1000      2326    283.12   -15.480       8.9      37.3   216.487     0.547      85.8   0.06656     100.0         H               348.0  0.043217  0.015119  0.000552  1.210773  0.661959  1.829074  1.049950     25.96    5.1792   35.1924   0.09679   5.46171   0.22085   0.00859  63.57239   5.48948     297.2  0.487430  0.001280  0.000183  0.000106  0.182704  6.851438  0.551113     35.91  0.999983  0.999999     2.287    11.418      76.6      87.1      70.8     272.7     12.94      1.92     -5.59     -2.06     -0.94      3.23      0.02     -1.03      0.89     -0.98      1.01      0.47      1.43     -2.06     -0.29    -10.85     -0.25      6.87      1.36     -2.46
       2.684561    -117.448311     300.9      0.52      1.85       7.5         1         3      1000      3652    269.07   -15.701       8.8      37.7   215.604     0.545     100.5   0.06571     100.0         H               348.0  0.042834  0.014612  0.000512  1.177403  0.662313  1.777714  1.048198     23.67    4.8991   31.6719   0.09619   5.36077   0.22947   0.00949  57.25043   5.21214     282.0  0.486076  0.001332  0.000270  0.000107  0.180092  6.820959  0.548969     51.82  0.999948  0.999997     2.283    11.519      78.1      86.2      63.8     284.9     12.83      1.74     -5.70     -1.88     -0.75      3.34      0.12     -0.88      1.07     -1.32      1.00      0.73      1.68     -2.27      0.33    -10.39     -0.31      6.85      1.44     -3.73
       2.715166    -117.565086     302.8      0.55      1.85       3.7         2         1      2446      1000    319.63   -14.953       9.4      36.9   215.864     0.547     105.4   0.06757     100.0         H               348.0  0.043030  0.014558  0.000532  1.187248  0.662021  1.793369  1.049548     19.18    5.9029   44.6775   0.09872   5.70140   0.20074   0.00678  80.53299   6.19344     335.4  0.487183  0.001548  0.000230  0.000103  0.180573  6.839064  0.550186     60.78  0.999993  1.000000     2.293    11.593      78.1      88.8      90.8     322.9     12.59      2.05     -5.24     -1.23     -1.00      3.14      0.11     -0.63      0.62     -1.06      1.36      0.47      1.03     -2.13      0.38     -9.73     -1.23      6.86      2.51     -3.22
       2.726390    -117.511963     297.8      0.54      1.85      11.1         2         2      2446      2326    295.88   -15.289       9.2      37.3   214.829     0.543      78.4   0.06602     100.0         H               348.0  0.042709  0.014576  0.000516  1.185425  0.664550  1.783800  1.046358     19.15    5.4329   38.1099   0.09619   5.54974   0.21324   0.00783  68.88786   5.72788     309.5  0.484717  0.001135  0.000161  0.000103  0.182264  6.843871  0.546932     50.52  1.000007  1.000000     2.271    11.412      78.1      87.9      77.2     307.9     12.78      1.70     -5.09     -1.39     -0.90      2.85     -0.34     -1.22      0.89     -1.01      0.78      0.63      0.44     -1.33      0.41     -9.63      0.19      6.13      0.79     -1.64
       2.737515    -117.459297     300.9      0.55      1.85       7.5         2         3      2446      3652    294.12   -15.315       9.4      37.7   215.537     0.544      63.6   0.06587     100.0         H               348.0  0.042815  0.014605  0.000649  1.177201  0.664066  1.772717  1.046990     22.80    5.3985   37.7402   0.09564   5.53799   0.21377   0.00795  68.26135   5.70400     307.9  0.485428  0.001041  0.000093  0.000107  0.180410  6.833740  0.547759     48.66  1.000001  0.999999     2.269    11.315      79.7      87.6      76.3     291.4     13.05      1.31     -5.25     -2.39     -0.72      3.23      0.35     -0.90      0.63     -1.11      0.85      0.59      1.28     -1.97      0.33    -12.01      0.17      6.67      1.09     -2.84
       2.768128    -117.576073     326.0      0.57      1.85     176.0         3         1      3892      1000    338.04   -14.710       9.8      36.9   214.970     0.546      55.9   0.06882     100.0         H               348.0  0.044279  0.014466  0.000599  1.198100  0.674880  1.775278  1.048233     17.38    6.2698   49.7992   0.10136   5.81243   0.19138   0.00606  89.50314   6.53970     354.4  0.485708  0.000942  0.000069  0.000102  0.178393  6.820764  0.549158     79.99  1.000020  1.000002     2.279    11.325      73.8      89.6     101.9     331.1     12.63      0.65     -4.97     -1.36      0.21      3.25      0.62     -1.01      0.24     -0.18      0.02      0.49      0.67     -1.88      0.58    -10.90      2.01      7.38     -0.60     -2.80
       2.779348    -117.522949     300.9      0.56      1.85       7.5         3         2      3892      2326    309.48   -15.094       9.5      37.3   215.193     0.545      85.1   0.06672     100.0         H               348.0  0.043606  0.014231  0.000555  1.158939  0.670083  1.729547  1.047322     14.80    5.7039   41.7987   0.09769   5.63872   0.20563   0.00719  75.43105   5.99418     324.1  0.485206  0.001378  0.000155  0.000103  0.177304  6.805211  0.548259     70.95  1.000027  1.000001     2.261    11.099      76.6      88.5      84.8     293.6     12.52      1.17     -4.79     -1.39     -0.47      2.48      0.44     -1.01      0.76     -0.76      0.57      0.59      0.24     -0.97      0.38    -10.31      0.89      5.56      0.56     -1.19
       2.790470    -117.470284     297.8      0.54      1.85      11.1         3         3      3892      3652    287.36   -15.416       9.2      37.7   215.991     0.545      62.2   0.06580     100.0         H               348.0  0.043364  0.014079  0.000594  1.185759  0.662501  1.789823  1.047572     13.76    5.2626   36.0599   0.09483   5.49133   0.21786   0.00832  65.28054   5.57374     301.0  0.486099  0.001120  0.000080  0.000103  0.175960  6.806712  0.548236     73.02  1.000032  1.000002     2.272    11.321      76.6      87.3      72.8     286.9     12.60      1.24     -4.52     -1.30     -0.85      2.56      0.36     -0.35      0.20     -0.61      0.71      0.22      0.47     -1.56      0.39    -10.61     -0.67      5.87      1.17     -1.93
