corner points
150.0721436    11.5161972
150.0365906    11.69153976
150.2549896    11.5522337
150.2195587    11.72754383
========== RESULTS WAVE VERSION 16.10.2018 ====================
IMAGE SIZE  X: 4492     Y:4788    col:row     POLARIZATION:VV
COVERAGE    X: 20.27455493km       Y: 19.83050291km 
RESOLUTION dX: 4.513480617m       dY:4.141709046m  
resolution of original product 4.513480617m x 4.141709046m;   raster step x:5998.41574m  
===============================================================
FLAGS: H=HIGH PROBABILITY SEA STATE, I=LAND(ISLAND), O=OUTLIER NO SEA STATE, N=NO WIND AVAILABLE, SEA STATE NOT VISIBLE, M=MEAN PROBABILITY SEA STATE, L= LOW PROBABILITY SEA STATE
Filtering wave length
 integration  Lmin=1m
 integration  Lmax=2200m
  peak        Lmin=100m
               FFT=1024pixels, 4621.804152m 
   mean-Hs (SWH_c)=2.496013947m
         mean-wind=15.18004227m/s
--------------0--------------1---------2---------3---------4---------5---------6---------7---------8---------9--------10--------11--------12--------13--------14--------15--------16--------17--------18--------19------------------20--------21--------22--------23--------24--------25--------26--------27--------28--------29--------30--------31--------32--------33--------34--------35--------36--------37--------38--------39--------40--------41--------42--------43--------44--------45--------46--------47--------48--------49--------50--------51--------52--------53--------54--------55--------56--------57--------58--------59--------60--------61--------62--------63--------64--------65--------66--------67--------68--------69--------70--------71--------72--------73
            LAT            LON  P-LENGHT     SWH_o     SWH_c     P-DIR      LINE     POINT     ROW-Y     COL-X  M-INTENC        dB      WIND INC-ANGLE  ENERGY-M  ENERGY-N  ENERGY-R ENERGY-NN  FG-DEPTH      FLAG         HEADING-DEG    E30-75   E75-390  E390-600 meanincut   meanout   cut/out  STD-NORM  SPEC-MAX   GL-MEAN    GL-VAR      CORR   ENTROPY   HOMOGEN    ENERGY  CONTRAST  DISSIMIL     STD-O    E 1-30 E600-2000   E2000 >      GODA  LONG-HIG     Tmean  CONVOLUT  MEAN-DIR  relation     Sy/Sx  SKEWNESS  KURTOSIS  cutoff-A >50/10000     INT*V   INT-LOG  S-1_g1f1  S-2_g1f2  S-3_g1f3  S-4_g2f1  S-5_g2f2  S-6_g2f3  S-7_g3f1  S-8_g3f2  S-9_g3f3 S-10_g1f4 S-11_g2f4 S-12_g3f4 S-13_g1f5 S-14_g2f5 S-15_g3f5 S-16_g4f1 S-17_g4f2 S-18_g4f3 S-19_g4f4 S-20_g4f5
--------------1--------------2---------3---------4---------5---------6---------7---------8---------9--------10--------11--------12--------13--------14--------15--------16--------17--------18--------19--------20------------------21--------22--------23--------24--------25--------26--------27--------28--------29--------30--------31--------32--------33--------34--------35--------36--------37--------38--------39--------40--------41--------42--------43--------44--------45--------46--------47--------48--------49--------50--------51--------52--------53--------54--------55--------56--------57--------58--------59--------60--------61--------62--------63--------64--------65--------66--------67--------68--------69--------70--------71--------72--------73--------74
      11.560949     150.105896     155.8      2.61      2.60      70.7         1         1      1000      1000    713.18   -11.468      15.5      36.9   228.632     0.623     113.8   0.10376      16.8         H               348.0  0.061308  0.034947  0.000671  3.333683  0.740710  4.500659  1.119915     51.22   13.3891  200.7506   0.15787   7.15059   0.10971   0.00156 338.11639  13.07656     798.6  0.524538  0.001676  0.000213  0.000238  0.179192  7.038669  0.634046     77.32  1.000179  1.000020     2.656    14.836     137.8      96.7     532.0     844.0     11.31      4.41      5.12      6.30      4.65      7.15      3.33      0.90      3.19      5.84      5.80      2.01      0.55      2.15      3.29     -0.89      2.34      5.86      2.75      2.33
      11.571655     150.160202     178.2      2.51      2.60      62.5         1         2      1000      2329    667.27   -11.757      15.3      37.3   228.897     0.619     130.4   0.10124      23.3         H               348.0  0.060366  0.034386  0.000668  3.422992  0.743921  4.601283  1.116601     42.54   12.5688  181.4050   0.15517   7.04943   0.11515   0.00176 306.51428  12.36517     745.1  0.521892  0.001794  0.000270  0.000227  0.180159  7.051106  0.629405     78.84  1.000210  1.000021     2.660    15.062     128.8      96.3     461.3     808.0     11.44      4.28      4.78      6.02      4.45      6.84      2.71      0.34      2.30      5.62      5.51      1.32      0.16      1.77      3.21     -1.29      2.46      6.53      2.77      1.89
      11.582259     150.214066     169.5      2.42      2.60      66.4         1         3      1000      3658    630.41   -12.004      15.0      37.7   227.334     0.614      93.1   0.09937      20.5         H               348.0  0.059990  0.033924  0.000624  3.303538  0.759584  4.349144  1.112177     55.91   11.9013  166.0122   0.15333   6.96036   0.12061   0.00195 281.11774  11.78163     701.1  0.518916  0.001278  0.000160  0.000234  0.182180  7.058014  0.625122     76.22  1.000185  1.000020     2.627    14.668     133.1      95.8     407.5     746.4     11.50      4.68      5.44      6.51      4.19      7.49      2.69      0.45      2.29      5.69      5.91      1.31      0.61      2.18      3.03     -1.01      1.26      6.13      2.66      2.05
      11.613986     150.095154     160.9      2.45      2.60      70.0         2         1      2448      1000    675.64   -11.703      15.1      36.9   229.319     0.623      91.2   0.10239      18.1         H               348.0  0.062768  0.034498  0.000694  3.395117  0.756814  4.486064  1.119827     39.86   12.7110  184.9164   0.15694   7.06732   0.11461   0.00172 311.79260  12.48472     756.6  0.524237  0.001327  0.000154  0.000231  0.180571  7.043596  0.634598     78.01  1.000217  1.000023     2.695    15.536     137.8      96.3     475.5     844.4     11.34      4.31      5.11      6.14      4.47      7.13      3.06      0.75      2.77      5.81      5.76      1.80      0.41      2.24      3.11     -1.05      2.41      6.34      2.75      2.47
      11.624689     150.149475     178.2      2.67      2.60      62.5         2         2      2448      2329    680.96   -11.669      15.4      37.3   229.740     0.623     109.0   0.10313      23.3         H               348.0  0.061029  0.036386  0.000742  3.405445  0.748028  4.552567  1.120033     53.14   12.8147  187.9345   0.15819   7.07934   0.11391   0.00170 316.41003  12.57675     762.7  0.523626  0.001528  0.000207  0.000231  0.183486  7.081890  0.634183     74.90  1.000205  1.000022     2.663    15.078     133.1      96.4     483.4     834.4     11.53      4.74      5.24      6.39      4.44      7.39      2.90      0.35      2.51      5.72      5.77      1.39      0.18      1.86      3.31     -1.41      1.61      6.35      2.50      2.06
      11.635290     150.203339     143.5      2.52      2.60      74.3         2         3      2448      3658    633.28   -11.984      15.1      37.7   227.559     0.618     187.4   0.10194      13.9         H               348.0  0.060183  0.035401  0.000709  3.373798  0.735941  4.584332  1.116062     42.02   11.9458  167.3822   0.15817   6.96489   0.12036   0.00195 281.81104  11.79462     706.8  0.519325  0.002364  0.000470  0.000237  0.180763  7.059040  0.629294     77.40  1.000193  1.000020     2.673    15.465     137.8      95.8     413.2     806.9     11.37      4.51      5.14      6.19      4.76      6.79      3.16      0.68      3.01      5.74      6.02      1.90      0.07      1.65      3.20     -1.16      2.63      5.42      3.21      1.91
      11.667023     150.084412     152.6      2.52      2.60      73.3         3         1      3896      1000    696.23   -11.572      15.3      36.9   229.229     0.622     157.6   0.10293      16.0         H               348.0  0.061143  0.034194  0.000775  3.361085  0.734069  4.578704  1.119725     43.22   13.0852  193.9792   0.15618   7.11359   0.11173   0.00163 327.36871  12.82451     779.6  0.524154  0.001993  0.000465  0.000233  0.179737  7.048547  0.633103     77.44  1.000166  1.000017     2.666    15.193     137.8      96.5     505.8     862.8     11.33      4.18      5.00      6.13      4.43      7.33      3.55      0.95      2.63      5.48      5.56      1.84      0.62      1.92      3.16     -1.92      1.93      6.84      2.75      1.59
      11.677722     150.138733     159.3      2.33      2.60      74.8         3         2      3896      2329    642.65   -11.920      15.0      37.3   227.855     0.615     100.9   0.09865      17.7         H               348.0  0.060934  0.032934  0.000620  3.412485  0.737418  4.627614  1.113042     33.36   12.1280  170.8452   0.15207   6.99303   0.11840   0.00188 289.72870  11.98643     715.2  0.519466  0.001305  0.000227  0.000220  0.181464  7.032073  0.625645     79.21  1.000188  1.000018     2.664    15.410     133.1      96.0     425.3     807.8     11.33      3.98      4.63      6.10      4.47      7.21      3.01      0.56      2.75      5.25      5.32      1.86      0.29      2.06      3.32     -0.84      2.73      7.00      2.50      2.13
      11.688320     150.192612     181.6      2.45      2.60      64.6         3         3      3896      3658    627.59   -12.023      15.0      37.7   228.169     0.617     111.0   0.10033      24.4         H               348.0  0.059743  0.034376  0.000681  3.332791  0.729668  4.567544  1.114769     41.36   11.8464  165.4956   0.15409   6.95099   0.12113   0.00198 279.98853  11.73951     699.6  0.521095  0.001527  0.000227  0.000227  0.183948  7.073049  0.627725     76.33  1.000177  1.000018     2.640    14.911     133.1      95.8     405.1     768.0     11.29      4.81      5.19      6.63      4.60      7.47      3.23      0.52      3.00      5.87      5.92      1.87      0.18      1.99      3.60     -0.66      2.02      6.68      2.85      2.10
