corner points
149.3271332    6.746158123
149.2896576    6.926962376
149.5105438    6.784375668
149.4731293    6.965155125
========== RESULTS WAVE VERSION 16.10.2018 ====================
IMAGE SIZE  X: 5683     Y:4929    col:row     POLARIZATION:VV
COVERAGE    X: 20.64635735km       Y: 20.47788087km 
RESOLUTION dX: 3.63300323m       dY:4.154571084m  
resolution of original product 3.63300323m x 4.154571084m;   raster step x:5998.088332m  
===============================================================
FLAGS: H=HIGH PROBABILITY SEA STATE, I=LAND(ISLAND), O=OUTLIER NO SEA STATE, N=NO WIND AVAILABLE, SEA STATE NOT VISIBLE, M=MEAN PROBABILITY SEA STATE, L= LOW PROBABILITY SEA STATE
Filtering wave length
 integration  Lmin=1m
 integration  Lmax=2200m
  peak        Lmin=100m
               FFT=1024pixels, 3720.195307m 
   mean-Hs (SWH_c)=0.9460969543m
         mean-wind=8.798353195m/s
--------------0--------------1---------2---------3---------4---------5---------6---------7---------8---------9--------10--------11--------12--------13--------14--------15--------16--------17--------18--------19------------------20--------21--------22--------23--------24--------25--------26--------27--------28--------29--------30--------31--------32--------33--------34--------35--------36--------37--------38--------39--------40--------41--------42--------43--------44--------45--------46--------47--------48--------49--------50--------51--------52--------53--------54--------55--------56--------57--------58--------59--------60--------61--------62--------63--------64--------65--------66--------67--------68--------69--------70--------71--------72--------73
            LAT            LON  P-LENGHT     SWH_o     SWH_c     P-DIR      LINE     POINT     ROW-Y     COL-X  M-INTENC        dB      WIND INC-ANGLE  ENERGY-M  ENERGY-N  ENERGY-R ENERGY-NN  FG-DEPTH      FLAG         HEADING-DEG    E30-75   E75-390  E390-600 meanincut   meanout   cut/out  STD-NORM  SPEC-MAX   GL-MEAN    GL-VAR      CORR   ENTROPY   HOMOGEN    ENERGY  CONTRAST  DISSIMIL     STD-O    E 1-30 E600-2000   E2000 >      GODA  LONG-HIG     Tmean  CONVOLUT  MEAN-DIR  relation     Sy/Sx  SKEWNESS  KURTOSIS  cutoff-A >50/10000     INT*V   INT-LOG  S-1_g1f1  S-2_g1f2  S-3_g1f3  S-4_g2f1  S-5_g2f2  S-6_g2f3  S-7_g3f1  S-8_g3f2  S-9_g3f3 S-10_g1f4 S-11_g2f4 S-12_g3f4 S-13_g1f5 S-14_g2f5 S-15_g3f5 S-16_g4f1 S-17_g4f2 S-18_g4f3 S-19_g4f4 S-20_g4f5
--------------1--------------2---------3---------4---------5---------6---------7---------8---------9--------10--------11--------12--------13--------14--------15--------16--------17--------18--------19--------20------------------21--------22--------23--------24--------25--------26--------27--------28--------29--------30--------31--------32--------33--------34--------35--------36--------37--------38--------39--------40--------41--------42--------43--------44--------45--------46--------47--------48--------49--------50--------51--------52--------53--------54--------55--------56--------57--------58--------59--------60--------61--------62--------63--------64--------65--------66--------67--------68--------69--------70--------71--------72--------73--------74
       6.789752     149.352646     149.2      1.01      2.26     112.7         1         1      1000      1000   2996.79    -5.233       9.4      23.7   465.341     0.819     144.9   0.20918      15.2         H               348.0  0.108790  0.054883  0.001089  5.453799  0.981842  5.554659  1.283107     52.85    5.4567   54.2536   0.29296   5.47595   0.24846   0.01127  76.71866   5.52261    3844.8  0.652567  0.001901  0.000147  0.000269  0.172737  6.935474  0.867077     89.11  1.000239  1.000034     3.962    37.358     107.8      84.8     103.3     602.7     11.36      0.79      4.35      6.24      0.26      7.12      3.55      0.11      3.62      1.06      0.91     -0.14      0.83      1.59      1.95     -1.07     -0.52      5.79      0.59      1.17
       6.800980     149.406509     151.2      0.96      2.26      69.2         1         2      1000      2651   2583.94    -5.877       8.8      24.2   460.376     0.798      87.7   0.19707      15.7         H               348.0  0.103994  0.055153  0.000988  5.434751  0.962471  5.646664  1.264215     67.01    4.6593   40.4568   0.28442   5.19600   0.27510   0.01468  57.89925   4.77564    3266.4  0.637004  0.001095  0.000038  0.000257  0.177807  6.983174  0.843454     82.16  1.000228  1.000031     3.830    35.379     105.0      82.3      75.1     508.1     11.59      1.80      4.86      6.62      1.94      7.28      2.80      0.56      3.22      2.68      2.92      0.78      0.44      1.49      1.68     -0.67      0.55      5.32      1.28      1.43
       6.811998     149.459412     156.3      0.99      2.26      75.1         1         3      1000      4302   2367.69    -6.257       9.0      24.7   456.337     0.786      78.2   0.19308      16.9         H               348.0  0.099594  0.054744  0.001020  5.201849  0.947108  5.492350  1.258193     64.48    4.2530   34.2526   0.28159   5.03466   0.29097   0.01713  49.21453   4.39729    2978.9  0.630578  0.000945  0.000026  0.000255  0.182976  7.015331  0.830543     83.40  1.000234  1.000030     3.696    30.294     107.8      80.7      62.6     426.2     11.63      1.45      4.74      6.41      1.71      7.59      2.91      0.34      3.61      2.50      2.66      0.50      0.80      2.24      2.06     -0.77      0.75      5.71      1.60      2.08
       6.842731     149.341675     165.9      0.95      2.26      69.5         2         1      2444      1000   2811.99    -5.510       8.7      23.7   469.312     0.828      97.1   0.21230      19.5         H               348.0  0.113115  0.057042  0.000931  5.705990  0.966990  5.900774  1.287509     55.43    5.1176   49.1923   0.29477   5.35590   0.26069   0.01282  69.38322   5.21314    3620.0  0.655903  0.001271  0.000049  0.000268  0.173367  6.925109  0.877196     88.34  1.000239  1.000035     3.863    33.015     110.8      83.5      92.1     533.8     11.48      1.74      4.58      6.44      0.95      6.91      2.85     -0.45      3.35      1.79      1.95     -0.66      0.09      1.66      1.84     -0.51     -0.49      5.00      0.89      2.09
       6.853955     149.395538     170.4      0.99      2.26      66.4         2         2      2444      2651   2576.08    -5.890       8.8      24.2   465.168     0.814      87.7   0.20614      20.8         H               348.0  0.107274  0.056801  0.001035  5.443756  0.972791  5.596020  1.277578     57.51    4.6452   40.9588   0.28924   5.18617   0.27620   0.01498  58.22355   4.77218    3290.8  0.648245  0.001068  0.000038  0.000255  0.180039  6.961365  0.861271     86.77  1.000244  1.000035     3.897    35.011     107.8      82.1      75.8     499.1     11.61      1.50      4.27      6.15      1.11      6.89      2.63     -0.30      3.14      1.73      1.32     -0.49      0.15      1.41      1.77     -1.00     -0.34      5.62     -0.11      1.79
       6.864972     149.448456     154.9      0.77      2.26     113.6         2         3      2444      4302   2249.94    -6.478       8.4      24.7   456.067     0.792      73.0   0.19739      16.6         H               348.0  0.100711  0.051510  0.000943  5.297660  0.964646  5.491820  1.260859     44.43    4.0124   31.0843   0.28351   4.92990   0.30199   0.01895  44.54348   4.16936    2836.8  0.638125  0.000868  0.000023  0.000231  0.180190  6.987876  0.835647     89.54  1.000243  1.000032     3.799    34.491     105.0      79.7      56.6     440.1     11.63      0.77      4.02      5.98      0.83      6.67      2.46     -0.53      3.00      1.12      0.64     -0.55     -0.17      1.19      1.96     -0.98      0.36      5.38      0.14      1.59
       6.895708     149.330688     136.9      1.04      2.26     106.8         3         1      3888      1000   2981.10    -5.256       9.4      23.7   463.020     0.815     107.2   0.20829      12.5         H               348.0  0.109942  0.056112  0.000946  5.753941  0.971213  5.924489  1.280247     44.51    5.4478   54.0958   0.29232   5.47302   0.24929   0.01134  76.56477   5.51585    3816.0  0.646987  0.001434  0.000073  0.000258  0.175205  6.948158  0.863113     90.55  1.000245  1.000036     3.821    32.258     114.0      84.7     102.7     548.0     11.21      1.34      4.40      6.40      0.33      6.97      3.43     -0.85      4.30      0.69      0.68     -0.89      0.30      2.15      2.76      0.10     -0.74      5.86     -0.07      2.48
       6.906931     149.384567     165.9      1.05      2.26      78.8         3         2      3888      2651   2534.34    -5.961       8.6      24.2   466.212     0.819     104.7   0.20784      19.5         H               348.0  0.106086  0.058571  0.000971  6.003083  0.965305  6.218847  1.280861     50.80    4.5681   40.2665   0.29092   5.15303   0.28052   0.01556  57.10416   4.70017    3246.0  0.652546  0.001327  0.000065  0.000245  0.177193  6.994348  0.866854     89.42  1.000237  1.000035     3.750    29.997     110.8      81.7      73.8     458.9     11.41      1.34      4.27      6.17      0.60      7.20      3.06     -0.58      3.60      1.16      0.93     -0.45      0.94      1.92      2.36     -0.56     -0.28      6.12      0.24      1.41
       6.917945     149.437485     168.1      0.75      2.26      71.6         3         3      3888      4302   2172.08    -6.631       8.1      24.7   459.212     0.799      67.5   0.19959      20.1         H               348.0  0.104039  0.053045  0.001150  5.559031  0.970578  5.727547  1.268397     42.79    3.8623   29.3458   0.28434   4.86028   0.30989   0.02037  42.00219   4.03091    2755.0  0.640370  0.000724  0.000015  0.000234  0.177637  6.969869  0.843702     88.69  1.000240  1.000033     3.807    32.645     107.8      78.9      53.1     396.9     11.60      0.83      4.26      5.79      0.99      6.91      2.88     -0.09      3.14      1.21      0.91     -0.28      0.35      2.19      2.70     -1.64     -0.01      6.08     -0.14      2.23
