corner points
150.4316254    9.74544239
150.3960266    9.92065239
150.6133881    9.781826973
150.5778809    9.95700264
========== RESULTS WAVE VERSION 16.10.2018 ====================
IMAGE SIZE  X: 4492     Y:4784    col:row     POLARIZATION:VV
COVERAGE    X: 20.27897999km       Y: 19.82170435km 
RESOLUTION dX: 4.514465715m       dY:4.143332849m  
resolution of original product 4.514465715m x 4.143332849m;   raster step x:5999.724935m  
===============================================================
FLAGS: H=HIGH PROBABILITY SEA STATE, I=LAND(ISLAND), O=OUTLIER NO SEA STATE, N=NO WIND AVAILABLE, SEA STATE NOT VISIBLE, M=MEAN PROBABILITY SEA STATE, L= LOW PROBABILITY SEA STATE
Filtering wave length
 integration  Lmin=1m
 integration  Lmax=2200m
  peak        Lmin=100m
               FFT=1024pixels, 4622.812892m 
   mean-Hs (SWH_c)=2.811151733m
         mean-wind=16.12983704m/s
--------------0--------------1---------2---------3---------4---------5---------6---------7---------8---------9--------10--------11--------12--------13--------14--------15--------16--------17--------18--------19------------------20--------21--------22--------23--------24--------25--------26--------27--------28--------29--------30--------31--------32--------33--------34--------35--------36--------37--------38--------39--------40--------41--------42--------43--------44--------45--------46--------47--------48--------49--------50--------51--------52--------53--------54--------55--------56--------57--------58--------59--------60--------61--------62--------63--------64--------65--------66--------67--------68--------69--------70--------71--------72--------73
            LAT            LON  P-LENGHT     SWH_o     SWH_c     P-DIR      LINE     POINT     ROW-Y     COL-X  M-INTENC        dB      WIND INC-ANGLE  ENERGY-M  ENERGY-N  ENERGY-R ENERGY-NN  FG-DEPTH      FLAG         HEADING-DEG    E30-75   E75-390  E390-600 meanincut   meanout   cut/out  STD-NORM  SPEC-MAX   GL-MEAN    GL-VAR      CORR   ENTROPY   HOMOGEN    ENERGY  CONTRAST  DISSIMIL     STD-O    E 1-30 E600-2000   E2000 >      GODA  LONG-HIG     Tmean  CONVOLUT  MEAN-DIR  relation     Sy/Sx  SKEWNESS  KURTOSIS  cutoff-A >50/10000     INT*V   INT-LOG  S-1_g1f1  S-2_g1f2  S-3_g1f3  S-4_g2f1  S-5_g2f2  S-6_g2f3  S-7_g3f1  S-8_g3f2  S-9_g3f3 S-10_g1f4 S-11_g2f4 S-12_g3f4 S-13_g1f5 S-14_g2f5 S-15_g3f5 S-16_g4f1 S-17_g4f2 S-18_g4f3 S-19_g4f4 S-20_g4f5
--------------1--------------2---------3---------4---------5---------6---------7---------8---------9--------10--------11--------12--------13--------14--------15--------16--------17--------18--------19--------20------------------21--------22--------23--------24--------25--------26--------27--------28--------29--------30--------31--------32--------33--------34--------35--------36--------37--------38--------39--------40--------41--------42--------43--------44--------45--------46--------47--------48--------49--------50--------51--------52--------53--------54--------55--------56--------57--------58--------59--------60--------61--------62--------63--------64--------65--------66--------67--------68--------69--------70--------71--------72--------73--------74
       9.790275     150.465118     141.5      2.76      2.72      78.5         1         1      1000      1000    783.93   -11.057      16.3      36.9   229.095     0.623     110.1   0.10327      13.5         H               348.0  0.061905  0.034572  0.000648  3.450230  0.741931  4.650338  1.119626     40.39   14.6314  228.2025   0.15380   7.28746   0.10144   0.00130 386.20947  14.14078     877.7  0.524419  0.001457  0.000231  0.000226  0.176775  7.039165  0.633519     79.87  1.000212  1.000022     2.702    15.809     137.8      97.4     647.8     955.1     11.02      2.62      4.93      6.12      3.74      7.54      4.30      1.40      4.02      4.26      5.08      2.10      1.40      3.55      3.58     -0.45      2.50      7.06      3.43      3.65
       9.801083     150.519104     146.5      2.70      2.72      71.9         1         2      1000      2329    710.64   -11.483      15.8      37.3   228.446     0.619      94.6   0.10214      14.6         H               348.0  0.060744  0.035543  0.000741  3.317730  0.756183  4.387471  1.116634     44.97   13.3528  199.1604   0.15430   7.14797   0.10976   0.00155 336.85913  13.05045     793.5  0.521195  0.001432  0.000152  0.000227  0.181593  7.068713  0.630254     75.77  1.000175  1.000017     2.668    15.331     133.1      96.8     526.1     868.8     11.35      3.90      5.23      6.48      4.25      8.02      3.73      1.21      2.99      5.60      5.77      1.95      1.59      2.40      3.12     -1.44      1.84      7.15      2.73      1.54
       9.811790     150.572647     166.4      2.79      2.72      69.3         1         3      1000      3658    701.32   -11.541      15.9      37.7   229.911     0.627     111.3   0.10463      19.6         H               348.0  0.061975  0.037153  0.000757  3.534588  0.759026  4.656744  1.123574     53.11   13.1694  196.3713   0.16034   7.12259   0.11177   0.00162 329.76788  12.87718     787.9  0.525790  0.001664  0.000220  0.000240  0.180481  7.069309  0.639240     77.99  1.000179  1.000019     2.689    15.452     137.8      96.6     515.5     860.4     11.19      3.09      5.34      6.42      4.11      8.20      4.29      1.54      3.70      4.98      5.54      2.11      1.64      3.32      3.70     -1.13      2.30      7.66      3.12      2.66
       9.843315     150.454346     169.5      2.87      2.72      66.5         2         1      2448      1000    783.25   -11.061      16.3      36.9   228.667     0.624     109.9   0.10470      20.6         H               348.0  0.061847  0.036293  0.000665  3.301649  0.761578  4.335273  1.120771     59.34   14.6148  227.9862   0.15848   7.28447   0.10213   0.00131 383.71234  14.08491     877.8  0.523780  0.001497  0.000229  0.000242  0.180849  7.064941  0.635458     76.33  1.000181  1.000019     2.696    15.562     137.8      97.4     647.1     951.6     10.93      3.39      5.50      6.92      4.35      8.31      4.36      1.71      3.84      5.33      6.23      2.63      1.84      3.28      3.86      0.04      2.51      7.67      3.87      2.26
       9.854120     150.508347     158.8      2.75      2.72      68.0         2         2      2448      2329    730.55   -11.364      16.0      37.3   228.175     0.619      82.5   0.10176      17.6         H               348.0  0.060432  0.035484  0.000741  3.491596  0.748210  4.666600  1.116216     53.26   13.7058  207.0278   0.15467   7.18946   0.10747   0.00147 350.01291  13.34743     815.4  0.521587  0.001203  0.000125  0.000223  0.179187  7.051189  0.630131     76.64  1.000192  1.000019     2.643    14.754     133.1      97.0     557.5     866.9     11.37      3.01      5.09      5.95      3.84      7.53      3.80      1.16      3.20      4.70      5.30      1.50      1.14      3.26      2.91     -1.67      1.88      6.64      3.22      3.17
       9.864824     150.561890     142.4      2.77      2.72      80.3         2         3      2448      3658    705.39   -11.516      15.9      37.7   229.020     0.626     100.2   0.10507      13.7         H               348.0  0.062631  0.036831  0.000851  3.493013  0.750551  4.653930  1.122311     43.77   13.2431  197.2223   0.15895   7.13190   0.11088   0.00159 331.74640  12.93439     791.6  0.524220  0.001504  0.000166  0.000246  0.178910  7.058385  0.637643     80.02  1.000211  1.000023     2.720    16.054     142.7      96.7     520.8     884.1     11.17      3.12      5.39      6.40      3.63      8.51      4.72      1.55      4.13      4.66      5.47      2.52      2.19      4.05      3.84     -1.50      2.05      7.98      3.52      2.90
       9.896356     150.443573     159.3      2.92      2.72      74.8         3         1      3896      1000    791.50   -11.015      16.4      36.9   230.193     0.630     109.6   0.10637      17.7         H               348.0  0.063227  0.037235  0.000667  3.442798  0.766664  4.490622  1.126207     49.20   14.7463  232.1019   0.15984   7.29476   0.10171   0.00129 390.00589  14.19921     891.3  0.527481  0.001528  0.000206  0.000243  0.180594  7.041464  0.642205     78.60  1.000199  1.000022     2.733    16.092     142.7      97.5     665.2     969.9     11.04      3.21      5.39      6.57      4.23      7.87      4.14      1.73      4.20      4.82      5.93      2.88      1.45      3.34      3.76      0.01      2.78      6.82      3.88      2.75
       9.907158     150.497589     158.8      2.96      2.72      68.0         3         2      3896      2329    768.73   -11.142      16.4      37.3   229.843     0.629     100.2   0.10533      17.6         H               348.0  0.061572  0.037422  0.000666  3.375314  0.746629  4.520741  1.125100     58.34   14.3559  222.8082   0.15865   7.25645   0.10393   0.00135 374.91989  13.87610     864.8  0.527924  0.001458  0.000170  0.000245  0.182541  7.077895  0.640817     76.30  1.000185  1.000020     2.724    15.912     137.8      97.4     624.9     944.3     11.11      3.44      5.58      6.97      4.24      8.19      4.20      1.61      3.96      4.99      5.89      2.26      1.59      3.28      3.25     -0.01      2.27      6.64      3.62      2.78
       9.917859     150.551132     160.9      2.78      2.72      70.0         3         3      3896      3658    724.82   -11.398      16.2      37.7   228.504     0.622     117.9   0.10296      18.2         H               348.0  0.061943  0.035964  0.000869  3.438265  0.741277  4.638302  1.119372     46.49   13.5956  204.5851   0.15766   7.17496   0.10821   0.00150 344.66138  13.23250     811.3  0.521849  0.001845  0.000195  0.000235  0.179014  7.059971  0.633977     77.37  1.000180  1.000019     2.686    15.387     137.8      96.9     549.8     883.4     11.13      2.92      5.18      6.46      4.37      8.11      4.60      1.20      3.63      4.64      5.64      2.60      1.39      2.90      3.38     -1.56      4.03      7.67      3.58      1.96
