corner points
147.1917114    25.67088127
147.1552887    25.84562874
147.391037    25.70458412
147.3549194    25.87930679
========== RESULTS WAVE VERSION 16.10.2018 ====================
IMAGE SIZE  X: 4492     Y:4781    col:row     POLARIZATION:VV
COVERAGE    X: 20.27691276km       Y: 19.72196968km 
RESOLUTION dX: 4.514005511m       dY:4.125072094m  
resolution of original product 4.514005511m x 4.125072094m;   raster step x:5999.113324m  
===============================================================
FLAGS: H=HIGH PROBABILITY SEA STATE, I=LAND(ISLAND), O=OUTLIER NO SEA STATE, N=NO WIND AVAILABLE, SEA STATE NOT VISIBLE, M=MEAN PROBABILITY SEA STATE, L= LOW PROBABILITY SEA STATE
Filtering wave length
 integration  Lmin=1m
 integration  Lmax=2200m
  peak        Lmin=100m
               FFT=1024pixels, 4622.341643m 
   mean-Hs (SWH_c)=1.067818298m
         mean-wind=7.843827248m/s
--------------0--------------1---------2---------3---------4---------5---------6---------7---------8---------9--------10--------11--------12--------13--------14--------15--------16--------17--------18--------19------------------20--------21--------22--------23--------24--------25--------26--------27--------28--------29--------30--------31--------32--------33--------34--------35--------36--------37--------38--------39--------40--------41--------42--------43--------44--------45--------46--------47--------48--------49--------50--------51--------52--------53--------54--------55--------56--------57--------58--------59--------60--------61--------62--------63--------64--------65--------66--------67--------68--------69--------70--------71--------72--------73
            LAT            LON  P-LENGHT     SWH_o     SWH_c     P-DIR      LINE     POINT     ROW-Y     COL-X  M-INTENC        dB      WIND INC-ANGLE  ENERGY-M  ENERGY-N  ENERGY-R ENERGY-NN  FG-DEPTH      FLAG         HEADING-DEG    E30-75   E75-390  E390-600 meanincut   meanout   cut/out  STD-NORM  SPEC-MAX   GL-MEAN    GL-VAR      CORR   ENTROPY   HOMOGEN    ENERGY  CONTRAST  DISSIMIL     STD-O    E 1-30 E600-2000   E2000 >      GODA  LONG-HIG     Tmean  CONVOLUT  MEAN-DIR  relation     Sy/Sx  SKEWNESS  KURTOSIS  cutoff-A >50/10000     INT*V   INT-LOG  S-1_g1f1  S-2_g1f2  S-3_g1f3  S-4_g2f1  S-5_g2f2  S-6_g2f3  S-7_g3f1  S-8_g3f2  S-9_g3f3 S-10_g1f4 S-11_g2f4 S-12_g3f4 S-13_g1f5 S-14_g2f5 S-15_g3f5 S-16_g4f1 S-17_g4f2 S-18_g4f3 S-19_g4f4 S-20_g4f5
--------------1--------------2---------3---------4---------5---------6---------7---------8---------9--------10--------11--------12--------13--------14--------15--------16--------17--------18--------19--------20------------------21--------22--------23--------24--------25--------26--------27--------28--------29--------30--------31--------32--------33--------34--------35--------36--------37--------38--------39--------40--------41--------42--------43--------44--------45--------46--------47--------48--------49--------50--------51--------52--------53--------54--------55--------56--------57--------58--------59--------60--------61--------62--------63--------64--------65--------66--------67--------68--------69--------70--------71--------72--------73--------74
      25.715052     147.228973     240.3      0.95      3.53      51.3         1         1      1000      1000    240.62   -16.187       7.5      36.9   236.979     0.597     124.7   0.08309      58.5         H               347.6  0.050174  0.031419  0.000955  2.774430  0.691070  4.014686  1.096414     43.46    4.3311   27.6571   0.12836   5.12929   0.25613   0.01265  48.21346   4.67190     263.8  0.512757  0.001679  0.000232  0.000144  0.213297  7.197993  0.603433     58.88  1.000226  1.000014     2.595    14.682     128.8      83.4      54.0     281.3     14.03      5.56      3.13      0.75      0.60      3.83     -2.17     -4.01     -0.05      3.50      0.64     -1.50     -2.52      1.22      3.68     -6.62      0.48      3.15     -0.31      1.33
      25.725071     147.288193     246.0      0.92      3.53      58.4         1         2      1000      2329    228.45   -16.412       7.5      37.3   236.338     0.592     104.2   0.08059      65.5         H               347.6  0.048359  0.030470  0.000958  2.626616  0.681204  3.855843  1.091963     44.26    4.0908   24.7239   0.12197   5.02848   0.26596   0.01385  43.41638   4.43487     249.4  0.510840  0.001487  0.000173  0.000143  0.216759  7.225896  0.597353     60.95  1.000199  1.000012     2.568    14.477     124.8      82.7      48.4     273.3     14.27      5.03      3.42      0.29      1.07      3.47     -2.36     -3.31     -0.47      5.31      0.21     -2.10     -2.07      0.80      3.14     -7.08      0.76      2.97     -1.09      0.80
      25.734980     147.346924     246.0      1.04      3.53      58.4         1         3      1000      3658    229.36   -16.395       7.8      37.7   237.681     0.596     140.2   0.08156      65.5         H               347.6  0.048426  0.031589  0.000983  2.598215  0.683601  3.800778  1.095186     55.24    4.1078   25.0907   0.12433   5.03512   0.26520   0.01384  43.94228   4.45560     251.2  0.512766  0.002062  0.000254  0.000150  0.219645  7.233949  0.601856     58.80  1.000152  1.000010     2.582    14.421     128.8      82.6      48.9     254.4     14.43      6.02      2.71     -0.07      0.44      4.10     -2.49     -3.81     -0.40      5.09      0.34     -2.12     -2.69      1.26      3.54     -7.37     -0.33      4.47     -0.91      1.51
      25.768206     147.217926     221.9      1.05      3.53      54.7         2         1      2454      1000    257.00   -15.901       7.9      36.9   236.568     0.598     123.0   0.08558      43.2         H               347.6  0.050378  0.031833  0.000965  2.673808  0.701008  3.814232  1.097762     51.80    4.6567   31.5655   0.13176   5.25936   0.24362   0.01113  54.81254   4.99010     282.1  0.513355  0.001941  0.000191  0.000152  0.215749  7.199446  0.604700     59.29  1.000212  1.000015     2.625    15.482     128.8      84.6      61.7     327.9     14.28      6.47      3.85      0.58      0.98      3.24     -2.50     -3.91     -0.59      5.37      1.01     -2.22     -3.45      1.27      3.82     -6.90     -0.11      2.12     -0.47      1.50
      25.778223     147.277161     246.0      1.19      3.53      58.4         2         2      2454      2329    238.84   -16.219       7.8      37.3   239.637     0.607     210.3   0.08709      65.5         H               347.6  0.050203  0.034048  0.001245  2.758174  0.705242  3.910961  1.105948     64.45    4.2981   27.6540   0.13352   5.11372   0.25904   0.01294  47.92286   4.63431     264.1  0.518410  0.002736  0.000485  0.000162  0.222857  7.278239  0.613977     58.99  1.000186  1.000012     2.690    16.198     133.1      83.4      53.8     296.6     14.69      6.48      4.55      0.09      1.19      2.95     -2.87     -4.21     -1.12      6.11      0.60     -2.52     -3.48      1.09      3.67     -7.94      0.47      1.76     -1.60      1.58
      25.788130     147.335922     246.0      1.30      3.53      58.4         2         3      2454      3658    226.85   -16.443       7.7      37.7   239.193     0.604     153.6   0.08547      65.5         H               347.6  0.049151  0.035410  0.001000  2.676125  0.685215  3.905525  1.103120     81.10    4.0586   24.8790   0.13115   5.01169   0.26883   0.01431  43.23216   4.40408     250.2  0.516549  0.002138  0.000288  0.000183  0.229325  7.333188  0.611377     59.33  1.000184  1.000012     2.631    15.156     137.8      82.3      48.3     276.0     14.99      7.75      5.00      0.02      0.23      3.01     -4.12     -5.52     -2.16      6.85      0.16     -3.82     -3.82      1.42      3.99     -6.73      0.32      2.54     -1.25      1.25
      25.821358     147.206863     219.4      1.06      3.53      58.7         3         1      3908      1000    255.62   -15.924       7.9      36.9   240.523     0.613     135.6   0.09043      41.6         H               347.6  0.053390  0.032939  0.001177  2.834286  0.713028  3.974998  1.111102     54.19    4.6289   31.9218   0.13700   5.24596   0.24596   0.01138  55.09660   4.97149     284.0  0.523668  0.002027  0.000229  0.000159  0.212032  7.187057  0.620069     64.87  1.000274  1.000020     2.752    17.340     137.8      84.4      62.1     349.0     14.46      6.57      5.32      0.55      0.87      3.06     -2.34     -4.07     -1.61      6.25      1.06     -2.97     -1.74      0.97      2.79     -7.84     -0.48      1.73     -1.02      1.11
      25.831373     147.266144     270.0      1.14      3.53      54.9         3         2      3908      2329    252.50   -15.977       8.1      37.3   242.062     0.621     127.8   0.09364     100.0         H               347.6  0.055143  0.034117  0.001282  2.910651  0.713940  4.076885  1.117998     58.54    4.5679   31.4679   0.14157   5.22062   0.24940   0.01175  54.02603   4.90526     282.3  0.528608  0.002013  0.000188  0.000164  0.213624  7.195745  0.628622     62.35  1.000273  1.000019     2.797    17.856     137.8      84.2      60.9     345.5     14.44      6.40      5.01      0.28      0.74      3.29     -2.08     -3.97     -1.60      5.72      1.17     -2.79     -2.52      1.29      3.29     -8.29     -0.06      2.59     -0.25      1.50
      25.841278     147.324905     230.9      0.96      3.53      64.1         3         3      3908      3658    250.82   -16.006       8.3      37.7   239.789     0.614     133.5   0.09119      49.8         H               347.6  0.054776  0.031111  0.001308  2.702969  0.724398  3.731331  1.111822     49.58    4.5347   30.7927   0.13869   5.20867   0.25009   0.01183  53.04343   4.86954     278.8  0.524736  0.002130  0.000215  0.000158  0.208307  7.122755  0.621081     68.38  1.000303  1.000022     2.735    16.592     142.7      84.2      59.8     324.4     14.33      5.68      5.52      0.35      0.57      3.06     -1.63     -3.44     -1.62      5.49      1.10     -2.85     -1.35      1.34      2.78     -8.78     -0.41      1.80     -0.14      1.34
