corner points
145.6978302    32.73497009
145.659668    32.90926743
145.9117889    32.76785278
145.874054    32.94213104
========== RESULTS WAVE VERSION 16.10.2018 ====================
IMAGE SIZE  X: 4492     Y:4777    col:row     POLARIZATION:VV
COVERAGE    X: 20.29491352km       Y: 19.65750088km 
RESOLUTION dX: 4.518012804m       dY:4.115030538m  
resolution of original product 4.518012804m x 4.115030538m;   raster step x:5999.921004m  
===============================================================
FLAGS: H=HIGH PROBABILITY SEA STATE, I=LAND(ISLAND), O=OUTLIER NO SEA STATE, N=NO WIND AVAILABLE, SEA STATE NOT VISIBLE, M=MEAN PROBABILITY SEA STATE, L= LOW PROBABILITY SEA STATE
Filtering wave length
 integration  Lmin=1m
 integration  Lmax=2200m
  peak        Lmin=100m
               FFT=1024pixels, 4626.445111m 
   mean-Hs (SWH_c)=3.11708374m
         mean-wind=16.03868294m/s
--------------0--------------1---------2---------3---------4---------5---------6---------7---------8---------9--------10--------11--------12--------13--------14--------15--------16--------17--------18--------19------------------20--------21--------22--------23--------24--------25--------26--------27--------28--------29--------30--------31--------32--------33--------34--------35--------36--------37--------38--------39--------40--------41--------42--------43--------44--------45--------46--------47--------48--------49--------50--------51--------52--------53--------54--------55--------56--------57--------58--------59--------60--------61--------62--------63--------64--------65--------66--------67--------68--------69--------70--------71--------72--------73
            LAT            LON  P-LENGHT     SWH_o     SWH_c     P-DIR      LINE     POINT     ROW-Y     COL-X  M-INTENC        dB      WIND INC-ANGLE  ENERGY-M  ENERGY-N  ENERGY-R ENERGY-NN  FG-DEPTH      FLAG         HEADING-DEG    E30-75   E75-390  E390-600 meanincut   meanout   cut/out  STD-NORM  SPEC-MAX   GL-MEAN    GL-VAR      CORR   ENTROPY   HOMOGEN    ENERGY  CONTRAST  DISSIMIL     STD-O    E 1-30 E600-2000   E2000 >      GODA  LONG-HIG     Tmean  CONVOLUT  MEAN-DIR  relation     Sy/Sx  SKEWNESS  KURTOSIS  cutoff-A >50/10000     INT*V   INT-LOG  S-1_g1f1  S-2_g1f2  S-3_g1f3  S-4_g2f1  S-5_g2f2  S-6_g2f3  S-7_g3f1  S-8_g3f2  S-9_g3f3 S-10_g1f4 S-11_g2f4 S-12_g3f4 S-13_g1f5 S-14_g2f5 S-15_g3f5 S-16_g4f1 S-17_g4f2 S-18_g4f3 S-19_g4f4 S-20_g4f5
--------------1--------------2---------3---------4---------5---------6---------7---------8---------9--------10--------11--------12--------13--------14--------15--------16--------17--------18--------19--------20------------------21--------22--------23--------24--------25--------26--------27--------28--------29--------30--------31--------32--------33--------34--------35--------36--------37--------38--------39--------40--------41--------42--------43--------44--------45--------46--------47--------48--------49--------50--------51--------52--------53--------54--------55--------56--------57--------58--------59--------60--------61--------62--------63--------64--------65--------66--------67--------68--------69--------70--------71--------72--------73--------74
      32.778900     145.738037     201.5      3.45      4.28     106.7         1         1      1000      1000    860.02   -10.655      17.0      36.9   244.366     0.611     207.4   0.09954      32.2         H               347.2  0.053491  0.039365  0.001175  3.291315  0.731665  4.498389  1.110153     67.30   15.9463  256.3767   0.15323   7.41147   0.09486   0.00109 434.18463  15.17464     954.7  0.514504  0.002759  0.000460  0.000216  0.211515  7.296861  0.618641    103.53  1.000147  1.000014     2.610    14.521     142.7      98.2     775.9     998.3     13.47     -4.46      8.46      4.25     -0.83      6.66      0.30      1.19     -0.66     -5.47     -2.69      1.67      2.40      4.15      1.40     -4.84      1.12      3.77     -1.14      3.44
      32.788673     145.801559     219.7      3.15      4.28     108.2         1         2      1000      2328    746.56   -11.269      16.1      37.2   250.042     0.630     549.2   0.10552      41.8         H               347.2  0.055115  0.039167  0.001738  3.561973  0.757716  4.700933  1.129290     45.10   13.9577  214.4680   0.16418   7.21148   0.10674   0.00144 358.51099  13.51604     843.0  0.525723  0.007171  0.001533  0.000197  0.212872  7.278650  0.639162     97.92  1.000157  1.000014     2.759    16.439     160.0      97.1     590.3     939.7     13.69     -2.68      8.23      3.39      0.09      6.87      0.94      1.09     -0.89     -3.34     -0.45      1.32      2.88      3.39      2.18     -7.78      1.28      4.55      0.82      0.72
      32.798328     145.864548     169.1      2.89      4.28      99.2         1         3      1000      3656    685.88   -11.638      15.7      37.6   243.219     0.604     161.1   0.09610      20.4         H               347.2  0.052996  0.036374  0.001333  3.342459  0.735305  4.545679  1.102615     51.15   12.9321  187.3868   0.15069   7.10242   0.11218   0.00164 318.29984  12.66812     756.2  0.510687  0.002414  0.000327  0.000192  0.208817  7.251764  0.610022     98.96  1.000182  1.000018     2.583    14.491     137.8      96.6     481.7     840.7     13.20     -2.50      8.24      4.22     -0.09      6.89      1.37      0.19      0.34     -3.30     -1.42      0.62      2.88      4.20      1.83     -5.76      1.60      3.40     -0.30      3.06
      32.832108     145.726410     185.9      3.29      4.28     105.3         2         1      2458      1000    801.37   -10.962      16.4      36.8   245.232     0.614     193.2   0.10032      25.9         H               347.2  0.053955  0.039341  0.001308  3.498739  0.736515  4.750396  1.112403     48.82   14.9462  233.9690   0.15480   7.32136   0.09998   0.00124 395.49844  14.35462     891.4  0.516347  0.003035  0.000394  0.000191  0.210673  7.286442  0.621587     98.81  1.000174  1.000017     2.632    14.652     142.7      97.7     672.6     926.2     13.44     -2.94      8.43      4.35     -0.04      7.10      0.24      0.85     -1.25     -3.67     -0.77      1.42      2.90      4.03      1.30     -5.42      1.73      4.77      0.38      2.68
      32.841877     145.789978     178.9      3.26      4.28     104.8         2         2      2458      2328    727.63   -11.381      15.9      37.2   247.242     0.622     303.8   0.10331      23.5         H               347.2  0.054088  0.040895  0.001543  3.503530  0.747892  4.684537  1.120197     62.20   13.6454  206.2994   0.16096   7.18061   0.10818   0.00150 346.18463  13.26000     815.0  0.520463  0.004582  0.000739  0.000205  0.215071  7.315842  0.630272    101.15  1.000150  1.000015     2.667    15.089     148.0      96.9     554.8     890.3     13.76     -2.99      8.88      3.72      0.13      6.75      0.26      0.57     -1.47     -3.76     -1.01      1.01      3.14      3.82      1.44     -6.71      2.00      4.02      0.33      1.98
      32.851532     145.853012     193.4      2.97      4.28     106.0         2         3      2458      3656    694.62   -11.583      15.7      37.6   243.027     0.606     197.0   0.09740      28.8         H               347.2  0.052456  0.036949  0.001278  3.289734  0.726892  4.525757  1.105026     54.21   13.0841  191.3069   0.15316   7.11985   0.11105   0.00161 324.01208  12.78923     767.5  0.512091  0.003122  0.000387  0.000191  0.212658  7.270505  0.612600    103.13  1.000166  1.000017     2.565    13.912     142.7      96.7     495.5     813.3     13.63     -3.38      8.37      3.85      0.22      6.64      0.18      0.52     -1.10     -4.03     -1.33      1.37      2.62      3.51      1.29     -5.97      2.82      4.06     -0.00      2.30
      32.885315     145.714783     236.4      2.99      4.28     113.1         3         1      3916      1000    728.38   -11.376      15.6      36.8   247.469     0.623     472.7   0.10434      54.5         H               347.2  0.054870  0.038106  0.001734  3.782288  0.731747  5.168845  1.122616     34.60   13.6533  207.4320   0.16456   7.17885   0.10880   0.00151 346.59479  13.26188     817.6  0.520969  0.006606  0.001403  0.000185  0.208309  7.242807  0.632187     98.30  1.000121  1.000012     2.667    14.972     153.8      96.9     557.6     860.6     13.58     -3.04      7.77      2.75      0.61      6.25      1.29      0.56     -0.40     -3.30     -0.22      0.85      2.07      3.64      2.09     -8.02      3.01      4.54      0.98      2.93
      32.895084     145.778381     174.1      2.98      4.28     101.9         3         2      3916      2328    727.70   -11.380      15.9      37.2   243.096     0.604     176.9   0.09718      22.0         H               347.2  0.052507  0.036360  0.001378  3.542310  0.725701  4.881223  1.103275     33.72   13.6850  204.5389   0.15108   7.19195   0.10687   0.00146 347.27283  13.31091     802.8  0.510995  0.003139  0.000312  0.000184  0.206688  7.238261  0.610563     95.04  1.000140  1.000014     2.563    13.990     137.8      97.1     545.2     854.0     13.44     -2.48      7.66      3.40      0.67      6.41      0.86      0.48     -0.56     -2.36     -0.20      0.54      2.33      3.86      1.63     -6.69      2.13      4.09      0.39      2.99
      32.904736     145.841461     203.2      3.08      4.28     112.7         3         3      3916      3656    719.05   -11.432      16.0      37.6   243.685     0.607     143.6   0.09751      33.0         H               347.2  0.053948  0.037998  0.001342  3.474382  0.732002  4.746413  1.105687     54.25   13.5238  201.6205   0.15280   7.17276   0.10819   0.00151 341.62848  13.18102     795.0  0.511737  0.002496  0.000229  0.000193  0.211699  7.272200  0.614432    102.19  1.000167  1.000015     2.561    13.814     142.7      96.9     533.3     820.9     13.63     -3.30      8.65      3.96     -0.13      6.46     -0.01      0.77     -1.33     -3.91     -1.20      1.13      2.44      3.59      1.49     -6.00      1.80      3.54      0.30      2.61
