corner points
143.1061401    35.06137085
143.0610199    35.24081039
143.3297424    35.09840393
143.2851715    35.27785873
========== RESULTS WAVE VERSION 16.10.2018 ====================
IMAGE SIZE  X: 5683     Y:4923    col:row     POLARIZATION:VV
COVERAGE    X: 20.71574119km       Y: 20.3202023km 
RESOLUTION dX: 3.645212245m       dY:4.127605585m  
resolution of original product 3.645212245m x 4.127605585m;   raster step x:5996.374143m  
===============================================================
FLAGS: H=HIGH PROBABILITY SEA STATE, I=LAND(ISLAND), O=OUTLIER NO SEA STATE, N=NO WIND AVAILABLE, SEA STATE NOT VISIBLE, M=MEAN PROBABILITY SEA STATE, L= LOW PROBABILITY SEA STATE
Filtering wave length
 integration  Lmin=1m
 integration  Lmax=2200m
  peak        Lmin=100m
               FFT=1024pixels, 3732.697339m 
   mean-Hs (SWH_c)=1.819602814m
         mean-wind=9.289505959m/s
--------------0--------------1---------2---------3---------4---------5---------6---------7---------8---------9--------10--------11--------12--------13--------14--------15--------16--------17--------18--------19------------------20--------21--------22--------23--------24--------25--------26--------27--------28--------29--------30--------31--------32--------33--------34--------35--------36--------37--------38--------39--------40--------41--------42--------43--------44--------45--------46--------47--------48--------49--------50--------51--------52--------53--------54--------55--------56--------57--------58--------59--------60--------61--------62--------63--------64--------65--------66--------67--------68--------69--------70--------71--------72--------73
            LAT            LON  P-LENGHT     SWH_o     SWH_c     P-DIR      LINE     POINT     ROW-Y     COL-X  M-INTENC        dB      WIND INC-ANGLE  ENERGY-M  ENERGY-N  ENERGY-R ENERGY-NN  FG-DEPTH      FLAG         HEADING-DEG    E30-75   E75-390  E390-600 meanincut   meanout   cut/out  STD-NORM  SPEC-MAX   GL-MEAN    GL-VAR      CORR   ENTROPY   HOMOGEN    ENERGY  CONTRAST  DISSIMIL     STD-O    E 1-30 E600-2000   E2000 >      GODA  LONG-HIG     Tmean  CONVOLUT  MEAN-DIR  relation     Sy/Sx  SKEWNESS  KURTOSIS  cutoff-A >50/10000     INT*V   INT-LOG  S-1_g1f1  S-2_g1f2  S-3_g1f3  S-4_g2f1  S-5_g2f2  S-6_g2f3  S-7_g3f1  S-8_g3f2  S-9_g3f3 S-10_g1f4 S-11_g2f4 S-12_g3f4 S-13_g1f5 S-14_g2f5 S-15_g3f5 S-16_g4f1 S-17_g4f2 S-18_g4f3 S-19_g4f4 S-20_g4f5
--------------1--------------2---------3---------4---------5---------6---------7---------8---------9--------10--------11--------12--------13--------14--------15--------16--------17--------18--------19--------20------------------21--------22--------23--------24--------25--------26--------27--------28--------29--------30--------31--------32--------33--------34--------35--------36--------37--------38--------39--------40--------41--------42--------43--------44--------45--------46--------47--------48--------49--------50--------51--------52--------53--------54--------55--------56--------57--------58--------59--------60--------61--------62--------63--------64--------65--------66--------67--------68--------69--------70--------71--------72--------73--------74
      35.104549     143.137375     133.0      1.93      3.21      86.4         1         1      1000      1000   3007.54    -5.218       9.1      23.6   448.578     0.879     528.9   0.23530      11.7         H               347.0  0.110056  0.079964  0.002230  7.387552  1.050293  7.033803  1.329450     63.63    5.5028   58.6629   0.31450   5.46630   0.25567   0.01219  80.42582   5.55644    3998.0  0.677915  0.008972  0.000567  0.000290  0.180430  7.135157  0.930491     89.14  1.000341  1.000049     4.049    36.604     128.8      83.9     111.1     613.2     12.06     -2.00      5.50      4.06     -1.17      6.73      3.25      0.27      3.35     -2.28     -1.45     -0.18      2.25      3.61      4.08     -4.39     -0.15      6.26      0.19      2.81
      35.115410     143.202835     148.5      1.83      3.21      96.0         1         2      1000      2645   2674.13    -5.728       8.9      24.1   438.345     0.847     309.2   0.22102      15.0         H               347.0  0.103696  0.076362  0.002457  6.747076  1.026679  6.571751  1.306257     58.84    4.8846   46.4100   0.30496   5.26280   0.27282   0.01442  64.51421   4.97790    3492.9  0.658950  0.005889  0.000215  0.000273  0.191345  7.162380  0.894735     89.84  1.000305  1.000041     3.927    32.879     124.8      82.4      85.8     494.4     12.56     -2.53      6.25      3.95     -1.09      6.58      2.38      0.81      2.46     -2.99     -1.76      0.81      1.37      3.43      4.13     -5.31      0.45      5.41     -0.52      3.01
      35.126038     143.267136     186.2      1.80      3.21     116.1         1         3      1000      4290   2350.94    -6.288       8.6      24.5   436.420     0.839     363.9   0.21699      26.0         H               347.0  0.099205  0.075420  0.002047  6.488858  1.018891  6.368550  1.300097     76.22    4.2173   35.8246   0.30179   5.00040   0.29966   0.01866  50.02660   4.35460    3056.2  0.656623  0.005949  0.000374  0.000252  0.195566  7.196487  0.885512     93.36  1.000325  1.000042     3.889    32.849     117.4      79.8      64.7     445.7     12.75     -4.04      6.15      4.06     -1.88      6.21      1.26      2.08      1.89     -4.67     -1.91      1.79      0.23      3.36      3.38     -4.36     -0.21      4.33      0.72      4.02
      35.157520     143.124084     141.5      1.86      3.21      99.6         2         1      2453      1000   3211.50    -4.933       9.9      23.6   448.711     0.880     406.2   0.23597      13.5         H               347.0  0.112434  0.076197  0.002046  7.325953  1.055603  6.940062  1.333890     61.46    5.8744   65.1330   0.31240   5.58875   0.24333   0.01064  89.57034   5.90086    4283.7  0.683199  0.006586  0.000470  0.000306  0.176372  7.074882  0.930829     90.33  1.000321  1.000049     4.181    39.494     124.8      85.2     126.4     653.9     12.11     -2.45      5.28      3.75     -1.47      5.62      2.87      0.12      3.77     -3.00     -2.48     -0.24      1.26      3.12      3.65     -4.71     -0.44      3.16     -1.59      3.12
      35.168385     143.189606     147.8      1.72      3.21      98.0         2         2      2453      2645   2845.81    -5.458       9.6      24.1   445.374     0.878     216.9   0.23751      14.9         H               347.0  0.114999  0.074979  0.001949  7.046963  1.060976  6.641962  1.327423     54.05    5.1614   52.4020   0.31198   5.35340   0.26523   0.01344  72.10696   5.24284    3777.3  0.682747  0.004002  0.000145  0.000304  0.175768  7.058712  0.927804     89.12  1.000303  1.000049     4.089    36.496     128.8      83.1      97.9     559.0     12.16     -2.56      5.85      3.93     -1.28      5.90      2.97     -0.21      3.22     -3.43     -2.17     -0.70      1.66      3.42      3.04     -4.58      0.39      3.74      0.21      3.65
      35.179012     143.253937     140.7      1.76      3.21     101.5         2         3      2453      4290   2361.93    -6.267       8.7      24.5   443.087     0.863     302.3   0.22862      13.3         H               347.0  0.107396  0.077141  0.002343  7.247822  1.059075  6.843543  1.318126     67.52    4.2697   37.3289   0.30820   5.01646   0.29920   0.01858  51.64805   4.40236    3113.1  0.670683  0.005681  0.000231  0.000282  0.181111  7.123004  0.911873     91.83  1.000295  1.000043     4.135    40.897     121.0      79.8      67.5     496.6     12.38     -2.86      5.56      3.50     -1.40      6.00      2.99     -0.24      2.84     -3.36     -2.56     -0.94      0.98      3.37      3.24     -5.75      0.40      4.59     -0.71      3.14
      35.210491     143.110794     139.7      1.89      3.21     103.4         3         1      3906      1000   3250.97    -4.880      10.1      23.6   445.371     0.873     171.2   0.23332      13.1         H               347.0  0.112907  0.076452  0.002120  6.888177  1.051937  6.548089  1.322659     96.62    5.9708   66.1696   0.30709   5.62381   0.23793   0.01007  91.69859   6.00045    4300.0  0.678532  0.003102  0.000084  0.000312  0.180009  7.074694  0.921915     95.41  1.000310  1.000048     4.049    34.739     124.8      85.7     129.3     665.8     11.81     -2.72      6.04      4.72     -1.59      6.87      3.90     -1.38      4.29     -3.56     -3.41     -2.20      1.98      4.06      3.71     -3.56      0.50      5.10     -1.74      4.36
      35.221355     143.176346     151.9      1.86      3.21     102.5         3         2      3906      2645   2738.54    -5.625       9.1      24.1   451.266     0.889     374.6   0.24206      15.8         H               347.0  0.114103  0.080126  0.002146  7.366782  1.084586  6.792250  1.341869     76.81    4.9889   49.8048   0.31585   5.28846   0.27264   0.01449  68.14761   5.07939    3674.5  0.686766  0.006760  0.000311  0.000315  0.179037  7.115967  0.941230     93.36  1.000307  1.000048     4.270    42.111     128.8      82.3      92.7     584.1     11.84     -2.57      5.77      4.50     -1.88      6.63      3.62     -0.61      4.04     -3.46     -3.11     -1.24      1.59      3.66      4.04     -3.68     -0.27      5.16     -1.31      3.59
      35.231987     143.240738     140.7      1.72      3.21     101.5         3         3      3906      4290   2586.42    -5.873       9.6      24.5   447.281     0.882     309.7   0.23853      13.3         H               347.0  0.113937  0.075015  0.001985  6.846867  1.070032  6.398750  1.333385     82.41    4.6789   44.5442   0.31194   5.17526   0.28331   0.01603  61.29635   4.79580    3448.3  0.686152  0.005594  0.000223  0.000318  0.180627  7.085252  0.932091     94.41  1.000340  1.000054     4.117    36.786     133.1      81.4      81.5     514.6     12.00     -2.31      6.20      4.34     -1.75      6.42      3.29     -0.47      3.99     -3.30     -2.72     -1.08      2.02      4.50      3.92     -3.42     -0.74      4.77     -1.62      4.93
