corner points
148.219162    12.06567383
148.181427    12.24636269
148.405304    12.10329247
148.3677063    12.28396225
========== RESULTS WAVE VERSION 16.10.2018 ====================
IMAGE SIZE  X: 5683     Y:4928    col:row     POLARIZATION:VV
COVERAGE    X: 20.62124871km       Y: 20.45768085km 
RESOLUTION dX: 3.628585028m       dY:4.151315107m  
resolution of original product 3.628585028m x 4.151315107m;   raster step x:5998.051051m  
===============================================================
FLAGS: H=HIGH PROBABILITY SEA STATE, I=LAND(ISLAND), O=OUTLIER NO SEA STATE, N=NO WIND AVAILABLE, SEA STATE NOT VISIBLE, M=MEAN PROBABILITY SEA STATE, L= LOW PROBABILITY SEA STATE
Filtering wave length
 integration  Lmin=1m
 integration  Lmax=2200m
  peak        Lmin=100m
               FFT=1024pixels, 3715.671069m 
   mean-Hs (SWH_c)=1.193054581m
         mean-wind=9.033950806m/s
--------------0--------------1---------2---------3---------4---------5---------6---------7---------8---------9--------10--------11--------12--------13--------14--------15--------16--------17--------18--------19------------------20--------21--------22--------23--------24--------25--------26--------27--------28--------29--------30--------31--------32--------33--------34--------35--------36--------37--------38--------39--------40--------41--------42--------43--------44--------45--------46--------47--------48--------49--------50--------51--------52--------53--------54--------55--------56--------57--------58--------59--------60--------61--------62--------63--------64--------65--------66--------67--------68--------69--------70--------71--------72--------73
            LAT            LON  P-LENGHT     SWH_o     SWH_c     P-DIR      LINE     POINT     ROW-Y     COL-X  M-INTENC        dB      WIND INC-ANGLE  ENERGY-M  ENERGY-N  ENERGY-R ENERGY-NN  FG-DEPTH      FLAG         HEADING-DEG    E30-75   E75-390  E390-600 meanincut   meanout   cut/out  STD-NORM  SPEC-MAX   GL-MEAN    GL-VAR      CORR   ENTROPY   HOMOGEN    ENERGY  CONTRAST  DISSIMIL     STD-O    E 1-30 E600-2000   E2000 >      GODA  LONG-HIG     Tmean  CONVOLUT  MEAN-DIR  relation     Sy/Sx  SKEWNESS  KURTOSIS  cutoff-A >50/10000     INT*V   INT-LOG  S-1_g1f1  S-2_g1f2  S-3_g1f3  S-4_g2f1  S-5_g2f2  S-6_g2f3  S-7_g3f1  S-8_g3f2  S-9_g3f3 S-10_g1f4 S-11_g2f4 S-12_g3f4 S-13_g1f5 S-14_g2f5 S-15_g3f5 S-16_g4f1 S-17_g4f2 S-18_g4f3 S-19_g4f4 S-20_g4f5
--------------1--------------2---------3---------4---------5---------6---------7---------8---------9--------10--------11--------12--------13--------14--------15--------16--------17--------18--------19--------20------------------21--------22--------23--------24--------25--------26--------27--------28--------29--------30--------31--------32--------33--------34--------35--------36--------37--------38--------39--------40--------41--------42--------43--------44--------45--------46--------47--------48--------49--------50--------51--------52--------53--------54--------55--------56--------57--------58--------59--------60--------61--------62--------63--------64--------65--------66--------67--------68--------69--------70--------71--------72--------73--------74
      12.109148     148.245117     154.8      1.15      2.36      66.4         1         1      1000      1000   2937.51    -5.320       9.2      23.8   464.531     0.811      93.5   0.20428      16.6         H               347.9  0.104383  0.057970  0.000951  5.267340  0.961107  5.480490  1.275749     80.71    5.3636   52.5390   0.28956   5.44559   0.25156   0.01163  74.65054   5.44069    3747.3  0.647215  0.001111  0.000044  0.000255  0.182635  7.022498  0.857584     76.10  1.000255  1.000036     3.748    30.480     107.8      84.5      99.2     527.3     11.39      2.91      4.50      6.29      3.96      6.98      3.08      1.01      4.15      4.35      4.52      1.60     -0.64      2.15      3.35     -0.07      2.11      5.85      1.77      3.69
      12.120215     148.299850     154.8      1.23      2.36      66.4         1         2      1000      2653   2713.49    -5.665       9.4      24.2   461.086     0.799      83.2   0.19955      16.6         H               347.9  0.100037  0.058640  0.001004  5.353202  0.948285  5.645141  1.266658     64.99    4.9206   44.7748   0.28607   5.29283   0.26547   0.01339  63.93264   5.02508    3437.0  0.639373  0.000958  0.000036  0.000252  0.184777  7.072392  0.844427     76.80  1.000244  1.000034     3.709    29.808     107.8      83.1      83.2     482.7     11.54      3.14      4.89      6.36      3.66      7.27      2.88      1.07      3.44      4.24      4.67      1.68     -0.01      1.76      2.85     -0.42      1.57      6.18      2.33      2.27
      12.131072     148.353622     177.7      1.18      2.36      65.3         1         3      1000      4306   2342.18    -6.304       8.9      24.7   460.875     0.796      99.7   0.19685      23.1         H               347.9  0.097645  0.058999  0.000940  5.187984  0.952918  5.444315  1.267455     62.92    4.1988   33.9521   0.28377   5.00744   0.29492   0.01787  48.63491   4.35464    2968.3  0.637607  0.001247  0.000054  0.000257  0.187594  7.069315  0.840435     78.91  1.000250  1.000033     3.678    29.215     110.8      80.2      61.6     406.3     11.62      3.05      5.12      6.37      3.51      7.49      2.72      0.62      3.65      4.54      4.27      0.75      0.11      2.82      3.64     -0.08      1.25      6.54      1.83      3.18
      12.162140     148.234055     170.2      1.23      2.36      66.4         2         1      2445      1000   2930.96    -5.330       9.2      23.8   466.630     0.812      80.5   0.20375      20.8         H               347.9  0.102657  0.059472  0.001080  5.595357  0.978148  5.720361  1.277541     63.08    5.3592   52.3745   0.28734   5.44531   0.25133   0.01160  74.64942   5.44444    3744.2  0.648481  0.000879  0.000030  0.000244  0.183937  7.051398  0.858630     80.08  1.000247  1.000033     3.843    33.242     107.8      84.5      99.2     559.0     11.50      2.47      4.47      5.73      3.36      6.92      3.10      0.64      3.72      4.07      3.55      1.23      0.04      2.67      3.26     -0.83      1.98      6.41      0.84      3.61
      12.173205     148.288818     170.2      1.22      2.36      66.4         2         2      2445      2653   2666.83    -5.740       9.2      24.2   464.219     0.806      81.3   0.20174      20.8         H               347.9  0.100776  0.059367  0.000896  5.584198  0.954751  5.848851  1.272448     59.22    4.8251   43.3887   0.28641   5.25737   0.26866   0.01384  61.92427   4.94107    3393.1  0.644299  0.000913  0.000037  0.000249  0.184592  7.082728  0.851681     80.09  1.000268  1.000038     3.801    31.783     110.8      82.9      80.7     486.0     11.57      2.34      4.63      6.15      3.49      7.16      2.62      0.67      3.65      3.57      3.89      1.10     -0.02      2.29      3.32     -0.05      2.11      6.43      1.80      2.88
      12.184061     148.342575     170.2      1.20      2.36      66.4         2         3      2445      4306   2293.88    -6.394       8.7      24.7   457.289     0.785      94.4   0.19206      20.8         H               347.9  0.093647  0.058956  0.001153  5.052222  0.930463  5.429794  1.255044     67.36    4.1072   32.3280   0.28237   4.97105   0.29861   0.01835  46.39846   4.25779    2878.9  0.630315  0.001075  0.000052  0.000259  0.190380  7.118856  0.828522     73.80  1.000239  1.000031     3.583    27.585     107.8      80.0      58.5     383.8     11.77      3.60      5.28      6.15      3.85      7.27      2.73      0.25      3.13      4.93      4.55      0.63     -0.29      1.78      3.27     -1.03      1.84      6.17      2.04      2.36
      12.215132     148.223007     157.0      1.24      2.36      68.3         3         1      3890      1000   3017.70    -5.203       9.5      23.8   457.868     0.793      82.1   0.19603      17.1         H               347.9  0.097390  0.056916  0.001070  4.997378  0.948071  5.271103  1.263628     61.64    5.5307   54.4275   0.28292   5.50761   0.24443   0.01074  78.05573   5.59670    3813.0  0.636792  0.000942  0.000029  0.000248  0.187207  7.089057  0.836996     77.40  1.000267  1.000035     3.701    30.473     107.8      85.2     103.6     549.9     11.50      2.84      4.97      6.03      4.06      7.38      3.16      0.91      3.60      4.49      4.73      1.22      0.36      2.37      3.67     -0.42      2.41      7.16      2.55      2.58
      12.226195     148.277756     154.8      1.12      2.36      66.4         3         2      3890      2653   2528.40    -5.972       8.6      24.2   457.448     0.789     100.4   0.19530      16.6         H               347.9  0.095356  0.057187  0.000916  5.308512  0.974029  5.450055  1.257724     63.28    4.5494   38.5594   0.28238   5.15480   0.27871   0.01525  55.34074   4.67522    3180.0  0.635022  0.001267  0.000064  0.000242  0.185233  7.086355  0.832721     75.76  1.000250  1.000033     3.738    32.807     105.0      81.9      71.2     479.6     11.38      2.64      4.66      6.48      3.65      7.27      3.03      1.01      3.76      3.68      4.25      1.26      0.06      2.09      3.24      0.18      1.90      6.38      2.16      2.73
      12.237049     148.331543     178.4      1.16      2.36      59.8         3         3      3890      4306   2250.44    -6.477       8.5      24.7   455.774     0.783      87.0   0.19290      23.3         H               347.9  0.094611  0.059073  0.000916  5.378307  0.946658  5.681361  1.255716     60.70    4.0135   30.8504   0.28262   4.93155   0.30188   0.01893  44.26358   4.16505    2825.8  0.628317  0.000991  0.000038  0.000242  0.187589  7.110755  0.827200     74.34  1.000257  1.000035     3.697    30.800     105.0      79.7      56.0     401.5     11.59      3.16      4.80      6.26      4.16      6.98      2.44      0.28      3.21      4.52      4.28      1.00     -0.25      1.71      3.06     -0.30      2.50      5.95      1.42      2.62
