corner points
-34.05681992    59.78041077
-34.12479401    59.6087265
-34.41474533    59.81557846
-34.48088455    59.64381409
========== RESULTS WAVE VERSION 16.10.2018 ====================
IMAGE SIZE  X: 4476     Y:4764    col:row     POLARIZATION:VV
COVERAGE    X: 20.35288101km       Y: 19.41820998km 
RESOLUTION dX: 4.547113719m       dY:4.076030641m  
resolution of original product 4.547113719m x 4.076030641m;   raster step x:5997.642996m  
===============================================================
FLAGS: H=HIGH PROBABILITY SEA STATE, I=LAND(ISLAND), O=OUTLIER NO SEA STATE, N=NO WIND AVAILABLE, SEA STATE NOT VISIBLE, M=MEAN PROBABILITY SEA STATE, L= LOW PROBABILITY SEA STATE
Filtering wave length
 integration  Lmin=1m
 integration  Lmax=2200m
  peak        Lmin=100m
               FFT=1024pixels, 4656.244448m 
   mean-Hs (SWH_c)=0.5726014709m
         mean-wind=10.96831322m/s
--------------0--------------1---------2---------3---------4---------5---------6---------7---------8---------9--------10--------11--------12--------13--------14--------15--------16--------17--------18--------19------------------20--------21--------22--------23--------24--------25--------26--------27--------28--------29--------30--------31--------32--------33--------34--------35--------36--------37--------38--------39--------40--------41--------42--------43--------44--------45--------46--------47--------48--------49--------50--------51--------52--------53--------54--------55--------56--------57--------58--------59--------60--------61--------62--------63--------64--------65--------66--------67--------68--------69--------70--------71--------72--------73
            LAT            LON  P-LENGHT     SWH_o     SWH_c     P-DIR      LINE     POINT     ROW-Y     COL-X  M-INTENC        dB      WIND INC-ANGLE  ENERGY-M  ENERGY-N  ENERGY-R ENERGY-NN  FG-DEPTH      FLAG         HEADING-DEG    E30-75   E75-390  E390-600 meanincut   meanout   cut/out  STD-NORM  SPEC-MAX   GL-MEAN    GL-VAR      CORR   ENTROPY   HOMOGEN    ENERGY  CONTRAST  DISSIMIL     STD-O    E 1-30 E600-2000   E2000 >      GODA  LONG-HIG     Tmean  CONVOLUT  MEAN-DIR  relation     Sy/Sx  SKEWNESS  KURTOSIS  cutoff-A >50/10000     INT*V   INT-LOG  S-1_g1f1  S-2_g1f2  S-3_g1f3  S-4_g2f1  S-5_g2f2  S-6_g2f3  S-7_g3f1  S-8_g3f2  S-9_g3f3 S-10_g1f4 S-11_g2f4 S-12_g3f4 S-13_g1f5 S-14_g2f5 S-15_g3f5 S-16_g4f1 S-17_g4f2 S-18_g4f3 S-19_g4f4 S-20_g4f5
--------------1--------------2---------3---------4---------5---------6---------7---------8---------9--------10--------11--------12--------13--------14--------15--------16--------17--------18--------19--------20------------------21--------22--------23--------24--------25--------26--------27--------28--------29--------30--------31--------32--------33--------34--------35--------36--------37--------38--------39--------40--------41--------42--------43--------44--------45--------46--------47--------48--------49--------50--------51--------52--------53--------54--------55--------56--------57--------58--------59--------60--------61--------62--------63--------64--------65--------66--------67--------68--------69--------70--------71--------72--------73--------74
      59.752396     -34.151886     159.4      1.03      2.37     112.4         1         1      1000      1000    540.30   -12.674      12.9      36.5   269.511     0.560     257.1   0.07593      17.7         H               197.7  0.044837  0.016833  0.000578  1.588879  0.682907  2.326639  1.063688      5.43   10.2464  122.3890   0.11684   6.71599   0.13150   0.00244 216.17767  10.31471     574.7  0.494359  0.003198  0.000870  0.000102  0.177857  6.894305  0.555789     82.30  1.000050  1.000004     2.380    12.389      94.9      95.0     279.4     595.4     11.56     -0.15      0.30      2.77     -0.42      2.67      1.30      0.78      0.38      0.07      0.11      0.09     -0.66      0.30      1.57     -5.63     -1.03      3.92      0.33      0.28
      59.762833     -34.257637     161.1      0.73      2.37     120.1         1         2      1000      2319    437.76   -13.588      11.6      36.9   271.582     0.561     210.9   0.07320      18.2         H               197.7  0.044542  0.016776  0.000683  1.627247  0.678522  2.398223  1.063456      7.60    8.2443   83.7508   0.10981   6.31753   0.15622   0.00369 149.10849   8.46396     465.5  0.495589  0.002714  0.000632  0.000102  0.177238  6.905209  0.555416     87.75  1.000136  1.000010     2.380    12.339      97.3      92.7     178.9     472.4     11.54     -0.59      0.63      2.61     -0.95      2.38      1.99      0.73      1.09      0.19     -0.25     -0.58     -0.20     -0.46      2.10     -6.51     -1.29      2.83     -0.04     -1.82
      59.773094     -34.362530     215.0      0.54      2.37     136.2         1         3      1000      3638    291.35   -15.356       9.1      37.3   272.216     0.557     101.9   0.06818      39.0         H               197.7  0.044594  0.015974  0.000535  1.561316  0.659141  2.368715  1.059420      5.30    5.3423   37.8793   0.09856   5.51756   0.21608   0.00820  68.29146   5.67308     308.6  0.494903  0.001327  0.000246  0.000105  0.176984  6.875955  0.551642     83.21  1.000166  1.000009     2.339    11.899      99.7      87.3      76.0     298.2     11.80     -0.48      0.93      2.51     -0.38      2.37      1.11      0.68      0.78      0.43      0.11     -0.11     -0.53      0.35      1.47     -5.63     -0.49      2.36      0.50      0.60
      59.699333     -34.172787     185.8      0.62      2.37     143.2         2         1      2472      1000    404.67   -13.929      10.7      36.5   270.957     0.557     131.0   0.07027      25.9         H               197.7  0.044375  0.015595  0.000769  1.503041  0.657926  2.284512  1.059557      6.26    7.5945   71.8180   0.10281   6.16678   0.16576   0.00425 128.86865   7.84526     428.8  0.494385  0.002182  0.000282  0.000105  0.173637  6.852363  0.551801     85.31  1.000168  1.000011     2.366    12.142      99.7      92.0     150.9     420.9     11.66     -0.16      0.24      1.63     -0.66      1.47      2.23      0.63      1.54      0.42      0.27     -0.38     -1.06      0.18      1.79     -8.84     -1.04      0.83      0.44      0.54
      59.709763     -34.278366     199.7      0.61      2.37     140.0         2         2      2472      2319    373.11   -14.282      10.5      36.9   270.938     0.555     100.5   0.06918      31.4         H               197.7  0.044180  0.016583  0.000563  1.592518  0.664966  2.394886  1.057897      7.00    6.9668   61.3415   0.10140   6.00691   0.17770   0.00503 110.24307   7.24856     394.7  0.492859  0.001433  0.000232  0.000101  0.176323  6.897706  0.550121     87.62  1.000136  1.000009     2.337    11.945      92.7      90.9     126.7     393.5     11.49     -0.89      0.21      2.70     -0.78      1.93      1.26      0.84      1.20      0.39      0.29     -0.75     -1.12      0.21      1.45     -5.46     -0.84      2.38      1.14      0.79
      59.720016     -34.383095     374.5      0.60      2.37       9.3         2         3      2472      3638    345.35   -14.617      10.2      37.3   276.975     0.574     473.6   0.07591     100.0         H               197.7  0.045103  0.017187  0.000981  1.611404  0.671148  2.400968  1.079035      8.69    6.4163   54.6741   0.11879   5.85019   0.19180   0.00604  96.35921   6.70465     372.6  0.504127  0.005712  0.001778  0.000104  0.179668  6.900882  0.571020     84.42  0.999921  0.999995     2.459    13.127     121.0      89.6     110.6     379.6     11.93     -0.04     -0.95      1.10     -0.34      3.89      2.56      0.74      0.12      0.44      0.56     -0.23      0.41     -0.84      2.34    -10.42     -0.87      8.19      0.85     -3.72
      59.646267     -34.193638     187.0      0.65      2.37     122.5         3         1      3944      1000    438.14   -13.584      11.3      36.5   270.307     0.556      66.3   0.07082      26.3         H               197.7  0.044656  0.016087  0.000601  1.585852  0.665006  2.384718  1.057818      6.13    8.2560   83.1795   0.10313   6.32196   0.15546   0.00364 149.20227   8.48009     463.4  0.493596  0.000910  0.000135  0.000108  0.174250  6.873809  0.549675     83.97  1.000130  1.000008     2.344    12.034      92.7      92.9     177.9     467.6     11.54     -0.89      0.45      2.78     -0.09      2.47      1.59      0.87      0.70      0.40      0.08      0.20     -1.45      0.04      1.63     -6.10      0.62      3.30      0.07      0.95
      59.656689     -34.299053     134.2      0.64      2.37      67.3         3         2      3944      2319    411.79   -13.853      11.2      36.9   270.467     0.557     106.9   0.07098      12.0         H               197.7  0.045253  0.016235  0.000530  1.557451  0.674270  2.309833  1.059503      5.59    7.7322   74.1746   0.10504   6.19994   0.16369   0.00414 132.76566   7.98335     436.2  0.493729  0.001383  0.000285  0.000105  0.175009  6.866034  0.551667     82.90  1.000133  1.000009     2.356    12.223      90.6      92.0     156.5     441.1     11.45      0.10      0.03      2.76     -0.05      2.08      1.27      0.97      0.98      0.68      0.64      0.03     -0.74      0.11      1.39     -5.37     -0.43      2.25      0.82      0.54
      59.666935     -34.403618     178.6      0.65      2.37     133.2         3         3      3944      3638    401.03   -13.968      11.3      37.3   271.467     0.556     102.8   0.07034      23.4         H               197.7  0.044094  0.015770  0.000594  1.521338  0.652973  2.329863  1.058746      7.17    7.5222   70.4691   0.10276   6.14893   0.16725   0.00434 126.45525   7.77601     424.6  0.494549  0.001522  0.000264  0.000106  0.177141  6.863894  0.550577     84.50  1.000142  1.000010     2.363    12.312      92.7      91.8     147.8     436.3     11.80      0.01      0.73      2.46      0.03      2.24      1.24      0.67      0.86      0.79      0.46      0.06     -0.69      0.20      1.56     -6.49     -0.42      2.30      0.01      0.50
