corner points
-40.55934143    36.9779892
-40.59909821    36.80394745
-40.78417587    37.01042557
-40.82339859    36.83639526
========== RESULTS WAVE VERSION 16.10.2018 ====================
IMAGE SIZE  X: 4476     Y:4776    col:row     POLARIZATION:VV
COVERAGE    X: 20.24467611km       Y: 19.6238975km 
RESOLUTION dX: 4.522939257m       dY:4.108856261m  
resolution of original product 4.522939257m x 4.108856261m;   raster step x:5997.417455m  
===============================================================
FLAGS: H=HIGH PROBABILITY SEA STATE, I=LAND(ISLAND), O=OUTLIER NO SEA STATE, N=NO WIND AVAILABLE, SEA STATE NOT VISIBLE, M=MEAN PROBABILITY SEA STATE, L= LOW PROBABILITY SEA STATE
Filtering wave length
 integration  Lmin=1m
 integration  Lmax=2200m
  peak        Lmin=100m
               FFT=1024pixels, 4631.489799m 
   mean-Hs (SWH_c)=2.516369324m
         mean-wind=10.60802555m/s
--------------0--------------1---------2---------3---------4---------5---------6---------7---------8---------9--------10--------11--------12--------13--------14--------15--------16--------17--------18--------19------------------20--------21--------22--------23--------24--------25--------26--------27--------28--------29--------30--------31--------32--------33--------34--------35--------36--------37--------38--------39--------40--------41--------42--------43--------44--------45--------46--------47--------48--------49--------50--------51--------52--------53--------54--------55--------56--------57--------58--------59--------60--------61--------62--------63--------64--------65--------66--------67--------68--------69--------70--------71--------72--------73
            LAT            LON  P-LENGHT     SWH_o     SWH_c     P-DIR      LINE     POINT     ROW-Y     COL-X  M-INTENC        dB      WIND INC-ANGLE  ENERGY-M  ENERGY-N  ENERGY-R ENERGY-NN  FG-DEPTH      FLAG         HEADING-DEG    E30-75   E75-390  E390-600 meanincut   meanout   cut/out  STD-NORM  SPEC-MAX   GL-MEAN    GL-VAR      CORR   ENTROPY   HOMOGEN    ENERGY  CONTRAST  DISSIMIL     STD-O    E 1-30 E600-2000   E2000 >      GODA  LONG-HIG     Tmean  CONVOLUT  MEAN-DIR  relation     Sy/Sx  SKEWNESS  KURTOSIS  cutoff-A >50/10000     INT*V   INT-LOG  S-1_g1f1  S-2_g1f2  S-3_g1f3  S-4_g2f1  S-5_g2f2  S-6_g2f3  S-7_g3f1  S-8_g3f2  S-9_g3f3 S-10_g1f4 S-11_g2f4 S-12_g3f4 S-13_g1f5 S-14_g2f5 S-15_g3f5 S-16_g4f1 S-17_g4f2 S-18_g4f3 S-19_g4f4 S-20_g4f5
--------------1--------------2---------3---------4---------5---------6---------7---------8---------9--------10--------11--------12--------13--------14--------15--------16--------17--------18--------19--------20------------------21--------22--------23--------24--------25--------26--------27--------28--------29--------30--------31--------32--------33--------34--------35--------36--------37--------38--------39--------40--------41--------42--------43--------44--------45--------46--------47--------48--------49--------50--------51--------52--------53--------54--------55--------56--------57--------58--------59--------60--------61--------62--------63--------64--------65--------66--------67--------68--------69--------70--------71--------72--------73--------74
      36.948910     -40.618446     240.2      2.65      3.85      99.9         1         1      1000      1000    375.90   -14.249      10.4      36.8   253.503     0.608      84.5   0.08897      58.4         H               193.2  0.047448  0.045719  0.001191  3.506460  0.694729  5.047237  1.106259     95.78    7.0160   67.0998   0.14144   6.00840   0.18208   0.00533 115.21945   7.27522     415.9  0.513038  0.000785  0.000062  0.000198  0.236183  7.545362  0.614894     95.80  1.000277  1.000024     2.627    15.004     142.7      90.4     136.6     469.0     15.32     -2.03      9.62      1.48      0.86      4.88     -4.23      1.01     -5.81     -1.64      0.23      0.93      5.28      1.47     -2.36     -5.92      0.87      4.66      0.18     -0.02
      36.958572     -40.685268     220.2      2.44      3.85      87.0         1         2      1000      2326    367.98   -14.342      10.6      37.2   251.707     0.599      83.0   0.08611      42.2         H               193.2  0.046995  0.042325  0.001177  3.455686  0.688440  5.019588  1.098769     54.89    6.8672   63.7801   0.13676   5.97068   0.18462   0.00550 110.11464   7.12858     404.3  0.508569  0.000718  0.000079  0.000171  0.230729  7.475408  0.605413     92.15  1.000244  1.000020     2.564    14.099     133.1      90.1     129.6     423.9     15.00     -2.32      7.67      1.14      2.33      5.75     -2.78     -0.33     -4.16      1.03     -1.13     -0.12      3.49      2.47     -1.43     -7.21      4.55      5.69     -2.44      1.66
      36.968117     -40.751537     242.1      2.77      3.85      96.6         1         3      1000      3652    401.92   -13.959      11.5      37.5   252.497     0.607      83.5   0.09011      60.6         H               193.2  0.047842  0.044760  0.001180  3.571358  0.694499  5.142353  1.105285     88.59    7.5294   75.9982   0.14380   6.13871   0.17258   0.00468 130.13893   7.76295     444.2  0.512604  0.000681  0.000069  0.000186  0.235056  7.503217  0.613720     95.31  1.000277  1.000023     2.592    14.299     133.1      91.3     157.0     466.8     15.44     -2.83      9.03      0.65      1.89      4.45     -3.94      0.46     -5.17     -1.02     -0.11      0.68      4.70      1.59     -2.27     -6.68      3.32      4.28     -0.75      0.80
      36.895695     -40.630566     242.1      2.51      3.85      96.6         2         1      2460      1000    381.11   -14.190      10.5      36.8   251.487     0.601      71.1   0.08771      60.6         H               193.2  0.047073  0.043462  0.001014  3.619092  0.689652  5.247706  1.100276     84.10    7.1214   68.3272   0.14027   6.03708   0.17975   0.00516 117.48524   7.36936     419.3  0.509631  0.000549  0.000043  0.000181  0.232245  7.495290  0.607664     94.94  1.000275  1.000023     2.575    14.382     133.1      90.6     139.6     453.7     15.13     -2.35      8.53      1.26      1.21      4.69     -3.94      0.57     -4.69     -0.94     -0.28      0.30      4.69      1.32     -2.07     -5.76      1.92      4.21     -0.65      0.65
      36.905357     -40.697346     253.1      2.68      3.85     100.4         2         2      2460      2326    378.95   -14.214      10.8      37.2   254.199     0.610      74.2   0.09049      77.7         H               193.2  0.048150  0.045549  0.001102  3.658376  0.698179  5.239885  1.108444     84.50    7.0808   68.2667   0.14400   6.02505   0.18131   0.00524 116.87344   7.32958     420.0  0.515087  0.000642  0.000035  0.000189  0.232346  7.505852  0.617219     95.29  1.000270  1.000022     2.644    15.031     137.8      90.5     139.3     457.3     15.20     -2.51     10.03      1.41      1.53      4.13     -3.94      0.65     -5.13     -1.40      0.17      0.62      4.75      2.09     -2.36     -5.44      2.54      3.26     -0.03      1.53
      36.914906     -40.763561     253.1      2.73      3.85     100.4         2         3      2460      3652    350.84   -14.549      10.5      37.5   253.917     0.612     166.5   0.09153      77.7         H               193.2  0.047741  0.046778  0.001292  3.514291  0.695922  5.049834  1.110159    127.71    6.5202   59.1953   0.14711   5.87157   0.19305   0.00615 100.97449   6.78770     389.5  0.514365  0.001560  0.000378  0.000220  0.239497  7.552036  0.619466    101.60  1.000224  1.000019     2.653    15.355     148.0      89.4     118.8     445.6     15.77     -3.66     10.39      0.25      1.53      3.53     -4.41      1.18     -5.95     -3.55     -0.17      2.30      5.23      1.44     -2.68     -6.70      2.71      3.51     -0.57      1.06
      36.842480     -40.642681     243.8      2.34      3.85      90.0         3         1      3920      1000    371.95   -14.295      10.4      36.8   250.680     0.594      86.2   0.08418      62.5         H               193.2  0.045721  0.041000  0.001036  3.438616  0.681009  5.049294  1.093827     69.61    6.9397   64.5414   0.13251   5.99160   0.18274   0.00535 111.97813   7.20344     406.8  0.505952  0.000737  0.000117  0.000173  0.230881  7.474438  0.599307     91.11  1.000250  1.000020     2.539    13.887     133.1      90.4     131.7     432.5     14.85     -1.79      8.18      1.47      1.89      5.30     -3.09     -0.19     -3.96      0.90     -0.52     -0.27      4.02      2.22     -1.41     -5.78      3.31      5.16     -1.97      1.65
      36.852142     -40.709408     230.2      2.23      3.85      83.7         3         2      3920      2326    363.81   -14.391      10.5      37.2   250.390     0.595      76.2   0.08405      49.2         H               193.2  0.046688  0.039778  0.001159  3.490730  0.678763  5.142778  1.095130     50.73    6.7842   62.0474   0.13378   5.94924   0.18585   0.00559 107.49338   7.04980     398.5  0.507476  0.000662  0.000076  0.000164  0.227412  7.438093  0.601038     87.84  1.000175  1.000014     2.542    13.835     128.8      90.0     125.9     413.5     14.83     -1.54      7.36      1.24      1.99      5.51     -2.60     -0.87     -3.88      1.38     -0.68     -0.66      2.80      2.16     -0.79     -7.11      3.72      5.41     -2.34      1.78
      36.861691     -40.775581     243.4      2.29      3.85      93.3         3         3      3920      3652    338.92   -14.699      10.3      37.5   252.613     0.602      76.4   0.08653      62.0         H               193.2  0.047603  0.041574  0.001346  3.309622  0.691838  4.783814  1.100635     80.14    6.2844   54.4884   0.13712   5.80657   0.19758   0.00650  94.03317   6.56777     373.0  0.511009  0.000616  0.000046  0.000185  0.236036  7.470197  0.607813     93.14  1.000277  1.000022     2.604    14.774     133.1      89.1     109.2     405.5     15.71     -2.69      8.58     -0.12      2.34      4.42     -3.97      0.01     -5.77      0.07     -0.46      0.26      3.78      2.19     -2.62     -8.59      4.37      4.75     -1.72      2.21
