corner points
-46.08872604    10.46334934
-46.12431335    10.28807354
-46.27029419    10.49946117
-46.30577469    10.32422066
========== RESULTS WAVE VERSION 16.10.2018 ====================
IMAGE SIZE  X: 4476     Y:4786    col:row     POLARIZATION:VV
COVERAGE    X: 20.20942042km       Y: 19.82711897km 
RESOLUTION dX: 4.515062649m       dY:4.142732757m  
resolution of original product 4.515062649m x 4.142732757m;   raster step x:5996.003198m  
===============================================================
FLAGS: H=HIGH PROBABILITY SEA STATE, I=LAND(ISLAND), O=OUTLIER NO SEA STATE, N=NO WIND AVAILABLE, SEA STATE NOT VISIBLE, M=MEAN PROBABILITY SEA STATE, L= LOW PROBABILITY SEA STATE
Filtering wave length
 integration  Lmin=1m
 integration  Lmax=2200m
  peak        Lmin=100m
               FFT=1024pixels, 4623.424153m 
   mean-Hs (SWH_c)=0.2187524414m
         mean-wind=8.329630852m/s
--------------0--------------1---------2---------3---------4---------5---------6---------7---------8---------9--------10--------11--------12--------13--------14--------15--------16--------17--------18--------19------------------20--------21--------22--------23--------24--------25--------26--------27--------28--------29--------30--------31--------32--------33--------34--------35--------36--------37--------38--------39--------40--------41--------42--------43--------44--------45--------46--------47--------48--------49--------50--------51--------52--------53--------54--------55--------56--------57--------58--------59--------60--------61--------62--------63--------64--------65--------66--------67--------68--------69--------70--------71--------72--------73
            LAT            LON  P-LENGHT     SWH_o     SWH_c     P-DIR      LINE     POINT     ROW-Y     COL-X  M-INTENC        dB      WIND INC-ANGLE  ENERGY-M  ENERGY-N  ENERGY-R ENERGY-NN  FG-DEPTH      FLAG         HEADING-DEG    E30-75   E75-390  E390-600 meanincut   meanout   cut/out  STD-NORM  SPEC-MAX   GL-MEAN    GL-VAR      CORR   ENTROPY   HOMOGEN    ENERGY  CONTRAST  DISSIMIL     STD-O    E 1-30 E600-2000   E2000 >      GODA  LONG-HIG     Tmean  CONVOLUT  MEAN-DIR  relation     Sy/Sx  SKEWNESS  KURTOSIS  cutoff-A >50/10000     INT*V   INT-LOG  S-1_g1f1  S-2_g1f2  S-3_g1f3  S-4_g2f1  S-5_g2f2  S-6_g2f3  S-7_g3f1  S-8_g3f2  S-9_g3f3 S-10_g1f4 S-11_g2f4 S-12_g3f4 S-13_g1f5 S-14_g2f5 S-15_g3f5 S-16_g4f1 S-17_g4f2 S-18_g4f3 S-19_g4f4 S-20_g4f5
--------------1--------------2---------3---------4---------5---------6---------7---------8---------9--------10--------11--------12--------13--------14--------15--------16--------17--------18--------19--------20------------------21--------22--------23--------24--------25--------26--------27--------28--------29--------30--------31--------32--------33--------34--------35--------36--------37--------38--------39--------40--------41--------42--------43--------44--------45--------46--------47--------48--------49--------50--------51--------52--------53--------54--------55--------56--------57--------58--------59--------60--------61--------62--------63--------64--------65--------66--------67--------68--------69--------70--------71--------72--------73--------74
      10.434891     -46.137184     112.9      0.49      1.86      68.1         1         1      1000      1000    264.73   -15.772       8.2      36.9   216.626     0.544      43.0   0.06362       8.2         H               192.0  0.041382  0.017496  0.000399  1.654875  0.646546  2.559565  1.046620      9.70    4.8116   30.5961   0.09103   5.32862   0.23181   0.00979  55.62200   5.14583     277.1  0.484471  0.000545  0.000065  0.000111  0.177081  6.959494  0.546919     70.94  1.000008  1.000001     2.257    11.272      79.7      85.8      61.7     274.0     10.68     -1.20     -1.96      3.93      1.72      2.70      1.80      2.37      1.96      1.83      0.52      1.25     -1.51     -2.27      0.51     -2.76      3.15      5.27      0.01     -1.96
      10.445652     -46.191254     133.0      0.50      1.86      71.7         1         2      1000      2328    262.93   -15.802       8.4      37.3   216.119     0.543      38.8   0.06331      11.7         H               192.0  0.041466  0.017804  0.000453  1.674632  0.623053  2.687784  1.045861      9.56    4.7760   30.1122   0.09131   5.31533   0.23351   0.00990  54.72568   5.09715     275.0  0.483475  0.000521  0.000046  0.000113  0.180357  6.978916  0.546545     74.43  1.000003  1.000001     2.263    11.301      83.0      85.9      60.7     260.1     10.78     -1.51     -1.86      3.81      1.90      3.17      1.87      2.40      2.31      2.10      0.54      1.27     -1.50     -1.76      0.56     -2.97      4.23      5.78     -0.13     -1.13
      10.456312     -46.244865     133.0      0.51      1.86      71.7         1         3      1000      3656    261.45   -15.826       8.6      37.7   216.863     0.545      44.5   0.06372      11.7         H               192.0  0.041991  0.017600  0.000470  1.670918  0.658531  2.537342  1.047341     10.08    4.7465   29.8617   0.09225   5.30394   0.23465   0.01003  54.21392   5.07023     273.8  0.484609  0.000599  0.000065  0.000113  0.177762  6.952101  0.548221     74.26  1.000000  1.000000     2.266    11.251      81.3      85.7      60.1     253.8     10.64     -1.18     -1.93      3.99      1.87      3.03      2.14      2.24      1.98      2.09      0.63      1.77     -1.71     -1.91      0.98     -3.10      3.93      6.45     -0.73     -1.62
      10.381852     -46.147945     127.2      0.49      1.86      65.2         2         1      2448      1000    270.23   -15.683       8.3      36.9   216.975     0.547      35.8   0.06515      10.6         H               192.0  0.042116  0.018581  0.000414  1.765399  0.651296  2.710593  1.049458     14.09    4.9213   32.0541   0.09502   5.36900   0.22900   0.00945  58.01630   5.24284     283.6  0.485710  0.000436  0.000040  0.000113  0.181536  6.984050  0.550500     72.78  1.000021  1.000001     2.271    11.263      81.3      86.2      64.4     264.7     10.76     -1.49     -1.42      4.30      1.40      3.03      1.72      2.42      2.07      1.46      0.60      2.15     -2.20     -2.15      0.86     -2.33      3.48      5.53     -0.11     -1.10
      10.392616     -46.202007     119.7      0.49      1.86      65.0         2         2      2448      2328    253.18   -15.966       8.2      37.3   217.366     0.545      46.4   0.06327       9.3         H               192.0  0.041724  0.017062  0.000397  1.634326  0.637433  2.563919  1.047922      8.91    4.5828   28.0388   0.08982   5.24060   0.24039   0.01066  51.04025   4.91567     265.3  0.485864  0.000601  0.000079  0.000110  0.177052  6.938210  0.548333     74.35  1.000013  1.000001     2.262    11.127      83.0      85.3      56.5     249.9     10.65     -1.21     -1.44      4.12      1.30      2.39      1.72      2.08      1.67      1.44      0.60      1.37     -2.41     -2.01      1.02     -2.77      2.90      4.54      0.05     -0.91
      10.403280     -46.255608     116.7      0.51      1.86      69.0         2         3      2448      3656    260.75   -15.838       8.6      37.7   216.676     0.544      41.0   0.06323       8.8         H               192.0  0.041528  0.017739  0.000483  1.661829  0.640547  2.594392  1.046797      9.18    4.7330   29.6772   0.09173   5.29878   0.23527   0.01010  53.90975   5.06014     273.0  0.484301  0.000525  0.000055  0.000111  0.181326  6.973630  0.547697     74.69  0.999997  1.000000     2.244    11.043      81.3      85.7      59.7     257.9     10.82     -1.79     -1.87      3.77      1.55      3.01      1.97      1.79      2.12      1.88      0.09      1.26     -1.74     -2.14      0.57     -3.65      4.04      5.65     -1.05     -1.43
      10.328814     -46.158710     178.1      0.49      1.86     126.0         3         1      3896      1000    267.33   -15.730       8.2      36.9   217.374     0.548      40.3   0.06438      23.2         H               192.0  0.042086  0.018500  0.000536  1.728239  0.655056  2.638306  1.050198     11.33    4.8640   31.4265   0.09373   5.34778   0.23068   0.00965  56.96152   5.19420     280.7  0.486262  0.000522  0.000048  0.000112  0.183014  6.985659  0.551203     74.93  1.000010  1.000001     2.264    11.051      83.0      85.9      63.2     253.9     11.02     -2.08     -2.28      3.38      1.90      2.98      1.70      2.55      1.74      2.45      0.19      1.56     -2.51     -2.41      0.50     -4.21      4.41      6.28     -1.48     -1.17
      10.339581     -46.212757     182.5      0.49      1.86     124.0         3         2      3896      2328    250.76   -16.007       8.1      37.3   217.851     0.548      49.8   0.06388      24.7         H               192.0  0.041575  0.018014  0.000407  1.716662  0.650893  2.637394  1.050006     11.40    4.5344   27.6082   0.09139   5.22101   0.24213   0.01091  50.16968   4.87163     263.3  0.487127  0.000627  0.000086  0.000110  0.179649  6.982000  0.550574     77.79  1.000019  1.000001     2.270    11.218      81.3      85.0      55.5     240.8     10.61     -1.35     -1.53      4.28      0.79      2.64      1.65      2.13      2.12      1.02      0.47      1.16     -2.00     -2.12      1.10     -2.19      2.32      5.05      0.67     -1.35
      10.350248     -46.266350     176.7      0.50      1.86     122.8         3         3      3896      3656    252.66   -15.975       8.4      37.7   216.852     0.544      42.7   0.06276      22.8         H               192.0  0.041146  0.017664  0.000480  1.662425  0.637115  2.609299  1.045987     10.81    4.5710   27.8123   0.08906   5.23615   0.24010   0.01070  50.67049   4.90552     264.3  0.483933  0.000605  0.000055  0.000111  0.180526  6.970546  0.546489     75.27  0.999997  1.000000     2.247    11.057      83.0      85.1      56.0     246.2     10.83     -1.58     -1.78      3.76      1.24      2.89      1.80      2.50      1.89      1.33      0.14      1.70     -1.77     -2.35      0.73     -3.56      3.35      5.44     -0.34     -1.70
