corner points
-41.34449005    33.45105743
-41.38271713    33.27737808
-41.55951691    33.48375702
-41.59729767    33.31009293
========== RESULTS WAVE VERSION 16.10.2018 ====================
IMAGE SIZE  X: 4476     Y:4761    col:row     POLARIZATION:VV
COVERAGE    X: 20.228355km       Y: 19.58727402km 
RESOLUTION dX: 4.519292895m       dY:4.114109225m  
resolution of original product 4.519292895m x 4.114109225m;   raster step x:5997.101672m  
===============================================================
FLAGS: H=HIGH PROBABILITY SEA STATE, I=LAND(ISLAND), O=OUTLIER NO SEA STATE, N=NO WIND AVAILABLE, SEA STATE NOT VISIBLE, M=MEAN PROBABILITY SEA STATE, L= LOW PROBABILITY SEA STATE
Filtering wave length
 integration  Lmin=1m
 integration  Lmax=2200m
  peak        Lmin=100m
               FFT=1024pixels, 4627.755925m 
   mean-Hs (SWH_c)=2.469322357m
         mean-wind=11.42754745m/s
--------------0--------------1---------2---------3---------4---------5---------6---------7---------8---------9--------10--------11--------12--------13--------14--------15--------16--------17--------18--------19------------------20--------21--------22--------23--------24--------25--------26--------27--------28--------29--------30--------31--------32--------33--------34--------35--------36--------37--------38--------39--------40--------41--------42--------43--------44--------45--------46--------47--------48--------49--------50--------51--------52--------53--------54--------55--------56--------57--------58--------59--------60--------61--------62--------63--------64--------65--------66--------67--------68--------69--------70--------71--------72--------73
            LAT            LON  P-LENGHT     SWH_o     SWH_c     P-DIR      LINE     POINT     ROW-Y     COL-X  M-INTENC        dB      WIND INC-ANGLE  ENERGY-M  ENERGY-N  ENERGY-R ENERGY-NN  FG-DEPTH      FLAG         HEADING-DEG    E30-75   E75-390  E390-600 meanincut   meanout   cut/out  STD-NORM  SPEC-MAX   GL-MEAN    GL-VAR      CORR   ENTROPY   HOMOGEN    ENERGY  CONTRAST  DISSIMIL     STD-O    E 1-30 E600-2000   E2000 >      GODA  LONG-HIG     Tmean  CONVOLUT  MEAN-DIR  relation     Sy/Sx  SKEWNESS  KURTOSIS  cutoff-A >50/10000     INT*V   INT-LOG  S-1_g1f1  S-2_g1f2  S-3_g1f3  S-4_g2f1  S-5_g2f2  S-6_g2f3  S-7_g3f1  S-8_g3f2  S-9_g3f3 S-10_g1f4 S-11_g2f4 S-12_g3f4 S-13_g1f5 S-14_g2f5 S-15_g3f5 S-16_g4f1 S-17_g4f2 S-18_g4f3 S-19_g4f4 S-20_g4f5
--------------1--------------2---------3---------4---------5---------6---------7---------8---------9--------10--------11--------12--------13--------14--------15--------16--------17--------18--------19--------20------------------21--------22--------23--------24--------25--------26--------27--------28--------29--------30--------31--------32--------33--------34--------35--------36--------37--------38--------39--------40--------41--------42--------43--------44--------45--------46--------47--------48--------49--------50--------51--------52--------53--------54--------55--------56--------57--------58--------59--------60--------61--------62--------63--------64--------65--------66--------67--------68--------69--------70--------71--------72--------73--------74
      33.421993     -41.401085     252.9      2.63      4.87      79.6         1         1      1000      1000    408.20   -13.891      11.1      36.8   249.769     0.617     242.7   0.09317      77.3         H               192.9  0.049173  0.044568  0.001980  3.387913  0.697006  4.860663  1.115144     64.90    7.6480   79.0481   0.14786   6.16558   0.17139   0.00458 134.71965   7.88471     455.3  0.517978  0.002747  0.000513  0.000183  0.246428  7.513770  0.625253     87.21  1.000278  1.000022     2.699    15.905     160.0      91.3     164.3     522.6     16.05     -1.81      9.27     -1.13      1.67      4.31     -2.83     -1.83     -5.18      1.51     -2.40     -0.68      3.84      2.26     -1.12    -10.66      5.46      4.83     -4.39      1.77
      33.431740     -41.465046     255.2      3.00      4.87      83.0         1         2      1000      2327    418.69   -13.781      11.6      37.2   251.838     0.629     256.0   0.10000      82.9         H               192.9  0.050647  0.048998  0.002324  3.495773  0.727804  4.803175  1.126133     73.80    7.8540   84.0328   0.16014   6.21059   0.16943   0.00444 141.15225   8.05212     471.5  0.523382  0.003504  0.000493  0.000193  0.249436  7.578753  0.639584     93.57  1.000289  1.000026     2.752    16.399     166.7      91.5     175.6     543.0     16.26     -2.58     10.46     -1.21      1.76      3.47     -3.34     -0.49     -5.75     -0.39     -1.17      0.28      4.56      1.89     -1.07    -10.81      4.46      3.51     -2.28      0.45
      33.441372     -41.528473     252.9      1.98      4.87      79.6         1         3      1000      3654    317.72   -14.980       9.8      37.6   249.506     0.611     235.4   0.08914      77.3         H               192.9  0.048768  0.039078  0.001544  3.029726  0.697194  4.345599  1.109835     79.38    5.8654   48.8533   0.14035   5.67763   0.20812   0.00743  83.99269   6.16825     352.6  0.518292  0.002877  0.000528  0.000175  0.239837  7.428195  0.617952     84.61  1.000334  1.000025     2.673    15.389     166.7      88.1      96.6     381.1     16.01     -0.39     11.01     -0.53      1.09      2.63     -3.89     -1.29     -5.97      1.66     -1.02     -0.89      5.32      1.55     -1.99     -8.98      3.07      1.74     -2.14      0.56
      33.368797     -41.412766     288.6      3.84      4.87      86.1         2         1      2458      1000    575.76   -12.398      13.7      36.8   257.734     0.658     582.1   0.11466     100.0         H               192.9  0.054193  0.055967  0.002718  3.539297  0.753028  4.700086  1.153967    138.94   10.8301  148.4374   0.18167   6.77964   0.13306   0.00247 242.94394  10.76152     664.3  0.537080  0.006490  0.001765  0.000247  0.256653  7.637752  0.671749     87.03  1.000335  1.000034     2.918    18.129     190.7      94.7     353.3     785.6     16.83     -1.38     12.75     -1.61      1.26      2.49     -4.32     -0.97     -7.80      0.51     -0.64     -0.93      7.49      0.75     -3.09    -10.97      3.43      2.90     -0.79     -1.64
      33.378544     -41.476685     256.6      2.89      4.87      86.5         2         2      2458      2327    426.96   -13.696      11.7      37.2   254.728     0.636     469.4   0.10157      87.0         H               192.9  0.051356  0.047441  0.001826  3.557972  0.719232  4.946905  1.134282    113.39    8.0131   87.9868   0.16330   6.24488   0.16753   0.00433 147.23854   8.20782     484.3  0.529061  0.005302  0.001310  0.000205  0.245939  7.535472  0.646652     88.93  1.000378  1.000033     2.799    16.941     174.0      91.7     184.5     566.9     16.16     -0.53     11.15     -0.58      0.72      3.38     -3.78     -1.69     -6.08      1.96     -2.12     -1.45      5.76      1.80     -2.94     -9.22      2.75      2.72     -3.38      1.41
      33.388176     -41.540070     252.9      1.65      4.87      79.6         2         3      2458      3654    256.54   -15.908       8.4      37.6   254.783     0.627     497.8   0.09327      77.3         H               192.9  0.050186  0.038718  0.001810  2.933016  0.703635  4.168378  1.126272     83.92    4.6485   33.0063   0.14558   5.25052   0.24687   0.01150  56.40257   4.99384     288.9  0.528566  0.006575  0.001450  0.000176  0.237776  7.387636  0.635435     82.23  1.000296  1.000020     2.821    17.403     181.9      84.4      63.6     336.5     16.09      0.61     10.56     -1.22      0.95      2.36     -3.64     -1.76     -6.26      2.76     -0.30     -2.28      5.17      1.46     -2.52    -10.55      2.08      2.13     -0.88      0.78
      33.315598     -41.424442     242.0      3.75      4.87      83.4         3         1      3916      1000    603.32   -12.194      14.0      36.8   254.766     0.646     197.2   0.11008      60.4         H               192.9  0.054037  0.053438  0.002237  3.670297  0.749561  4.896593  1.140840    125.07   11.3605  158.5671   0.16910   6.86867   0.12747   0.00222 263.50555  11.28075     688.3  0.534021  0.002243  0.000352  0.000236  0.250699  7.608975  0.656864     86.73  1.000390  1.000042     2.831    17.550     181.9      95.3     383.7     811.5     16.47     -1.33     12.26     -0.76      1.05      3.46     -3.97     -1.24     -7.01      1.02     -1.67     -0.79      6.94      1.93     -2.85     -9.69      3.44      3.49     -2.94      0.28
      33.325348     -41.488319     259.0      0.64      4.87      72.1         3         2      3916      2327    391.72   -14.070      11.1      37.2   267.107     0.693    1268.2   0.12565      96.1         H               192.9  0.061467  0.043885  0.002792  3.470261  0.788132  4.403145  1.188962     72.28    7.3069   80.5745   0.19328   6.05611   0.18746   0.00560 130.00076   7.53079     465.6  0.565566  0.016338  0.003919  0.000186  0.229657  7.293622  0.708866     76.03  1.000333  1.000031     3.124    21.266     267.9      89.9     163.8     600.4     15.77      1.74     10.35     -1.71      0.95      2.40     -1.48     -2.80     -4.60      4.32     -0.86     -2.99      4.30      1.58      0.13    -13.55      2.78      1.31     -1.93     -0.73
      33.334980     -41.551666       0.0      0.00      0.00       0.0         3         3      3916      3654    405.24     0.000       0.0      37.6     0.000     0.000       0.0   0.00000       0.0         O               192.9  0.000000  0.000000  0.000000  0.000000  0.000000  0.000000  0.000000      0.00    0.0000    0.0000   0.00000   0.00000   0.00000   0.00000   0.00000   0.00000       0.0  0.000000  0.000000  0.000000  0.000000  0.000000  0.000000  0.000000      0.00  0.000000  0.000000     0.000     0.000       0.0       0.0       0.0       0.0      0.00      0.00      0.00      0.00      0.00      0.00      0.00      0.00      0.00      0.00      0.00      0.00      0.00      0.00      0.00      0.00      0.00      0.00      0.00      0.00
