corner points
-35.27574158    48.08682632
-35.33397675    47.90873337
-35.5487709    48.12578201
-35.60599899    47.94762421
========== RESULTS WAVE VERSION 16.10.2018 ====================
IMAGE SIZE  X: 5643     Y:4919    col:row     POLARIZATION:VV
COVERAGE    X: 20.68067221km       Y: 20.2214758km 
RESOLUTION dX: 3.664836473m       dY:4.110891603m  
resolution of original product 3.664836473m x 4.110891603m;   raster step x:5999.337306m  
===============================================================
FLAGS: H=HIGH PROBABILITY SEA STATE, I=LAND(ISLAND), O=OUTLIER NO SEA STATE, N=NO WIND AVAILABLE, SEA STATE NOT VISIBLE, M=MEAN PROBABILITY SEA STATE, L= LOW PROBABILITY SEA STATE
Filtering wave length
 integration  Lmin=1m
 integration  Lmax=2200m
  peak        Lmin=100m
               FFT=1024pixels, 3752.792548m 
   mean-Hs (SWH_c)=0.3770183563m
         mean-wind=6.391152382m/s
--------------0--------------1---------2---------3---------4---------5---------6---------7---------8---------9--------10--------11--------12--------13--------14--------15--------16--------17--------18--------19------------------20--------21--------22--------23--------24--------25--------26--------27--------28--------29--------30--------31--------32--------33--------34--------35--------36--------37--------38--------39--------40--------41--------42--------43--------44--------45--------46--------47--------48--------49--------50--------51--------52--------53--------54--------55--------56--------57--------58--------59--------60--------61--------62--------63--------64--------65--------66--------67--------68--------69--------70--------71--------72--------73
            LAT            LON  P-LENGHT     SWH_o     SWH_c     P-DIR      LINE     POINT     ROW-Y     COL-X  M-INTENC        dB      WIND INC-ANGLE  ENERGY-M  ENERGY-N  ENERGY-R ENERGY-NN  FG-DEPTH      FLAG         HEADING-DEG    E30-75   E75-390  E390-600 meanincut   meanout   cut/out  STD-NORM  SPEC-MAX   GL-MEAN    GL-VAR      CORR   ENTROPY   HOMOGEN    ENERGY  CONTRAST  DISSIMIL     STD-O    E 1-30 E600-2000   E2000 >      GODA  LONG-HIG     Tmean  CONVOLUT  MEAN-DIR  relation     Sy/Sx  SKEWNESS  KURTOSIS  cutoff-A >50/10000     INT*V   INT-LOG  S-1_g1f1  S-2_g1f2  S-3_g1f3  S-4_g2f1  S-5_g2f2  S-6_g2f3  S-7_g3f1  S-8_g3f2  S-9_g3f3 S-10_g1f4 S-11_g2f4 S-12_g3f4 S-13_g1f5 S-14_g2f5 S-15_g3f5 S-16_g4f1 S-17_g4f2 S-18_g4f3 S-19_g4f4 S-20_g4f5
--------------1--------------2---------3---------4---------5---------6---------7---------8---------9--------10--------11--------12--------13--------14--------15--------16--------17--------18--------19--------20------------------21--------22--------23--------24--------25--------26--------27--------28--------29--------30--------31--------32--------33--------34--------35--------36--------37--------38--------39--------40--------41--------42--------43--------44--------45--------46--------47--------48--------49--------50--------51--------52--------53--------54--------55--------56--------57--------58--------59--------60--------61--------62--------63--------64--------65--------66--------67--------68--------69--------70--------71--------72--------73--------74
      48.057747     -35.337204     256.3      0.45      2.19     136.9         1         1      1000      1000   2447.12    -6.113       6.7      23.4   357.817     0.701     100.5   0.15755      85.9         H               194.6  0.077780  0.042572  0.000745  4.228449  0.897572  4.710987  1.186985     16.13    4.4033   32.9991   0.25470   5.12048   0.27554   0.01468  49.18805   4.52843    2904.5  0.578912  0.001294  0.000086  0.000181  0.174814  6.995304  0.727265     93.40  1.000201  1.000021     3.173    22.376      78.1      82.4      61.6     380.0     11.79     -3.21      0.34      3.08     -0.51      2.96      0.40      1.37      2.35     -0.15     -1.43     -0.68     -1.46      0.21      1.44     -3.00      0.20      3.09     -1.06      1.10
      48.069202     -35.417206     101.7      0.59      2.19     102.6         1         2      1000      2637   2107.29    -6.763       6.3      23.9   361.833     0.711     110.3   0.16107       6.6         H               194.6  0.079727  0.047987  0.000735  4.751791  0.928922  5.115385  1.196214     25.44    3.7283   24.9920   0.25890   4.82010   0.30890   0.02001  37.04282   3.88850    2520.5  0.581493  0.001438  0.000082  0.000188  0.177772  7.042784  0.738870     96.90  1.000187  1.000019     3.185    21.265      79.7      79.2      46.0     295.5     11.92     -4.26      0.11      2.85     -0.36      3.65      0.49      1.08      2.75     -0.10     -2.17     -1.61     -1.88      0.12      1.77     -2.72      0.76      3.94     -1.68      0.65
      48.080391     -35.495777     103.6      0.46      2.19     110.2         1         3      1000      4274   1790.53    -7.470       5.8      24.4   361.476     0.709     113.2   0.16125       6.8         H               194.6  0.079039  0.046804  0.000866  4.705127  0.916577  5.133367  1.194612     24.61    3.1022   18.0545   0.25817   4.49856   0.34597   0.02748  26.78690   3.29196    2139.0  0.581722  0.001560  0.000095  0.000192  0.177273  7.026741  0.737124    100.13  1.000180  1.000018     3.153    20.902      79.7      75.4      33.2     255.9     11.99     -3.60      0.86      2.81     -0.74      3.54      0.51      1.26      2.25     -1.10     -1.70     -0.58     -1.37      0.30      2.05     -3.43     -0.20      4.14     -1.48      0.78
      48.004910     -35.354439     293.5      0.41      2.19     146.8         2         1      2459      1000   2467.18    -6.078       6.8      23.4   359.522     0.708     125.6   0.16147     100.0         H               194.6  0.079957  0.041226  0.000941  4.025487  0.910748  4.419979  1.193408     23.57    4.4462   33.7961   0.25668   5.13601   0.27462   0.01456  50.24237   4.56959    2944.3  0.584344  0.001894  0.000112  0.000167  0.181120  6.976620  0.734697     91.76  1.000192  1.000018     3.254    23.938      78.1      82.5      63.3     394.8     12.33     -3.96      0.32      2.06     -0.13      3.09      0.13      1.66      2.13      0.02     -1.13     -1.08     -1.54      0.19      1.84     -4.74      0.25      3.39     -0.53      0.06
      48.016357     -35.434353     256.3      0.40      2.19     136.9         2         2      2459      2637   2152.05    -6.671       6.5      23.9   359.625     0.706     156.8   0.16025      85.9         H               194.6  0.079230  0.039432  0.000793  3.865154  0.906292  4.264802  1.191548     16.82    3.8224   25.9202   0.25598   4.86586   0.30284   0.01901  38.56995   3.98351    2564.2  0.584618  0.002301  0.000120  0.000172  0.178058  6.964355  0.732071     89.08  1.000194  1.000020     3.156    21.181      78.1      79.7      47.8     305.7     11.95     -3.36      0.23      2.78     -0.55      3.01      0.25      1.22      2.12     -0.54     -1.50     -0.68     -1.43     -0.20      1.59     -3.57      0.40      3.12     -0.81      0.20
      48.027546     -35.512836     236.2      0.36      2.19     153.9         2         3      2459      4274   1798.26    -7.451       5.8      24.4   362.924     0.713     159.4   0.16175      54.3         H               194.6  0.081394  0.039949  0.000801  3.897774  0.922111  4.227014  1.197579     20.40    3.1225   18.3275   0.25647   4.51012   0.34456   0.02711  27.25428   3.31608    2153.6  0.588724  0.002406  0.000139  0.000170  0.179634  6.951489  0.739941     90.85  1.000179  1.000018     3.234    22.631      79.7      75.6      33.7     270.7     11.96     -3.26      0.16      2.87     -0.83      3.47      0.29      1.33      2.38     -0.07     -1.81     -0.85     -1.69      0.06      1.75     -3.49     -0.13      3.75     -1.37      1.02
      47.952072     -35.371651     104.5      0.41      2.19     102.9         3         1      3918      1000   2445.00    -6.117       6.7      23.4   359.925     0.707      65.2   0.15930       7.0         H               194.6  0.080767  0.040072  0.000611  3.976880  0.925648  4.296320  1.192247     18.27    4.4049   33.2523   0.25431   5.11995   0.27587   0.01474  49.59156   4.53642    2915.0  0.584944  0.000717  0.000032  0.000185  0.178009  6.943492  0.733134     91.11  1.000195  1.000019     3.198    22.421      79.7      82.4      62.1     380.6     11.92     -3.35      1.02      3.11     -0.32      2.66      0.08      0.96      2.04     -0.12     -1.54     -1.17     -1.40     -0.13      1.51     -2.43      0.62      2.58     -1.24      0.40
      47.963512     -35.451473     102.3      0.40      2.19     101.2         3         2      3918      2637   2149.50    -6.677       6.5      23.9   361.622     0.712      60.7   0.16186       6.7         H               194.6  0.081270  0.043219  0.000717  4.274329  0.929120  4.600407  1.196475     19.08    3.8163   25.9603   0.25734   4.86214   0.30387   0.01915  38.55948   3.97572    2571.7  0.586635  0.000630  0.000022  0.000179  0.177725  6.980706  0.739480     95.25  1.000191  1.000019     3.262    23.932      78.1      79.6      48.0     338.2     11.73     -3.52      0.46      3.38     -0.97      3.46      0.55      1.14      2.86     -0.51     -1.96     -1.17     -0.76      0.07      1.54     -2.36     -0.26      3.46     -1.73      0.67
      47.974693     -35.529873     253.1      0.40      2.19     147.3         3         3      3918      4274   1944.60    -7.112       6.5      24.4   364.581     0.726      73.9   0.16999      77.9         H               194.6  0.083121  0.044318  0.000736  4.354488  0.932204  4.671176  1.207962     25.64    3.4095   21.7596   0.26337   4.65875   0.32801   0.02370  32.05779   3.59062    2348.8  0.597191  0.000914  0.000025  0.000181  0.182773  6.993019  0.753895     96.69  1.000188  1.000020     3.240    21.974      83.0      77.2      39.7     277.3     12.04     -4.05      0.79      3.11     -0.22      3.35     -0.25      1.92      2.27     -0.44     -1.53     -0.95     -1.98      0.45      2.05     -2.38      0.30      3.32     -0.85      1.24
