corner points
-41.60479736    23.41599083
-41.64458084    23.23579216
-41.80216217    23.4526062
-41.84165192    23.27240753
========== RESULTS WAVE VERSION 16.10.2018 ====================
IMAGE SIZE  X: 5643     Y:4925    col:row     POLARIZATION:VV
COVERAGE    X: 20.49604477km       Y: 20.39600112km 
RESOLUTION dX: 3.632118514m       dY:4.141320023m  
resolution of original product 3.632118514m x 4.141320023m;   raster step x:5996.627666m  
===============================================================
FLAGS: H=HIGH PROBABILITY SEA STATE, I=LAND(ISLAND), O=OUTLIER NO SEA STATE, N=NO WIND AVAILABLE, SEA STATE NOT VISIBLE, M=MEAN PROBABILITY SEA STATE, L= LOW PROBABILITY SEA STATE
Filtering wave length
 integration  Lmin=1m
 integration  Lmax=2200m
  peak        Lmin=100m
               FFT=1024pixels, 3719.289358m 
   mean-Hs (SWH_c)=0.2m
         mean-wind=5.879834652m/s
--------------0--------------1---------2---------3---------4---------5---------6---------7---------8---------9--------10--------11--------12--------13--------14--------15--------16--------17--------18--------19------------------20--------21--------22--------23--------24--------25--------26--------27--------28--------29--------30--------31--------32--------33--------34--------35--------36--------37--------38--------39--------40--------41--------42--------43--------44--------45--------46--------47--------48--------49--------50--------51--------52--------53--------54--------55--------56--------57--------58--------59--------60--------61--------62--------63--------64--------65--------66--------67--------68--------69--------70--------71--------72--------73
            LAT            LON  P-LENGHT     SWH_o     SWH_c     P-DIR      LINE     POINT     ROW-Y     COL-X  M-INTENC        dB      WIND INC-ANGLE  ENERGY-M  ENERGY-N  ENERGY-R ENERGY-NN  FG-DEPTH      FLAG         HEADING-DEG    E30-75   E75-390  E390-600 meanincut   meanout   cut/out  STD-NORM  SPEC-MAX   GL-MEAN    GL-VAR      CORR   ENTROPY   HOMOGEN    ENERGY  CONTRAST  DISSIMIL     STD-O    E 1-30 E600-2000   E2000 >      GODA  LONG-HIG     Tmean  CONVOLUT  MEAN-DIR  relation     Sy/Sx  SKEWNESS  KURTOSIS  cutoff-A >50/10000     INT*V   INT-LOG  S-1_g1f1  S-2_g1f2  S-3_g1f3  S-4_g2f1  S-5_g2f2  S-6_g2f3  S-7_g3f1  S-8_g3f2  S-9_g3f3 S-10_g1f4 S-11_g2f4 S-12_g3f4 S-13_g1f5 S-14_g2f5 S-15_g3f5 S-16_g4f1 S-17_g4f2 S-18_g4f3 S-19_g4f4 S-20_g4f5
--------------1--------------2---------3---------4---------5---------6---------7---------8---------9--------10--------11--------12--------13--------14--------15--------16--------17--------18--------19--------20------------------21--------22--------23--------24--------25--------26--------27--------28--------29--------30--------31--------32--------33--------34--------35--------36--------37--------38--------39--------40--------41--------42--------43--------44--------45--------46--------47--------48--------49--------50--------51--------52--------53--------54--------55--------56--------57--------58--------59--------60--------61--------62--------63--------64--------65--------66--------67--------68--------69--------70--------71--------72--------73--------74
      23.386070     -41.648746     347.2      0.37      1.71     169.2         1         1      1000      1000   2086.34    -6.806       5.9      23.7   396.623     0.651      96.3   0.13512     100.0         H               192.4  0.058717  0.031029  0.001892  2.411399  0.829166  2.908223  1.143981     44.40    3.6848   22.4894   0.22851   4.81695   0.30307   0.01896  34.70071   3.85687    2386.7  0.558592  0.001292  0.000055  0.000134  0.198599  7.089214  0.676696    136.79  1.000001  1.000000     2.856    17.438      66.4      79.8      42.6     260.8     13.08     -2.05     -7.29     -2.33      2.01      6.68      1.97      0.03      1.06      2.91     -2.16      0.33      2.05     -3.86     -0.04    -14.09      4.33     15.29     -5.90     -6.61
      23.396912     -41.707088     377.5      0.39      1.71     168.3         1         2      1000      2651   1972.21    -7.050       6.2      24.2   400.242     0.657     131.7   0.13635     100.0         H               192.4  0.058088  0.031534  0.003301  2.261418  0.831036  2.721202  1.148986     89.95    3.4487   20.1852   0.22822   4.69871   0.31739   0.02153  31.15702   3.63602    2265.9  0.563181  0.001668  0.000097  0.000143  0.204712  7.104313  0.683287    158.81  0.999991  1.000000     2.884    17.994      72.4      78.4      38.1     265.0     14.16     -3.33     -9.53     -5.76      4.44      9.64      3.63     -1.51     -1.38      4.90     -4.98      2.38      2.86     -4.56      1.11    -22.71     11.69     24.53    -14.29     -9.95
      23.407536     -41.764389     351.8      0.39      1.71     174.6         1         3      1000      4302   1787.50    -7.478       6.3      24.7   396.160     0.646     113.2   0.13250     100.0         H               192.4  0.057282  0.031674  0.002837  2.290637  0.825136  2.776072  1.140038     75.24    3.0960   16.4176   0.22510   4.51349   0.33750   0.02549  25.44442   3.29219    2037.8  0.552951  0.001492  0.000067  0.000138  0.206012  7.134289  0.670547    158.27  0.999946  0.999996     2.831    17.306      67.5      76.4      31.3     226.6     13.83     -3.06     -8.86     -4.62      3.59      8.96      3.13     -0.05     -0.88      4.46     -3.27      1.01      2.75     -4.73      1.32    -20.00      8.05     22.40     -9.12    -10.54
      23.333080     -41.660431     347.2      0.38      1.71     169.2         2         1      2448      1000   2158.88    -6.658       6.2      23.7   399.608     0.659     103.0   0.13851     100.0         H               192.4  0.058953  0.031321  0.002080  2.378443  0.846646  2.809253  1.150950     58.07    3.8220   24.2489   0.23110   4.87980   0.29732   0.01795  37.28989   3.98643    2484.8  0.565698  0.001357  0.000053  0.000134  0.201596  7.098671  0.685239    147.67  0.999998  1.000000     2.939    19.110      68.7      80.4      45.8     296.3     13.39     -2.09     -7.85     -3.23      2.51      7.53      2.26      0.07      0.42      2.96     -2.07      1.01      2.20     -4.28      0.60    -15.89      5.56     17.55     -6.08     -8.37
      23.343922     -41.718750     347.2      0.37      1.71     169.2         2         2      2448      2651   1887.12    -7.242       5.9      24.2   392.863     0.639      81.7   0.13027     100.0         H               192.4  0.056047  0.031457  0.001984  2.378016  0.813303  2.923899  1.134650     57.57    3.3032   18.2072   0.22457   4.62728   0.32419   0.02275  28.23724   3.48491    2141.2  0.548954  0.001023  0.000034  0.000135  0.203834  7.150094  0.663758    147.75  0.999974  0.999998     2.787    16.791      65.3      77.8      34.7     242.3     13.15     -1.87     -7.91     -2.51      2.05      7.51      2.21     -0.14      0.50      2.69     -1.97      0.23      2.11     -5.01      0.55    -14.64      4.22     17.70     -4.88     -9.49
      23.354546     -41.776024     368.1      0.35      1.71     162.7         2         3      2448      4302   1607.99    -7.937       5.5      24.7   394.480     0.641      71.2   0.12908     100.0         H               192.4  0.055986  0.030071  0.002626  2.223991  0.830055  2.679328  1.134535     56.09    2.7398   13.1478   0.22000   4.30584   0.36180   0.03102  20.51064   2.95516    1824.3  0.551632  0.000764  0.000017  0.000131  0.202132  7.104831  0.664758    150.45  0.999988  0.999999     2.786    16.777      66.4      74.0      25.3     206.3     13.53     -2.96     -8.34     -4.02      3.44      7.86      3.00     -0.81     -0.40      3.85     -3.34      1.07      1.84     -3.45      0.13    -18.89      8.60     20.29     -9.23     -6.66
      23.280088     -41.672112     377.5      0.35      1.71     168.3         3         1      3896      1000   2023.51    -6.939       5.7      23.7   399.730     0.657     133.7   0.13646     100.0         H               192.4  0.058668  0.032423  0.002940  2.327896  0.827245  2.814035  1.149916     83.99    3.5798   21.5589   0.23024   4.76422   0.30979   0.02016  33.19035   3.75901    2326.8  0.561563  0.001533  0.000107  0.000139  0.204876  7.116020  0.683243    160.63  0.999980  0.999998     2.882    17.804      68.7      79.1      40.6     263.7     13.89     -3.21     -9.25     -4.94      3.92      9.10      3.21     -0.87     -1.06      5.03     -4.54      1.79      2.81     -4.48      0.88    -20.52      9.48     23.14    -12.47     -9.79
      23.290930     -41.730408     347.2      0.35      1.71     169.2         3         2      3896      2651   1810.22    -7.423       5.6      24.2   396.422     0.644      86.5   0.12973     100.0         H               192.4  0.056552  0.031354  0.002260  2.292298  0.806918  2.840806  1.136936     61.42    3.1465   16.8106   0.22229   4.54293   0.33389   0.02466  26.14744   3.34288    2058.0  0.552908  0.001032  0.000037  0.000135  0.205514  7.134883  0.668503    152.95  0.999977  0.999999     2.839    17.699      68.7      76.8      32.1     243.2     13.57     -2.66     -8.40     -3.76      3.03      7.81      2.25     -0.31      0.05      3.74     -2.84      1.16      2.08     -4.09      0.45    -17.02      7.11     18.90     -8.14     -8.00
      23.301554     -41.787655     351.8      0.36      1.71     174.6         3         3      3896      4302   1647.13    -7.833       5.7      24.7   394.729     0.640      97.0   0.12929     100.0         H               192.4  0.056709  0.029010  0.002071  2.168821  0.830206  2.612389  1.135135     42.18    2.8187   13.8115   0.22078   4.35398   0.35633   0.02966  21.52470   3.02886    1869.6  0.551223  0.001279  0.000056  0.000130  0.201776  7.091587  0.663837    135.17  1.000008  1.000001     2.792    16.703      67.5      74.6      26.6     197.4     13.26     -2.25     -7.75     -2.89      2.32      7.15      2.03      0.17      0.35      3.19     -1.94      0.32      2.04     -4.15      1.17    -15.60      4.77     17.48     -5.51     -9.08
