corner points
-34.69597626    49.83697128
-34.75709915    49.65917206
-34.97893143    49.87651825
-35.03895187    49.69864655
========== RESULTS WAVE VERSION 16.10.2018 ====================
IMAGE SIZE  X: 5643     Y:4917    col:row     POLARIZATION:VV
COVERAGE    X: 20.70591836km       Y: 20.20201843km 
RESOLUTION dX: 3.66931036m       dY:4.108606554m  
resolution of original product 3.66931036m x 4.108606554m;   raster step x:5999.322439m  
===============================================================
FLAGS: H=HIGH PROBABILITY SEA STATE, I=LAND(ISLAND), O=OUTLIER NO SEA STATE, N=NO WIND AVAILABLE, SEA STATE NOT VISIBLE, M=MEAN PROBABILITY SEA STATE, L= LOW PROBABILITY SEA STATE
Filtering wave length
 integration  Lmin=1m
 integration  Lmax=2200m
  peak        Lmin=100m
               FFT=1024pixels, 3757.373809m 
   mean-Hs (SWH_c)=0.4125831604m
         mean-wind=8.444239616m/s
--------------0--------------1---------2---------3---------4---------5---------6---------7---------8---------9--------10--------11--------12--------13--------14--------15--------16--------17--------18--------19------------------20--------21--------22--------23--------24--------25--------26--------27--------28--------29--------30--------31--------32--------33--------34--------35--------36--------37--------38--------39--------40--------41--------42--------43--------44--------45--------46--------47--------48--------49--------50--------51--------52--------53--------54--------55--------56--------57--------58--------59--------60--------61--------62--------63--------64--------65--------66--------67--------68--------69--------70--------71--------72--------73
            LAT            LON  P-LENGHT     SWH_o     SWH_c     P-DIR      LINE     POINT     ROW-Y     COL-X  M-INTENC        dB      WIND INC-ANGLE  ENERGY-M  ENERGY-N  ENERGY-R ENERGY-NN  FG-DEPTH      FLAG         HEADING-DEG    E30-75   E75-390  E390-600 meanincut   meanout   cut/out  STD-NORM  SPEC-MAX   GL-MEAN    GL-VAR      CORR   ENTROPY   HOMOGEN    ENERGY  CONTRAST  DISSIMIL     STD-O    E 1-30 E600-2000   E2000 >      GODA  LONG-HIG     Tmean  CONVOLUT  MEAN-DIR  relation     Sy/Sx  SKEWNESS  KURTOSIS  cutoff-A >50/10000     INT*V   INT-LOG  S-1_g1f1  S-2_g1f2  S-3_g1f3  S-4_g2f1  S-5_g2f2  S-6_g2f3  S-7_g3f1  S-8_g3f2  S-9_g3f3 S-10_g1f4 S-11_g2f4 S-12_g3f4 S-13_g1f5 S-14_g2f5 S-15_g3f5 S-16_g4f1 S-17_g4f2 S-18_g4f3 S-19_g4f4 S-20_g4f5
--------------1--------------2---------3---------4---------5---------6---------7---------8---------9--------10--------11--------12--------13--------14--------15--------16--------17--------18--------19--------20------------------21--------22--------23--------24--------25--------26--------27--------28--------29--------30--------31--------32--------33--------34--------35--------36--------37--------38--------39--------40--------41--------42--------43--------44--------45--------46--------47--------48--------49--------50--------51--------52--------53--------54--------55--------56--------57--------58--------59--------60--------61--------62--------63--------64--------65--------66--------67--------68--------69--------70--------71--------72--------73--------74
      49.808048     -34.759838     223.0      0.51      2.35     129.5         1         1      1000      1000   2962.05    -5.284       8.5      23.4   349.781     0.698      62.7   0.15851      44.0         H               195.0  0.077182  0.036407  0.000770  3.624274  0.938851  3.860327  1.185136     15.64    5.4242   47.3787   0.25055   5.50084   0.23718   0.00991  71.01521   5.49091    3510.2  0.583774  0.000745  0.000033  0.000150  0.179485  6.961731  0.722474     96.82  1.000186  1.000017     3.247    23.524      73.8      86.0      91.0     462.8     11.81     -2.92      1.21      3.12     -0.50      2.75      0.49      1.13      1.46     -0.91     -1.03     -0.38     -1.55      0.04      1.63     -3.16      0.05      2.91     -0.44      0.60
      49.819664     -34.842644     254.8      0.49      2.35     131.8         1         2      1000      2635   2621.03    -5.815       8.3      23.9   351.135     0.700      57.0   0.15837      81.7         H               195.0  0.075970  0.035909  0.000884  3.554348  0.914595  3.886255  1.185583     19.34    4.7497   37.5216   0.24982   5.25935   0.26001   0.01262  56.29564   4.86409    3107.3  0.586716  0.000684  0.000016  0.000156  0.180154  6.960067  0.723375     96.65  1.000193  1.000019     3.254    23.828      78.1      83.9      70.9     410.9     12.16     -2.72      1.60      2.33     -0.15      2.49      0.51      1.00      1.69     -0.76     -1.14     -0.24     -1.91      0.85      2.03     -4.55      0.42      1.88     -0.86      1.52
      49.831009     -34.923973     255.8      0.51      2.35     142.2         1         3      1000      4270   2439.30    -6.127       8.5      24.3   353.382     0.711      68.4   0.16372      84.5         H               195.0  0.078819  0.036980  0.000786  3.636181  0.927495  3.920434  1.194880     21.71    4.3881   33.1464   0.25402   5.11325   0.27558   0.01471  49.45235   4.52610    2914.6  0.593724  0.000840  0.000036  0.000154  0.182236  6.991984  0.735087     95.22  1.000211  1.000021     3.281    23.582      79.7      82.4      62.0     378.5     12.06     -2.62      1.08      2.94     -0.35      3.28      0.06      1.03      1.64     -0.49     -1.31     -0.46     -1.13      0.63      2.18     -3.49     -0.03      3.26     -1.18      0.55
      49.755241     -34.777946     101.3      0.57      2.35     103.9         2         1      2460      1000   3088.41    -5.103       9.0      23.4   353.581     0.714      76.3   0.16526       6.5         H               195.0  0.080543  0.038129  0.000894  3.751782  0.944670  3.971526  1.198264     20.65    5.6673   52.2345   0.25660   5.57613   0.23150   0.00933  77.66283   5.72731    3700.7  0.594170  0.001035  0.000041  0.000175  0.175756  6.932212  0.740066     99.51  1.000197  1.000021     3.275    23.320      81.3      86.5     100.8     475.4     11.95     -2.40      1.26      2.40     -0.31      2.91      1.09      1.03      1.77     -1.13     -0.94     -0.29     -0.80      0.91      1.33     -4.45     -0.09      2.89     -0.11      1.53
      49.766850     -34.860653     104.0      0.48      2.35     104.3         2         2      2460      2635   2572.23    -5.897       8.1      23.9   349.412     0.699      99.6   0.15877       6.9         H               195.0  0.076916  0.036529  0.000840  3.537671  0.920764  3.842105  1.185709     17.81    4.6512   36.3482   0.25252   5.21988   0.26490   0.01324  54.33815   4.76897    3049.8  0.584294  0.001270  0.000098  0.000163  0.181122  6.966639  0.724151     99.38  1.000198  1.000020     3.134    20.896      79.7      83.4      68.2     367.3     12.07     -3.21      0.89      2.67     -0.43      2.88      0.30      1.21      2.12     -1.36     -1.38     -0.24     -0.77      0.22      1.50     -3.89      0.51      2.27     -0.75      0.64
      49.778191     -34.941887     268.5      0.51      2.35     140.0         2         3      2460      4270   2459.41    -6.092       8.6      24.3   355.571     0.718      61.3   0.16642     100.0         H               195.0  0.081327  0.036817  0.000786  3.627069  0.944784  3.839047  1.199148     15.51    4.4342   34.0792   0.25543   5.13097   0.27375   0.01445  50.74805   4.57384    2949.0  0.599211  0.000722  0.000025  0.000160  0.178420  6.929765  0.743708     94.42  1.000187  1.000020     3.315    23.935      79.7      82.6      63.6     388.2     12.07     -1.89      1.07      2.69     -0.56      3.23      0.40      0.32      1.60     -0.55     -1.50     -0.58     -0.62      1.09      1.68     -3.92      0.08      3.07     -1.40      1.24
      49.702431     -34.796024     296.3      0.51      2.35     134.8         3         1      3920      1000   2987.69    -5.247       8.6      23.4   350.806     0.701      52.4   0.15843     100.0         H               195.0  0.078769  0.035706  0.000861  3.472507  0.915688  3.792240  1.186422     14.09    5.4752   48.3990   0.24941   5.51688   0.23655   0.00982  72.65500   5.54978    3544.3  0.585541  0.000557  0.000011  0.000164  0.178231  6.939342  0.725035     95.31  1.000186  1.000018     3.196    22.652      78.1      86.1      92.9     462.0     12.24     -3.11      0.70      2.14     -0.32      2.80      0.34      1.08      1.23     -0.65     -1.45     -0.20     -1.45      0.38      1.48     -5.10      0.59      2.82     -1.19      0.88
      49.714035     -34.878635     185.1      0.49      2.35     110.6         3         2      3920      2635   2574.30    -5.893       8.1      23.9   353.036     0.707      68.4   0.16103      25.6         H               195.0  0.079708  0.036997  0.000776  3.701326  0.941875  3.929743  1.193274     16.92    4.6554   36.6676   0.25421   5.22018   0.26531   0.01324  54.69254   4.77211    3071.7  0.589405  0.000842  0.000040  0.000168  0.178809  6.950733  0.732380     96.52  1.000202  1.000020     3.228    22.244      79.7      83.4      68.9     367.1     12.02     -3.11      1.42      3.07     -0.27      3.23      0.24      1.19      1.12     -1.42     -1.43      0.08     -1.40      0.41      1.49     -3.48      0.46      3.20     -0.77      0.66
      49.725368     -34.959778     282.0      0.49      2.35     137.5         3         3      3920      4270   2380.14    -6.234       8.3      24.3   353.087     0.709      54.8   0.16271     100.0         H               195.0  0.079888  0.037273  0.000752  3.696041  0.913235  4.047197  1.193194     21.08    4.2693   31.5020   0.25393   5.06452   0.28078   0.01542  47.00537   4.41006    2840.0  0.590596  0.000612  0.000013  0.000176  0.177571  6.943068  0.733242     97.59  1.000212  1.000023     3.274    23.413      83.0      82.0      58.7     358.2     12.06     -2.63      1.64      2.74      0.16      3.12      0.63      0.91      1.53     -0.59     -1.27     -0.34     -1.64      0.96      1.93     -3.61      0.65      3.04     -1.31      1.48
