corner points
-44.65481567    17.54455757
-44.69035721    17.36945915
-44.8422699    17.57938004
-44.87762451    17.40431023
========== RESULTS WAVE VERSION 16.10.2018 ====================
IMAGE SIZE  X: 4476     Y:4784    col:row     POLARIZATION:VV
COVERAGE    X: 20.20084145km       Y: 19.78384191km 
RESOLUTION dX: 4.51314599m       dY:4.135418459m  
resolution of original product 4.51314599m x 4.135418459m;   raster step x:5997.971021m  
===============================================================
FLAGS: H=HIGH PROBABILITY SEA STATE, I=LAND(ISLAND), O=OUTLIER NO SEA STATE, N=NO WIND AVAILABLE, SEA STATE NOT VISIBLE, M=MEAN PROBABILITY SEA STATE, L= LOW PROBABILITY SEA STATE
Filtering wave length
 integration  Lmin=1m
 integration  Lmax=2200m
  peak        Lmin=100m
               FFT=1024pixels, 4621.461494m 
   mean-Hs (SWH_c)=0.2m
         mean-wind=7.266871929m/s
--------------0--------------1---------2---------3---------4---------5---------6---------7---------8---------9--------10--------11--------12--------13--------14--------15--------16--------17--------18--------19------------------20--------21--------22--------23--------24--------25--------26--------27--------28--------29--------30--------31--------32--------33--------34--------35--------36--------37--------38--------39--------40--------41--------42--------43--------44--------45--------46--------47--------48--------49--------50--------51--------52--------53--------54--------55--------56--------57--------58--------59--------60--------61--------62--------63--------64--------65--------66--------67--------68--------69--------70--------71--------72--------73
            LAT            LON  P-LENGHT     SWH_o     SWH_c     P-DIR      LINE     POINT     ROW-Y     COL-X  M-INTENC        dB      WIND INC-ANGLE  ENERGY-M  ENERGY-N  ENERGY-R ENERGY-NN  FG-DEPTH      FLAG         HEADING-DEG    E30-75   E75-390  E390-600 meanincut   meanout   cut/out  STD-NORM  SPEC-MAX   GL-MEAN    GL-VAR      CORR   ENTROPY   HOMOGEN    ENERGY  CONTRAST  DISSIMIL     STD-O    E 1-30 E600-2000   E2000 >      GODA  LONG-HIG     Tmean  CONVOLUT  MEAN-DIR  relation     Sy/Sx  SKEWNESS  KURTOSIS  cutoff-A >50/10000     INT*V   INT-LOG  S-1_g1f1  S-2_g1f2  S-3_g1f3  S-4_g2f1  S-5_g2f2  S-6_g2f3  S-7_g3f1  S-8_g3f2  S-9_g3f3 S-10_g1f4 S-11_g2f4 S-12_g3f4 S-13_g1f5 S-14_g2f5 S-15_g3f5 S-16_g4f1 S-17_g4f2 S-18_g4f3 S-19_g4f4 S-20_g4f5
--------------1--------------2---------3---------4---------5---------6---------7---------8---------9--------10--------11--------12--------13--------14--------15--------16--------17--------18--------19--------20------------------21--------22--------23--------24--------25--------26--------27--------28--------29--------30--------31--------32--------33--------34--------35--------36--------37--------38--------39--------40--------41--------42--------43--------44--------45--------46--------47--------48--------49--------50--------51--------52--------53--------54--------55--------56--------57--------58--------59--------60--------61--------62--------63--------64--------65--------66--------67--------68--------69--------70--------71--------72--------73--------74
      17.515835     -44.704590     344.0      0.43      1.63     167.1         1         1      1000      1000    222.94   -16.518       7.1      36.9   217.991     0.530      48.0   0.05568     100.0         H               192.2  0.037370  0.013362  0.000536  1.194572  0.614815  1.942980  1.033502      6.51    3.9784   21.1540   0.07211   4.98925   0.26175   0.01340  39.25710   4.33753     230.4  0.478305  0.000779  0.000070  0.000095  0.177306  6.893996  0.530607     67.96  1.000022  1.000001     2.188    10.544      76.6      83.1      43.3     215.1     11.06     -0.36     -2.72      2.06      2.10      1.96      2.22      1.50      1.29      1.47     -0.02      0.54     -0.66     -2.13      0.10     -6.69      2.70      4.37     -0.38     -2.09
      17.526222     -44.760448     277.7      0.45      1.63     169.6         1         2      1000      2329    226.85   -16.443       7.5      37.3   217.247     0.529      50.6   0.05627     100.0         H               192.2  0.037723  0.013795  0.000510  1.226321  0.624957  1.962249  1.032433      6.81    4.0581   21.8501   0.07364   5.02460   0.25840   0.01293  40.48198   4.40784     234.2  0.476827  0.000729  0.000084  0.000095  0.179362  6.897255  0.529760     83.37  1.000021  1.000001     2.179    10.484      76.6      83.5      44.7     211.4     11.14     -1.03     -2.63      2.42      2.01      1.88      1.86      1.55      1.78      1.81      0.14      0.49     -0.63     -2.19      0.22     -6.08      3.22      3.44     -0.88     -2.03
      17.536505     -44.815838     348.8      0.47      1.63     171.3         1         3      1000      3658    230.15   -16.380       7.8      37.7   217.752     0.530      42.5   0.05609     100.0         H               192.2  0.037609  0.013088  0.000463  1.168669  0.614178  1.902818  1.032441      7.42    4.1223   22.4877   0.07266   5.05261   0.25562   0.01258  41.70716   4.47268     237.7  0.478167  0.000547  0.000067  0.000094  0.176676  6.872527  0.529813     76.17  1.000026  1.000001     2.186    10.663      78.1      83.7      45.9     227.9     11.13     -1.20     -2.28      2.19      1.90      2.14      2.00      0.85      1.22      1.64     -0.18      0.85     -0.57     -1.83      0.64     -5.93      3.69      4.19     -1.50     -2.00
      17.462755     -44.715355     344.0      0.43      1.63     167.1         2         1      2450      1000    221.37   -16.549       7.1      36.9   217.323     0.528      47.2   0.05453     100.0         H               192.2  0.036806  0.013027  0.000537  1.153774  0.614971  1.876144  1.031178      7.50    3.9469   20.7585   0.06884   4.97547   0.26285   0.01356  38.65919   4.30934     228.3  0.476765  0.000775  0.000069  0.000093  0.177140  6.885584  0.527999     72.48  1.000021  1.000001     2.162    10.285      79.7      82.9      42.6     200.7     11.16     -0.30     -2.79      1.70      1.68      1.95      2.35      0.82      1.57      1.71     -0.72      0.50     -0.10     -1.95      0.06     -7.19      2.21      3.88     -2.27     -2.35
      17.473145     -44.771194     351.9      0.44      1.63     175.6         2         2      2450      2329    214.80   -16.680       7.2      37.3   217.334     0.528      41.2   0.05454     100.0         H               192.2  0.036686  0.013266  0.000581  1.171256  0.613147  1.910238  1.030982      8.87    3.8189   19.5078   0.06949   4.91689   0.26881   0.01433  36.30415   4.17273     221.4  0.476717  0.000657  0.000053  0.000093  0.177999  6.896765  0.527972     77.50  1.000015  1.000001     2.170    10.429      78.1      82.5      40.1     204.1     11.05     -0.95     -2.85      1.86      1.72      2.40      2.75      0.84      1.31      1.84     -0.34      0.61     -0.07     -2.20      0.49     -7.25      3.30      5.58     -1.76     -2.98
      17.483431     -44.826565     344.4      0.45      1.63     153.4         2         3      2450      3658    216.75   -16.640       7.5      37.7   217.252     0.529      74.0   0.05567     100.0         H               192.2  0.037265  0.013267  0.000526  1.193005  0.620529  1.922562  1.032106      6.62    3.8562   19.9208   0.07291   4.93383   0.26732   0.01414  36.93676   4.20909     223.7  0.476776  0.001098  0.000161  0.000093  0.177776  6.897590  0.529496     75.25  1.000015  1.000001     2.183    10.625      78.1      82.5      40.9     210.4     11.12     -1.31     -2.52      2.05      1.89      2.20      2.29      1.47      1.14      2.00     -0.08      0.81     -1.07     -1.91      0.42     -6.70      3.29      4.99     -1.27     -1.62
      17.409674     -44.726116     320.8      0.43      1.63     155.4         3         1      3900      1000    219.89   -16.578       7.0      36.9   217.496     0.528      37.3   0.05505     100.0         H               192.2  0.036843  0.013854  0.000539  1.204240  0.610538  1.972424  1.031415      9.55    3.9176   20.5001   0.07045   4.96199   0.26412   0.01374  38.11151   4.27690     226.8  0.476450  0.000571  0.000044  0.000093  0.180218  6.910426  0.528354     77.01  1.000036  1.000001     2.175    10.451      76.6      82.8      42.0     205.7     11.24     -0.81     -2.95      1.72      1.78      1.70      2.04      1.35      1.83      1.93     -0.53      0.23     -0.14     -2.18     -0.19     -6.99      2.39      3.34     -1.62     -2.48
      17.420067     -44.781940     373.5      0.43      1.63     166.0         3         2      3900      2329    208.42   -16.811       7.0      37.3   217.217     0.527      39.4   0.05384     100.0         H               192.2  0.036292  0.013194  0.000501  1.186885  0.605225  1.961066  1.029851      6.40    3.6914   18.3286   0.06784   4.85693   0.27494   0.01519  34.17041   4.05029     214.6  0.476149  0.000596  0.000052  0.000095  0.176760  6.904768  0.526703     66.41  1.000028  1.000000     2.157    10.265      78.1      81.9      37.8     193.6     10.75      0.14     -2.75      2.61      2.13      1.75      2.42      1.30      1.54      1.87     -0.29      0.71     -0.22     -2.54      0.22     -5.77      2.53      4.16     -1.92     -3.06
      17.430355     -44.837292     337.5      0.44      1.63     163.0         3         3      3900      3658    209.89   -16.780       7.3      37.7   217.304     0.528      43.9   0.05458     100.0         H               192.2  0.036620  0.013051  0.000541  1.141172  0.615015  1.855521  1.030918      8.66    3.7196   18.6268   0.06929   4.87017   0.27364   0.01503  34.67241   4.07726     216.4  0.477022  0.000706  0.000061  0.000092  0.179924  6.896716  0.527935     79.60  1.000025  1.000001     2.164    10.344      78.1      81.9      38.4     195.6     11.32     -1.07     -3.23      1.55      1.91      2.01      1.88      0.76      1.27      2.25     -0.93      0.42     -0.39     -2.15      0.12     -7.43      3.43      4.46     -3.12     -2.21
