corner points
-42.10287094    29.9206028
-42.14019012    29.74602699
-42.30970764    29.95366859
-42.34664917    29.77910995
========== RESULTS WAVE VERSION 16.10.2018 ====================
IMAGE SIZE  X: 4476     Y:4781    col:row     POLARIZATION:VV
COVERAGE    X: 20.2208658km       Y: 19.69440266km 
RESOLUTION dX: 4.517619706m       dY:4.119306142m  
resolution of original product 4.517619706m x 4.119306142m;   raster step x:5999.39897m  
===============================================================
FLAGS: H=HIGH PROBABILITY SEA STATE, I=LAND(ISLAND), O=OUTLIER NO SEA STATE, N=NO WIND AVAILABLE, SEA STATE NOT VISIBLE, M=MEAN PROBABILITY SEA STATE, L= LOW PROBABILITY SEA STATE
Filtering wave length
 integration  Lmin=1m
 integration  Lmax=2200m
  peak        Lmin=100m
               FFT=1024pixels, 4626.042579m 
   mean-Hs (SWH_c)=3.504703369m
         mean-wind=8.105144501m/s
--------------0--------------1---------2---------3---------4---------5---------6---------7---------8---------9--------10--------11--------12--------13--------14--------15--------16--------17--------18--------19------------------20--------21--------22--------23--------24--------25--------26--------27--------28--------29--------30--------31--------32--------33--------34--------35--------36--------37--------38--------39--------40--------41--------42--------43--------44--------45--------46--------47--------48--------49--------50--------51--------52--------53--------54--------55--------56--------57--------58--------59--------60--------61--------62--------63--------64--------65--------66--------67--------68--------69--------70--------71--------72--------73
            LAT            LON  P-LENGHT     SWH_o     SWH_c     P-DIR      LINE     POINT     ROW-Y     COL-X  M-INTENC        dB      WIND INC-ANGLE  ENERGY-M  ENERGY-N  ENERGY-R ENERGY-NN  FG-DEPTH      FLAG         HEADING-DEG    E30-75   E75-390  E390-600 meanincut   meanout   cut/out  STD-NORM  SPEC-MAX   GL-MEAN    GL-VAR      CORR   ENTROPY   HOMOGEN    ENERGY  CONTRAST  DISSIMIL     STD-O    E 1-30 E600-2000   E2000 >      GODA  LONG-HIG     Tmean  CONVOLUT  MEAN-DIR  relation     Sy/Sx  SKEWNESS  KURTOSIS  cutoff-A >50/10000     INT*V   INT-LOG  S-1_g1f1  S-2_g1f2  S-3_g1f3  S-4_g2f1  S-5_g2f2  S-6_g2f3  S-7_g3f1  S-8_g3f2  S-9_g3f3 S-10_g1f4 S-11_g2f4 S-12_g3f4 S-13_g1f5 S-14_g2f5 S-15_g3f5 S-16_g4f1 S-17_g4f2 S-18_g4f3 S-19_g4f4 S-20_g4f5
--------------1--------------2---------3---------4---------5---------6---------7---------8---------9--------10--------11--------12--------13--------14--------15--------16--------17--------18--------19--------20------------------21--------22--------23--------24--------25--------26--------27--------28--------29--------30--------31--------32--------33--------34--------35--------36--------37--------38--------39--------40--------41--------42--------43--------44--------45--------46--------47--------48--------49--------50--------51--------52--------53--------54--------55--------56--------57--------58--------59--------60--------61--------62--------63--------64--------65--------66--------67--------68--------69--------70--------71--------72--------73--------74
      29.891584     -42.157394     289.7      3.81      5.03      61.3         1         1      1000      1000    264.56   -15.775       8.1      36.9   269.054     0.715     206.1   0.13337     100.0         H               192.7  0.064931  0.077951  0.003278  5.792932  0.786523  7.365245  1.199490    137.11    4.8000   39.0419   0.19731   5.28667   0.25042   0.01194  62.67686   5.12347     317.3  0.566709  0.002579  0.000205  0.000220  0.240674  7.617946  0.735758     76.86  1.000396  1.000044     3.356    25.202     181.9      83.9      73.7     434.8     16.24      3.86     10.47     -1.54     -1.84      2.89     -2.55     -2.50     -3.68      4.07     -2.55     -1.70      2.14      2.61      0.62    -10.85     -1.70      2.04     -4.38      1.92
      29.901443     -42.218971     307.7      3.60      5.03      68.6         1         2      1000      2328    258.24   -15.880       8.2      37.2   270.620     0.720     198.2   0.13459     100.0         H               192.7  0.066571  0.075200  0.003243  5.612721  0.767539  7.312619  1.203832    140.45    4.6784   37.3493   0.19639   5.24101   0.25406   0.01238  60.02845   5.00528     310.9  0.572836  0.002511  0.000213  0.000230  0.234731  7.554111  0.739994     79.15  1.000426  1.000047     3.479    27.440     190.7      83.6      70.5     430.2     16.03      4.05     11.29     -1.18     -1.16      3.04     -1.76     -2.38     -3.13      5.23     -2.02     -2.25      3.67      3.05      0.17    -10.78     -1.24      1.20     -3.49      2.24
      29.911192     -42.280029     260.7      3.34      5.03      64.4         1         3      1000      3656    251.44   -15.996       8.3      37.6   260.889     0.683     172.7   0.11996     105.1         H               192.7  0.060746  0.067642  0.002803  5.051915  0.755904  6.683278  1.172932    154.51    4.5454   34.0827   0.18294   5.19625   0.25683   0.01276  55.69511   4.87047     294.9  0.550556  0.001990  0.000162  0.000220  0.241737  7.578956  0.700726     68.64  1.000362  1.000035     3.159    22.451     181.9      83.4      64.4     386.6     16.28      5.12     10.16     -2.05     -2.05      2.16     -2.61     -3.10     -3.23      5.19     -2.38     -2.69      0.78      3.35      1.01    -10.88     -2.45      0.77     -3.87      3.62
      29.838408     -42.168736     289.7      3.40      5.03      61.3         2         1      2456      1000    262.52   -15.808       8.0      36.9   264.268     0.693     191.0   0.12211     100.0         H               192.7  0.060982  0.069612  0.003179  5.472908  0.754932  7.249540  1.180431    158.19    4.7613   37.4496   0.18541   5.27797   0.24943   0.01184  61.01195   5.08902     309.9  0.556553  0.002407  0.000220  0.000224  0.236710  7.562881  0.710624     68.71  1.000381  1.000040     3.216    22.837     181.9      84.0      70.9     398.2     15.99      4.31     10.42     -1.66     -1.59      2.26     -1.78     -3.39     -2.58      4.98     -2.98     -2.40      1.51      2.71      1.56    -11.15     -0.55      0.42     -4.84      1.96
      29.848270     -42.230278     274.5      3.43      5.03      62.9         2         2      2456      2328    253.75   -15.956       8.1      37.2   263.185     0.688     187.1   0.12085     100.0         H               192.7  0.060511  0.069403  0.003038  5.241141  0.777930  6.737295  1.176272    114.64    4.5920   34.9081   0.18398   5.21398   0.25559   0.01254  56.97051   4.91515     298.4  0.552912  0.002434  0.000189  0.000210  0.239510  7.589799  0.705904     74.68  1.000354  1.000037     3.191    22.749     181.9      83.5      66.0     394.3     16.00      4.07     10.15     -1.54     -1.68      2.48     -2.16     -2.89     -2.76      4.31     -2.32     -2.39      1.63      2.53      1.17    -10.64     -1.84      0.75     -4.09      2.30
      29.858021     -42.291306     306.4      3.33      5.03      59.4         2         3      2456      3656    241.28   -16.175       8.1      37.6   262.075     0.686     182.8   0.11931     100.0         H               192.7  0.059892  0.067601  0.003094  5.040686  0.754193  6.683551  1.174638    139.16    4.3430   31.5172   0.18212   5.11443   0.26465   0.01377  51.55415   4.67247     283.4  0.553374  0.002274  0.000183  0.000219  0.241699  7.579782  0.703618     68.30  1.000417  1.000040     3.212    23.023     181.9      82.7      59.4     364.7     16.54      6.10     10.10     -3.23     -3.20      1.22     -2.28     -2.96     -3.10      5.69     -3.30     -2.25      0.87      2.63      1.08    -12.55     -4.53      0.28     -5.55      2.53
      29.785233     -42.180077     289.7      3.70      5.03      61.3         3         1      3912      1000    255.78   -15.921       7.9      36.9   266.495     0.701     184.5   0.12487     100.0         H               192.7  0.060589  0.074241  0.002925  5.300944  0.757543  6.997550  1.187522    174.40    4.6274   35.7782   0.18726   5.22581   0.25463   0.01248  58.15648   4.95826     303.7  0.561040  0.002204  0.000166  0.000229  0.243724  7.657430  0.719690     65.46  1.000399  1.000038     3.533    38.566     181.9      83.5      67.7     481.1     16.23      5.60      9.80     -1.98     -3.14      2.76     -2.15     -2.75     -2.54      4.51     -2.84     -1.83      0.55      4.33      1.09    -11.01     -4.02      1.11     -4.46      4.29
      29.795097     -42.241585     306.4      3.45      5.03      59.4         3         2      3912      2328    248.63   -16.044       8.0      37.2   264.281     0.691     194.8   0.12158     100.0         H               192.7  0.060319  0.069895  0.003009  5.130802  0.755693  6.789530  1.178375    134.31    4.4904   33.5974   0.18398   5.17316   0.25959   0.01311  54.83216   4.81827     293.0  0.554887  0.002763  0.000187  0.000209  0.241414  7.604537  0.708549     69.63  1.000395  1.000039     3.253    26.130     174.0      83.1      63.4     410.3     16.20      5.12      9.37     -2.21     -2.62      2.83     -1.91     -2.73     -2.66      4.38     -2.65     -1.97      0.72      3.67      1.27    -11.91     -3.30      1.49     -4.37      3.21
      29.804850     -42.302574     289.7      3.50      5.03      61.3         3         3      3912      3656    246.49   -16.082       8.2      37.6   263.528     0.689     169.1   0.12066     100.0         H               192.7  0.060315  0.070014  0.003246  5.159229  0.764253  6.750683  1.177531     98.98    4.4471   33.0415   0.18426   5.15577   0.26144   0.01333  53.90643   4.77642     290.2  0.553550  0.002227  0.000117  0.000206  0.241737  7.624424  0.706996     81.29  1.000410  1.000038     3.188    22.355     181.9      83.0      62.3     371.2     16.07      3.78     10.00     -1.70     -2.22      2.78     -1.70     -1.95     -2.66      2.23     -1.70     -1.05      2.24      2.81      0.60    -11.66     -2.93      1.00     -2.87      2.26
