corner points
-37.49700546    49.28695297
-37.54579544    49.11395264
-37.77312088    49.31949234
-37.82092285    49.14647293
========== RESULTS WAVE VERSION 16.10.2018 ====================
IMAGE SIZE  X: 4476     Y:4770    col:row     POLARIZATION:VV
COVERAGE    X: 20.29763857km       Y: 19.5113229km 
RESOLUTION dX: 4.534771798m       dY:4.090424087m  
resolution of original product 4.534771798m x 4.090424087m;   raster step x:5999.503089m  
===============================================================
FLAGS: H=HIGH PROBABILITY SEA STATE, I=LAND(ISLAND), O=OUTLIER NO SEA STATE, N=NO WIND AVAILABLE, SEA STATE NOT VISIBLE, M=MEAN PROBABILITY SEA STATE, L= LOW PROBABILITY SEA STATE
Filtering wave length
 integration  Lmin=1m
 integration  Lmax=2200m
  peak        Lmin=100m
               FFT=1024pixels, 4643.606321m 
   mean-Hs (SWH_c)=0.2m
         mean-wind=7.363785744m/s
--------------0--------------1---------2---------3---------4---------5---------6---------7---------8---------9--------10--------11--------12--------13--------14--------15--------16--------17--------18--------19------------------20--------21--------22--------23--------24--------25--------26--------27--------28--------29--------30--------31--------32--------33--------34--------35--------36--------37--------38--------39--------40--------41--------42--------43--------44--------45--------46--------47--------48--------49--------50--------51--------52--------53--------54--------55--------56--------57--------58--------59--------60--------61--------62--------63--------64--------65--------66--------67--------68--------69--------70--------71--------72--------73
            LAT            LON  P-LENGHT     SWH_o     SWH_c     P-DIR      LINE     POINT     ROW-Y     COL-X  M-INTENC        dB      WIND INC-ANGLE  ENERGY-M  ENERGY-N  ENERGY-R ENERGY-NN  FG-DEPTH      FLAG         HEADING-DEG    E30-75   E75-390  E390-600 meanincut   meanout   cut/out  STD-NORM  SPEC-MAX   GL-MEAN    GL-VAR      CORR   ENTROPY   HOMOGEN    ENERGY  CONTRAST  DISSIMIL     STD-O    E 1-30 E600-2000   E2000 >      GODA  LONG-HIG     Tmean  CONVOLUT  MEAN-DIR  relation     Sy/Sx  SKEWNESS  KURTOSIS  cutoff-A >50/10000     INT*V   INT-LOG  S-1_g1f1  S-2_g1f2  S-3_g1f3  S-4_g2f1  S-5_g2f2  S-6_g2f3  S-7_g3f1  S-8_g3f2  S-9_g3f3 S-10_g1f4 S-11_g2f4 S-12_g3f4 S-13_g1f5 S-14_g2f5 S-15_g3f5 S-16_g4f1 S-17_g4f2 S-18_g4f3 S-19_g4f4 S-20_g4f5
--------------1--------------2---------3---------4---------5---------6---------7---------8---------9--------10--------11--------12--------13--------14--------15--------16--------17--------18--------19--------20------------------21--------22--------23--------24--------25--------26--------27--------28--------29--------30--------31--------32--------33--------34--------35--------36--------37--------38--------39--------40--------41--------42--------43--------44--------45--------46--------47--------48--------49--------50--------51--------52--------53--------54--------55--------56--------57--------58--------59--------60--------61--------62--------63--------64--------65--------66--------67--------68--------69--------70--------71--------72--------73--------74
      49.258087     -37.569584     283.4      0.44      2.26     127.5         1         1      1000      1000    236.50   -16.262       7.2      36.6   261.727     0.568      99.1   0.07068     100.0         H               194.8  0.049187  0.017727  0.000616  1.776190  0.659590  2.692869  1.069301      7.80    4.2490   25.4372   0.10458   5.10110   0.25547   0.01254  45.55372   4.59851     252.9  0.498890  0.001343  0.000223  0.000138  0.166298  6.797246  0.565515     85.62  1.000198  1.000012     2.420    13.028     105.0      83.6      50.5     264.2     11.89     -2.42      1.17      1.99      0.34      1.61      1.32      0.67      1.53     -0.75     -0.98     -0.07     -0.83      0.68      1.53     -6.27      1.33      0.44     -0.96      1.01
      49.267769     -37.651440     221.5      0.43      2.26     115.0         1         2      1000      2323    221.04   -16.555       7.1      37.0   263.112     0.571      91.6   0.07124      42.9         H               194.8  0.049956  0.017695  0.000682  1.821387  0.658720  2.765039  1.072211      7.22    3.9406   22.3498   0.10451   4.96599   0.26850   0.01436  40.02802   4.29972     237.0  0.501262  0.001266  0.000200  0.000138  0.165790  6.795151  0.568605     88.41  1.000228  1.000013     2.451    13.226     107.8      82.2      44.4     242.2     11.92     -3.03      1.63      1.96      0.26      1.21      1.46      0.57      1.71     -1.54     -0.87     -0.09     -0.88      0.20      1.61     -6.93      2.40     -1.24      0.07      0.06
      49.277306     -37.732620     134.7      0.43      2.26     106.8         1         3      1000      3646    209.81   -16.782       7.1      37.4   262.882     0.569     109.5   0.07014      12.1         H               194.8  0.049119  0.017957  0.000533  1.822698  0.646951  2.817367  1.070874      6.87    3.7188   20.0709   0.10247   4.86372   0.27947   0.01583  36.02826   4.07807     224.7  0.500025  0.001457  0.000257  0.000137  0.167874  6.814547  0.566956     86.10  1.000190  1.000011     2.450    13.393     107.8      81.4      40.0     230.7     11.87     -2.47      0.93      2.26     -0.49      2.01      0.95      0.66      1.13     -1.37     -1.29     -0.42     -0.96      0.48      0.98     -5.12      0.28      1.76     -0.70      1.31
      49.204906     -37.584522     235.6      0.45      2.26     120.4         2         1      2466      1000    240.36   -16.191       7.3      36.6   261.846     0.567      58.5   0.07056      53.8         H               194.8  0.049143  0.018382  0.000570  1.899652  0.666121  2.851813  1.068306      9.39    4.3254   26.2437   0.10335   5.13313   0.25248   0.01214  47.06262   4.67065     256.8  0.498256  0.000868  0.000092  0.000136  0.166186  6.826159  0.564485     85.72  1.000201  1.000012     2.411    12.634     105.0      84.0      52.1     252.4     11.91     -2.66      1.70      2.28      0.18      1.72      1.13      0.42      1.22     -1.37     -0.99     -0.23     -0.28      0.19      1.40     -5.52      1.74      0.38     -0.39     -0.08
      49.214584     -37.666286     280.2      0.44      2.26     122.4         2         2      2466      2323    227.19   -16.436       7.3      37.0   260.682     0.565      52.1   0.06987     100.0         H               194.8  0.048690  0.018065  0.000659  1.853207  0.657845  2.817086  1.066747      7.08    4.0640   23.3772   0.10343   5.02166   0.26292   0.01358  41.91817   4.41458     242.3  0.496856  0.000789  0.000071  0.000129  0.167388  6.830358  0.562646     87.26  1.000182  1.000010     2.388    12.518     102.3      82.7      46.6     250.6     11.83     -2.82      1.38      2.07      0.44      1.81      1.71      0.39      1.60     -1.36     -0.63      0.10     -0.71      0.77      1.55     -6.73      2.88      0.72      0.25      1.24
      49.224121     -37.747379     235.6      0.46      2.26     120.4         2         3      2466      3646    230.78   -16.368       7.7      37.4   261.439     0.568      54.0   0.07088      53.8         H               194.8  0.048972  0.018952  0.000516  1.917440  0.653062  2.936075  1.069101      9.90    4.1356   24.2301   0.10463   5.05255   0.26033   0.01316  43.38942   4.48362     246.8  0.498548  0.000775  0.000080  0.000135  0.169282  6.844555  0.565441     84.42  1.000175  1.000010     2.407    12.573     102.3      83.3      48.1     242.1     11.93     -2.97      1.04      2.18      0.16      1.60      0.58      1.09      1.33     -1.45     -0.83      0.42     -1.07      0.31      1.40     -5.01      1.52      0.66     -0.44      0.88
      49.151726     -37.599442     259.2      0.45      2.26     137.9         3         1      3932      1000    241.36   -16.173       7.4      36.6   261.352     0.566      60.2   0.07014      96.8         H               194.8  0.048405  0.018599  0.000668  1.877958  0.663088  2.832139  1.067487      7.10    4.3458   26.4166   0.10374   5.14176   0.25109   0.01202  47.35226   4.69298     257.6  0.497734  0.000869  0.000096  0.000128  0.167438  6.847746  0.563728     88.04  1.000196  1.000011     2.400    12.512     102.3      84.0      52.5     249.2     11.95     -2.43      1.03      1.72      0.03      1.74      1.38      0.79      1.12     -1.04     -0.87     -0.45     -0.82      1.09      1.44     -6.89      0.76      1.06      0.13      1.84
      49.161400     -37.681118     270.1      0.45      2.26     125.5         3         2      3932      2323    230.85   -16.367       7.4      37.0   261.031     0.567      43.8   0.07097     100.0         H               194.8  0.049138  0.019141  0.000665  1.950265  0.664572  2.934620  1.068527      8.30    4.1366   24.2236   0.10488   5.05295   0.26000   0.01317  43.36614   4.48386     246.7  0.497676  0.000613  0.000046  0.000139  0.168192  6.844323  0.564837     86.39  1.000193  1.000011     2.413    12.719     105.0      83.1      48.1     240.4     12.00     -2.38      1.55      1.84      0.48      1.93      1.54      0.41      1.71     -1.11     -0.62     -0.17     -0.65      0.72      1.33     -6.53      1.89      0.11      0.10      0.97
      49.170937     -37.762119     239.3      0.47      2.26     149.0         3         3      3932      3646    233.25   -16.322       7.7      37.4   262.025     0.567      60.2   0.07010      57.4         H               194.8  0.048207  0.018415  0.000628  1.865646  0.651383  2.864131  1.068250      6.66    4.1851   24.7028   0.10296   5.07409   0.25823   0.01287  44.31856   4.53366     249.1  0.498716  0.000848  0.000100  0.000132  0.168007  6.835243  0.564141     85.09  1.000165  1.000010     2.401    12.568      99.7      83.5      49.1     242.1     11.71     -2.33      1.06      2.27     -0.22      1.86      1.68      0.55      1.62     -1.00     -0.75     -0.55     -1.06      0.21      1.32     -5.97      1.03      0.82      0.13      0.61
