corner points
-38.4384079    45.77642059
-38.4837265    45.60311508
-38.69651794    45.80872726
-38.74101639    45.63541412
========== RESULTS WAVE VERSION 16.10.2018 ====================
IMAGE SIZE  X: 4476     Y:4771    col:row     POLARIZATION:VV
COVERAGE    X: 20.2851891km       Y: 19.54032652km 
RESOLUTION dX: 4.531990416m       dY:4.095645885m  
resolution of original product 4.531990416m x 4.095645885m;   raster step x:5995.82332m  
===============================================================
FLAGS: H=HIGH PROBABILITY SEA STATE, I=LAND(ISLAND), O=OUTLIER NO SEA STATE, N=NO WIND AVAILABLE, SEA STATE NOT VISIBLE, M=MEAN PROBABILITY SEA STATE, L= LOW PROBABILITY SEA STATE
Filtering wave length
 integration  Lmin=1m
 integration  Lmax=2200m
  peak        Lmin=100m
               FFT=1024pixels, 4640.758186m 
   mean-Hs (SWH_c)=0.3876483154m
         mean-wind=7.499383926m/s
--------------0--------------1---------2---------3---------4---------5---------6---------7---------8---------9--------10--------11--------12--------13--------14--------15--------16--------17--------18--------19------------------20--------21--------22--------23--------24--------25--------26--------27--------28--------29--------30--------31--------32--------33--------34--------35--------36--------37--------38--------39--------40--------41--------42--------43--------44--------45--------46--------47--------48--------49--------50--------51--------52--------53--------54--------55--------56--------57--------58--------59--------60--------61--------62--------63--------64--------65--------66--------67--------68--------69--------70--------71--------72--------73
            LAT            LON  P-LENGHT     SWH_o     SWH_c     P-DIR      LINE     POINT     ROW-Y     COL-X  M-INTENC        dB      WIND INC-ANGLE  ENERGY-M  ENERGY-N  ENERGY-R ENERGY-NN  FG-DEPTH      FLAG         HEADING-DEG    E30-75   E75-390  E390-600 meanincut   meanout   cut/out  STD-NORM  SPEC-MAX   GL-MEAN    GL-VAR      CORR   ENTROPY   HOMOGEN    ENERGY  CONTRAST  DISSIMIL     STD-O    E 1-30 E600-2000   E2000 >      GODA  LONG-HIG     Tmean  CONVOLUT  MEAN-DIR  relation     Sy/Sx  SKEWNESS  KURTOSIS  cutoff-A >50/10000     INT*V   INT-LOG  S-1_g1f1  S-2_g1f2  S-3_g1f3  S-4_g2f1  S-5_g2f2  S-6_g2f3  S-7_g3f1  S-8_g3f2  S-9_g3f3 S-10_g1f4 S-11_g2f4 S-12_g3f4 S-13_g1f5 S-14_g2f5 S-15_g3f5 S-16_g4f1 S-17_g4f2 S-18_g4f3 S-19_g4f4 S-20_g4f5
--------------1--------------2---------3---------4---------5---------6---------7---------8---------9--------10--------11--------12--------13--------14--------15--------16--------17--------18--------19--------20------------------21--------22--------23--------24--------25--------26--------27--------28--------29--------30--------31--------32--------33--------34--------35--------36--------37--------38--------39--------40--------41--------42--------43--------44--------45--------46--------47--------48--------49--------50--------51--------52--------53--------54--------55--------56--------57--------58--------59--------60--------61--------62--------63--------64--------65--------66--------67--------68--------69--------70--------71--------72--------73--------74
      45.747440     -38.506191     231.4      0.46      2.73     116.2         1         1      1000      1000    247.18   -16.070       7.5      36.7   257.168     0.574      41.6   0.07506      50.1         H               194.2  0.048658  0.023855  0.000472  2.407803  0.658877  3.654406  1.074405     11.76    4.4608   28.0121   0.11326   5.18715   0.24796   0.01158  49.67865   4.79282     265.6  0.500543  0.000397  0.000049  0.000141  0.178187  6.982192  0.573241     89.33  1.000198  1.000013     2.487    13.891     114.0      84.4      55.5     290.5     12.18     -4.49      1.63      2.53      0.01      3.32      0.46      1.56      1.14     -1.87     -1.36      0.14     -2.01      0.83      2.27     -3.71      1.44      3.66     -0.78      1.83
      45.757050     -38.582718     283.4      0.45      2.73     127.5         1         2      1000      2323    233.73   -16.313       7.5      37.1   257.324     0.570      34.5   0.07220     100.0         H               194.2  0.047551  0.022427  0.000469  2.243335  0.661646  3.390536  1.070914     10.18    4.1939   24.9283   0.10698   5.07705   0.25789   0.01290  44.52296   4.54287     250.3  0.499162  0.000334  0.000027  0.000138  0.175144  6.961976  0.568414     87.71  1.000178  1.000011     2.434    13.184     110.8      83.2      49.5     265.8     11.94     -3.75      0.54      2.25      0.02      3.21      0.98      1.39      1.64     -0.89     -1.40     -0.18     -1.69      0.57      1.66     -4.11      0.44      3.84     -1.12      2.01
      45.766521     -38.658611     284.3      0.46      2.73     132.7         1         3      1000      3646    227.71   -16.426       7.6      37.4   256.653     0.567      66.0   0.07111     100.0         H               194.2  0.047124  0.021100  0.000408  2.117122  0.657610  3.219421  1.068818     10.92    4.0746   23.5692   0.10523   5.02603   0.26309   0.01349  42.17805   4.42022     243.4  0.497987  0.000679  0.000161  0.000132  0.176275  6.939192  0.565748     91.34  1.000176  1.000010     2.439    13.495     110.8      83.0      46.9     263.0     12.07     -4.39      1.52      2.49      0.14      3.33      0.83      1.45      1.50     -1.31     -1.90     -0.25     -1.62      1.10      2.12     -3.51      1.45      3.54     -1.49      2.15
      45.694252     -38.520050     270.1      0.44      2.73     125.4         2         1      2464      1000    236.52   -16.261       7.3      36.7   259.910     0.578      44.9   0.07488     100.0         H               194.2  0.048365  0.023574  0.000456  2.362350  0.667321  3.540053  1.078349     14.19    4.2495   25.8502   0.11012   5.09978   0.25589   0.01264  46.00696   4.60040     255.0  0.505369  0.000504  0.000055  0.000137  0.176884  6.960373  0.576896     92.11  1.000211  1.000016     2.510    13.982     114.0      83.5      51.1     271.1     11.91     -4.06      1.39      2.80     -0.65      3.62      0.95      0.74      1.66     -2.09     -1.78     -0.54     -1.30      0.91      2.22     -3.10      0.36      4.27     -1.56      1.47
      45.703857     -38.596504     259.3      0.45      2.73     137.9         2         2      2464      2323    229.77   -16.387       7.4      37.1   258.978     0.573      31.9   0.07282      97.3         H               194.2  0.047190  0.024019  0.000404  2.387003  0.667093  3.578218  1.073950     13.83    4.1155   24.2436   0.10819   5.04286   0.26142   0.01334  43.24124   4.46653     246.8  0.501457  0.000258  0.000018  0.000131  0.183397  7.035056  0.572084     93.79  1.000203  1.000014     2.483    13.589     110.8      82.9      48.0     243.9     11.88     -4.34      1.48      3.09     -0.26      4.23      1.05      1.35      2.64     -1.29     -2.00     -0.02     -1.48      1.44      3.20     -2.08      0.91      4.67     -1.83      2.29
      45.713329     -38.672321     260.6      0.47      2.73     133.1         2         3      2464      3646    235.61   -16.278       7.8      37.4   257.771     0.574      42.9   0.07421     104.5         H               194.2  0.047987  0.023569  0.000483  2.363401  0.678769  3.481894  1.075414     12.85    4.2316   25.5392   0.11148   5.09234   0.25691   0.01271  45.38421   4.57439     253.4  0.502217  0.000503  0.000042  0.000134  0.180864  6.991598  0.573817     89.75  1.000247  1.000015     2.478    13.483     114.0      83.6      50.5     264.5     12.18     -4.12      2.12      2.60      0.29      3.86      0.75      1.84      1.69     -1.12     -1.52     -0.09     -1.16      1.80      2.80     -3.53      1.03      3.79     -1.08      2.23
      45.641060     -38.533897     284.3      0.44      2.73     132.7         3         1      3928      1000    235.17   -16.286       7.2      36.7   259.729     0.578      85.0   0.07470     100.0         H               194.2  0.048686  0.024222  0.000541  2.477742  0.659717  3.755766  1.078809     14.25    4.2221   25.5839   0.11221   5.08787   0.25794   0.01284  45.42580   4.56899     253.7  0.503654  0.000988  0.000183  0.000140  0.177322  6.997685  0.577740     88.77  1.000178  1.000012     2.491    13.647     114.0      83.4      50.5     268.1     12.08     -4.34      1.52      2.32      0.01      3.35      1.06      1.42      1.67     -2.01     -1.44      0.45     -1.95      1.17      2.35     -4.25      1.29      3.68     -0.98      2.21
      45.650665     -38.610275     249.0      0.43      2.73     126.4         3         2      3928      2323    219.15   -16.593       7.1      37.1   258.580     0.573      77.7   0.07244      70.0         H               194.2  0.047425  0.023488  0.000465  2.394001  0.655325  3.653153  1.074595     15.29    3.9043   22.0681   0.10791   4.94886   0.27115   0.01472  39.37376   4.25766     235.5  0.500859  0.000907  0.000161  0.000139  0.178145  6.990086  0.572339     87.69  1.000167  1.000011     2.456    13.233     114.0      81.9      43.7     238.7     12.14     -4.39      1.72      2.63     -0.00      3.36      0.43      1.43      1.47     -1.57     -1.88      0.15     -1.86      1.17      2.41     -3.28      1.51      3.60     -1.89      2.21
      45.660137     -38.686016     283.4      0.54      2.73     127.5         3         3      3928      3646    243.80   -16.130       8.0      37.4   260.540     0.584      53.3   0.07846     100.0         H               194.2  0.050610  0.024924  0.000559  2.545991  0.697599  3.649646  1.084441     13.21    4.3942   27.7548   0.11716   5.15833   0.25160   0.01202  49.00578   4.73788     264.4  0.507652  0.000661  0.000065  0.000151  0.177224  6.974383  0.583789     86.29  1.000230  1.000016     2.557    14.612     121.0      84.1      54.7     296.2     12.31     -4.50      2.57      2.38      0.21      3.42      0.91      1.45      1.36     -2.01     -1.68      0.34     -1.24      1.73      2.37     -4.30      1.78      3.34     -1.31      2.55
