corner points
58.41802216    -51.89956665
58.31633377    -52.06590271
58.13484955    -51.83218002
58.03219604    -51.99828339
========== RESULTS WAVE VERSION 16.10.2018 ====================
IMAGE SIZE  X: 4476     Y:4772    col:row     POLARIZATION:VV
COVERAGE    X: 20.7927191km       Y: 19.72064868km 
RESOLUTION dX: 4.645379602m       dY:4.132575163m  
resolution of original product 4.645379602m x 4.132575163m;   raster step x:5997.185066m  
===============================================================
FLAGS: H=HIGH PROBABILITY SEA STATE, I=LAND(ISLAND), O=OUTLIER NO SEA STATE, N=NO WIND AVAILABLE, SEA STATE NOT VISIBLE, M=MEAN PROBABILITY SEA STATE, L= LOW PROBABILITY SEA STATE
Filtering wave length
 integration  Lmin=1m
 integration  Lmax=2200m
  peak        Lmin=100m
               FFT=1024pixels, 4756.868712m 
   mean-Hs (SWH_c)=4.499815674m
         mean-wind=18.82530975m/s
--------------0--------------1---------2---------3---------4---------5---------6---------7---------8---------9--------10--------11--------12--------13--------14--------15--------16--------17--------18--------19------------------20--------21--------22--------23--------24--------25--------26--------27--------28--------29--------30--------31--------32--------33--------34--------35--------36--------37--------38--------39--------40--------41--------42--------43--------44--------45--------46--------47--------48--------49--------50--------51--------52--------53--------54--------55--------56--------57--------58--------59--------60--------61--------62--------63--------64--------65--------66--------67--------68--------69--------70--------71--------72--------73
            LAT            LON  P-LENGHT     SWH_o     SWH_c     P-DIR      LINE     POINT     ROW-Y     COL-X  M-INTENC        dB      WIND INC-ANGLE  ENERGY-M  ENERGY-N  ENERGY-R ENERGY-NN  FG-DEPTH      FLAG         HEADING-DEG    E30-75   E75-390  E390-600 meanincut   meanout   cut/out  STD-NORM  SPEC-MAX   GL-MEAN    GL-VAR      CORR   ENTROPY   HOMOGEN    ENERGY  CONTRAST  DISSIMIL     STD-O    E 1-30 E600-2000   E2000 >      GODA  LONG-HIG     Tmean  CONVOLUT  MEAN-DIR  relation     Sy/Sx  SKEWNESS  KURTOSIS  cutoff-A >50/10000     INT*V   INT-LOG  S-1_g1f1  S-2_g1f2  S-3_g1f3  S-4_g2f1  S-5_g2f2  S-6_g2f3  S-7_g3f1  S-8_g3f2  S-9_g3f3 S-10_g1f4 S-11_g2f4 S-12_g3f4 S-13_g1f5 S-14_g2f5 S-15_g3f5 S-16_g4f1 S-17_g4f2 S-18_g4f3 S-19_g4f4 S-20_g4f5
--------------1--------------2---------3---------4---------5---------6---------7---------8---------9--------10--------11--------12--------13--------14--------15--------16--------17--------18--------19--------20------------------21--------22--------23--------24--------25--------26--------27--------28--------29--------30--------31--------32--------33--------34--------35--------36--------37--------38--------39--------40--------41--------42--------43--------44--------45--------46--------47--------48--------49--------50--------51--------52--------53--------54--------55--------56--------57--------58--------59--------60--------61--------62--------63--------64--------65--------66--------67--------68--------69--------70--------71--------72--------73--------74
     -51.919243      58.332596     260.1      4.64      5.88     111.6         1         1      1000      1000   1257.99    -9.003      19.5      35.7   309.703     0.656     112.4   0.12092     101.5         H               195.9  0.064395  0.052628  0.001942  4.489431  0.819422  5.478780  1.148911     79.94   21.7289  382.8687   0.16875   7.66557   0.08294   0.00092 636.52155  19.08616    1445.4  0.535777  0.001562  0.000092  0.000228  0.214848  7.343167  0.670292     86.64  1.000279  1.000033     2.857    17.566     181.9     100.1    1755.6    1454.2     14.50     -1.84     10.20      1.68      2.06      5.25     -0.10      1.91     -2.05     -2.13      3.22      2.35      3.30      4.91      1.48     -7.78      1.90      4.00      3.65      4.05
     -51.899734      58.250481     306.1      4.59      5.88     115.7         1         2      1000      2291   1096.95    -9.598      18.6      36.1   311.006     0.659     116.3   0.12026     100.0         H               195.9  0.063402  0.054718  0.001424  4.106313  0.785528  5.227455  1.151045     79.11   19.4841  338.9496   0.17255   7.60281   0.08614   0.00088 560.92767  17.64183    1262.6  0.538028  0.001269  0.000128  0.000261  0.217813  7.379858  0.673316     83.09  1.000311  1.000038     2.876    17.650     200.3      99.3    1333.7    1347.1     14.20     -1.06     11.16      2.81      3.49      5.57      0.09      1.16     -0.60     -0.33      4.57      1.83      4.01      5.86      1.72     -4.79      4.03      2.83      4.37      5.54
     -51.880348      58.169170     200.9      4.37      5.88      76.3         1         3      1000      3582   1012.23    -9.947      18.2      36.5   309.991     0.657     126.6   0.12011      31.9         H               195.9  0.063741  0.053118  0.001809  4.247133  0.814555  5.214056  1.150172     69.03   18.2321  312.3876   0.17127   7.54685   0.08914   0.00093 517.76886  16.81372    1164.2  0.537338  0.001692  0.000131  0.000234  0.217758  7.344734  0.672289     81.18  1.000304  1.000036     2.883    18.008     190.7      98.9    1131.1    1268.8     14.46      0.08     10.92      2.32      2.59      5.34     -0.05      0.53     -1.33      0.65      3.95      0.55      4.41      4.92      1.12     -6.79      2.57      2.39      4.46      3.55
     -51.969818      58.301632     253.9      4.65      5.88     114.8         2         1      2451      1000   1219.97    -9.137      19.2      35.7   310.765     0.659     134.0   0.12196      79.7         H               195.9  0.064299  0.053793  0.001934  4.312082  0.811374  5.314543  1.151686     77.03   21.1926  372.7173   0.16976   7.65400   0.08339   0.00090 618.88782  18.76119    1405.0  0.537749  0.001599  0.000162  0.000234  0.218121  7.377362  0.673737     84.75  1.000289  1.000035     2.862    17.683     190.7      99.9    1656.4    1419.1     14.63     -1.14     11.02      1.91      2.56      4.94     -0.35      0.97     -1.78     -0.95      3.66      1.38      3.74      5.26      0.73     -7.34      3.02      1.95      3.96      5.20
     -51.950291      58.219433     289.2      4.63      5.88     114.2         2         2      2451      2291   1156.12    -9.370      19.1      36.1   310.543     0.658     121.6   0.12167     100.0         H               195.9  0.064645  0.054271  0.001538  4.200724  0.827540  5.076156  1.150893     62.84   20.3246  355.8887   0.17156   7.63150   0.08452   0.00087 589.66833  18.19952    1330.5  0.536867  0.001450  0.000132  0.000250  0.217092  7.359481  0.673306     82.75  1.000292  1.000036     2.867    17.507     190.7      99.6    1484.6    1382.7     14.23     -0.68     10.89      2.74      2.40      5.49     -0.30      1.69     -1.49     -0.45      4.06      1.97      4.18      5.05      1.27     -5.36      1.77      3.22      4.00      4.55
     -51.930882      58.138039     203.0      4.56      5.88      78.9         2         3      2451      3582   1109.55    -9.549      19.0      36.5   310.769     0.656     109.7   0.11956      32.9         H               195.9  0.063618  0.053229  0.002044  4.294108  0.797869  5.381970  1.148701     74.63   19.6740  342.6400   0.17042   7.61141   0.08550   0.00087 568.49451  17.79213    1274.4  0.536184  0.001257  0.000092  0.000242  0.219174  7.352808  0.670551     82.84  1.000271  1.000032     2.862    17.633     200.3      99.4    1362.1    1354.7     14.87     -0.75     10.93      1.29      2.93      4.76     -0.55      0.46     -2.57     -0.13      3.89      0.70      3.69      5.00      0.54     -8.56      3.59      2.45      4.21      4.06
     -52.020386      58.270603     194.8      4.43      5.88      79.4         3         1      3902      1000   1129.02    -9.473      18.5      35.7   310.682     0.659     102.8   0.12124      29.3         H               195.9  0.065035  0.053027  0.001765  4.434587  0.811748  5.463009  1.151472     61.75   19.9494  347.5940   0.17014   7.62313   0.08480   0.00087 576.90820  17.97012    1299.9  0.538307  0.001268  0.000074  0.000239  0.214553  7.335657  0.673570     82.83  1.000329  1.000039     2.928    18.848     190.7      99.5    1414.0    1388.7     14.37     -0.41     10.74      2.63      2.36      5.66     -0.24      0.64     -1.59      0.20      3.34      0.99      4.51      5.02      0.94     -6.53      2.71      2.91      3.20      3.73
     -52.000835      58.188316     274.0      4.16      5.88     112.9         3         2      3902      2291   1058.13    -9.755      18.3      36.1   308.504     0.650      89.7   0.11719     100.0         H               195.9  0.064434  0.049606  0.001555  4.452280  0.806648  5.519483  1.143346     54.82   18.9441  325.9088   0.16692   7.58495   0.08654   0.00088 543.01123  17.32674    1209.7  0.533533  0.001081  0.000055  0.000232  0.209043  7.272332  0.663105     84.31  1.000300  1.000035     2.837    17.313     181.9      99.2    1229.8    1294.7     14.04     -1.75      9.90      2.50      2.15      5.52      0.36      1.46     -0.77     -1.35      2.71      1.93      3.32      5.10      1.88     -6.16      2.44      3.51      2.86      4.58
     -51.981403      58.106838     289.2      4.47      5.88     114.2         3         3      3902      3582   1104.42    -9.569      19.0      36.5   309.484     0.656     120.0   0.12018     100.0         H               195.9  0.065032  0.052424  0.001911  4.406068  0.810406  5.436866  1.148560     88.70   19.6067  340.7345   0.16989   7.60899   0.08545   0.00087 565.69794  17.74948    1268.5  0.535386  0.001271  0.000130  0.000231  0.217123  7.330331  0.670481     84.94  1.000288  1.000032     2.928    19.932     181.9      99.4    1346.9    1350.8     14.87     -1.53     10.81      1.25      3.04      4.32     -0.65      1.27     -2.24     -1.42      4.55      1.19      2.97      4.81      0.95     -8.43      2.87      1.60      5.54      4.23
