corner points
71.6973877    -15.47179604
71.65543365    -15.64596748
71.51208496    -15.42908764
71.46995544    -15.60319805
========== RESULTS WAVE VERSION 16.10.2018 ====================
IMAGE SIZE  X: 4476     Y:4776    col:row     POLARIZATION:VV
COVERAGE    X: 20.37608809km       Y: 19.83604801km 
RESOLUTION dX: 4.5522985m       dY:4.153276384m  
resolution of original product 4.5522985m x 4.153276384m;   raster step x:5999.929423m  
===============================================================
FLAGS: H=HIGH PROBABILITY SEA STATE, I=LAND(ISLAND), O=OUTLIER NO SEA STATE, N=NO WIND AVAILABLE, SEA STATE NOT VISIBLE, M=MEAN PROBABILITY SEA STATE, L= LOW PROBABILITY SEA STATE
Filtering wave length
 integration  Lmin=1m
 integration  Lmax=2200m
  peak        Lmin=100m
               FFT=1024pixels, 4661.553664m 
   mean-Hs (SWH_c)=1.95562912m
         mean-wind=15.2783947m/s
--------------0--------------1---------2---------3---------4---------5---------6---------7---------8---------9--------10--------11--------12--------13--------14--------15--------16--------17--------18--------19------------------20--------21--------22--------23--------24--------25--------26--------27--------28--------29--------30--------31--------32--------33--------34--------35--------36--------37--------38--------39--------40--------41--------42--------43--------44--------45--------46--------47--------48--------49--------50--------51--------52--------53--------54--------55--------56--------57--------58--------59--------60--------61--------62--------63--------64--------65--------66--------67--------68--------69--------70--------71--------72--------73
            LAT            LON  P-LENGHT     SWH_o     SWH_c     P-DIR      LINE     POINT     ROW-Y     COL-X  M-INTENC        dB      WIND INC-ANGLE  ENERGY-M  ENERGY-N  ENERGY-R ENERGY-NN  FG-DEPTH      FLAG         HEADING-DEG    E30-75   E75-390  E390-600 meanincut   meanout   cut/out  STD-NORM  SPEC-MAX   GL-MEAN    GL-VAR      CORR   ENTROPY   HOMOGEN    ENERGY  CONTRAST  DISSIMIL     STD-O    E 1-30 E600-2000   E2000 >      GODA  LONG-HIG     Tmean  CONVOLUT  MEAN-DIR  relation     Sy/Sx  SKEWNESS  KURTOSIS  cutoff-A >50/10000     INT*V   INT-LOG  S-1_g1f1  S-2_g1f2  S-3_g1f3  S-4_g2f1  S-5_g2f2  S-6_g2f3  S-7_g3f1  S-8_g3f2  S-9_g3f3 S-10_g1f4 S-11_g2f4 S-12_g3f4 S-13_g1f5 S-14_g2f5 S-15_g3f5 S-16_g4f1 S-17_g4f2 S-18_g4f3 S-19_g4f4 S-20_g4f5
--------------1--------------2---------3---------4---------5---------6---------7---------8---------9--------10--------11--------12--------13--------14--------15--------16--------17--------18--------19--------20------------------21--------22--------23--------24--------25--------26--------27--------28--------29--------30--------31--------32--------33--------34--------35--------36--------37--------38--------39--------40--------41--------42--------43--------44--------45--------46--------47--------48--------49--------50--------51--------52--------53--------54--------55--------56--------57--------58--------59--------60--------61--------62--------63--------64--------65--------66--------67--------68--------69--------70--------71--------72--------73--------74
     -15.498629      71.646706     159.7      1.65      2.83      96.5         1         1      1000      1000    634.55   -11.975      14.3      36.6   233.473     0.575      93.2   0.08266      17.8         H               192.2  0.052303  0.022504  0.000741  2.331555  0.706356  3.300820  1.075751     11.90   12.0240  162.3101   0.12751   6.99366   0.11655   0.00182 283.22955  11.92362     682.6  0.497908  0.001610  0.000165  0.000158  0.166525  6.878143  0.582441     93.14  1.000097  1.000008     2.439    13.036     105.0      96.2     396.9     737.0     11.07     -0.35      1.75      3.59      0.88      4.89      4.09     -0.08      2.64      0.30      0.25      0.70      0.32      2.36      2.44     -5.32      2.71      6.36     -0.40      3.01
     -15.486005      71.591911     133.7      1.66      2.83      77.3         1         2      1000      2318    618.73   -12.085      14.4      37.0   234.643     0.582     250.6   0.08572      11.9         H               192.2  0.052747  0.022771  0.000936  2.330938  0.717945  3.246680  1.083275     13.70   11.7191  157.5018   0.13423   6.94564   0.11961   0.00194 272.71973  11.65372     670.2  0.501463  0.003673  0.000628  0.000151  0.167722  6.906781  0.590746     90.49  1.000111  1.000011     2.449    12.802     114.0      95.8     379.9     697.7     11.37     -0.14      1.49      2.38      1.42      4.54      4.56     -0.20      2.46      0.62      0.69      0.79      0.87      1.63      2.93     -8.05      3.37      6.31      0.04      1.22
     -15.473478      71.537598     141.8      1.65      2.83      70.5         1         3      1000      3636    600.41   -12.216      14.5      37.4   237.313     0.591     486.8   0.08855      13.5         H               192.2  0.053991  0.023130  0.000847  2.413684  0.727215  3.319079  1.093256     11.45   11.3635  151.0663   0.14078   6.88898   0.12363   0.00208 259.59732  11.31481     656.4  0.505772  0.005936  0.001427  0.000154  0.167467  6.903452  0.600696     94.02  1.000164  1.000013     2.524    13.675     128.8      95.6     360.7     698.9     11.42      0.03      2.55      2.99      0.66      4.08      4.00      0.60      2.29      0.58      0.57      0.86      1.41      1.31      2.55     -6.76      0.81      3.87     -0.18     -0.01
     -15.551296      71.634010     132.2      2.02      2.83      97.1         2         1      2444      1000    738.35   -11.317      15.5      36.6   231.438     0.573      93.2   0.08494      11.6         H               192.2  0.052510  0.023756  0.000701  2.455207  0.724716  3.387818  1.073622     21.51   13.9280  204.0283   0.13096   7.23639   0.10298   0.00135 354.61639  13.55598     792.7  0.494224  0.001585  0.000170  0.000160  0.169296  6.920790  0.580684     96.09  1.000090  1.000009     2.409    12.452     102.3      97.4     543.8     802.2     11.05     -0.23      1.85      3.85      0.19      5.77      4.02     -0.23      2.26     -0.23     -0.34     -0.08      1.46      2.00      3.58     -4.57      0.68      8.88     -1.04      0.60
     -15.538667      71.579201     129.0      1.86      2.83      95.2         2         2      2444      2318    639.33   -11.943      14.6      37.0   236.000     0.587     268.6   0.08820      11.0         H               192.2  0.053745  0.025033  0.000961  2.592763  0.729644  3.553462  1.088263     20.44   12.0936  166.1203   0.13888   6.99768   0.11692   0.00183 286.09979  11.96208     695.7  0.503067  0.003655  0.000819  0.000164  0.170012  6.943205  0.596462     95.24  1.000047  1.000005     2.504    13.476     114.0      96.1     409.2     743.9     11.28     -0.15      2.02      3.13      0.40      5.75      4.76     -0.40      2.61      0.03     -0.51     -0.13      1.54      1.93      3.61     -7.06      1.28      8.34     -1.29      0.20
     -15.526134      71.524872     149.5      2.09      2.83      96.1         2         3      2444      3636    730.04   -11.367      16.0      37.4   235.064     0.585     295.9   0.08880      15.3         H               192.2  0.054205  0.024259  0.000909  2.510072  0.722573  3.473799  1.086889     20.13   13.7582  203.3944   0.14046   7.20927   0.10533   0.00142 349.64923  13.40488     793.4  0.501270  0.004062  0.000823  0.000161  0.169155  6.914551  0.594666     95.51  1.000113  1.000010     2.460    12.940     110.8      97.2     539.0     828.7     11.36     -0.04      2.03      3.15     -0.29      5.31      4.30     -0.39      2.78     -0.33     -0.79     -0.01      1.72      1.61      3.59     -6.66     -0.19      6.76     -1.55     -0.57
     -15.603963      71.621307     148.9      2.50      2.83      98.1         3         1      3888      1000    907.58   -10.421      17.3      36.6   232.802     0.578      93.1   0.08652      15.1         H               192.2  0.053541  0.024785  0.000540  2.601994  0.728311  3.572643  1.078403     27.04   16.8371  269.0960   0.13074   7.50329   0.08824   0.00094 467.82953  15.94360     978.7  0.497746  0.001207  0.000210  0.000185  0.166687  6.934992  0.586065     97.63  1.000127  1.000011     2.458    13.179     105.0      98.7     838.2     997.0     10.75     -1.02      2.57      5.01     -0.42      6.12      4.26     -0.10      3.36     -1.05     -1.37     -0.69      2.02      3.15      3.47     -2.09      0.15      7.33     -1.38      2.07
     -15.591328      71.566483     140.0      2.09      2.83      97.6         3         2      3888      2318    699.12   -11.554      15.4      37.0   237.016     0.593     414.7   0.09172      13.2         H               192.2  0.053888  0.025900  0.000976  2.682859  0.728503  3.682701  1.094324     25.60   13.1827  191.2114   0.14440   7.13845   0.10915   0.00155 327.19922  12.90247     765.1  0.505836  0.005045  0.001264  0.000167  0.172108  6.968377  0.602889     96.68  1.000129  1.000013     2.542    13.930     121.0      96.8     496.5     823.4     11.28     -0.44      2.82      3.50     -0.42      5.66      4.77     -0.26      3.22     -0.54     -1.04     -0.75      2.26      2.48      4.17     -6.10     -0.14      6.60     -1.18     -0.21
     -15.578790      71.512146     140.6      2.10      2.83      95.7         3         3      3888      3636    690.52   -11.608      15.6      37.4   233.003     0.578     140.9   0.08648      13.3         H               192.2  0.052784  0.025493  0.000715  2.661594  0.713179  3.732011  1.079467     28.82   13.0542  185.7138   0.13471   7.12937   0.10928   0.00155 321.39285  12.80471     745.4  0.497182  0.002145  0.000339  0.000173  0.171005  6.962161  0.587009     95.54  1.000119  1.000011     2.449    13.038     107.8      96.9     475.8     790.1     10.96      0.02      2.80      4.42     -0.20      6.30      4.56     -0.28      3.64     -0.23     -0.18     -0.35      2.02      3.14      3.87     -3.33     -0.03      7.51      0.28      2.43
