corner points
70.36439514    -20.75166321
70.31932068    -20.9257679
70.1734314    -20.70707512
70.12812042    -20.88110924
========== RESULTS WAVE VERSION 16.10.2018 ====================
IMAGE SIZE  X: 4476     Y:4786    col:row     POLARIZATION:VV
COVERAGE    X: 20.42505017km       Y: 19.87289322km 
RESOLUTION dX: 4.563237304m       dY:4.152296953m  
resolution of original product 4.563237304m x 4.152296953m;   raster step x:5996.093818m  
===============================================================
FLAGS: H=HIGH PROBABILITY SEA STATE, I=LAND(ISLAND), O=OUTLIER NO SEA STATE, N=NO WIND AVAILABLE, SEA STATE NOT VISIBLE, M=MEAN PROBABILITY SEA STATE, L= LOW PROBABILITY SEA STATE
Filtering wave length
 integration  Lmin=1m
 integration  Lmax=2200m
  peak        Lmin=100m
               FFT=1024pixels, 4672.755m 
   mean-Hs (SWH_c)=2.466411743m
         mean-wind=15.3893013m/s
--------------0--------------1---------2---------3---------4---------5---------6---------7---------8---------9--------10--------11--------12--------13--------14--------15--------16--------17--------18--------19------------------20--------21--------22--------23--------24--------25--------26--------27--------28--------29--------30--------31--------32--------33--------34--------35--------36--------37--------38--------39--------40--------41--------42--------43--------44--------45--------46--------47--------48--------49--------50--------51--------52--------53--------54--------55--------56--------57--------58--------59--------60--------61--------62--------63--------64--------65--------66--------67--------68--------69--------70--------71--------72--------73
            LAT            LON  P-LENGHT     SWH_o     SWH_c     P-DIR      LINE     POINT     ROW-Y     COL-X  M-INTENC        dB      WIND INC-ANGLE  ENERGY-M  ENERGY-N  ENERGY-R ENERGY-NN  FG-DEPTH      FLAG         HEADING-DEG    E30-75   E75-390  E390-600 meanincut   meanout   cut/out  STD-NORM  SPEC-MAX   GL-MEAN    GL-VAR      CORR   ENTROPY   HOMOGEN    ENERGY  CONTRAST  DISSIMIL     STD-O    E 1-30 E600-2000   E2000 >      GODA  LONG-HIG     Tmean  CONVOLUT  MEAN-DIR  relation     Sy/Sx  SKEWNESS  KURTOSIS  cutoff-A >50/10000     INT*V   INT-LOG  S-1_g1f1  S-2_g1f2  S-3_g1f3  S-4_g2f1  S-5_g2f2  S-6_g2f3  S-7_g3f1  S-8_g3f2  S-9_g3f3 S-10_g1f4 S-11_g2f4 S-12_g3f4 S-13_g1f5 S-14_g2f5 S-15_g3f5 S-16_g4f1 S-17_g4f2 S-18_g4f3 S-19_g4f4 S-20_g4f5
--------------1--------------2---------3---------4---------5---------6---------7---------8---------9--------10--------11--------12--------13--------14--------15--------16--------17--------18--------19--------20------------------21--------22--------23--------24--------25--------26--------27--------28--------29--------30--------31--------32--------33--------34--------35--------36--------37--------38--------39--------40--------41--------42--------43--------44--------45--------46--------47--------48--------49--------50--------51--------52--------53--------54--------55--------56--------57--------58--------59--------60--------61--------62--------63--------64--------65--------66--------67--------68--------69--------70--------71--------72--------73--------74
     -20.777985      70.311790     139.5      2.41      2.92     107.2         1         1      1000      1000    726.01   -11.391      15.3      36.5   243.222     0.593     156.3   0.09141      13.1         H               192.3  0.054763  0.030456  0.000638  3.188531  0.732951  4.350264  1.093490     30.24   13.6717  202.4607   0.14266   7.19624   0.10589   0.00144 347.15503  13.33683     793.9  0.505230  0.002158  0.000392  0.000199  0.171627  7.035771  0.603445     99.93  1.000085  1.000008     2.495    13.168     117.4      97.2     536.8     812.8     10.59     -2.48      2.76      5.08     -2.42      6.32      4.82     -1.89      3.89     -2.73     -4.10     -2.44      0.63      1.80      3.46     -1.60     -0.82      8.09     -3.93      1.41
     -20.764847      70.255486     119.8      2.61      2.92     103.0         1         2      1000      2314    742.90   -11.291      15.8      36.9   244.669     0.600     165.2   0.09494       9.3         H               192.3  0.055900  0.032350  0.000730  3.326254  0.735081  4.525018  1.099269     33.60   13.9584  209.2936   0.14727   7.22685   0.10470   0.00139 356.93988  13.54990     816.6  0.508470  0.002299  0.000376  0.000221  0.171627  7.046874  0.610352    101.22  1.000089  1.000009     2.582    14.473     117.4      97.2     566.3     879.3     10.38     -2.16      2.67      4.97     -2.40      6.23      5.38     -2.51      4.57     -3.09     -3.83     -3.23      0.52      2.28      3.21     -1.73     -1.04      7.78     -3.70      3.10
     -20.751804      70.199684     118.1      2.38      2.92      99.6         1         3      1000      3628    648.96   -11.878      15.0      37.3   242.350     0.590     103.9   0.09007       9.1         H               192.3  0.053872  0.031488  0.000652  3.167827  0.724262  4.373869  1.089768     34.95   12.2761  170.6407   0.14225   7.02213   0.11602   0.00179 292.73346  12.10757     707.3  0.502352  0.001807  0.000170  0.000208  0.176068  7.081366  0.600199    101.21  1.000071  1.000005     2.497    13.441     114.0      96.2     422.8     744.5     10.51     -2.44      3.07      5.29     -2.54      6.49      4.96     -2.38      4.44     -3.32     -4.16     -3.04      0.37      2.37      3.24     -0.95     -0.99      8.04     -3.98      3.39
     -20.830523      70.298180     115.3      2.36      2.92      99.4         2         1      2444      1000    723.65   -11.405      15.3      36.5   242.801     0.592     169.9   0.09187       8.6         H               192.3  0.055160  0.029913  0.000714  3.049221  0.734629  4.150692  1.092510     37.07   13.6317  201.2008   0.14365   7.19185   0.10620   0.00145 344.59631  13.28737     790.6  0.504040  0.002188  0.000433  0.000207  0.172420  7.021894  0.602101    100.51  1.000074  1.000007     2.499    13.244     117.4      97.1     532.5     809.2     10.57     -2.38      2.67      4.83     -2.74      5.69      4.93     -2.07      4.12     -2.76     -4.18     -3.24      0.44      1.61      3.08     -2.23     -1.61      6.91     -3.79      1.91
     -20.817377      70.241859     114.7      2.60      2.92     100.9         2         2      2444      2314    737.35   -11.323      15.7      36.9   244.120     0.597     128.5   0.09272       8.5         H               192.3  0.055426  0.032197  0.000662  3.287036  0.731234  4.495188  1.096310     35.69   13.8664  207.5695   0.14489   7.21651   0.10518   0.00141 354.99149  13.49971     808.2  0.506633  0.001769  0.000272  0.000214  0.174424  7.056076  0.607345    100.60  1.000058  1.000005     2.508    13.304     114.0      97.2     556.4     836.9     10.55     -2.44      2.81      5.41     -3.06      6.73      4.90     -2.18      4.28     -3.39     -4.32     -3.39      0.78      2.07      3.30     -1.03     -2.17      8.39     -3.73      2.35
     -20.804329      70.186035     114.7      2.37      2.92     100.9         2         3      2444      3628    671.91   -11.727      15.3      37.3   242.296     0.589      70.0   0.09006       8.5         H               192.3  0.054245  0.030575  0.000654  3.074127  0.726867  4.229286  1.088696     36.12   12.7011  179.8201   0.14061   7.07969   0.11279   0.00167 309.07410  12.48691     731.5  0.502576  0.001112  0.000103  0.000211  0.173481  7.038965  0.598355    101.36  1.000077  1.000009     2.494    13.411     114.0      96.5     454.5     766.9     10.56     -2.50      2.42      4.96     -2.36      6.18      4.73     -2.24      3.90     -2.47     -4.31     -2.61      0.09      1.76      2.85     -1.58     -0.58      8.24     -4.98      2.71
     -20.883059      70.284561     114.7      2.56      2.92     100.9         3         1      3888      1000    763.00   -11.175      15.7      36.5   246.872     0.604     290.8   0.09513       8.5         H               192.3  0.055869  0.031532  0.000686  3.229221  0.736868  4.382359  1.104718     32.05   14.3032  218.7791   0.14863   7.26033   0.10289   0.00134 372.52191  13.86503     842.9  0.512037  0.003818  0.000851  0.000222  0.171449  7.037500  0.615459    100.78  1.000053  1.000006     2.557    13.835     121.0      97.4     602.5     888.4     10.32     -2.52      1.97      4.86     -2.49      6.24      5.13     -2.20      4.06     -2.51     -4.23     -2.81      0.45      1.52      2.98     -1.69     -1.27      9.04     -4.95      2.24
     -20.869907      70.228210     115.7      2.55      2.92      97.8         3         2      3888      2314    697.11   -11.567      15.3      36.9   242.669     0.593      84.7   0.09194       8.7         H               192.3  0.054099  0.032593  0.000680  3.098270  0.723551  4.282036  1.093019     36.04   13.1507  190.4979   0.14343   7.13413   0.10959   0.00156 326.34918  12.88033     761.9  0.504852  0.001406  0.000116  0.000226  0.176622  7.097402  0.603759    100.84  1.000089  1.000008     2.517    13.608     117.4      96.7     492.7     802.8     10.27     -2.58      2.57      5.33     -2.22      6.75      5.48     -2.20      5.12     -2.77     -4.14     -2.88      0.78      2.57      3.41     -0.56     -0.55      8.83     -4.34      3.84
     -20.856852      70.172371     131.9      2.36      2.92      98.9         3         3      3888      3628    662.27   -11.790      15.1      37.3   241.828     0.587     102.2   0.08937      11.5         H               192.3  0.054058  0.030677  0.000806  3.083006  0.738032  4.177333  1.087449     36.42   12.5246  175.7803   0.14139   7.05708   0.11404   0.00171 301.85168  12.32860     720.2  0.500299  0.001742  0.000166  0.000204  0.175474  7.047134  0.597224    100.25  1.000085  1.000008     2.478    13.326     117.4      96.4     440.3     770.1     10.68     -2.71      2.90      4.87     -2.39      6.67      5.33     -2.09      4.34     -2.83     -4.48     -2.84      0.57      2.52      3.27     -2.32     -1.09      8.69     -4.89      3.72
