corner points
70.96958923    -25.54610634
70.92306519    -25.72539711
70.76654053    -25.50110817
70.71961212    -25.68032074
========== RESULTS WAVE VERSION 16.10.2018 ====================
IMAGE SIZE  X: 5635     Y:4922    col:row     POLARIZATION:VV
COVERAGE    X: 20.93889198km       Y: 20.42933704km 
RESOLUTION dX: 3.715863706m       dY:4.150617034m  
resolution of original product 3.715863706m x 4.150617034m;   raster step x:5997.404021m  
===============================================================
FLAGS: H=HIGH PROBABILITY SEA STATE, I=LAND(ISLAND), O=OUTLIER NO SEA STATE, N=NO WIND AVAILABLE, SEA STATE NOT VISIBLE, M=MEAN PROBABILITY SEA STATE, L= LOW PROBABILITY SEA STATE
Filtering wave length
 integration  Lmin=1m
 integration  Lmax=2200m
  peak        Lmin=100m
               FFT=1024pixels, 3805.044435m 
   mean-Hs (SWH_c)=1.053071671m
         mean-wind=11.03580284m/s
--------------0--------------1---------2---------3---------4---------5---------6---------7---------8---------9--------10--------11--------12--------13--------14--------15--------16--------17--------18--------19------------------20--------21--------22--------23--------24--------25--------26--------27--------28--------29--------30--------31--------32--------33--------34--------35--------36--------37--------38--------39--------40--------41--------42--------43--------44--------45--------46--------47--------48--------49--------50--------51--------52--------53--------54--------55--------56--------57--------58--------59--------60--------61--------62--------63--------64--------65--------66--------67--------68--------69--------70--------71--------72--------73
            LAT            LON  P-LENGHT     SWH_o     SWH_c     P-DIR      LINE     POINT     ROW-Y     COL-X  M-INTENC        dB      WIND INC-ANGLE  ENERGY-M  ENERGY-N  ENERGY-R ENERGY-NN  FG-DEPTH      FLAG         HEADING-DEG    E30-75   E75-390  E390-600 meanincut   meanout   cut/out  STD-NORM  SPEC-MAX   GL-MEAN    GL-VAR      CORR   ENTROPY   HOMOGEN    ENERGY  CONTRAST  DISSIMIL     STD-O    E 1-30 E600-2000   E2000 >      GODA  LONG-HIG     Tmean  CONVOLUT  MEAN-DIR  relation     Sy/Sx  SKEWNESS  KURTOSIS  cutoff-A >50/10000     INT*V   INT-LOG  S-1_g1f1  S-2_g1f2  S-3_g1f3  S-4_g2f1  S-5_g2f2  S-6_g2f3  S-7_g3f1  S-8_g3f2  S-9_g3f3 S-10_g1f4 S-11_g2f4 S-12_g3f4 S-13_g1f5 S-14_g2f5 S-15_g3f5 S-16_g4f1 S-17_g4f2 S-18_g4f3 S-19_g4f4 S-20_g4f5
--------------1--------------2---------3---------4---------5---------6---------7---------8---------9--------10--------11--------12--------13--------14--------15--------16--------17--------18--------19--------20------------------21--------22--------23--------24--------25--------26--------27--------28--------29--------30--------31--------32--------33--------34--------35--------36--------37--------38--------39--------40--------41--------42--------43--------44--------45--------46--------47--------48--------49--------50--------51--------52--------53--------54--------55--------56--------57--------58--------59--------60--------61--------62--------63--------64--------65--------66--------67--------68--------69--------70--------71--------72--------73--------74
     -25.574356      70.923111     123.4      1.05      2.49     103.4         1         1      1000      1000   3643.72    -4.385      10.5      23.2   367.991     0.788      84.8   0.19562      10.0         H               192.5  0.102712  0.049172  0.000825  5.131955  1.008644  5.087974  1.256922     22.76    6.7580   75.5556   0.27954   5.87910   0.20923   0.00721 108.86994   6.73348    4579.5  0.634142  0.001171  0.000047  0.000246  0.162823  6.891295  0.830016     90.93  1.000236  1.000034     3.825    35.144     105.0      88.4     152.9     700.4     11.03     -0.16      0.59      3.92     -0.74      4.49      2.31     -0.38      3.60     -0.48     -0.87     -0.90      0.30      1.01      2.26     -1.53     -1.07      5.85     -0.64      1.84
     -25.561329      70.864250     119.6      1.10      2.49     103.0         1         2      1000      2614   3580.98    -4.460      11.5      23.7   367.762     0.788      81.1   0.19581       9.3         H               192.5  0.101612  0.047404  0.000988  5.007561  1.017233  4.922727  1.258108     27.49    6.6281   72.5670   0.27774   5.84576   0.21108   0.00738 104.82372   6.61499    4505.0  0.637208  0.001121  0.000034  0.000235  0.162961  6.909600  0.829656     91.00  1.000237  1.000033     3.922    36.322     105.0      88.3     147.2     695.6     10.96     -0.02      0.95      3.59     -0.87      4.71      3.07     -0.73      3.49     -1.06     -1.03     -0.83      0.09      1.61      2.44     -2.33     -1.32      6.72     -1.27      2.98
     -25.548521      70.806496     119.6      1.17      2.49     103.0         1         3      1000      4228   3389.72    -4.698      11.9      24.1   364.493     0.780      86.7   0.19333       9.3         H               192.5  0.100854  0.048237  0.000990  5.028684  0.994010  5.058988  1.251315     28.54    6.2512   65.6561   0.27769   5.73884   0.22081   0.00826  94.84795   6.26867    4241.7  0.628756  0.001217  0.000040  0.000224  0.168671  6.919827  0.821159     91.59  1.000229  1.000030     3.768    33.198     102.3      87.4     129.9     624.5     11.32     -0.38      1.13      3.55     -1.05      5.17      2.64     -0.53      3.65     -0.61     -1.10     -1.04      0.06      1.41      2.29     -2.58     -1.47      6.29     -1.38      2.41
     -25.626999      70.909424     112.7      1.03      2.49     102.2         2         1      2445      1000   3596.13    -4.442      10.3      23.2   371.124     0.805      82.0   0.20365       8.2         H               192.5  0.106089  0.050282  0.001119  5.262356  1.019816  5.160103  1.269609     30.72    6.6607   74.3998   0.28414   5.84925   0.21208   0.00747 106.52005   6.64460    4565.4  0.646932  0.001110  0.000031  0.000240  0.165578  6.925563  0.849285     93.98  1.000252  1.000036     3.980    38.741     107.8      88.2     151.1     717.0     11.30     -0.22      0.61      3.30     -0.82      5.02      2.63     -1.04      3.15     -0.65     -1.20     -1.24      0.03      1.02      2.10     -3.14     -1.18      7.04     -1.60      1.76
     -25.613966      70.850540     101.8      1.08      2.49      98.3         2         2      2445      2614   3466.04    -4.602      11.0      23.7   370.370     0.795      86.1   0.19748       6.6         H               192.5  0.101711  0.048619  0.000906  5.107617  1.023239  4.991615  1.264178     28.00    6.3981   68.4689   0.27536   5.78119   0.21705   0.00791  99.23013   6.41356    4381.3  0.642762  0.001151  0.000041  0.000228  0.167005  6.934576  0.836686     93.34  1.000244  1.000032     4.329    57.663     102.3      87.8     137.9     768.4     11.15     -0.73      0.80      3.58     -0.47      4.34      2.29     -0.66      3.51     -0.24     -1.03     -0.87     -0.37      1.22      2.37     -2.01      0.18      5.74     -1.34      2.11
     -25.601151      70.792747     120.3      1.05      2.49     101.4         2         3      2445      4228   3245.91    -4.887      11.3      24.1   365.148     0.780      77.2   0.19263       9.4         H               192.5  0.098918  0.046879  0.000898  4.917920  0.992772  4.953724  1.252964     28.13    5.9673   60.4289   0.27532   5.65509   0.22760   0.00895  87.58378   6.00728    4067.1  0.632309  0.001098  0.000031  0.000223  0.167362  6.926888  0.819892     94.57  1.000243  1.000033     3.936    40.693     102.3      86.8     118.7     642.2     11.08      0.05      1.55      4.10     -1.36      4.71      2.78     -1.22      3.60     -0.96     -1.48     -1.88      0.14      1.70      2.18     -1.78     -2.12      5.50     -1.26      2.59
     -25.679642      70.895737     107.0      1.00      2.49     100.2         3         1      3890      1000   3674.62    -4.348      10.6      23.2   376.819     0.822      78.0   0.21142       7.3         H               192.5  0.111995  0.049802  0.001094  5.232001  1.070061  4.889442  1.284865     29.50    6.7922   77.6744   0.28771   5.88112   0.21006   0.00727 110.65277   6.76293    4720.9  0.658563  0.001011  0.000026  0.000243  0.163254  6.862436  0.867325     92.01  1.000253  1.000038     4.187    43.449     107.8      88.4     159.5     735.1     11.42     -0.46      0.54      3.17     -0.69      4.75      2.27     -0.67      2.75     -0.57     -1.20     -0.91      0.15      0.51      2.19     -3.39     -0.65      6.78     -1.54      1.32
     -25.666601      70.836815     101.8      0.93      2.49      98.3         3         2      3890      2614   3380.65    -4.710      10.7      23.7   365.353     0.784      74.1   0.19396       6.6         H               192.5  0.100566  0.045791  0.000949  4.744596  1.007429  4.709608  1.255085     26.60    6.2449   65.7952   0.27694   5.73599   0.22117   0.00830  95.14751   6.26858    4243.0  0.635981  0.001013  0.000025  0.000229  0.166741  6.894207  0.825150     93.94  1.000241  1.000033     3.857    38.333     105.0      87.4     130.2     659.8     11.15     -0.51      0.83      3.87     -1.09      5.06      2.69     -0.84      3.24     -0.77     -1.34     -0.82      0.36      1.34      2.03     -2.39     -0.81      6.44     -1.80      1.90
     -25.653780      70.778992     129.0      1.07      2.49     100.5         3         3      3890      4228   3318.36    -4.791      11.6      24.1   370.287     0.788      87.2   0.19349      11.0         H               192.5  0.101337  0.047005  0.000906  4.931932  0.999040  4.936674  1.259395     33.65    6.1033   63.1846   0.27442   5.69503   0.22435   0.00863  91.69061   6.14311    4178.8  0.638547  0.001178  0.000053  0.000229  0.166544  6.914361  0.828963     93.08  1.000228  1.000031     4.039    42.198     105.0      87.1     125.3     673.8     11.14     -0.74      1.18      3.83     -1.22      4.95      2.63     -0.78      3.51     -1.03     -1.31     -1.47     -0.19      1.72      2.66     -1.99     -1.46      6.51     -1.08      2.79
