corner points
70.01018524    -29.06067657
69.96099091    -29.23949432
69.7999115    -29.01427841
69.75024414    -29.19300461
========== RESULTS WAVE VERSION 16.10.2018 ====================
IMAGE SIZE  X: 5635     Y:4919    col:row     POLARIZATION:VV
COVERAGE    X: 21.0425039km       Y: 20.40445632km 
RESOLUTION dX: 3.734250913m       dY:4.148090327m  
resolution of original product 3.734250913m x 4.148090327m;   raster step x:5997.206967m  
===============================================================
FLAGS: H=HIGH PROBABILITY SEA STATE, I=LAND(ISLAND), O=OUTLIER NO SEA STATE, N=NO WIND AVAILABLE, SEA STATE NOT VISIBLE, M=MEAN PROBABILITY SEA STATE, L= LOW PROBABILITY SEA STATE
Filtering wave length
 integration  Lmin=1m
 integration  Lmax=2200m
  peak        Lmin=100m
               FFT=1024pixels, 3823.872935m 
   mean-Hs (SWH_c)=0.4046552277m
         mean-wind=6.160287857m/s
--------------0--------------1---------2---------3---------4---------5---------6---------7---------8---------9--------10--------11--------12--------13--------14--------15--------16--------17--------18--------19------------------20--------21--------22--------23--------24--------25--------26--------27--------28--------29--------30--------31--------32--------33--------34--------35--------36--------37--------38--------39--------40--------41--------42--------43--------44--------45--------46--------47--------48--------49--------50--------51--------52--------53--------54--------55--------56--------57--------58--------59--------60--------61--------62--------63--------64--------65--------66--------67--------68--------69--------70--------71--------72--------73
            LAT            LON  P-LENGHT     SWH_o     SWH_c     P-DIR      LINE     POINT     ROW-Y     COL-X  M-INTENC        dB      WIND INC-ANGLE  ENERGY-M  ENERGY-N  ENERGY-R ENERGY-NN  FG-DEPTH      FLAG         HEADING-DEG    E30-75   E75-390  E390-600 meanincut   meanout   cut/out  STD-NORM  SPEC-MAX   GL-MEAN    GL-VAR      CORR   ENTROPY   HOMOGEN    ENERGY  CONTRAST  DISSIMIL     STD-O    E 1-30 E600-2000   E2000 >      GODA  LONG-HIG     Tmean  CONVOLUT  MEAN-DIR  relation     Sy/Sx  SKEWNESS  KURTOSIS  cutoff-A >50/10000     INT*V   INT-LOG  S-1_g1f1  S-2_g1f2  S-3_g1f3  S-4_g2f1  S-5_g2f2  S-6_g2f3  S-7_g3f1  S-8_g3f2  S-9_g3f3 S-10_g1f4 S-11_g2f4 S-12_g3f4 S-13_g1f5 S-14_g2f5 S-15_g3f5 S-16_g4f1 S-17_g4f2 S-18_g4f3 S-19_g4f4 S-20_g4f5
--------------1--------------2---------3---------4---------5---------6---------7---------8---------9--------10--------11--------12--------13--------14--------15--------16--------17--------18--------19--------20------------------21--------22--------23--------24--------25--------26--------27--------28--------29--------30--------31--------32--------33--------34--------35--------36--------37--------38--------39--------40--------41--------42--------43--------44--------45--------46--------47--------48--------49--------50--------51--------52--------53--------54--------55--------56--------57--------58--------59--------60--------61--------62--------63--------64--------65--------66--------67--------68--------69--------70--------71--------72--------73--------74
     -29.088598      69.961823     126.0      0.48      1.99     112.7         1         1      1000      1000   2514.35    -5.996       6.2      23.1   325.126     0.703      50.2   0.15793      10.4         H               192.7  0.076649  0.043980  0.000604  4.330428  0.932249  4.645141  1.188270     28.42    4.5399   34.7963   0.25209   5.17613   0.26973   0.01387  52.04910   4.66253    2987.8  0.581490  0.000524  0.000010  0.000177  0.177094  7.053659  0.735242    104.16  1.000145  1.000015     3.235    23.457      76.6      83.0      65.4     388.9     10.76     -2.00     -0.41      4.63     -2.21      3.81      1.88     -1.45      4.15     -1.55     -2.38     -2.18     -0.86     -0.44      0.42      0.13     -2.12      4.98     -2.50      0.64
     -29.075232      69.901161     110.1      0.40      1.99     112.9         1         2      1000      2606   2279.99    -6.421       6.3      23.5   330.950     0.720      65.0   0.16480       7.8         H               192.7  0.079801  0.043431  0.000649  4.333715  0.967839  4.477725  1.202914     22.84    4.0722   29.3906   0.25596   4.97687   0.29153   0.01708  43.73514   4.22877    2742.7  0.595826  0.000786  0.000028  0.000172  0.175551  7.029645  0.753400    103.61  1.000169  1.000017     3.338    24.873      79.7      80.8      54.3     366.5     10.80     -2.34      0.12      4.74     -2.31      3.99      2.15     -1.12      3.81     -1.77     -2.14     -2.13     -0.34     -0.30      0.39     -0.38     -1.85      4.60     -1.44      0.70
     -29.062088      69.841644     111.8      0.39      1.99     105.3         1         3      1000      4212   2066.25    -6.848       6.3      24.0   325.997     0.706      71.7   0.16015       8.0         H               192.7  0.076200  0.042217  0.000673  4.106234  0.926137  4.433721  1.191324     20.99    3.6480   23.8248   0.25291   4.78418   0.31182   0.02059  35.59828   3.82044    2461.5  0.586923  0.000977  0.000029  0.000168  0.178263  7.040067  0.738895    100.17  1.000149  1.000016     3.232    23.251      78.1      78.8      44.0     319.3     10.97     -1.55     -0.54      4.36     -1.74      3.91      1.69     -1.05      4.10     -1.54     -1.73     -1.20      0.09     -0.28      0.10     -0.76     -1.23      4.79     -1.80      0.65
     -29.141171      69.947342     108.7      0.43      1.99     104.8         2         1      2446      1000   2588.36    -5.870       6.5      23.1   329.401     0.714      59.1   0.16231       7.6         H               192.7  0.079870  0.043048  0.000596  4.200575  0.950562  4.419044  1.197832     21.35    4.6871   37.3522   0.25476   5.23091   0.26473   0.01321  55.67286   4.80461    3100.3  0.590657  0.000622  0.000024  0.000168  0.175977  7.038749  0.747629    102.65  1.000170  1.000017     3.302    24.381      76.6      83.4      70.2     417.2     10.68     -1.78     -0.79      4.52     -2.01      3.53      1.74     -0.92      4.25     -1.06     -1.82     -2.20     -0.49     -0.04      0.47      0.27     -2.09      4.63     -1.33      1.10
     -29.127796      69.886635     109.2      0.43      1.99     109.5         2         2      2446      2606   2212.28    -6.552       6.0      23.5   329.398     0.712     113.8   0.16088       7.7         H               192.7  0.077786  0.044298  0.000752  4.258787  0.947951  4.492622  1.197104     25.75    3.9471   27.5750   0.25464   4.92239   0.29695   0.01806  41.10722   4.10790    2648.2  0.588147  0.001552  0.000098  0.000172  0.182061  7.071806  0.745013    103.81  1.000161  1.000015     3.260    24.019      78.1      80.3      51.0     358.5     11.04     -1.86     -0.56      4.30     -2.38      4.23      1.74     -1.20      4.48     -1.77     -2.60     -1.96      0.16     -0.14      0.49     -0.98     -2.09      4.65     -2.40      0.78
     -29.114645      69.827080     133.0      0.36      1.99     110.1         2         3      2446      4212   1947.02    -7.106       5.8      24.0   326.214     0.703      77.4   0.15698      11.7         H               192.7  0.076667  0.042063  0.000655  4.113579  0.941109  4.370991  1.187896     23.62    3.4129   21.0837   0.25064   4.66879   0.32436   0.02289  31.59831   3.59696    2312.7  0.582935  0.000928  0.000052  0.000165  0.178929  7.046887  0.734913    104.60  1.000168  1.000017     3.199    22.241      76.6      77.6      39.0     275.7     10.77     -1.64     -0.35      4.74     -1.85      4.12      2.24     -0.72      4.36     -1.22     -2.02     -1.67     -0.19     -0.18      0.22     -0.21     -1.70      4.89     -1.69      0.80
     -29.193741      69.932838     123.0      0.41      1.99     115.7         3         1      3892      1000   2432.15    -6.140       5.9      23.1   325.659     0.703      54.9   0.15727       9.9         H               192.7  0.077655  0.043654  0.000615  4.130085  0.933818  4.422795  1.187681     25.46    4.3826   32.7449   0.25141   5.11226   0.27695   0.01483  49.02457   4.51394    2888.5  0.581080  0.000602  0.000011  0.000164  0.182156  7.048798  0.735536    103.53  1.000173  1.000016     3.233    24.410      75.2      82.3      61.2     398.6     11.00     -2.38     -1.39      4.29     -2.02      3.65      1.10     -0.70      4.48     -1.01     -2.08     -2.31     -0.53     -0.41     -0.12     -0.24     -1.75      4.52     -1.82      0.93
     -29.180359      69.872101     114.2      0.42      1.99     107.2         3         2      3892      2606   2324.05    -6.338       6.4      23.5   328.347     0.711      55.9   0.16069       8.4         H               192.7  0.078505  0.043088  0.000625  4.176944  0.954574  4.375714  1.196370     23.70    4.1629   30.2259   0.25364   5.01805   0.28656   0.01633  45.11814   4.30922    2780.3  0.588347  0.000634  0.000014  0.000169  0.177507  7.045447  0.743442    103.67  1.000184  1.000018     3.262    23.220      76.6      81.4      56.1     345.5     10.95     -2.47     -1.05      4.16     -1.86      3.59      1.51     -0.57      4.06     -0.93     -1.94     -2.02     -0.86     -0.43      0.40     -0.71     -1.40      4.40     -1.54      0.58
     -29.167200      69.812508     127.4      0.41      1.99     111.1         3         3      3892      4212   1971.73    -7.052       5.9      24.0   329.585     0.715     166.6   0.16257      10.7         H               192.7  0.078030  0.044859  0.000706  4.286564  0.931927  4.599678  1.198929     31.39    3.4686   22.1252   0.25614   4.69275   0.32358   0.02271  32.91609   3.65128    2363.7  0.589904  0.002369  0.000169  0.000173  0.180337  7.084183  0.748948    106.10  1.000181  1.000017     3.234    22.327      78.1      77.7      40.6     287.9     10.83     -1.89     -0.74      4.24     -1.93      3.91      2.08     -1.26      4.56     -1.29     -2.40     -2.54     -0.56     -0.62      0.49     -0.48     -1.93      4.80     -2.33     -0.00
