corner points
74.89600372    -1.342432261
74.85884094    -1.517686248
74.71743774    -1.303730607
74.68025208    -1.478940487
========== RESULTS WAVE VERSION 16.10.2018 ====================
IMAGE SIZE  X: 4476     Y:4788    col:row     POLARIZATION:VV
COVERAGE    X: 20.26706582km       Y: 19.87372822km 
RESOLUTION dX: 4.527941425m       dY:4.150736887m  
resolution of original product 4.527941425m x 4.150736887m;   raster step x:5999.522389m  
===============================================================
FLAGS: H=HIGH PROBABILITY SEA STATE, I=LAND(ISLAND), O=OUTLIER NO SEA STATE, N=NO WIND AVAILABLE, SEA STATE NOT VISIBLE, M=MEAN PROBABILITY SEA STATE, L= LOW PROBABILITY SEA STATE
Filtering wave length
 integration  Lmin=1m
 integration  Lmax=2200m
  peak        Lmin=100m
               FFT=1024pixels, 4636.61202m 
   mean-Hs (SWH_c)=0.8306338501m
         mean-wind=12.69794273m/s
--------------0--------------1---------2---------3---------4---------5---------6---------7---------8---------9--------10--------11--------12--------13--------14--------15--------16--------17--------18--------19------------------20--------21--------22--------23--------24--------25--------26--------27--------28--------29--------30--------31--------32--------33--------34--------35--------36--------37--------38--------39--------40--------41--------42--------43--------44--------45--------46--------47--------48--------49--------50--------51--------52--------53--------54--------55--------56--------57--------58--------59--------60--------61--------62--------63--------64--------65--------66--------67--------68--------69--------70--------71--------72--------73
            LAT            LON  P-LENGHT     SWH_o     SWH_c     P-DIR      LINE     POINT     ROW-Y     COL-X  M-INTENC        dB      WIND INC-ANGLE  ENERGY-M  ENERGY-N  ENERGY-R ENERGY-NN  FG-DEPTH      FLAG         HEADING-DEG    E30-75   E75-390  E390-600 meanincut   meanout   cut/out  STD-NORM  SPEC-MAX   GL-MEAN    GL-VAR      CORR   ENTROPY   HOMOGEN    ENERGY  CONTRAST  DISSIMIL     STD-O    E 1-30 E600-2000   E2000 >      GODA  LONG-HIG     Tmean  CONVOLUT  MEAN-DIR  relation     Sy/Sx  SKEWNESS  KURTOSIS  cutoff-A >50/10000     INT*V   INT-LOG  S-1_g1f1  S-2_g1f2  S-3_g1f3  S-4_g2f1  S-5_g2f2  S-6_g2f3  S-7_g3f1  S-8_g3f2  S-9_g3f3 S-10_g1f4 S-11_g2f4 S-12_g3f4 S-13_g1f5 S-14_g2f5 S-15_g3f5 S-16_g4f1 S-17_g4f2 S-18_g4f3 S-19_g4f4 S-20_g4f5
--------------1--------------2---------3---------4---------5---------6---------7---------8---------9--------10--------11--------12--------13--------14--------15--------16--------17--------18--------19--------20------------------21--------22--------23--------24--------25--------26--------27--------28--------29--------30--------31--------32--------33--------34--------35--------36--------37--------38--------39--------40--------41--------42--------43--------44--------45--------46--------47--------48--------49--------50--------51--------52--------53--------54--------55--------56--------57--------58--------59--------60--------61--------62--------63--------64--------65--------66--------67--------68--------69--------70--------71--------72--------73--------74
      -1.370295      74.847885     127.3      1.05      2.22      68.9         1         1      1000      1000    571.94   -12.426      13.6      36.8   218.957     0.557     249.5   0.07509      10.7         H               192.0  0.046024  0.015503  0.000776  1.406636  0.684339  2.055466  1.060041     10.87   10.8549  134.5843   0.11385   6.82035   0.12534   0.00217 238.52493  10.88608     606.3  0.490851  0.003055  0.000704  0.000110  0.176337  6.838009  0.561189     71.09  1.000055  1.000004     2.346    12.010      90.6      95.5     313.6     621.5     11.56      0.43     -1.13      0.96      4.13      3.07      3.81      0.95      1.84      2.36      2.15      1.63     -0.33     -0.71      0.11     -9.55      5.93      4.49      1.68      0.11
      -1.358792      74.794823     134.2      1.08      2.22      63.8         1         2      1000      2325    556.17   -12.548      13.7      37.2   219.193     0.558     151.3   0.07485      12.0         H               192.0  0.046830  0.016096  0.001077  1.499862  0.700461  2.141250  1.060914     12.84   10.5521  128.0378   0.11322   6.76974   0.12790   0.00229 227.08426  10.60493     590.0  0.491733  0.002758  0.000323  0.000109  0.179832  6.865718  0.563694     67.54  1.000095  1.000008     2.383    12.555      92.7      95.2     296.0     626.6     12.04      0.21      0.28      0.44      4.12      2.70      4.15      0.42      1.06      2.21      2.45      1.09     -1.32     -0.01     -0.28    -12.79      6.86      3.40      2.57      3.07
      -1.347386      74.742210     137.7      1.04      2.22      63.0         1         3      1000      3650    557.99   -12.534      14.0      37.6   216.892     0.550      81.8   0.07249      12.7         H               192.0  0.045889  0.014908  0.000862  1.394622  0.679207  2.053309  1.052264     11.12   10.5936  127.9828   0.10848   6.77946   0.12728   0.00225 228.19688  10.65295     587.1  0.487065  0.001336  0.000150  0.000109  0.175604  6.836988  0.553953     68.91  1.000087  1.000007     2.299    11.623      81.3      95.4     295.3     600.1     11.72     -0.27     -0.45      0.73      4.80      2.65      3.84      0.31      1.46      2.16      2.17      1.73     -1.04     -0.07     -0.19    -10.68      8.80      3.46      1.10      2.46
      -1.423195      74.836670     129.1      0.82      2.22      66.7         2         1      2445      1000    490.76   -13.091      12.4      36.8   220.991     0.563     297.9   0.07467      11.0         H               192.0  0.046387  0.016029  0.000951  1.467904  0.681990  2.152383  1.066177     11.13    9.2806  103.6412   0.11354   6.53532   0.14218   0.00296 183.74918   9.44441     523.2  0.494705  0.004216  0.000889  0.000110  0.176004  6.866031  0.568385     68.83  1.000023  1.000002     2.408    13.096      94.9      93.9     228.5     581.6     11.47      0.02     -1.17      0.83      4.32      2.81      4.27      0.91      1.59      1.95      2.05      1.95     -0.56     -0.91      0.11    -10.87      7.25      4.30      1.48     -0.02
      -1.411687      74.783600     326.1      0.77      2.22       4.0         2         2      2445      2325    461.57   -13.358      12.3      37.2   222.796     0.569     359.5   0.07613     100.0         H               192.0  0.046444  0.016132  0.001362  1.450076  0.683601  2.121232  1.072557      9.17    8.7110   93.4989   0.11740   6.41746   0.15049   0.00336 165.04691   8.90000     495.1  0.499058  0.005267  0.001102  0.000108  0.178691  6.860952  0.575316     72.77  0.999975  1.000000     2.429    12.842     105.0      93.3     202.1     518.2     12.13     -0.53     -0.62     -0.77      4.44      2.12      4.90      0.17      1.79      1.02      2.60      1.07     -0.19     -0.61      0.02    -15.92      8.66      1.87      4.18      0.15
      -1.400278      74.730988     326.1      0.73      2.22       4.0         2         3      2445      3650    458.21   -13.389      12.5      37.6   221.920     0.565     454.3   0.07511     100.0         H               192.0  0.045441  0.015237  0.001140  1.379807  0.676213  2.040490  1.069620     12.16    8.6447   92.1823   0.11667   6.40343   0.15142   0.00341 162.85477   8.83741     490.1  0.495851  0.006351  0.001531  0.000107  0.176968  6.845561  0.571080     75.25  0.999971  0.999997     2.390    12.340     114.0      93.2     198.3     509.5     12.23     -0.37     -1.46     -0.82      3.95      3.22      4.41      0.04      0.54      1.25      1.74      1.94      0.09     -1.31      0.95    -15.24      7.63      6.38      0.55     -2.52
      -1.476093      74.825447     132.5      0.68      2.22      66.1         3         1      3890      1000    455.46   -13.416      11.9      36.8   218.602     0.553      72.5   0.07115      11.6         H               192.0  0.046986  0.015654  0.000376  1.448899  0.677852  2.137486  1.055803     13.79    8.5960   89.3389   0.10574   6.39672   0.15061   0.00338 159.78476   8.80045     480.9  0.489665  0.000953  0.000162  0.000117  0.172841  6.833163  0.557891     69.04  1.000061  1.000004     2.311    11.636      84.8      93.3     192.8     483.1     10.90      2.41     -1.58      3.10      3.21      3.59      2.73      1.71      1.69      2.66      3.29      1.62     -0.06     -2.03      0.06     -3.74      1.99      5.46      2.99     -2.20
      -1.464582      74.772377     140.5      0.69      2.22      58.1         3         2      3890      2325    436.36   -13.602      11.9      37.2   218.613     0.553      50.4   0.07003      13.3         H               192.0  0.045696  0.016098  0.000488  1.490210  0.669883  2.224583  1.055239     13.05    8.2242   82.3663   0.10386   6.31508   0.15585   0.00367 147.62192   8.44024     460.4  0.489937  0.000739  0.000079  0.000117  0.175257  6.866895  0.557106     66.77  1.000049  1.000003     2.308    11.550      86.6      92.8     176.0     441.4     11.15      2.27     -1.72      2.61      3.24      4.02      2.93      2.28      1.28      2.81      2.67      1.90     -0.41     -2.03      0.20     -5.45      1.23      6.86      1.73     -2.13
      -1.453169      74.719765     137.7      0.69      2.22      63.0         3         3      3890      3650    433.05   -13.635      12.0      37.6   219.208     0.554      74.7   0.07078      12.7         H               192.0  0.046567  0.015189  0.000409  1.445017  0.663934  2.176448  1.056537     14.30    8.1528   81.2011   0.10432   6.29872   0.15720   0.00374 145.45918   8.37445     457.5  0.491239  0.000998  0.000186  0.000115  0.171821  6.821115  0.558408     70.30  1.000070  1.000005     2.340    12.140      88.6      92.7     173.5     475.9     10.92      2.29     -1.07      3.35      3.11      3.54      2.74      1.81      1.29      2.41      3.06      1.87     -0.72     -1.82      0.45     -4.01      1.68      5.70      2.54     -2.17
