corner points
62.83480835    -43.38856506
62.76058197    -43.5583725
62.59099579    -43.33073044
62.51609802    -43.50037766
========== RESULTS WAVE VERSION 16.10.2018 ====================
IMAGE SIZE  X: 4476     Y:4775    col:row     POLARIZATION:VV
COVERAGE    X: 20.68948755km       Y: 19.76527326km 
RESOLUTION dX: 4.622316254m       dY:4.139324243m  
resolution of original product 4.622316254m x 4.139324243m;   raster step x:5999.766498m  
===============================================================
FLAGS: H=HIGH PROBABILITY SEA STATE, I=LAND(ISLAND), O=OUTLIER NO SEA STATE, N=NO WIND AVAILABLE, SEA STATE NOT VISIBLE, M=MEAN PROBABILITY SEA STATE, L= LOW PROBABILITY SEA STATE
Filtering wave length
 integration  Lmin=1m
 integration  Lmax=2200m
  peak        Lmin=100m
               FFT=1024pixels, 4733.251844m 
   mean-Hs (SWH_c)=2.704151917m
         mean-wind=16.28498077m/s
--------------0--------------1---------2---------3---------4---------5---------6---------7---------8---------9--------10--------11--------12--------13--------14--------15--------16--------17--------18--------19------------------20--------21--------22--------23--------24--------25--------26--------27--------28--------29--------30--------31--------32--------33--------34--------35--------36--------37--------38--------39--------40--------41--------42--------43--------44--------45--------46--------47--------48--------49--------50--------51--------52--------53--------54--------55--------56--------57--------58--------59--------60--------61--------62--------63--------64--------65--------66--------67--------68--------69--------70--------71--------72--------73
            LAT            LON  P-LENGHT     SWH_o     SWH_c     P-DIR      LINE     POINT     ROW-Y     COL-X  M-INTENC        dB      WIND INC-ANGLE  ENERGY-M  ENERGY-N  ENERGY-R ENERGY-NN  FG-DEPTH      FLAG         HEADING-DEG    E30-75   E75-390  E390-600 meanincut   meanout   cut/out  STD-NORM  SPEC-MAX   GL-MEAN    GL-VAR      CORR   ENTROPY   HOMOGEN    ENERGY  CONTRAST  DISSIMIL     STD-O    E 1-30 E600-2000   E2000 >      GODA  LONG-HIG     Tmean  CONVOLUT  MEAN-DIR  relation     Sy/Sx  SKEWNESS  KURTOSIS  cutoff-A >50/10000     INT*V   INT-LOG  S-1_g1f1  S-2_g1f2  S-3_g1f3  S-4_g2f1  S-5_g2f2  S-6_g2f3  S-7_g3f1  S-8_g3f2  S-9_g3f3 S-10_g1f4 S-11_g2f4 S-12_g3f4 S-13_g1f5 S-14_g2f5 S-15_g3f5 S-16_g4f1 S-17_g4f2 S-18_g4f3 S-19_g4f4 S-20_g4f5
--------------1--------------2---------3---------4---------5---------6---------7---------8---------9--------10--------11--------12--------13--------14--------15--------16--------17--------18--------19--------20------------------21--------22--------23--------24--------25--------26--------27--------28--------29--------30--------31--------32--------33--------34--------35--------36--------37--------38--------39--------40--------41--------42--------43--------44--------45--------46--------47--------48--------49--------50--------51--------52--------53--------54--------55--------56--------57--------58--------59--------60--------61--------62--------63--------64--------65--------66--------67--------68--------69--------70--------71--------72--------73--------74
     -43.411095      62.764080     132.8      2.65      3.15      79.2         1         1      1000      1000    855.77   -10.676      16.3      35.9   275.148     0.576      47.4   0.08562      11.7         H               194.2  0.048771  0.028266  0.000535  2.656760  0.725917  3.659865  1.076438     43.76   15.9749  250.2572   0.12855   7.43564   0.09169   0.00104 436.17389  15.29463     921.2  0.497955  0.000616  0.000046  0.000184  0.188855  7.131783  0.581591     78.54  1.000111  1.000009     2.423    12.723     102.3      98.3     740.9     965.8     10.79     -0.06      3.78      5.34      0.94      6.04      3.67      2.71      4.24      0.67      2.08      3.23      0.33      2.78      4.11      0.16      1.38      6.81      3.48      3.77
     -43.394264      62.693024     127.6      2.01      3.15      76.1         1         2      1000      2298    834.49   -10.786      16.4      36.3   275.485     0.579      39.6   0.08715      10.7         H               194.2  0.050154  0.031113  0.000500  2.864151  0.733636  3.904050  1.079170     51.08   15.6020  242.4584   0.13332   7.40139   0.09407   0.00109 420.26782  14.95218     900.5  0.496904  0.000453  0.000019  0.000202  0.190499  7.167799  0.585585     78.53  1.000128  1.000013     2.435    12.687     107.8      98.1     706.1     912.1     10.67     -0.77      3.95      5.74      1.02      6.55      3.52      3.31      4.62      0.13      2.31      4.01      0.14      2.88      5.01      1.57      2.03      7.89      3.87      3.92
     -43.377541      62.622635     131.0      2.20      3.15      75.7         1         3      1000      3596    793.23   -11.006      16.2      36.7   275.321     0.577      41.2   0.08681      11.4         H               194.2  0.049399  0.030859  0.000458  2.869033  0.735544  3.900561  1.077874     49.16   14.8893  226.2700   0.13257   7.33478   0.09787   0.00119 392.54779  14.37107     854.9  0.496557  0.000421  0.000034  0.000202  0.188960  7.170262  0.583847     78.02  1.000137  1.000013     2.432    12.667     107.8      97.9     634.0     871.8     10.52     -0.19      4.07      6.07      1.25      6.80      3.97      2.79      5.01      0.55      2.41      3.93      0.66      2.88      4.59      1.93      2.16      7.64      3.73      3.70
     -43.462627      62.741524     136.6      2.81      3.15      78.9         2         1      2449      1000    835.05   -10.783      16.1      35.9   277.143     0.584      49.2   0.08872      12.5         H               194.2  0.050162  0.031696  0.000512  2.830954  0.737195  3.840171  1.084092     55.79   15.5974  243.1051   0.13386   7.39859   0.09404   0.00109 421.12668  14.96105     905.3  0.501491  0.000590  0.000047  0.000216  0.193249  7.205806  0.591042     78.60  1.000129  1.000012     2.469    13.116     110.8      98.2     710.7     961.7     10.77      0.12      4.11      6.07      1.65      7.27      3.80      3.12      4.82      0.78      3.25      4.27      0.66      3.43      4.93      1.44      2.07      7.97      4.49      4.18
     -43.445782      62.670403     136.6      3.03      3.15      78.9         2         2      2449      2298    883.51   -10.538      16.9      36.3   275.925     0.582      70.7   0.08918      12.5         H               194.2  0.050089  0.032345  0.000659  3.055537  0.746449  4.093431  1.082108     53.08   16.4242  261.1256   0.13469   7.46854   0.09037   0.00099 451.90851  15.60998     956.0  0.498092  0.000916  0.000107  0.000197  0.190910  7.190126  0.589090     78.97  1.000107  1.000010     2.464    13.082     107.8      98.5     796.7     973.2     10.85      0.04      3.94      5.65      1.30      7.16      4.04      2.35      4.41      0.76      2.34      3.22      0.79      2.91      4.37      0.18      2.16      8.44      3.52      3.75
     -43.429039      62.599960     125.9      2.88      3.15      79.7         2         3      2449      3596    807.63   -10.928      16.3      36.7   276.764     0.581      54.3   0.08744      10.4         H               194.2  0.049596  0.032134  0.000584  3.039117  0.735950  4.129515  1.081370     45.17   15.1335  232.2755   0.13466   7.35685   0.09657   0.00116 401.99539  14.56231     873.4  0.498575  0.000621  0.000060  0.000192  0.190801  7.193881  0.588271     79.58  1.000124  1.000012     2.469    13.305     107.8      97.9     660.5     911.7     10.86      0.29      3.92      5.64      0.86      6.84      3.67      2.26      4.43      0.69      2.08      3.27      0.29      2.74      4.46      0.39      1.55      7.47      3.05      3.39
     -43.514153      62.718925     132.8      2.80      3.15      79.2         3         1      3898      1000    836.97   -10.773      16.1      35.9   275.574     0.579      63.2   0.08708      11.7         H               194.2  0.049296  0.031138  0.000570  2.757765  0.720993  3.824955  1.079502     53.68   15.6463  243.4132   0.13274   7.40538   0.09368   0.00108 422.20233  14.98960     903.5  0.497545  0.000726  0.000113  0.000214  0.191987  7.191646  0.585840     78.90  1.000128  1.000011     2.449    12.936     110.8      98.2     710.6     921.1     10.67      0.13      4.03      5.89      1.71      7.21      4.20      2.96      4.89      1.09      2.96      4.22      1.03      3.32      4.75      0.97      2.46      8.30      3.82      3.79
     -43.497292      62.647747     129.3      2.95      3.15      79.5         3         2      3898      2298    800.83   -10.965      16.0      36.3   277.591     0.585      54.3   0.08922      11.0         H               194.2  0.049810  0.033898  0.000641  2.978681  0.727510  4.094353  1.084959     50.03   15.0057  230.0752   0.13531   7.34300   0.09729   0.00118 397.88669  14.46654     868.8  0.500220  0.000695  0.000056  0.000212  0.195006  7.244799  0.592335     78.62  1.000121  1.000013     2.487    13.324     110.8      97.9     652.3     903.6     10.75     -0.38      4.27      6.05      1.26      7.65      4.13      3.13      4.77      0.53      2.67      3.64      0.95      3.37      4.74      0.96      1.62      8.95      4.25      4.05
     -43.480537      62.577244     119.6      3.01      3.15      80.3         3         3      3898      3596    810.51   -10.912      16.4      36.7   278.554     0.588      68.2   0.09032       9.3         H               194.2  0.050350  0.034031  0.000611  2.932307  0.736026  3.983970  1.087484     55.53   15.1709  234.6229   0.13794   7.35754   0.09670   0.00116 404.51685  14.59960     881.3  0.502090  0.000895  0.000089  0.000249  0.189372  7.218461  0.595436     79.50  1.000098  1.000010     2.493    13.417     110.8      97.9     670.2     919.0     10.48      0.06      4.07      5.91      1.20      7.20      4.44      2.82      4.87      0.58      2.68      3.83      1.13      3.10      4.24      0.88      1.85      8.42      4.34      4.01
