corner points
66.05686951    -41.28334808
65.99243927    -41.45997238
65.81170654    -41.23049927
65.74649048    -41.40698242
========== RESULTS WAVE VERSION 16.10.2018 ====================
IMAGE SIZE  X: 5635     Y:4911    col:row     POLARIZATION:VV
COVERAGE    X: 21.27881872km       Y: 20.31851653km 
RESOLUTION dX: 3.776187883m       dY:4.137348103m  
resolution of original product 3.776187883m x 4.137348103m;   raster step x:5996.586358m  
===============================================================
FLAGS: H=HIGH PROBABILITY SEA STATE, I=LAND(ISLAND), O=OUTLIER NO SEA STATE, N=NO WIND AVAILABLE, SEA STATE NOT VISIBLE, M=MEAN PROBABILITY SEA STATE, L= LOW PROBABILITY SEA STATE
Filtering wave length
 integration  Lmin=1m
 integration  Lmax=2200m
  peak        Lmin=100m
               FFT=1024pixels, 3866.816392m 
   mean-Hs (SWH_c)=1.749758606m
         mean-wind=6.315431595m/s
--------------0--------------1---------2---------3---------4---------5---------6---------7---------8---------9--------10--------11--------12--------13--------14--------15--------16--------17--------18--------19------------------20--------21--------22--------23--------24--------25--------26--------27--------28--------29--------30--------31--------32--------33--------34--------35--------36--------37--------38--------39--------40--------41--------42--------43--------44--------45--------46--------47--------48--------49--------50--------51--------52--------53--------54--------55--------56--------57--------58--------59--------60--------61--------62--------63--------64--------65--------66--------67--------68--------69--------70--------71--------72--------73
            LAT            LON  P-LENGHT     SWH_o     SWH_c     P-DIR      LINE     POINT     ROW-Y     COL-X  M-INTENC        dB      WIND INC-ANGLE  ENERGY-M  ENERGY-N  ENERGY-R ENERGY-NN  FG-DEPTH      FLAG         HEADING-DEG    E30-75   E75-390  E390-600 meanincut   meanout   cut/out  STD-NORM  SPEC-MAX   GL-MEAN    GL-VAR      CORR   ENTROPY   HOMOGEN    ENERGY  CONTRAST  DISSIMIL     STD-O    E 1-30 E600-2000   E2000 >      GODA  LONG-HIG     Tmean  CONVOLUT  MEAN-DIR  relation     Sy/Sx  SKEWNESS  KURTOSIS  cutoff-A >50/10000     INT*V   INT-LOG  S-1_g1f1  S-2_g1f2  S-3_g1f3  S-4_g2f1  S-5_g2f2  S-6_g2f3  S-7_g3f1  S-8_g3f2  S-9_g3f3 S-10_g1f4 S-11_g2f4 S-12_g3f4 S-13_g1f5 S-14_g2f5 S-15_g3f5 S-16_g4f1 S-17_g4f2 S-18_g4f3 S-19_g4f4 S-20_g4f5
--------------1--------------2---------3---------4---------5---------6---------7---------8---------9--------10--------11--------12--------13--------14--------15--------16--------17--------18--------19--------20------------------21--------22--------23--------24--------25--------26--------27--------28--------29--------30--------31--------32--------33--------34--------35--------36--------37--------38--------39--------40--------41--------42--------43--------44--------45--------46--------47--------48--------49--------50--------51--------52--------53--------54--------55--------56--------57--------58--------59--------60--------61--------62--------63--------64--------65--------66--------67--------68--------69--------70--------71--------72--------73--------74
     -41.309711      65.998978     163.3      1.65      2.42     117.5         1         1      1000      1000   2795.52    -5.535       6.6      22.8   293.872     0.767      78.0   0.18539      18.8         H               193.8  0.084769  0.071972  0.000871  6.369969  0.993032  6.414665  1.241089     51.54    5.0936   46.1423   0.28026   5.36259   0.25783   0.01235  66.42094   5.17305    3469.1  0.608866  0.000564  0.000030  0.000225  0.193593  7.306983  0.807237     96.71  1.000241  1.000029     3.462    25.619      99.7      84.0      86.1     457.1     11.24     -4.17      3.45      6.02     -2.40      6.85      2.17      0.91      4.46     -2.53     -2.95     -0.99     -0.65      1.73      3.88      1.41     -0.85      7.21     -1.38      2.80
     -41.294659      65.929001     151.8      1.67      2.42     115.5         1         2      1000      2588   2480.07    -6.055       6.5      23.3   292.392     0.757      75.1   0.18109      15.8         H               193.8  0.082201  0.072149  0.000824  6.401161  0.947807  6.753657  1.233591     49.77    4.4696   36.3686   0.27879   5.12833   0.28080   0.01549  52.45845   4.58290    3059.3  0.601634  0.000606  0.000024  0.000238  0.192185  7.339105  0.796898     90.85  1.000230  1.000026     3.383    24.120      99.7      81.8      66.8     385.8     11.09     -3.51      3.82      6.04     -2.18      6.74      2.35      1.02      4.52     -2.31     -2.36     -0.49     -0.51      2.13      3.51      1.62     -1.37      6.74     -0.97      3.32
     -41.279850      65.860359     129.3      1.71      2.42     104.1         1         3      1000      4176   2170.17    -6.635       6.2      23.7   295.634     0.769      72.0   0.18577      11.0         H               193.8  0.084268  0.075082  0.000888  6.335195  0.967845  6.545671  1.242951     52.75    3.8622   28.5695   0.28095   4.86348   0.31061   0.02041  41.08553   4.01296    2697.4  0.608395  0.000594  0.000009  0.000235  0.194611  7.335030  0.809962     98.58  1.000235  1.000029     3.412    24.472      99.7      78.9      51.5     343.1     11.07     -4.36      3.59      6.14     -2.43      6.91      2.51      0.96      4.98     -2.54     -2.77     -0.87     -0.38      1.70      3.67      1.84     -1.03      7.11     -1.50      2.98
     -41.361866      65.979927     120.1      1.81      2.42      83.5         2         1      2450      1000   2684.51    -5.711       6.2      22.8   297.795     0.775      75.3   0.18766       9.4         H               193.8  0.085506  0.077442  0.000817  6.474146  0.985265  6.570968  1.248245     58.67    4.8749   43.1016   0.28213   5.28091   0.26664   0.01348  61.88200   4.96801    3350.8  0.611136  0.000529  0.000015  0.000235  0.194541  7.345891  0.816916     89.37  1.000235  1.000027     3.513    26.585      97.3      83.1      80.0     456.5     11.23     -3.86      3.55      5.66     -1.92      6.66      1.76      1.40      4.25     -2.36     -2.70     -0.23      0.02      1.88      3.24      1.69     -0.62      6.82     -1.14      2.73
     -41.346802      65.909874     166.3      1.69      2.42     120.7         2         2      2450      2588   2427.08    -6.149       6.3      23.2   293.149     0.762      87.8   0.18424      19.6         H               193.8  0.084143  0.074221  0.000947  6.824623  0.983808  6.936943  1.237466     64.27    4.3641   35.0865   0.28228   5.08393   0.28619   0.01625  50.36452   4.47837    3003.2  0.602354  0.000800  0.000031  0.000220  0.193488  7.321620  0.802851     99.54  1.000250  1.000029     3.401    24.168      94.9      81.3      64.2     376.0     11.32     -4.09      3.92      6.06     -2.59      6.38      1.87      1.13      3.81     -2.78     -2.71     -0.45     -0.56      1.49      2.86      0.97     -0.71      5.98     -0.69      2.72
     -41.331978      65.841179     143.5      1.81      2.42     111.9         2         3      2450      4176   2181.89    -6.612       6.3      23.7   294.671     0.762      78.5   0.18208      13.9         H               193.8  0.081589  0.075881  0.000816  6.537169  0.958139  6.822776  1.237252     50.15    3.8848   28.6167   0.27867   4.87624   0.30804   0.02001  41.28422   4.03564    2699.6  0.603313  0.000672  0.000017  0.000231  0.196226  7.373863  0.802236     93.17  1.000235  1.000028     3.386    24.010      99.7      79.1      51.8     338.0     11.37     -3.98      3.99      6.13     -1.94      7.08      1.97      1.00      4.40     -2.45     -3.03     -0.65      0.50      2.13      2.89      1.53     -0.45      6.43     -1.42      2.50
     -41.414017      65.960838     135.5      1.91      2.42     101.1         3         1      3900      1000   2666.85    -5.740       6.2      22.8   296.485     0.775      77.1   0.18927      12.2         H               193.8  0.084799  0.079747  0.000932  6.591370  0.983568  6.701488  1.246800     61.40    4.8399   42.5680   0.28576   5.26637   0.26877   0.01376  60.80786   4.92508    3324.8  0.609160  0.000524  0.000017  0.000239  0.196431  7.374300  0.817291     97.69  1.000218  1.000026     3.479    26.039      99.7      83.0      78.7     450.4     11.19     -3.27      4.07      6.15     -2.28      7.59      2.65      0.68      5.12     -2.14     -2.71     -1.45      0.35      2.66      3.71      1.96     -1.86      7.64     -1.41      3.51
     -41.398937      65.890724     157.3      1.77      2.42     116.5         3         2      3900      2588   2412.54    -6.175       6.2      23.2   296.755     0.771      77.1   0.18619      17.2         H               193.8  0.085090  0.076648  0.000839  6.764871  0.971039  6.966630  1.243997     60.22    4.3446   35.1288   0.28184   5.07365   0.28755   0.01653  50.45564   4.46767    3001.1  0.608455  0.000582  0.000019  0.000231  0.195434  7.341103  0.812655     96.23  1.000230  1.000028     3.464    25.754     102.3      81.1      64.1     394.8     11.39     -3.99      4.31      6.24     -1.73      7.17      1.89      1.39      4.28     -2.26     -2.72     -0.34      0.21      2.15      3.17      1.56     -0.13      6.41     -0.83      2.83
     -41.384106      65.821960     130.0      1.71      2.42     109.7         3         3      3900      4176   2226.06    -6.525       6.4      23.7   291.957     0.754      70.2   0.18041      11.2         H               193.8  0.083176  0.073760  0.000958  6.647189  0.975691  6.812798  1.230235     51.86    3.9725   29.4900   0.27867   4.91758   0.30338   0.01911  42.54377   4.11086    2738.4  0.596102  0.000527  0.000009  0.000234  0.192927  7.311308  0.793840     94.05  1.000243  1.000028     3.342    23.693     102.3      79.7      53.5     350.5     11.27     -3.75      4.05      5.69     -1.51      6.77      2.45      1.10      4.48     -2.26     -2.43     -0.33     -0.41      1.95      3.82      1.23     -0.35      7.03     -1.54      2.79
