corner points
72.75708008    -18.49922371
72.71457672    -18.67915916
72.56456757    -18.45644188
72.52177429    -18.63631439
========== RESULTS WAVE VERSION 16.10.2018 ====================
IMAGE SIZE  X: 5635     Y:4924    col:row     POLARIZATION:VV
COVERAGE    X: 20.81130749km       Y: 20.45745415km 
RESOLUTION dX: 3.69322227m       dY:4.154641378m  
resolution of original product 3.69322227m x 4.154641378m;   raster step x:5997.792967m  
===============================================================
FLAGS: H=HIGH PROBABILITY SEA STATE, I=LAND(ISLAND), O=OUTLIER NO SEA STATE, N=NO WIND AVAILABLE, SEA STATE NOT VISIBLE, M=MEAN PROBABILITY SEA STATE, L= LOW PROBABILITY SEA STATE
Filtering wave length
 integration  Lmin=1m
 integration  Lmax=2200m
  peak        Lmin=100m
               FFT=1024pixels, 3781.859605m 
   mean-Hs (SWH_c)=2.347289734m
         mean-wind=13.77633762m/s
--------------0--------------1---------2---------3---------4---------5---------6---------7---------8---------9--------10--------11--------12--------13--------14--------15--------16--------17--------18--------19------------------20--------21--------22--------23--------24--------25--------26--------27--------28--------29--------30--------31--------32--------33--------34--------35--------36--------37--------38--------39--------40--------41--------42--------43--------44--------45--------46--------47--------48--------49--------50--------51--------52--------53--------54--------55--------56--------57--------58--------59--------60--------61--------62--------63--------64--------65--------66--------67--------68--------69--------70--------71--------72--------73
            LAT            LON  P-LENGHT     SWH_o     SWH_c     P-DIR      LINE     POINT     ROW-Y     COL-X  M-INTENC        dB      WIND INC-ANGLE  ENERGY-M  ENERGY-N  ENERGY-R ENERGY-NN  FG-DEPTH      FLAG         HEADING-DEG    E30-75   E75-390  E390-600 meanincut   meanout   cut/out  STD-NORM  SPEC-MAX   GL-MEAN    GL-VAR      CORR   ENTROPY   HOMOGEN    ENERGY  CONTRAST  DISSIMIL     STD-O    E 1-30 E600-2000   E2000 >      GODA  LONG-HIG     Tmean  CONVOLUT  MEAN-DIR  relation     Sy/Sx  SKEWNESS  KURTOSIS  cutoff-A >50/10000     INT*V   INT-LOG  S-1_g1f1  S-2_g1f2  S-3_g1f3  S-4_g2f1  S-5_g2f2  S-6_g2f3  S-7_g3f1  S-8_g3f2  S-9_g3f3 S-10_g1f4 S-11_g2f4 S-12_g3f4 S-13_g1f5 S-14_g2f5 S-15_g3f5 S-16_g4f1 S-17_g4f2 S-18_g4f3 S-19_g4f4 S-20_g4f5
--------------1--------------2---------3---------4---------5---------6---------7---------8---------9--------10--------11--------12--------13--------14--------15--------16--------17--------18--------19--------20------------------21--------22--------23--------24--------25--------26--------27--------28--------29--------30--------31--------32--------33--------34--------35--------36--------37--------38--------39--------40--------41--------42--------43--------44--------45--------46--------47--------48--------49--------50--------51--------52--------53--------54--------55--------56--------57--------58--------59--------60--------61--------62--------63--------64--------65--------66--------67--------68--------69--------70--------71--------72--------73--------74
     -18.527990      72.713356     138.2      2.48      3.06      80.7         1         1      1000      1000   4673.72    -3.303      14.3      23.3   411.137     0.845     109.9   0.21973      12.8         H               192.2  0.107219  0.072830  0.001289  6.251809  1.027408  6.085030  1.301586     61.95    8.6754  118.1233   0.29602   6.31680   0.17747   0.00472 166.31589   8.43795    6082.8  0.662619  0.001443  0.000062  0.000287  0.180294  7.114349  0.896654     88.75  1.000269  1.000041     4.139    39.952     124.8      91.3     268.4     930.9     10.71      0.84      5.03      6.42      0.68      8.80      5.22      0.08      6.23      0.86      0.86      0.46      2.60      4.81      4.87      1.10      0.27      9.10      0.36      5.09
     -18.515528      72.657227     138.2      2.38      3.06      99.3         1         2      1000      2624   4236.41    -3.730      14.1      23.8   403.557     0.822      98.7   0.21105      12.8         H               192.2  0.103545  0.070396  0.001508  6.234160  1.019738  6.113492  1.282957     58.93    7.8741  100.1420   0.29301   6.14631   0.19021   0.00562 141.59900   7.72666    5434.6  0.646145  0.001461  0.000028  0.000282  0.180852  7.136896  0.872040     91.94  1.000262  1.000040     3.938    39.342     124.8      90.1     214.9     839.0     10.94      0.98      4.84      6.07     -0.13      8.88      5.26     -0.01      5.66      0.21      0.34      0.04      2.43      4.40      4.41     -0.40     -1.18      9.24      0.07      3.93
     -18.503279      72.602135     137.4      2.19      3.06     101.2         1         3      1000      4248   3806.60    -4.195      13.8      24.3   401.974     0.813     111.3   0.20541      12.6         H               192.2  0.099869  0.066414  0.001310  5.978070  1.000965  5.972310  1.277791     66.30    7.0454   82.5691   0.28852   5.94718   0.20589   0.00686 117.49265   6.97983    4864.0  0.644678  0.001617  0.000055  0.000274  0.182072  7.120600  0.861065     93.05  1.000251  1.000036     3.969    37.835     121.0      88.8     170.4     745.4     10.78      0.47      4.93      6.54     -0.07      9.10      5.19     -0.15      5.95      0.08      0.06     -0.16      2.77      4.65      4.54      0.74     -0.67      9.65     -0.34      4.38
     -18.580765      72.700874     140.3      2.39      3.06      74.7         2         1      2444      1000   4490.90    -3.477      13.7      23.3   408.345     0.839     118.8   0.21713      13.2         H               192.2  0.104921  0.072088  0.001519  6.500628  1.004109  6.474027  1.296599     57.79    8.3486  111.0939   0.29675   6.24734   0.18269   0.00510 156.25554   8.14618    5822.5  0.659001  0.001762  0.000057  0.000280  0.180701  7.123791  0.890364     89.05  1.000275  1.000042     4.040    39.099     124.8      90.8     246.3     887.4     10.82      0.91      5.27      6.37      0.17      8.70      5.06      0.17      5.59      0.64      0.79      0.23      2.54      4.83      4.67      0.19     -0.72      9.06      0.56      4.56
     -18.568298      72.644722     136.5      2.42      3.06     103.0         2         2      2444      2624   4146.10    -3.824      13.8      23.8   410.149     0.838     144.8   0.21672      12.4         H               192.2  0.104523  0.072976  0.001318  6.342729  1.023211  6.198848  1.298027     57.88    7.6822   97.1948   0.29582   6.09695   0.19484   0.00598 136.88553   7.55626    5381.5  0.658073  0.002058  0.000095  0.000283  0.183241  7.138257  0.889263     89.55  1.000268  1.000039     4.126    46.158     124.8      89.7     207.5     841.3     10.92      0.55      5.44      6.47     -0.12      8.95      5.06      0.19      6.09      0.16      0.18      0.24      2.51      5.03      4.88      0.91     -0.65      8.95      0.07      4.95
     -18.556042      72.589607     152.5      2.33      3.06      75.5         2         3      2444      4248   3780.07    -4.225      13.7      24.3   404.777     0.820     124.3   0.20730      16.0         H               192.2  0.100321  0.070487  0.001741  6.157330  1.011989  6.084383  1.283614     60.77    7.0046   82.2619   0.29162   5.93391   0.20789   0.00704 116.54617   6.94064    4851.9  0.645936  0.001870  0.000053  0.000273  0.182109  7.141727  0.869151     86.26  1.000248  1.000036     3.953    35.684     121.0      88.6     169.3     728.2     10.85      0.74      5.15      6.23      0.63      9.09      5.65      0.12      5.86      0.53      1.01      0.79      2.70      4.73      4.66     -0.55      0.65      9.49      0.81      4.45
     -18.633541      72.688385     148.9      2.44      3.06      79.9         3         1      3888      1000   4374.02    -3.591      13.3      23.3   418.547     0.869     131.1   0.23061      15.2         H               192.2  0.111896  0.077416  0.001410  6.534528  1.078993  6.056137  1.322142     67.26    8.0922  107.6766   0.30383   6.18311   0.18899   0.00554 149.92303   7.91748    5783.0  0.676728  0.001880  0.000082  0.000285  0.180680  7.134769  0.923871     89.24  1.000251  1.000044     4.206    39.357     128.8      90.2     237.5     844.6     10.78      0.19      5.08      6.39     -0.06      8.91      5.03     -0.27      6.20     -0.09     -0.17      0.15      2.69      5.11      5.19      0.85      0.39      9.12     -0.13      5.10
     -18.621067      72.632210     149.8      2.24      3.06      98.1         3         2      3888      2624   4063.12    -3.911      13.5      23.8   413.876     0.855     110.9   0.22472      15.3         H               192.2  0.110168  0.071533  0.001645  6.595535  1.062907  6.205187  1.310818     61.75    7.5155   94.1684   0.29878   6.05473   0.19820   0.00624 132.06642   7.40302    5325.9  0.670427  0.001596  0.000044  0.000272  0.181880  7.097819  0.907174     91.79  1.000267  1.000041     4.278    44.171     121.0      89.5     201.8     854.2     11.06     -0.01      4.95      5.67     -0.56      8.52      4.95     -0.37      5.46     -0.58     -0.96     -0.09      2.38      4.73      4.76     -0.68     -0.50      9.11     -1.03      4.63
     -18.608807      72.577072     138.9      2.26      3.06      97.5         3         3      3888      4248   3786.67    -4.217      13.7      24.3   405.967     0.832     121.0   0.21637      12.9         H               192.2  0.106268  0.070782  0.001540  6.177089  1.043202  5.921279  1.294217     67.52    6.9938   82.7492   0.29676   5.92786   0.20834   0.00708 116.38436   6.92345    4900.5  0.652296  0.001790  0.000059  0.000276  0.183237  7.127388  0.883378     92.87  1.000255  1.000038     4.050    37.331     121.0      88.6     171.0     738.1     11.09     -0.06      5.43      6.32     -0.42      9.17      5.08     -0.29      5.40     -0.33     -0.77     -0.43      2.78      5.29      4.47     -0.48     -0.79      8.90     -1.21      5.03
