corner points
63.16851807    -48.19226456
63.08835983    -48.36697388
62.89276123    -48.13373184
62.8115654    -48.30824661
========== RESULTS WAVE VERSION 16.10.2018 ====================
IMAGE SIZE  X: 5635     Y:4907    col:row     POLARIZATION:VV
COVERAGE    X: 21.42169312km       Y: 20.26872335km 
RESOLUTION dX: 3.801542702m       dY:4.130573334m  
resolution of original product 3.801542702m x 4.130573334m;   raster step x:5998.834383m  
===============================================================
FLAGS: H=HIGH PROBABILITY SEA STATE, I=LAND(ISLAND), O=OUTLIER NO SEA STATE, N=NO WIND AVAILABLE, SEA STATE NOT VISIBLE, M=MEAN PROBABILITY SEA STATE, L= LOW PROBABILITY SEA STATE
Filtering wave length
 integration  Lmin=1m
 integration  Lmax=2200m
  peak        Lmin=100m
               FFT=1024pixels, 3892.779727m 
   mean-Hs (SWH_c)=3.864299622m
         mean-wind=18.65720367m/s
--------------0--------------1---------2---------3---------4---------5---------6---------7---------8---------9--------10--------11--------12--------13--------14--------15--------16--------17--------18--------19------------------20--------21--------22--------23--------24--------25--------26--------27--------28--------29--------30--------31--------32--------33--------34--------35--------36--------37--------38--------39--------40--------41--------42--------43--------44--------45--------46--------47--------48--------49--------50--------51--------52--------53--------54--------55--------56--------57--------58--------59--------60--------61--------62--------63--------64--------65--------66--------67--------68--------69--------70--------71--------72--------73
            LAT            LON  P-LENGHT     SWH_o     SWH_c     P-DIR      LINE     POINT     ROW-Y     COL-X  M-INTENC        dB      WIND INC-ANGLE  ENERGY-M  ENERGY-N  ENERGY-R ENERGY-NN  FG-DEPTH      FLAG         HEADING-DEG    E30-75   E75-390  E390-600 meanincut   meanout   cut/out  STD-NORM  SPEC-MAX   GL-MEAN    GL-VAR      CORR   ENTROPY   HOMOGEN    ENERGY  CONTRAST  DISSIMIL     STD-O    E 1-30 E600-2000   E2000 >      GODA  LONG-HIG     Tmean  CONVOLUT  MEAN-DIR  relation     Sy/Sx  SKEWNESS  KURTOSIS  cutoff-A >50/10000     INT*V   INT-LOG  S-1_g1f1  S-2_g1f2  S-3_g1f3  S-4_g2f1  S-5_g2f2  S-6_g2f3  S-7_g3f1  S-8_g3f2  S-9_g3f3 S-10_g1f4 S-11_g2f4 S-12_g3f4 S-13_g1f5 S-14_g2f5 S-15_g3f5 S-16_g4f1 S-17_g4f2 S-18_g4f3 S-19_g4f4 S-20_g4f5
--------------1--------------2---------3---------4---------5---------6---------7---------8---------9--------10--------11--------12--------13--------14--------15--------16--------17--------18--------19--------20------------------21--------22--------23--------24--------25--------26--------27--------28--------29--------30--------31--------32--------33--------34--------35--------36--------37--------38--------39--------40--------41--------42--------43--------44--------45--------46--------47--------48--------49--------50--------51--------52--------53--------54--------55--------56--------57--------58--------59--------60--------61--------62--------63--------64--------65--------66--------67--------68--------69--------70--------71--------72--------73--------74
     -48.217239      63.101795     216.1      3.68      4.67     117.4         1         1      1000      1000   6296.34    -2.009      17.0      22.6   294.979     0.912     189.8   0.25055      39.6         H               194.9  0.121134  0.098245  0.002050  7.690845  1.096064  7.016782  1.354858     89.25   11.5089  189.1287   0.31385   6.77950   0.14858   0.00294 259.54144  10.80127    8529.5  0.689178  0.002298  0.000085  0.000314  0.196518  7.231736  0.969767     87.40  1.000324  1.000056     4.206    37.905     160.0      93.8     523.7    1158.8     13.05     -2.04      7.71      4.46      0.87      7.53      0.64      2.20      1.25     -1.12      0.54      2.30      1.49      4.78      3.61     -2.55      1.19      5.95      0.64      4.18
     -48.200668      63.023544     225.7      3.74      4.67     111.9         1         2      1000      2578   6513.75    -1.862      18.9      23.1   281.706     0.847     161.2   0.22125      45.8         H               194.9  0.107359  0.087208  0.001964  6.650094  1.007344  6.601612  1.304938     67.23   11.9564  195.6704   0.29981   6.85990   0.14156   0.00262 274.01553  11.20862    8500.0  0.648916  0.001930  0.000066  0.000317  0.199507  7.252314  0.896487     85.42  1.000321  1.000050     3.742    29.360     153.8      94.5     533.9    1103.0     13.20     -1.79      7.46      4.12      1.13      7.61      0.54      2.93      1.09     -0.95      1.54      2.67      1.36      5.01      3.69     -2.97      0.41      6.61      1.88      4.47
     -48.184361      62.946823     179.3      3.90      4.67      75.3         1         3      1000      4156   5992.39    -2.224      18.8      23.5   284.884     0.866     295.6   0.23035      23.6         H               194.9  0.107990  0.092843  0.002407  6.783370  1.035103  6.553328  1.319053     80.49   11.0516  175.8889   0.30829   6.72306   0.15200   0.00314 243.32680  10.43152    7903.4  0.658902  0.003953  0.000191  0.000316  0.201241  7.283748  0.917826     84.88  1.000341  1.000053     3.922    32.798     160.0      93.6     457.8    1073.6     13.12     -0.77      8.25      4.49      1.03      8.01      1.20      1.56      1.49      0.02      1.42      1.40      2.64      5.34      3.42     -3.33      0.41      6.00      1.15      4.70
     -48.268936      63.078041     173.2      3.66      4.67      78.2         2         1      2452      1000   6472.22    -1.889      17.5      22.6   293.965     0.908     136.1   0.24907      21.7         H               194.9  0.120753  0.095467  0.002351  7.522624  1.071136  7.023036  1.348335     72.11   11.8454  197.5668   0.31359   6.82481   0.14591   0.00280 271.21918  11.07828    8726.7  0.688112  0.001558  0.000038  0.000320  0.197322  7.219040  0.963392     86.34  1.000346  1.000059     4.203    41.200     160.0      94.1     553.1    1190.4     13.31     -1.35      8.45      4.61      0.98      8.15      0.63      1.70      0.45     -0.66      0.76      1.69      2.25      5.61      3.01     -3.62      0.96      6.34      0.59      4.56
     -48.252350      62.999699     152.0      3.67      4.67      77.5         2         2      2452      2578   5823.05    -2.348      17.0      23.1   289.384     0.889     146.0   0.24076      15.9         H               194.9  0.114077  0.095725  0.002177  6.912480  1.063859  6.497554  1.338185     89.10   10.7275  170.5630   0.31260   6.66294   0.15726   0.00341 234.48773  10.16561    7792.2  0.676440  0.001572  0.000056  0.000329  0.199396  7.275291  0.943517     84.37  1.000348  1.000059     3.981    33.108     160.0      93.0     439.4    1055.8     13.12     -0.79      8.72      4.93      1.60      8.28      1.03      1.66      1.13      0.10      1.48      2.25      2.74      5.60      2.96     -2.56      1.52      6.34      0.64      5.19
     -48.236031      62.922890     217.8      3.59      4.67     108.0         2         3      2452      4156   5283.47    -2.771      16.8      23.5   290.160     0.887     156.7   0.23752      40.6         H               194.9  0.113173  0.094873  0.002341  7.451711  1.045728  7.125860  1.335592     67.27    9.7749  147.3466   0.30919   6.50816   0.16747   0.00404 203.57719   9.37701    7055.7  0.675452  0.001802  0.000047  0.000304  0.201518  7.264588  0.941014     87.02  1.000350  1.000057     4.145    38.981     160.0      92.1     358.4    1030.0     13.47     -1.40      8.25      3.96      1.12      7.49      0.30      1.35      0.63     -0.55      0.66      1.60      2.00      5.35      2.74     -3.55      1.41      5.76      0.28      5.40
     -48.320633      63.054237     230.0      4.15      4.67     109.0         3         1      3904      1000   7867.86    -1.041      20.9      22.6   282.746     0.853     139.0   0.22259      49.0         H               194.9  0.108139  0.089423  0.002191  6.873647  1.014328  6.776556  1.309820     72.12   14.2100  247.6215   0.29769   7.12714   0.12423   0.00184 347.81052  12.95877   10304.4  0.651793  0.001630  0.000037  0.000319  0.198720  7.261055  0.903722     85.31  1.000334  1.000051     3.932    34.719     153.8      96.1     789.6    1295.7     13.41     -1.58      8.20      4.04      1.02      7.60      0.28      1.92      0.00     -1.40      1.24      1.97      1.81      4.79      2.95     -3.52      0.76      6.93      1.54      4.43
     -48.304031      62.975807     227.2      4.40      4.67     118.9         3         2      3904      2578   7344.59    -1.340      20.9      23.1   285.178     0.865     166.6   0.23013      46.9         H               194.9  0.108601  0.096810  0.002333  6.786366  1.029314  6.593094  1.320333     96.26   13.3464  229.6684   0.30452   7.02576   0.13106   0.00213 319.45978  12.27740    9695.8  0.656230  0.002004  0.000061  0.000320  0.205435  7.311992  0.918663     86.27  1.000331  1.000052     3.876    31.559     160.0      95.5     696.0    1245.2     13.67     -1.89      8.56      4.26      1.11      8.14     -0.20      2.28     -0.26     -1.31      1.11      2.47      2.16      5.27      3.36     -3.72      0.96      6.69      1.17      3.73
     -48.287689      62.898914     179.3      3.99      4.67      75.3         3         3      3904      4156   6559.00    -1.832      20.2      23.5   282.622     0.856     205.6   0.22606      23.6         H               194.9  0.109279  0.089938  0.002484  6.777545  1.012168  6.696065  1.312989     85.42   12.0431  198.7233   0.30443   6.86696   0.14225   0.00263 276.45291  11.25437    8611.6  0.652286  0.002604  0.000103  0.000329  0.200143  7.249142  0.907740     84.82  1.000317  1.000052     3.805    30.849     160.0      94.4     547.7    1135.5     13.53     -0.77      8.28      3.93      1.20      7.79      0.54      2.02      0.15     -0.15      1.58      2.26      1.67      5.15      3.13     -4.59      0.41      6.28      0.85      4.19
