corner points
52.82618332    -63.3286171
52.65697098    -63.49386597
52.43214417    -63.2454071
52.26092529    -63.4101944
========== RESULTS WAVE VERSION 16.10.2018 ====================
IMAGE SIZE  X: 5635     Y:4900    col:row     POLARIZATION:VV
COVERAGE    X: 21.7171783km       Y: 20.17042531km 
RESOLUTION dX: 3.853980178m       dY:4.116413328m  
resolution of original product 3.853980178m x 4.116413328m;   raster step x:5996.793157m  
===============================================================
FLAGS: H=HIGH PROBABILITY SEA STATE, I=LAND(ISLAND), O=OUTLIER NO SEA STATE, N=NO WIND AVAILABLE, SEA STATE NOT VISIBLE, M=MEAN PROBABILITY SEA STATE, L= LOW PROBABILITY SEA STATE
Filtering wave length
 integration  Lmin=1m
 integration  Lmax=2200m
  peak        Lmin=100m
               FFT=1024pixels, 3946.475702m 
   mean-Hs (SWH_c)=0.3358828354m
         mean-wind=4.620575905m/s
--------------0--------------1---------2---------3---------4---------5---------6---------7---------8---------9--------10--------11--------12--------13--------14--------15--------16--------17--------18--------19------------------20--------21--------22--------23--------24--------25--------26--------27--------28--------29--------30--------31--------32--------33--------34--------35--------36--------37--------38--------39--------40--------41--------42--------43--------44--------45--------46--------47--------48--------49--------50--------51--------52--------53--------54--------55--------56--------57--------58--------59--------60--------61--------62--------63--------64--------65--------66--------67--------68--------69--------70--------71--------72--------73
            LAT            LON  P-LENGHT     SWH_o     SWH_c     P-DIR      LINE     POINT     ROW-Y     COL-X  M-INTENC        dB      WIND INC-ANGLE  ENERGY-M  ENERGY-N  ENERGY-R ENERGY-NN  FG-DEPTH      FLAG         HEADING-DEG    E30-75   E75-390  E390-600 meanincut   meanout   cut/out  STD-NORM  SPEC-MAX   GL-MEAN    GL-VAR      CORR   ENTROPY   HOMOGEN    ENERGY  CONTRAST  DISSIMIL     STD-O    E 1-30 E600-2000   E2000 >      GODA  LONG-HIG     Tmean  CONVOLUT  MEAN-DIR  relation     Sy/Sx  SKEWNESS  KURTOSIS  cutoff-A >50/10000     INT*V   INT-LOG  S-1_g1f1  S-2_g1f2  S-3_g1f3  S-4_g2f1  S-5_g2f2  S-6_g2f3  S-7_g3f1  S-8_g3f2  S-9_g3f3 S-10_g1f4 S-11_g2f4 S-12_g3f4 S-13_g1f5 S-14_g2f5 S-15_g3f5 S-16_g4f1 S-17_g4f2 S-18_g4f3 S-19_g4f4 S-20_g4f5
--------------1--------------2---------3---------4---------5---------6---------7---------8---------9--------10--------11--------12--------13--------14--------15--------16--------17--------18--------19--------20------------------21--------22--------23--------24--------25--------26--------27--------28--------29--------30--------31--------32--------33--------34--------35--------36--------37--------38--------39--------40--------41--------42--------43--------44--------45--------46--------47--------48--------49--------50--------51--------52--------53--------54--------55--------56--------57--------58--------59--------60--------61--------62--------63--------64--------65--------66--------67--------68--------69--------70--------71--------72--------73--------74
     -63.347225      52.719563     175.5      0.33      1.78      78.0         1         1      1000      1000   2482.61    -6.051       4.9      22.3   183.780     0.620      56.3   0.12302      22.4         H               200.7  0.058589  0.039147  0.000496  3.906592  0.850232  4.594737  1.116813     26.59    4.4748   30.4139   0.22171   5.17000   0.26408   0.01300  47.34174   4.57756    2772.5  0.522030  0.000596  0.000026  0.000147  0.198239  7.233182  0.640702     72.03  1.000183  1.000012     2.661    15.007      64.2      83.7      58.5     285.3     11.20      3.16      3.81      7.09      2.71      4.91      1.31     -0.18      2.55      1.24      1.76      0.62     -0.09      0.80      1.46      0.88      0.98      2.88      1.21      1.22
     -63.323986      52.609150     158.9      0.45      1.78      67.9         1         2      1000      2556   2112.67    -6.752       4.6      22.7   184.994     0.630      66.5   0.12739      17.6         H               200.7  0.059427  0.043092  0.000584  4.114831  0.867528  4.743170  1.125535     32.49    3.7495   22.4423   0.22806   4.85159   0.29825   0.01798  34.64808   3.88774    2377.7  0.526347  0.000768  0.000035  0.000155  0.202206  7.304835  0.651551     70.33  1.000214  1.000016     2.784    17.408      65.3      80.5      43.0     281.9     11.39      3.22      3.67      6.91      2.66      4.89      0.91     -0.02      2.60      1.17      1.85      1.40      0.17      0.64      1.31      0.42      0.81      2.78      0.99      0.76
     -63.301109      52.501030     168.6      0.30      1.78      58.7         1         3      1000      4112   1904.77    -7.202       4.6      23.2   184.735     0.626      57.4   0.12515      20.3         H               200.7  0.058755  0.040019  0.000496  4.006211  0.847949  4.724588  1.121906     27.55    3.3307   18.0877   0.22287   4.64489   0.32091   0.02194  28.11295   3.49651    2137.1  0.526298  0.000611  0.000026  0.000150  0.202326  7.275139  0.646433     71.41  1.000214  1.000013     2.740    16.396      63.2      78.3      34.9     235.5     11.43      3.21      4.12      6.91      2.58      4.81      0.81     -0.40      2.33      1.30      1.49      0.82     -0.10      0.84      2.03      0.64      0.89      2.74      0.72      1.09
     -63.396355      52.669209     166.7      0.37      1.78      76.3         2         1      2457      1000   2347.71    -6.294       4.5      22.3   183.971     0.625      53.2   0.12512      19.7         H               200.7  0.059042  0.041256  0.000487  4.126534  0.853351  4.835681  1.120013     26.67    4.2173   27.4984   0.22401   5.06244   0.27550   0.01453  42.67735   4.33016    2629.3  0.523761  0.000558  0.000022  0.000151  0.198855  7.256604  0.645776     69.88  1.000188  1.000012     2.717    15.925      62.2      82.7      52.8     284.9     11.04      3.36      3.32      7.20      2.79      4.60      1.39     -0.46      2.90      1.32      1.62      0.81     -0.76      0.23      1.84      1.17      1.04      2.98      0.70      1.04
     -63.373077      52.558628     163.1      0.30      1.78      51.7         2         2      2457      2556   2138.71    -6.698       4.7      22.7   184.662     0.625      54.4   0.12495      18.7         H               200.7  0.059401  0.039391  0.000475  3.968078  0.849147  4.673018  1.120759     23.47    3.7981   22.7996   0.22254   4.87601   0.29483   0.01746  35.45150   3.93997    2396.8  0.525393  0.000604  0.000019  0.000148  0.197659  7.238138  0.645142     70.20  1.000197  1.000013     2.735    16.332      64.2      80.8      43.7     271.8     11.16      3.25      3.35      7.01      2.66      4.60      0.93     -0.61      2.46      1.42      1.30      0.33     -0.44      0.33      1.58      0.87      0.92      2.96      0.54      0.98
     -63.350163      52.450344     165.0      0.31      1.78      74.1         2         3      2457      4112   1912.32    -7.184       4.6      23.2   184.942     0.625      53.2   0.12514      19.3         H               200.7  0.059235  0.040613  0.000508  4.025864  0.867381  4.641403  1.121820     29.32    3.3551   18.3210   0.22312   4.65762   0.31955   0.02167  28.46654   3.52174    2145.3  0.524973  0.000536  0.000019  0.000151  0.200833  7.255158  0.646046     72.78  1.000212  1.000015     2.714    15.789      64.2      78.5      35.3     237.4     11.34      3.74      4.11      6.91      2.97      4.64      0.83     -0.53      2.31      1.70      1.78      0.60     -0.04      0.87      1.69      0.81      1.17      2.51      0.99      1.19
     -63.445469      52.618687     168.6      0.37      1.78      58.7         3         1      3914      1000   2354.28    -6.281       4.6      22.3   185.115     0.628      65.1   0.12553      20.3         H               200.7  0.060025  0.041439  0.000558  4.154353  0.867062  4.791300  1.124274     25.35    4.2169   27.6414   0.22529   5.06141   0.27602   0.01462  42.82836   4.33525    2646.7  0.525500  0.000728  0.000036  0.000154  0.200123  7.269733  0.649293     70.33  1.000175  1.000011     2.710    15.624      64.2      82.6      52.9     279.1     11.23      3.53      3.38      6.89      2.83      4.52      1.21     -0.26      3.05      1.28      1.70      1.01     -0.63      0.32      1.96      0.61      0.82      2.63      1.10      0.88
     -63.422150      52.507942     174.9      0.39      1.78      57.4         3         2      3914      2556   2090.85    -6.797       4.5      22.7   184.658     0.627      59.7   0.12579      22.2         H               200.7  0.059434  0.042201  0.000591  4.174216  0.870931  4.792819  1.122138     23.56    3.7010   21.8486   0.22551   4.82923   0.30040   0.01839  33.84335   3.84565    2346.1  0.524878  0.000673  0.000022  0.000149  0.202070  7.286111  0.648894     71.76  1.000205  1.000013     2.744    16.733      63.2      80.2      41.9     269.8     11.29      3.10      3.27      6.51      2.60      4.33      0.90     -0.48      2.80      0.82      1.40      0.93     -0.34      0.55      1.83      0.44      1.13      2.60      1.15      0.88
     -63.399200      52.399494     151.7      0.30      1.78      92.1         3         3      3914      4112   1902.44    -7.207       4.6      23.2   183.617     0.622      66.9   0.12425      15.8         H               200.7  0.059059  0.039660  0.000530  4.000422  0.856833  4.668849  1.117456     21.43    3.3295   18.0001   0.22343   4.64442   0.32118   0.02195  27.95709   3.49114    2125.9  0.522666  0.000783  0.000034  0.000149  0.199239  7.249028  0.642864     76.01  1.000226  1.000014     2.669    15.100      65.3      78.3      34.7     224.5     11.19      2.60      3.73      6.98      2.22      4.70      1.22     -0.14      2.84      0.67      1.09      0.78     -0.37      0.82      2.36      0.77      0.81      2.86      1.05      1.26
