corner points
75.96304321    -4.351704121
75.92473602    -4.532468796
75.78111267    -4.312089443
75.74271393    -4.492814064
========== RESULTS WAVE VERSION 16.10.2018 ====================
IMAGE SIZE  X: 5635     Y:4930    col:row     POLARIZATION:VV
COVERAGE    X: 20.60416289km       Y: 20.49680195km 
RESOLUTION dX: 3.656461915m       dY:4.157566319m  
resolution of original product 3.656461915m x 4.157566319m;   raster step x:5996.597541m  
===============================================================
FLAGS: H=HIGH PROBABILITY SEA STATE, I=LAND(ISLAND), O=OUTLIER NO SEA STATE, N=NO WIND AVAILABLE, SEA STATE NOT VISIBLE, M=MEAN PROBABILITY SEA STATE, L= LOW PROBABILITY SEA STATE
Filtering wave length
 integration  Lmin=1m
 integration  Lmax=2200m
  peak        Lmin=100m
               FFT=1024pixels, 3744.217001m 
   mean-Hs (SWH_c)=0.217237072m
         mean-wind=9.907612801m/s
--------------0--------------1---------2---------3---------4---------5---------6---------7---------8---------9--------10--------11--------12--------13--------14--------15--------16--------17--------18--------19------------------20--------21--------22--------23--------24--------25--------26--------27--------28--------29--------30--------31--------32--------33--------34--------35--------36--------37--------38--------39--------40--------41--------42--------43--------44--------45--------46--------47--------48--------49--------50--------51--------52--------53--------54--------55--------56--------57--------58--------59--------60--------61--------62--------63--------64--------65--------66--------67--------68--------69--------70--------71--------72--------73
            LAT            LON  P-LENGHT     SWH_o     SWH_c     P-DIR      LINE     POINT     ROW-Y     COL-X  M-INTENC        dB      WIND INC-ANGLE  ENERGY-M  ENERGY-N  ENERGY-R ENERGY-NN  FG-DEPTH      FLAG         HEADING-DEG    E30-75   E75-390  E390-600 meanincut   meanout   cut/out  STD-NORM  SPEC-MAX   GL-MEAN    GL-VAR      CORR   ENTROPY   HOMOGEN    ENERGY  CONTRAST  DISSIMIL     STD-O    E 1-30 E600-2000   E2000 >      GODA  LONG-HIG     Tmean  CONVOLUT  MEAN-DIR  relation     Sy/Sx  SKEWNESS  KURTOSIS  cutoff-A >50/10000     INT*V   INT-LOG  S-1_g1f1  S-2_g1f2  S-3_g1f3  S-4_g2f1  S-5_g2f2  S-6_g2f3  S-7_g3f1  S-8_g3f2  S-9_g3f3 S-10_g1f4 S-11_g2f4 S-12_g3f4 S-13_g1f5 S-14_g2f5 S-15_g3f5 S-16_g4f1 S-17_g4f2 S-18_g4f3 S-19_g4f4 S-20_g4f5
--------------1--------------2---------3---------4---------5---------6---------7---------8---------9--------10--------11--------12--------13--------14--------15--------16--------17--------18--------19--------20------------------21--------22--------23--------24--------25--------26--------27--------28--------29--------30--------31--------32--------33--------34--------35--------36--------37--------38--------39--------40--------41--------42--------43--------44--------45--------46--------47--------48--------49--------50--------51--------52--------53--------54--------55--------56--------57--------58--------59--------60--------61--------62--------63--------64--------65--------66--------67--------68--------69--------70--------71--------72--------73--------74
      -4.381165      75.922134     322.6      0.59      1.89     170.1         1         1      1000      1000   3278.63    -4.843      10.2      23.6   403.539     0.702      78.9   0.15755     100.0         H               192.0  0.086591  0.027828  0.000701  2.828624  0.884733  3.197150  1.187563     12.05    6.0367   57.6505   0.24987   5.69518   0.22032   0.00821  86.48957   6.07718    3893.4  0.586116  0.001197  0.000046  0.000227  0.157302  6.710780  0.735292     89.66  1.000198  1.000023     3.163    21.515      90.6      87.6     112.3     484.7     11.69      0.46     -2.29      1.60      1.75      3.10      1.12      1.10      1.10      1.64      0.66      0.43     -1.01     -1.25      0.87     -5.89      1.24      6.18      0.67     -1.46
      -4.369509      75.868599     303.1      0.58      1.89       4.6         1         2      1000      2640   2944.16    -5.310      10.0      24.1   406.080     0.708     113.0   0.16053     100.0         H               192.0  0.087174  0.028183  0.000831  2.850791  0.900003  3.167535  1.192327     13.24    5.3933   47.6239   0.25273   5.48720   0.23963   0.01020  71.17488   5.47471    3510.1  0.590775  0.001813  0.000094  0.000218  0.156124  6.717972  0.742090     90.76  1.000205  1.000023     3.237    23.904      92.7      85.7      91.1     478.6     11.76      0.44     -2.16      1.45      1.52      3.09      1.54      0.99      1.28      1.57      1.00      0.39     -0.53     -1.24      0.81     -7.00      1.22      5.30      0.53     -1.65
      -4.358062      75.816040     303.1      0.57      1.89     175.4         1         3      1000      4280   2629.88    -5.801       9.8      24.5   414.655     0.731     153.7   0.17021     100.0         H               192.0  0.091786  0.030885  0.000813  3.223860  0.916781  3.516499  1.212214     14.41    4.7503   39.0209   0.25935   5.25118   0.26314   0.01307  57.80172   4.87444    3187.8  0.605563  0.002237  0.000111  0.000223  0.158041  6.752737  0.766810     90.22  1.000205  1.000025     3.431    26.938      94.9      83.5      73.1     453.6     11.80      0.46     -1.25      1.95      1.79      2.95      1.24      0.59      1.10      2.02      0.63      0.20     -1.12     -1.56      0.70     -6.15      1.56      4.77      0.25     -1.26
      -4.434083      75.910919     348.6      0.57      1.89     169.3         2         1      2443      1000   3150.81    -5.016       9.7      23.6   411.900     0.729      89.8   0.17002     100.0         H               192.0  0.094140  0.029877  0.000894  3.093538  0.930496  3.324611  1.209920     12.48    5.7842   54.7918   0.25960   5.61043   0.22891   0.00908  81.13515   5.84031    3811.9  0.603505  0.001312  0.000051  0.000224  0.155201  6.726693  0.765608     90.30  1.000199  1.000025     3.437    26.699      92.7      86.7     106.5     523.2     11.67      0.52     -1.76      1.67      0.86      3.35      1.80      1.13      1.21      1.32      0.89     -0.08     -0.57     -1.49      1.04     -6.65     -0.32      6.28      1.38     -2.41
      -4.422424      75.857376     303.1      0.57      1.89       4.6         2         2      2443      2640   2860.90    -5.435       9.6      24.1   408.707     0.717      73.5   0.16406     100.0         H               192.0  0.088479  0.030083  0.000823  3.097871  0.886614  3.494046  1.201155     15.69    5.2181   45.2969   0.25426   5.42541   0.24569   0.01088  67.55873   5.31159    3436.2  0.596506  0.001210  0.000035  0.000212  0.158921  6.766195  0.751311     91.57  1.000181  1.000021     3.342    25.468      90.6      85.2      86.1     474.5     11.71      0.84     -2.30      1.58      1.73      3.71      1.63      0.68      1.50      1.60      0.66      0.55     -0.54     -1.29      0.82     -6.40      1.44      6.68      0.13     -1.57
      -4.410973      75.804810     289.2      0.61      1.89     162.0         2         3      2443      4280   2809.96    -5.513      10.6      24.5   410.004     0.721      81.0   0.16532     100.0         H               192.0  0.089722  0.030125  0.000833  2.924758  0.912293  3.205940  1.201818     23.02    5.1131   43.7939   0.25600   5.38769   0.24952   0.01128  65.16519   5.20921    3376.7  0.599471  0.001135  0.000042  0.000216  0.160331  6.748444  0.756095     90.68  1.000197  1.000023     3.339    24.244      92.7      84.9      83.2     454.6     12.05      0.04     -3.32      0.57      1.33      4.30      1.44      0.41      1.26      1.97     -0.25      0.40      0.40     -1.66      0.73     -7.51      1.52      8.17     -1.27     -3.02
      -4.487000      75.899696     322.6      0.57      1.89     170.1         3         1      3886      1000   3187.03    -4.966       9.8      23.6   416.145     0.735      82.9   0.17082     100.0         H               192.0  0.094817  0.029378  0.000736  3.040396  0.918601  3.309812  1.216387     12.25    5.8647   56.7458   0.25854   5.63416   0.22756   0.00894  84.14838   5.93036    3876.5  0.609219  0.001329  0.000055  0.000239  0.153927  6.700451  0.770959     91.47  1.000220  1.000028     3.415    25.983      94.9      86.8     109.9     531.5     11.48      0.59     -1.71      2.21      1.43      3.20      1.43      0.71      1.17      1.50      0.70      0.64     -0.99     -1.09      0.82     -5.36      1.07      5.75      0.25     -1.08
      -4.475338      75.846146     295.5      0.58      1.89     166.3         3         2      3886      2640   2917.51    -5.350       9.9      24.1   412.711     0.728      85.3   0.16890     100.0         H               192.0  0.092844  0.031359  0.000811  3.170829  0.933322  3.397359  1.208502     20.50    5.3433   47.7320   0.25955   5.46536   0.24282   0.01054  70.68697   5.42615    3525.8  0.601878  0.001243  0.000047  0.000225  0.158834  6.740948  0.763740     92.33  1.000205  1.000025     3.387    25.781      94.9      85.5      91.1     486.6     11.95      0.51     -1.68      1.61      1.93      3.70      1.37      0.73      1.46      2.15      0.88      0.44     -0.43     -1.52      0.89     -6.34      1.60      5.60      0.13     -2.26
      -4.463884      75.793571     143.5      0.57      1.89      61.8         3         3      3886      4280   2605.46    -5.841       9.7      24.5   410.736     0.723      84.7   0.16703      13.9         H               192.0  0.089997  0.030533  0.000825  3.183439  0.890082  3.576567  1.204662     11.66    4.7224   38.2657   0.25789   5.24291   0.26320   0.01304  56.79431   4.84451    3138.6  0.600516  0.001233  0.000068  0.000227  0.156812  6.750299  0.757899     91.45  1.000229  1.000029     3.365    24.926      94.9      83.6      71.8     409.8     11.68      1.24     -1.74      2.06      1.61      3.39      1.52      0.25      1.20      1.81      0.79      0.37     -1.11     -1.55      0.92     -6.19      0.81      6.11      0.20     -1.98
