corner points
61.23284912    -46.81371307
61.14953232    -46.98239136
60.97494125    -46.7525177
60.89084625    -46.92101288
========== RESULTS WAVE VERSION 16.10.2018 ====================
IMAGE SIZE  X: 4476     Y:4775    col:row     POLARIZATION:VV
COVERAGE    X: 20.7388087km       Y: 19.75239919km 
RESOLUTION dX: 4.633335276m       dY:4.136628104m  
resolution of original product 4.633335276m x 4.136628104m;   raster step x:5995.535848m  
===============================================================
FLAGS: H=HIGH PROBABILITY SEA STATE, I=LAND(ISLAND), O=OUTLIER NO SEA STATE, N=NO WIND AVAILABLE, SEA STATE NOT VISIBLE, M=MEAN PROBABILITY SEA STATE, L= LOW PROBABILITY SEA STATE
Filtering wave length
 integration  Lmin=1m
 integration  Lmax=2200m
  peak        Lmin=100m
               FFT=1024pixels, 4744.535323m 
   mean-Hs (SWH_c)=3.837404785m
         mean-wind=20.6364193m/s
--------------0--------------1---------2---------3---------4---------5---------6---------7---------8---------9--------10--------11--------12--------13--------14--------15--------16--------17--------18--------19------------------20--------21--------22--------23--------24--------25--------26--------27--------28--------29--------30--------31--------32--------33--------34--------35--------36--------37--------38--------39--------40--------41--------42--------43--------44--------45--------46--------47--------48--------49--------50--------51--------52--------53--------54--------55--------56--------57--------58--------59--------60--------61--------62--------63--------64--------65--------66--------67--------68--------69--------70--------71--------72--------73
            LAT            LON  P-LENGHT     SWH_o     SWH_c     P-DIR      LINE     POINT     ROW-Y     COL-X  M-INTENC        dB      WIND INC-ANGLE  ENERGY-M  ENERGY-N  ENERGY-R ENERGY-NN  FG-DEPTH      FLAG         HEADING-DEG    E30-75   E75-390  E390-600 meanincut   meanout   cut/out  STD-NORM  SPEC-MAX   GL-MEAN    GL-VAR      CORR   ENTROPY   HOMOGEN    ENERGY  CONTRAST  DISSIMIL     STD-O    E 1-30 E600-2000   E2000 >      GODA  LONG-HIG     Tmean  CONVOLUT  MEAN-DIR  relation     Sy/Sx  SKEWNESS  KURTOSIS  cutoff-A >50/10000     INT*V   INT-LOG  S-1_g1f1  S-2_g1f2  S-3_g1f3  S-4_g2f1  S-5_g2f2  S-6_g2f3  S-7_g3f1  S-8_g3f2  S-9_g3f3 S-10_g1f4 S-11_g2f4 S-12_g3f4 S-13_g1f5 S-14_g2f5 S-15_g3f5 S-16_g4f1 S-17_g4f2 S-18_g4f3 S-19_g4f4 S-20_g4f5
--------------1--------------2---------3---------4---------5---------6---------7---------8---------9--------10--------11--------12--------13--------14--------15--------16--------17--------18--------19--------20------------------21--------22--------23--------24--------25--------26--------27--------28--------29--------30--------31--------32--------33--------34--------35--------36--------37--------38--------39--------40--------41--------42--------43--------44--------45--------46--------47--------48--------49--------50--------51--------52--------53--------54--------55--------56--------57--------58--------59--------60--------61--------62--------63--------64--------65--------66--------67--------68--------69--------70--------71--------72--------73--------74
     -46.835251      61.157017     141.7      3.71      4.29      80.4         1         1      1000      1000   1282.59    -8.919      19.8      35.8   295.885     0.633     207.1   0.11127      13.5         H               194.8  0.065419  0.037259  0.000933  3.965592  0.793349  4.998543  1.130170     29.43   22.1515  387.4812   0.15310   7.68582   0.08080   0.00090 656.31348  19.48461    1449.5  0.527349  0.002307  0.000668  0.000235  0.175864  7.030282  0.644638     84.42  1.000231  1.000025     2.712    15.465     160.0     100.2    1795.4    1433.8     11.96     -0.24      5.16      3.99      1.16      6.29      2.91      1.24      1.65      0.55      1.62      1.68      1.27      3.76      3.66     -4.08      1.55      7.36      1.93      3.42
     -46.817493      61.082069     117.5      3.89      4.29      82.0         1         2      1000      2294   1395.53    -8.553      21.0      36.2   293.317     0.627     108.9   0.10938       8.9         H               194.8  0.063989  0.036389  0.000895  3.765520  0.789024  4.772377  1.123099     35.77   23.6510  412.3757   0.14790   7.70111   0.08017   0.00104 702.77356  20.34418    1567.2  0.524002  0.001655  0.000162  0.000224  0.181681  7.049862  0.637083     83.96  1.000236  1.000025     2.694    15.415     153.8     100.6    2114.1    1497.0     12.25     -0.55      5.30      3.76      0.34      6.40      2.17      1.61      1.19      0.00      1.06      1.83      0.93      4.25      3.71     -4.24     -0.08      7.02      1.18      4.00
     -46.799850      61.007843     124.0      3.58      4.29      83.3         1         3      1000      3588   1203.74    -9.195      19.8      36.6   296.078     0.632     135.0   0.10986      10.1         H               194.8  0.065050  0.035624  0.000977  3.724723  0.776957  4.793988  1.128481     27.34   21.1231  366.2425   0.15129   7.67651   0.08082   0.00083 621.66943  18.85991    1358.4  0.529066  0.001879  0.000266  0.000223  0.177343  7.007962  0.642921     84.31  1.000268  1.000030     2.876    21.266     153.8     100.0    1571.5    1389.2     12.05      0.68      4.97      3.49      0.39      6.08      2.76      0.89      1.47      0.84      0.82      1.37      1.29      4.04      3.36     -4.83      0.09      6.65      0.65      4.11
     -46.886475      61.131680     107.3      3.92      4.29      84.2         2         1      2450      1000   1430.55    -8.445      20.9      35.8   294.634     0.631      61.0   0.11060       7.4         H               194.8  0.065557  0.037242  0.000954  3.884470  0.786750  4.937365  1.126654     36.48   24.0738  418.9642   0.14609   7.70177   0.08011   0.00109 715.51892  20.57285    1611.7  0.526775  0.000819  0.000046  0.000239  0.179621  7.027159  0.641838     84.04  1.000278  1.000030     2.770    16.859     153.8     100.7    2226.5    1537.6     12.10     -0.14      5.71      4.06      0.76      6.42      2.66      1.75      1.60      0.58      1.14      1.60      1.40      4.45      3.31     -4.09      0.12      6.26      1.59      4.64
     -46.868702      61.056664     107.3      3.84      4.29      84.2         2         2      2450      2294   1335.77    -8.743      20.5      36.2   295.253     0.631     138.3   0.11057       7.4         H               194.8  0.065196  0.037254  0.000894  3.962919  0.795783  4.979902  1.127708     29.44   22.8699  399.8090   0.15062   7.69618   0.08025   0.00095 679.17743  19.90926    1506.3  0.526575  0.001664  0.000357  0.000230  0.180443  7.047154  0.642541     84.51  1.000239  1.000026     2.741    16.263     160.0     100.3    1943.9    1479.0     12.23     -0.68      5.60      3.92      0.63      6.14      2.12      1.55      1.31     -0.57      0.92      1.72      1.05      4.08      3.57     -4.03      0.61      6.04      1.55      3.77
     -46.851040      60.982368     156.4      3.97      4.29      81.5         2         3      2450      3588   1445.38    -8.400      21.5      36.6   289.975     0.614     136.3   0.10521      17.0         H               194.8  0.060967  0.035091  0.000922  3.676127  0.759571  4.839740  1.112190     27.38   24.3396  421.8417   0.14294   7.70652   0.07974   0.00111 723.08875  20.72588    1607.6  0.515554  0.001780  0.000322  0.000220  0.180141  7.055934  0.623793     84.20  1.000199  1.000020     2.639    15.027     148.0     100.8    2244.3    1514.2     12.14     -0.13      5.35      4.06      0.64      6.71      2.73      1.53      1.23      0.08      1.23      1.64      1.53      3.88      3.58     -4.58      0.01      7.07      1.23      3.01
     -46.937691      61.106293     100.2      3.98      4.29      83.2         3         1      3900      1000   1528.27    -8.158      21.5      35.8   293.249     0.630     224.5   0.11231       6.4         H               194.8  0.065579  0.036514  0.001015  3.790743  0.799913  4.738946  1.127416     35.17   25.2125  437.6546   0.14916   7.68545   0.08216   0.00133 744.74384  21.08170    1723.0  0.524568  0.002339  0.000755  0.000233  0.180374  7.024838  0.641557     84.39  1.000269  1.000028     2.733    15.939     160.0     101.0    2547.3    1593.4     12.21     -0.31      5.33      3.81      0.38      6.72      2.61      1.70      1.63     -0.16      1.16      2.02      1.65      4.62      3.39     -4.58     -0.04      7.03      1.64      5.18
     -46.919903      61.031208     149.6      3.78      4.29      77.8         3         2      3900      2294   1307.73    -8.835      20.3      36.2   295.255     0.629     128.0   0.10851      15.3         H               194.8  0.063862  0.036582  0.000864  3.851282  0.802116  4.801402  1.125085     31.65   22.5235  392.6432   0.14837   7.69766   0.07984   0.00091 668.77460  19.72998    1471.4  0.525950  0.001546  0.000306  0.000222  0.180572  7.052522  0.638995     82.50  1.000236  1.000025     2.740    16.558     153.8     100.3    1856.4    1449.2     12.00      0.49      5.55      4.40      1.20      6.67      2.79      1.23      2.30      1.14      1.81      1.74      1.89      4.53      3.46     -3.54      0.75      5.90      1.47      4.00
     -46.902225      60.956844     120.9      3.86      4.29      83.4         3         3      3900      3588   1284.89    -8.911      20.4      36.6   294.979     0.630     121.0   0.10963       9.5         H               194.8  0.063837  0.037707  0.000863  3.795675  0.785996  4.829128  1.125961     39.92   22.2258  387.2606   0.14945   7.69464   0.08000   0.00089 658.77234  19.54414    1446.7  0.525851  0.001515  0.000269  0.000234  0.183008  7.063935  0.640148     83.17  1.000261  1.000029     2.745    16.489     160.0     100.2    1793.0    1438.2     11.94      0.48      6.06      4.71      0.85      6.96      2.77      1.44      2.15      0.80      1.67      1.54      1.96      4.98      3.43     -3.09     -0.04      6.08      1.70      5.17
