corner points
66.19924927    -34.74569321
66.14080811    -34.9173851
65.98222351    -34.69427109
65.92331696    -34.86585617
========== RESULTS WAVE VERSION 16.10.2018 ====================
IMAGE SIZE  X: 4476     Y:4771    col:row     POLARIZATION:VV
COVERAGE    X: 20.59905611km       Y: 19.7785789km 
RESOLUTION dX: 4.602112625m       dY:4.145583505m  
resolution of original product 4.602112625m x 4.145583505m;   raster step x:5996.55275m  
===============================================================
FLAGS: H=HIGH PROBABILITY SEA STATE, I=LAND(ISLAND), O=OUTLIER NO SEA STATE, N=NO WIND AVAILABLE, SEA STATE NOT VISIBLE, M=MEAN PROBABILITY SEA STATE, L= LOW PROBABILITY SEA STATE
Filtering wave length
 integration  Lmin=1m
 integration  Lmax=2200m
  peak        Lmin=100m
               FFT=1024pixels, 4712.563328m 
   mean-Hs (SWH_c)=0.5822398376m
         mean-wind=6.169547081m/s
--------------0--------------1---------2---------3---------4---------5---------6---------7---------8---------9--------10--------11--------12--------13--------14--------15--------16--------17--------18--------19------------------20--------21--------22--------23--------24--------25--------26--------27--------28--------29--------30--------31--------32--------33--------34--------35--------36--------37--------38--------39--------40--------41--------42--------43--------44--------45--------46--------47--------48--------49--------50--------51--------52--------53--------54--------55--------56--------57--------58--------59--------60--------61--------62--------63--------64--------65--------66--------67--------68--------69--------70--------71--------72--------73
            LAT            LON  P-LENGHT     SWH_o     SWH_c     P-DIR      LINE     POINT     ROW-Y     COL-X  M-INTENC        dB      WIND INC-ANGLE  ENERGY-M  ENERGY-N  ENERGY-R ENERGY-NN  FG-DEPTH      FLAG         HEADING-DEG    E30-75   E75-390  E390-600 meanincut   meanout   cut/out  STD-NORM  SPEC-MAX   GL-MEAN    GL-VAR      CORR   ENTROPY   HOMOGEN    ENERGY  CONTRAST  DISSIMIL     STD-O    E 1-30 E600-2000   E2000 >      GODA  LONG-HIG     Tmean  CONVOLUT  MEAN-DIR  relation     Sy/Sx  SKEWNESS  KURTOSIS  cutoff-A >50/10000     INT*V   INT-LOG  S-1_g1f1  S-2_g1f2  S-3_g1f3  S-4_g2f1  S-5_g2f2  S-6_g2f3  S-7_g3f1  S-8_g3f2  S-9_g3f3 S-10_g1f4 S-11_g2f4 S-12_g3f4 S-13_g1f5 S-14_g2f5 S-15_g3f5 S-16_g4f1 S-17_g4f2 S-18_g4f3 S-19_g4f4 S-20_g4f5
--------------1--------------2---------3---------4---------5---------6---------7---------8---------9--------10--------11--------12--------13--------14--------15--------16--------17--------18--------19--------20------------------21--------22--------23--------24--------25--------26--------27--------28--------29--------30--------31--------32--------33--------34--------35--------36--------37--------38--------39--------40--------41--------42--------43--------44--------45--------46--------47--------48--------49--------50--------51--------52--------53--------54--------55--------56--------57--------58--------59--------60--------61--------62--------63--------64--------65--------66--------67--------68--------69--------70--------71--------72--------73--------74
     -34.770092      66.137901     194.2      0.60      1.41     150.4         1         1      1000      1000    200.40   -16.981       5.9      36.1   268.662     0.575      48.0   0.07154      29.1         H               193.2  0.047923  0.029572  0.000384  2.764771  0.690795  4.002304  1.075500     25.95    3.5311   18.4940   0.10742   4.77116   0.29002   0.01761  33.01438   3.89076     215.5  0.496434  0.000594  0.000047  0.000124  0.182357  7.094965  0.582624    125.71  1.000021  1.000001     2.421    12.586      84.8      80.1      36.7     206.0     11.31     -6.76     -3.59      3.38     -1.53     -0.19     -1.84      3.03      2.56      2.51     -0.46     -2.61     -4.21     -1.79      1.10     -1.63      0.41      0.98     -0.69     -0.24
     -34.755066      66.074417     191.2      0.62      1.41     161.1         1         2      1000      2303    197.34   -17.048       6.1      36.5   269.599     0.578      66.9   0.07259      27.9         H               193.2  0.048824  0.029840  0.000451  2.782958  0.698596  3.983642  1.079152     19.00    3.4737   18.0245   0.11037   4.74183   0.29444   0.01820  32.07038   3.82759     212.9  0.498051  0.000765  0.000122  0.000118  0.180018  7.072850  0.586098    113.68  1.000027  1.000000     2.425    12.583      83.0      79.9      35.8     203.7     11.21     -5.53     -3.29      3.18     -1.47     -0.16     -1.23      2.25      2.48      1.57     -0.29     -1.98     -2.89     -1.24      0.28     -2.12      0.18      1.14     -0.70     -0.05
     -34.740147      66.011528     215.7      0.58      1.41     149.8         1         3      1000      3606    185.19   -17.324       6.0      36.9   269.796     0.577      88.2   0.07113      39.4         H               193.2  0.047329  0.029058  0.000637  2.658638  0.661644  4.018232  1.077647     27.83    3.2276   15.8366   0.10654   4.61386   0.30766   0.02061  28.29865   3.59193     199.6  0.498718  0.001187  0.000159  0.000121  0.185866  7.103891  0.584938    134.40  1.000046  1.000003     2.451    12.981      86.6      78.4      31.6     196.2     11.68     -6.10     -3.88      2.37     -1.49     -0.02     -1.62      3.21      2.78      2.53     -0.61     -2.73     -3.39     -1.46      0.98     -4.15     -0.60      1.36     -0.96     -0.57
     -34.822166      66.120148     229.9      0.67      1.41     157.0         2         1      2447      1000    218.30   -16.610       6.4      36.1   270.009     0.582      43.8   0.07487      48.9         H               193.2  0.050754  0.030298  0.000372  2.832673  0.697894  4.058887  1.082444     31.14    3.8866   22.2255   0.11510   4.93917   0.27347   0.01506  39.33456   4.23803     236.3  0.500557  0.000394  0.000045  0.000121  0.182796  7.072234  0.590796    129.11  1.000043  1.000002     2.479    13.309      84.8      81.7      43.8     235.7     11.38     -6.58     -3.74      3.33     -1.38     -0.00     -1.93      2.77      2.88      2.40     -0.84     -2.52     -3.71     -1.79      0.61     -1.45      0.35      0.94     -0.97     -0.21
     -34.807137      66.056625     215.0      0.49      1.41     155.8         2         2      2447      2303    198.00   -17.033       6.1      36.5   268.054     0.573      54.4   0.07111      39.0         H               193.2  0.048752  0.028055  0.000295  2.589171  0.694770  3.726659  1.074588     21.55    3.4868   17.9893   0.10772   4.74936   0.29235   0.01790  32.10301   3.83909     212.7  0.495730  0.000528  0.000085  0.000123  0.181669  7.052936  0.580849    122.77  1.000045  1.000003     2.425    12.763      86.6      80.1      35.9     207.4     11.42     -6.40     -4.12      3.14     -1.39     -0.13     -2.40      3.37      2.91      2.91     -0.41     -2.81     -3.34     -1.19      0.97     -1.41     -0.30      1.03     -0.70     -0.20
     -34.792202      65.993690     205.6      0.43      1.41     145.4         2         3      2447      3606    185.57   -17.315       6.0      36.9   269.339     0.575      63.2   0.06991      34.1         H               193.2  0.047998  0.027205  0.000540  2.531882  0.666862  3.796712  1.075522     23.03    3.2344   15.8389   0.10386   4.61800   0.30693   0.02046  28.38795   3.60184     199.6  0.498256  0.000888  0.000088  0.000122  0.181162  7.046476  0.582305    115.14  1.000042  1.000002     2.432    12.757      88.6      78.5      31.7     193.2     11.81     -5.86     -3.48      2.10     -0.76     -0.24     -1.71      3.17      2.92      2.19     -0.52     -2.14     -3.29     -1.03      1.04     -3.98      0.12      0.26     -0.76     -0.09
     -34.874245      66.102371     190.2      0.65      1.41     153.6         3         1      3894      1000    219.47   -16.586       6.4      36.1   268.898     0.578      42.0   0.07380      27.5         H               193.2  0.049799  0.029705  0.000300  2.735376  0.688873  3.970801  1.079116     29.71    3.9104   22.3236   0.11399   4.95058   0.27231   0.01482  39.55748   4.25625     236.8  0.498541  0.000402  0.000038  0.000132  0.185264  7.067097  0.586936    129.21  1.000052  1.000003     2.454    12.992      90.6      81.9      44.1     234.1     11.94     -7.78     -3.93      2.63     -0.84      0.22     -3.20      4.29      2.91      2.90     -0.97     -2.81     -4.71     -0.95      2.20     -1.73      0.87      1.38     -1.18      0.36
     -34.859200      66.038811     219.8      0.61      1.41     146.0         3         2      3894      2303    203.93   -16.905       6.3      36.5   268.657     0.577      56.0   0.07323      41.9         H               193.2  0.049495  0.029520  0.000339  2.682383  0.686561  3.906983  1.078607     29.34    3.6051   19.2325   0.11230   4.80713   0.28735   0.01702  34.14508   3.95088     220.0  0.497747  0.000548  0.000090  0.000131  0.185587  7.072038  0.586003    132.59  1.000045  1.000001     2.435    12.750      90.6      80.7      38.2     211.2     11.83     -7.52     -4.07      2.57     -1.06      0.29     -2.87      4.00      3.05      3.42     -0.97     -3.13     -4.14     -1.30      1.80     -1.85      0.37      1.33     -1.31     -0.36
     -34.844257      65.975838     197.7      0.58      1.41     147.0         3         3      3894      3606    190.89   -17.192       6.2      36.9   267.907     0.573      75.2   0.07137      30.5         H               193.2  0.047839  0.028766  0.000541  2.697148  0.670197  4.024407  1.074183     19.67    3.3408   16.7297   0.10861   4.67397   0.30130   0.01946  29.82548   3.69908     205.1  0.495174  0.001070  0.000121  0.000120  0.181557  7.075728  0.581279    114.19  1.000057  1.000004     2.388    12.202      86.6      79.0      33.4     193.8     11.46     -6.08     -2.59      3.03     -1.31     -0.20     -1.01      2.13      2.68      1.76     -0.38     -2.19     -3.30     -1.48      0.70     -3.20      1.11      0.24     -0.76     -0.12
