corner points
67.89112854    -29.51537323
67.83886719    -29.68820381
67.68604279    -29.46690941
67.63340759    -29.63964844
========== RESULTS WAVE VERSION 16.10.2018 ====================
IMAGE SIZE  X: 4476     Y:4779    col:row     POLARIZATION:VV
COVERAGE    X: 20.5246423km       Y: 19.82657346km 
RESOLUTION dX: 4.585487556m       dY:4.148686642m  
resolution of original product 4.585487556m x 4.148686642m;   raster step x:5997.817724m  
===============================================================
FLAGS: H=HIGH PROBABILITY SEA STATE, I=LAND(ISLAND), O=OUTLIER NO SEA STATE, N=NO WIND AVAILABLE, SEA STATE NOT VISIBLE, M=MEAN PROBABILITY SEA STATE, L= LOW PROBABILITY SEA STATE
Filtering wave length
 integration  Lmin=1m
 integration  Lmax=2200m
  peak        Lmin=100m
               FFT=1024pixels, 4695.539258m 
   mean-Hs (SWH_c)=0.4059016037m
         mean-wind=7.148560524m/s
--------------0--------------1---------2---------3---------4---------5---------6---------7---------8---------9--------10--------11--------12--------13--------14--------15--------16--------17--------18--------19------------------20--------21--------22--------23--------24--------25--------26--------27--------28--------29--------30--------31--------32--------33--------34--------35--------36--------37--------38--------39--------40--------41--------42--------43--------44--------45--------46--------47--------48--------49--------50--------51--------52--------53--------54--------55--------56--------57--------58--------59--------60--------61--------62--------63--------64--------65--------66--------67--------68--------69--------70--------71--------72--------73
            LAT            LON  P-LENGHT     SWH_o     SWH_c     P-DIR      LINE     POINT     ROW-Y     COL-X  M-INTENC        dB      WIND INC-ANGLE  ENERGY-M  ENERGY-N  ENERGY-R ENERGY-NN  FG-DEPTH      FLAG         HEADING-DEG    E30-75   E75-390  E390-600 meanincut   meanout   cut/out  STD-NORM  SPEC-MAX   GL-MEAN    GL-VAR      CORR   ENTROPY   HOMOGEN    ENERGY  CONTRAST  DISSIMIL     STD-O    E 1-30 E600-2000   E2000 >      GODA  LONG-HIG     Tmean  CONVOLUT  MEAN-DIR  relation     Sy/Sx  SKEWNESS  KURTOSIS  cutoff-A >50/10000     INT*V   INT-LOG  S-1_g1f1  S-2_g1f2  S-3_g1f3  S-4_g2f1  S-5_g2f2  S-6_g2f3  S-7_g3f1  S-8_g3f2  S-9_g3f3 S-10_g1f4 S-11_g2f4 S-12_g3f4 S-13_g1f5 S-14_g2f5 S-15_g3f5 S-16_g4f1 S-17_g4f2 S-18_g4f3 S-19_g4f4 S-20_g4f5
--------------1--------------2---------3---------4---------5---------6---------7---------8---------9--------10--------11--------12--------13--------14--------15--------16--------17--------18--------19--------20------------------21--------22--------23--------24--------25--------26--------27--------28--------29--------30--------31--------32--------33--------34--------35--------36--------37--------38--------39--------40--------41--------42--------43--------44--------45--------46--------47--------48--------49--------50--------51--------52--------53--------54--------55--------56--------57--------58--------59--------60--------61--------62--------63--------64--------65--------66--------67--------68--------69--------70--------71--------72--------73--------74
     -29.540613      67.833801     135.9      0.43      1.82     122.9         1         1      1000      1000    242.26   -16.157       7.1      36.3   250.574     0.549      57.3   0.06468      12.3         H               192.8  0.041238  0.022761  0.000380  2.033818  0.653188  3.113678  1.051636     12.30    4.3629   25.8754   0.09495   5.15104   0.24928   0.01178  46.83673   4.70096     254.8  0.484261  0.000822  0.000079  0.000111  0.192277  7.128629  0.554210    114.78  1.000001  1.000000     2.263    11.055      79.7      84.2      51.9     227.4     11.19     -4.79     -2.14      3.43     -1.44      1.23     -0.04      1.38      3.13     -0.18     -1.45     -1.50     -2.93     -1.46      0.12     -1.88      0.23      1.80     -1.29     -0.07
     -29.526400      67.773598     129.5      0.44      1.82     121.2         1         2      1000      2308    234.81   -16.293       7.2      36.7   250.486     0.549      53.1   0.06429      11.1         H               192.8  0.041060  0.022357  0.000371  2.009978  0.656965  3.059489  1.051479     13.25    4.2157   24.2681   0.09451   5.08961   0.25537   0.01247  43.94861   4.54824     246.8  0.484951  0.000776  0.000070  0.000112  0.191908  7.129745  0.554376    108.57  1.000007  1.000000     2.286    11.369      81.3      83.8      48.8     234.1     11.13     -4.14     -1.90      3.71     -1.96      1.87      0.49      0.59      3.22     -0.72     -1.66     -1.82     -2.50     -1.81     -0.25     -1.69     -0.44      2.60     -1.10     -0.41
     -29.512283      67.713936     140.6      0.45      1.82     119.8         1         3      1000      3616    230.72   -16.369       7.4      37.1   250.273     0.547      47.8   0.06320      13.3         H               192.8  0.040454  0.021187  0.000395  1.914253  0.646654  2.960242  1.049640     14.55    4.1335   23.3714   0.09133   5.05464   0.25799   0.01290  42.47373   4.47945     242.2  0.484573  0.000767  0.000051  0.000112  0.192924  7.113635  0.551716    116.78  1.000017  1.000001     2.271    11.259      81.3      83.3      47.0     220.4     11.13     -4.45     -1.30      3.76     -1.77      1.98      0.83      0.29      2.98     -1.22     -2.28     -1.51     -2.85     -1.42      0.18     -1.95     -0.11      2.66     -2.08     -0.02
     -29.592913      67.817963     113.3      0.43      1.82     113.6         2         1      2446      1000    239.71   -16.203       7.1      36.3   250.006     0.547      53.4   0.06412       8.3         H               192.8  0.040028  0.022575  0.000415  2.037906  0.643309  3.167847  1.049998     12.59    4.3121   25.2485   0.09379   5.13022   0.25134   0.01203  45.76104   4.65198     251.7  0.483907  0.000806  0.000066  0.000116  0.193399  7.148137  0.552441    113.90  1.000021  1.000002     2.250    10.998      83.0      84.0      50.6     225.1     11.18     -4.81     -1.56      3.48     -1.68      1.50      0.36      1.17      3.24     -0.53     -1.89     -1.66     -2.93     -1.40      0.26     -1.88     -0.52      1.78     -1.92     -0.03
     -29.578691      67.757729     128.4      0.44      1.82     118.9         2         2      2446      2308    233.60   -16.315       7.2      36.7   250.397     0.549      49.6   0.06453      10.9         H               192.8  0.040729  0.022679  0.000412  2.035219  0.659979  3.083763  1.051134     14.65    4.1918   24.0049   0.09440   5.07950   0.25598   0.01259  43.47774   4.52645     245.5  0.484646  0.000692  0.000062  0.000115  0.195894  7.156399  0.553968    121.59  1.000014  1.000002     2.280    11.322      83.0      83.7      48.3     229.3     11.30     -4.55     -1.72      3.60     -2.05      1.66      0.18      0.61      3.31     -1.15     -1.67     -1.63     -2.85     -2.22     -0.14     -1.82     -0.65      1.86     -0.85     -1.03
     -29.564568      67.698036     127.1      0.44      1.82     116.7         2         3      2446      3616    225.99   -16.459       7.3      37.1   249.182     0.544      45.7   0.06263      10.6         H               192.8  0.039876  0.021043  0.000452  1.850111  0.651137  2.841354  1.046345     10.58    4.0389   22.2891   0.09043   5.01367   0.26192   0.01342  40.54677   4.38380     236.5  0.482047  0.000690  0.000050  0.000110  0.194200  7.117788  0.548356    119.41  0.999984  1.000000     2.240    10.927      81.3      82.9      45.0     220.7     11.23     -3.88     -2.31      3.26     -2.16      1.84      0.52      0.66      3.31     -0.69     -1.66     -1.71     -2.33     -1.65     -0.28     -2.61     -1.54      2.85     -1.66     -0.41
     -29.645208      67.802116     150.1      0.43      1.82     126.9         3         1      3892      1000    238.19   -16.231       7.0      36.3   250.351     0.548      51.9   0.06406      15.4         H               192.8  0.040445  0.022826  0.000450  2.062160  0.651568  3.164919  1.050849     15.80    4.2814   24.9524   0.09404   5.11737   0.25262   0.01217  45.21159   4.61970     250.3  0.484214  0.000799  0.000061  0.000116  0.193455  7.152933  0.553636    122.36  1.000019  1.000001     2.279    11.537      81.3      84.0      50.1     256.7     11.02     -4.71     -1.36      4.05     -2.31      1.17      0.74      0.39      3.17     -1.18     -1.80     -1.35     -3.38     -2.19     -0.19     -1.84     -0.20      0.95     -1.28     -0.79
     -29.630980      67.741844     263.2      0.49      1.82     128.3         3         2      3892      2308    226.86   -16.442       7.0      36.7   250.711     0.549      48.4   0.06445     137.4         H               192.8  0.040372  0.023669  0.000421  2.111546  0.661873  3.190260  1.051318     15.03    4.0580   22.6462   0.09423   5.02146   0.26217   0.01335  41.02439   4.39393     238.5  0.484399  0.000689  0.000049  0.000118  0.199637  7.194428  0.554588    119.76  0.999999  0.999999     2.280    11.339      83.0      83.1      45.6     218.4     11.49     -5.02     -1.60      3.43     -2.12      1.45     -0.26      1.16      2.98     -1.01     -1.76     -1.51     -3.44     -2.01     -0.01     -2.01     -0.89      1.80     -1.45     -0.43
     -29.616848      67.682121     272.5      0.43      1.82     140.3         3         3      3892      3616    217.78   -16.620       7.1      37.0   250.214     0.547      47.6   0.06257     100.0         H               192.8  0.040111  0.022159  0.000395  1.937576  0.640765  3.023849  1.049201     11.97    3.8762   20.8028   0.09061   4.94031   0.26943   0.01445  37.83572   4.22561     228.5  0.483584  0.000663  0.000054  0.000109  0.194781  7.134494  0.551707    117.75  0.999976  0.999999     2.270    11.300      83.0      82.2      42.0     209.5     11.37     -4.85     -2.50      3.01     -1.25      1.25     -0.16      1.50      2.80     -0.23     -0.92     -1.14     -3.28     -1.91      0.18     -2.48      0.38      2.19     -0.51     -0.68
