corner points
74.51494598    -3.111348629
74.47741699    -3.286336899
74.33620453    -3.07221818
74.29863739    -3.247160912
========== RESULTS WAVE VERSION 16.10.2018 ====================
IMAGE SIZE  X: 4476     Y:4782    col:row     POLARIZATION:VV
COVERAGE    X: 20.27311348km       Y: 19.85238943km 
RESOLUTION dX: 4.529292557m       dY:4.151482525m  
resolution of original product 4.529292557m x 4.151482525m;   raster step x:5996.783345m  
===============================================================
FLAGS: H=HIGH PROBABILITY SEA STATE, I=LAND(ISLAND), O=OUTLIER NO SEA STATE, N=NO WIND AVAILABLE, SEA STATE NOT VISIBLE, M=MEAN PROBABILITY SEA STATE, L= LOW PROBABILITY SEA STATE
Filtering wave length
 integration  Lmin=1m
 integration  Lmax=2200m
  peak        Lmin=100m
               FFT=1024pixels, 4637.995578m 
   mean-Hs (SWH_c)=0.7947001648m
         mean-wind=13.23230457m/s
--------------0--------------1---------2---------3---------4---------5---------6---------7---------8---------9--------10--------11--------12--------13--------14--------15--------16--------17--------18--------19------------------20--------21--------22--------23--------24--------25--------26--------27--------28--------29--------30--------31--------32--------33--------34--------35--------36--------37--------38--------39--------40--------41--------42--------43--------44--------45--------46--------47--------48--------49--------50--------51--------52--------53--------54--------55--------56--------57--------58--------59--------60--------61--------62--------63--------64--------65--------66--------67--------68--------69--------70--------71--------72--------73
            LAT            LON  P-LENGHT     SWH_o     SWH_c     P-DIR      LINE     POINT     ROW-Y     COL-X  M-INTENC        dB      WIND INC-ANGLE  ENERGY-M  ENERGY-N  ENERGY-R ENERGY-NN  FG-DEPTH      FLAG         HEADING-DEG    E30-75   E75-390  E390-600 meanincut   meanout   cut/out  STD-NORM  SPEC-MAX   GL-MEAN    GL-VAR      CORR   ENTROPY   HOMOGEN    ENERGY  CONTRAST  DISSIMIL     STD-O    E 1-30 E600-2000   E2000 >      GODA  LONG-HIG     Tmean  CONVOLUT  MEAN-DIR  relation     Sy/Sx  SKEWNESS  KURTOSIS  cutoff-A >50/10000     INT*V   INT-LOG  S-1_g1f1  S-2_g1f2  S-3_g1f3  S-4_g2f1  S-5_g2f2  S-6_g2f3  S-7_g3f1  S-8_g3f2  S-9_g3f3 S-10_g1f4 S-11_g2f4 S-12_g3f4 S-13_g1f5 S-14_g2f5 S-15_g3f5 S-16_g4f1 S-17_g4f2 S-18_g4f3 S-19_g4f4 S-20_g4f5
--------------1--------------2---------3---------4---------5---------6---------7---------8---------9--------10--------11--------12--------13--------14--------15--------16--------17--------18--------19--------20------------------21--------22--------23--------24--------25--------26--------27--------28--------29--------30--------31--------32--------33--------34--------35--------36--------37--------38--------39--------40--------41--------42--------43--------44--------45--------46--------47--------48--------49--------50--------51--------52--------53--------54--------55--------56--------57--------58--------59--------60--------61--------62--------63--------64--------65--------66--------67--------68--------69--------70--------71--------72--------73--------74
      -3.139107      74.466698     353.2      0.85      1.84     175.6         1         1      1000      1000    547.11   -12.619      13.3      36.8   221.432     0.566     105.3   0.07732     100.0         H               192.0  0.051461  0.014739  0.000527  1.432329  0.695029  2.060821  1.068239      7.51   10.3716  125.6595   0.11442   6.73653   0.13032   0.00238 222.56412  10.46400     584.4  0.498161  0.001491  0.000273  0.000133  0.159939  6.709075  0.571386     86.07  1.000103  1.000008     2.408    12.543      92.7      95.0     287.9     591.4     11.04      1.88     -1.32      2.29      1.51      3.10      2.87      0.87      0.01      1.77      1.77      0.70      0.19     -1.61      1.13     -6.55     -0.06      7.03      1.59     -3.22
      -3.127485      74.413620     303.0      0.75      1.84     176.3         1         2      1000      2324    510.70   -12.918      13.0      37.2   220.702     0.563      67.4   0.07547     100.0         H               192.0  0.050286  0.014310  0.000500  1.387122  0.686335  2.021057  1.064681      7.18    9.6725  110.8645   0.11122   6.61158   0.13752   0.00271 197.06900   9.81285     543.7  0.496752  0.001070  0.000121  0.000128  0.160381  6.711333  0.567441     85.39  1.000120  1.000010     2.400    12.715      92.7      94.4     248.0     574.9     10.99      1.18     -1.39      2.08      1.45      2.43      2.72      0.99      0.49      1.40      1.60      0.59     -0.05     -1.11      1.18     -6.55      0.46      5.35      2.06     -2.01
      -3.115961      74.360992     301.1      0.81      1.84     172.5         1         3      1000      3648    520.35   -12.837      13.4      37.6   219.409     0.559      43.5   0.07435     100.0         H               192.0  0.049857  0.014096  0.000522  1.347684  0.688429  1.957622  1.060280      7.52    9.8608  114.1953   0.10930   6.64803   0.13521   0.00261 203.42966   9.99047     551.7  0.493740  0.000759  0.000046  0.000126  0.163277  6.706394  0.563208     85.56  1.000110  1.000009     2.362    12.355      90.6      94.6     257.1     580.1     11.15      1.14     -1.31      2.25      1.54      3.20      2.73      0.85      0.37      1.40      1.94      0.53      0.19     -1.35      1.12     -6.73      0.74      6.35      2.19     -2.40
      -3.191992      74.455360     303.0      0.84      1.84     176.3         2         1      2445      1000    554.71   -12.559      13.4      36.8   219.355     0.561      71.6   0.07645     100.0         H               192.0  0.051047  0.014152  0.000479  1.377898  0.694377  1.984365  1.062727      6.89   10.5211  127.9028   0.11365   6.76424   0.12826   0.00231 226.73389  10.59240     589.5  0.494431  0.001102  0.000141  0.000129  0.159279  6.698982  0.565905     84.66  1.000106  1.000008     2.372    12.221      90.6      95.1     295.0     590.2     10.80      1.46     -1.21      2.71      1.56      2.86      3.09      1.04      0.30      1.37      1.88      1.16      0.12     -1.60      0.90     -5.92      0.42      5.89      1.58     -2.82
      -3.180367      74.402275     141.1      0.87      1.84      70.6         2         2      2445      2324    535.99   -12.708      13.4      37.2   221.278     0.565      91.3   0.07731      13.4         H               192.0  0.050553  0.014855  0.000527  1.428663  0.700090  2.040687  1.066577      9.09   10.1607  120.9886   0.11452   6.70015   0.13225   0.00248 214.26572  10.25931     571.6  0.497467  0.001674  0.000161  0.000126  0.164319  6.735661  0.569828     83.67  1.000084  1.000006     2.404    12.694      92.7      94.8     275.5     600.3     11.09      2.00     -0.96      2.48      1.78      3.24      2.97      1.14      0.38      1.54      2.47      0.85      0.20     -1.65      0.96     -6.47      0.23      6.76      2.77     -3.08
      -3.168838      74.349648     145.8      0.83      1.84      65.7         2         3      2445      3648    525.46   -12.795      13.5      37.6   219.457     0.561      78.7   0.07599      14.4         H               192.0  0.050266  0.014234  0.000559  1.373746  0.693499  1.980891  1.062541      7.00    9.9564  116.4355   0.11279   6.66427   0.13429   0.00257 206.60443  10.07077     558.3  0.494573  0.001212  0.000178  0.000128  0.160609  6.707963  0.565446     84.94  1.000104  1.000007     2.367    12.166      90.6      94.7     263.0     553.3     11.08      1.84     -1.19      2.14      1.45      2.40      2.85      0.96      0.07      1.37      2.21      0.68     -0.19     -1.23      0.73     -7.36     -0.32      5.20      2.77     -1.81
      -3.244877      74.444008     282.9      0.83      1.84     176.5         3         1      3890      1000    538.06   -12.692      13.1      36.8   219.641     0.562      81.6   0.07578     100.0         H               192.0  0.050475  0.014690  0.000548  1.418550  0.692422  2.048679  1.064099      6.75   10.2014  121.5380   0.11284   6.70812   0.13184   0.00245 215.64670  10.30189     572.5  0.495421  0.001149  0.000194  0.000124  0.162530  6.722745  0.567277     86.55  1.000126  1.000009     2.404    12.981      92.7      94.9     277.0     632.4     11.18      1.91     -1.15      2.17      1.36      2.52      2.69      0.88      0.56      1.49      1.76      0.65     -0.28     -1.41      1.02     -6.96     -0.38      4.92      1.69     -2.12
      -3.233247      74.390923     326.2      0.73      1.84     176.0         3         2      3890      2324    497.81   -13.029      12.9      37.2   219.550     0.559      50.4   0.07430     100.0         H               192.0  0.050115  0.013918  0.000470  1.358116  0.689251  1.970424  1.061096      9.59    9.4249  105.6384   0.11002   6.56490   0.14013   0.00285 188.03223   9.57652     528.2  0.494173  0.000762  0.000080  0.000121  0.159870  6.710328  0.563836     85.78  1.000106  1.000006     2.353    11.988      86.6      94.1     234.3     524.6     10.98      1.20     -1.77      2.38      1.83      3.18      2.90      0.82      0.54      1.71      1.45      0.61      0.51     -2.01      1.32     -6.32      1.24      6.57      1.09     -4.00
      -3.221715      74.338295     303.0      0.74      1.84     176.3         3         3      3890      3648    493.93   -13.063      13.0      37.6   220.345     0.561      89.1   0.07396     100.0         H               192.0  0.049619  0.013692  0.000470  1.315090  0.686727  1.915012  1.062576      6.89    9.3454  104.4037   0.10883   6.54908   0.14109   0.00290 186.08452   9.52207     524.8  0.495552  0.001339  0.000213  0.000126  0.159649  6.692771  0.565052     85.85  1.000101  1.000009     2.364    12.231      90.6      94.1     230.8     534.7     11.02      1.08     -1.43      2.30      1.27      2.49      2.50      0.52      0.23      1.27      1.16      0.28     -0.25     -0.79      0.75     -6.23      0.52      5.01      1.09     -0.81
