2           3     4         5       6       7       8      9     10      11      12        13      14      15      16      17      18      19          20      21      22      23      24      25      26      27      28      29     30       31       32         33      34       35       36        37        38         39      40     41         42       43       44       45       46       47       48      49        50       51      52      53      54  
  391.54   1.9   0.539    30.722   0.089   0.042   0.01   0.0   1.018   1.782   0.378     0.894   0.163   1.485   0.092   0.001   1.283   0.486     498.0     0.473   0.0     0.0     0.0     0.129   0.549   0.778   0.778   0.0   11.279   33.022   21.0        1.7    47.689   8.256   -18.931   -16.386   -16.511   -12.0     -8.0     -6.66    -8.0     -8.0     -12.967  -10.0     -6.0     -12.0   -10.0   -7.937   -50.0    -40.0   -30.0   -25.0   -22.0  
12000.0   31.54  2.0     1600.0    0.8     0.25    0.3    0.03  1.7   700.0    20.275   395.606   0.427   7.554   0.822   0.3   534.64   16.846   18267.344   1.2     0.025   0.005   0.001   0.305   2.0     1.001   1.0    25.0  250.0    281.111   99.167   1700.0  1693.3    18.982    19.066    18.783     8.628    16.607   19.037   13.019   13.834   10.472   14.123    14.223   7.699   12.111   11.579   7.862     4.858   40.0    50.0    25.0    25.0  
