corner points
-131.0787048    -0.04271416366
-131.1164703    0.1382434368
-130.9028778    -0.004959221464
-130.9406738    0.175965786
========== RESULTS WAVE VERSION 16.10.2018 ====================
IMAGE SIZE  X: 5471     Y:4933    col:row     POLARIZATION:VV
COVERAGE    X: 19.94993364km       Y: 20.50770027km 
RESOLUTION dX: 3.646487597m       dY:4.157247166m  
resolution of original product 3.646487597m x 4.157247166m;   raster step x:5998.472097m  
===============================================================
FLAGS: H=HIGH PROBABILITY SEA STATE, I=LAND(ISLAND), O=OUTLIER NO SEA STATE, N=NO WIND AVAILABLE, SEA STATE NOT VISIBLE, M=MEAN PROBABILITY SEA STATE, L= LOW PROBABILITY SEA STATE
Filtering wave length
 integration  Lmin=1m
 integration  Lmax=2200m
  peak        Lmin=100m
               FFT=1024pixels, 3734.0033m 
   mean-Hs (SWH_c)=1.064922104m
         mean-wind=6.210905552m/s
--------------0--------------1---------2---------3---------4---------5---------6---------7---------8---------9--------10--------11--------12--------13--------14--------15--------16--------17--------18--------19------------------20--------21--------22--------23--------24--------25--------26--------27--------28--------29--------30--------31--------32--------33--------34--------35--------36--------37--------38--------39--------40--------41--------42--------43--------44--------45--------46--------47--------48--------49--------50--------51--------52--------53--------54--------55--------56--------57--------58--------59--------60--------61--------62--------63--------64--------65--------66--------67--------68--------69--------70--------71--------72--------73
            LAT            LON  P-LENGHT     SWH_o     SWH_c     P-DIR      LINE     POINT     ROW-Y     COL-X  M-INTENC        dB      WIND INC-ANGLE  ENERGY-M  ENERGY-N  ENERGY-R ENERGY-NN  FG-DEPTH      FLAG         HEADING-DEG    E30-75   E75-390  E390-600 meanincut   meanout   cut/out  STD-NORM  SPEC-MAX   GL-MEAN    GL-VAR      CORR   ENTROPY   HOMOGEN    ENERGY  CONTRAST  DISSIMIL     STD-O    E 1-30 E600-2000   E2000 >      GODA  LONG-HIG     Tmean  CONVOLUT  MEAN-DIR  relation     Sy/Sx  SKEWNESS  KURTOSIS  cutoff-A >50/10000     INT*V   INT-LOG  S-1_g1f1  S-2_g1f2  S-3_g1f3  S-4_g2f1  S-5_g2f2  S-6_g2f3  S-7_g3f1  S-8_g3f2  S-9_g3f3 S-10_g1f4 S-11_g2f4 S-12_g3f4 S-13_g1f5 S-14_g2f5 S-15_g3f5 S-16_g4f1 S-17_g4f2 S-18_g4f3 S-19_g4f4 S-20_g4f5
--------------1--------------2---------3---------4---------5---------6---------7---------8---------9--------10--------11--------12--------13--------14--------15--------16--------17--------18--------19--------20------------------21--------22--------23--------24--------25--------26--------27--------28--------29--------30--------31--------32--------33--------34--------35--------36--------37--------38--------39--------40--------41--------42--------43--------44--------45--------46--------47--------48--------49--------50--------51--------52--------53--------54--------55--------56--------57--------58--------59--------60--------61--------62--------63--------64--------65--------66--------67--------68--------69--------70--------71--------72--------73--------74
       0.001050    -131.053406     276.7      1.14      2.64      12.8         1         1      1000      1000   2117.29    -6.742       5.9      23.7   419.351     0.710     113.8   0.15880     100.0         H               348.0  0.067411  0.056222  0.001916  3.860236  0.902842  4.275652  1.194433     98.25    3.7405   25.1102   0.25619   4.82422   0.31015   0.02034  37.35428   3.90579    2528.7  0.583807  0.001366  0.000034  0.000181  0.232004  7.420958  0.747615     28.61  0.999961  0.999997     3.076    19.931      78.1      78.9      46.0     290.1     14.09      3.52     -7.16     -2.46      1.47      6.67     -1.36     -0.74      3.93      0.11      1.66      1.95      0.43     -1.89      0.06    -10.41      0.59     10.62      0.61     -1.59
       0.012514    -131.000015     263.4      1.18      2.64       8.1         1         2      1000      2645   1959.21    -7.079       6.1      24.2   419.080     0.708     112.5   0.15802     142.4         H               348.0  0.065587  0.055848  0.002478  3.733881  0.879607  4.244942  1.194356     81.01    3.4423   21.6275   0.25490   4.67882   0.32641   0.02340  32.22935   3.62289    2339.9  0.583339  0.001551  0.000016  0.000178  0.234541  7.446370  0.745556     40.46  0.999890  0.999992     3.077    19.885      79.7      77.3      39.7     272.1     14.18      3.51     -7.27     -2.99      1.33      7.54     -0.44     -0.66      3.10      0.51      1.61      1.33      0.54     -2.00      0.78    -12.65     -0.26     13.71      1.45     -2.68
       0.023770    -130.947586     263.4      0.94      2.64       8.1         1         3      1000      4290   1745.19    -7.582       6.1      24.6   409.570     0.685     118.1   0.14754     142.4         H               348.0  0.062913  0.050451  0.002420  3.417179  0.844415  4.046800  1.172725     78.60    3.0293   16.7232   0.24555   4.46278   0.35017   0.02845  25.23416   3.22363    2046.6  0.567834  0.001707  0.000037  0.000174  0.230041  7.393685  0.719547     31.81  0.999900  0.999993     2.920    17.909      78.1      75.0      31.0     227.7     14.10      2.82     -7.64     -3.02      1.44      7.38     -0.47      0.28      2.98      0.89      1.23      1.05      1.12     -2.15     -0.29    -12.96     -0.93     13.50      1.25     -2.15
       0.053993    -131.064468     295.4      1.20      2.64     166.3         2         1      2443      1000   2197.90    -6.580       6.2      23.7   417.246     0.707     111.2   0.15793     100.0         H               348.0  0.066149  0.056026  0.002022  3.672722  0.889006  4.131269  1.191971     89.60    3.9186   27.1345   0.25549   4.90745   0.30148   0.01870  40.40385   4.07089    2619.7  0.581568  0.001261  0.000024  0.000184  0.235072  7.438527  0.743708    116.04  0.999974  0.999998     3.056    19.568      81.3      79.9      50.0     300.7     14.39      2.41     -7.27     -3.18      2.15      6.95     -1.25     -0.04      3.54      2.17      0.59      0.55     -0.47     -1.17      0.47    -11.58      0.65     11.70      0.41     -0.66
       0.065454    -131.011063     280.6      1.09      2.64       8.6         2         2      2443      2645   1995.54    -6.999       6.3      24.2   418.457     0.706     113.5   0.15590     100.0         H               348.0  0.065770  0.053791  0.002971  3.617435  0.888542  4.071202  1.191302     88.39    3.5104   22.2988   0.25233   4.71388   0.32260   0.02259  33.34432   3.68730    2377.1  0.581928  0.001558  0.000019  0.000175  0.230881  7.410770  0.742095     73.63  0.999893  0.999991     3.052    19.439      78.1      77.8      41.0     264.6     14.35      2.60     -7.62     -3.80      1.71      7.73      0.12      0.06      2.52      1.16      0.90      0.57      0.70     -1.86      0.04    -14.92     -0.18     14.89      1.37     -1.81
       0.076707    -130.958649     295.4      1.01      2.64     166.3         2         3      2443      4290   1801.26    -7.444       6.3      24.6   413.809     0.697     105.7   0.15282     100.0         H               348.0  0.065693  0.052261  0.002242  3.667546  0.872110  4.205370  1.183927     64.96    3.1253   17.9545   0.25081   4.51430   0.34476   0.02709  26.90285   3.31272    2132.6  0.575775  0.001273  0.000023  0.000172  0.228724  7.387338  0.732971     60.37  0.999986  0.999999     3.069    20.248      78.1      75.6      33.2     258.0     14.05      3.02     -6.72     -2.57      2.08      7.13     -0.39      0.13      3.07      1.40      1.40      1.27     -0.10     -1.33      0.11    -12.04     -0.07     12.27      0.99     -0.52
       0.106936    -131.075516     303.1      1.00      2.64       4.7         3         1      3886      1000   2255.64    -6.467       6.5      23.7   414.932     0.698      94.2   0.15351     100.0         H               348.0  0.065373  0.051096  0.001735  3.687963  0.874043  4.219429  1.183355     61.14    4.0347   28.1928   0.24987   4.96345   0.29359   0.01743  42.29700   4.18579    2669.2  0.579110  0.001115  0.000022  0.000169  0.224150  7.356759  0.733365     62.32  0.999972  0.999998     3.062    20.187      75.2      80.6      52.3     327.8     13.71      2.52     -6.36     -1.74      2.91      6.58     -0.53      0.06      3.47      1.74      1.07      1.32     -0.04     -1.52      0.24    -10.16      1.89     11.17      0.35     -1.10
       0.118393    -131.022125     316.7      1.09      2.64     165.3         3         2      3886      2645   2011.25    -6.965       6.3      24.2   417.364     0.703     114.3   0.15499     100.0         H               348.0  0.065773  0.053600  0.002664  3.617294  0.871177  4.152190  1.189474     89.41    3.5590   22.7824   0.25140   4.73890   0.31890   0.02194  34.10980   3.73520    2392.1  0.580280  0.001469  0.000023  0.000180  0.232141  7.396521  0.739468    103.26  0.999937  0.999996     3.034    19.311      79.7      78.1      41.9     281.6     14.51      2.04     -7.45     -3.97      2.19      7.73     -0.07      0.28      2.82      2.44      0.23      1.11      0.15     -1.22     -0.15    -14.72      0.30     13.52     -1.13      0.08
       0.129644    -130.969696     326.2      0.93      2.64     175.0         3         3      3886      4290   1780.39    -7.495       6.2      24.6   415.974     0.698     131.9   0.15264     100.0         H               348.0  0.065498  0.050882  0.002653  3.446830  0.875562  3.936705  1.186186     75.60    3.0839   17.5787   0.24979   4.49083   0.34716   0.02780  26.37563   3.27913    2112.0  0.577671  0.001720  0.000054  0.000170  0.229878  7.357479  0.733773     94.65  0.999950  0.999996     3.068    20.095      78.1      75.2      32.5     254.2     14.27      3.08     -7.13     -3.30      1.55      7.30     -0.08      0.32      2.93      1.80      0.96      0.69      0.54     -1.53     -0.26    -13.92     -0.95     12.69      0.49     -0.75
