corner points
-127.966774    -14.20683002
-128.0075226    -14.02647018
-127.7845612    -14.16641903
-127.8255157    -13.98611259
========== RESULTS WAVE VERSION 16.10.2018 ====================
IMAGE SIZE  X: 5471     Y:4928    col:row     POLARIZATION:VV
COVERAGE    X: 20.10165293km       Y: 20.48450984km 
RESOLUTION dX: 3.674219143m       dY:4.156759302m  
resolution of original product 3.674219143m x 4.156759302m;   raster step x:5999.99986m  
===============================================================
FLAGS: H=HIGH PROBABILITY SEA STATE, I=LAND(ISLAND), O=OUTLIER NO SEA STATE, N=NO WIND AVAILABLE, SEA STATE NOT VISIBLE, M=MEAN PROBABILITY SEA STATE, L= LOW PROBABILITY SEA STATE
Filtering wave length
 integration  Lmin=1m
 integration  Lmax=2200m
  peak        Lmin=100m
               FFT=1024pixels, 3762.400402m 
   mean-Hs (SWH_c)=0.9928709412m
         mean-wind=8.862962723m/s
--------------0--------------1---------2---------3---------4---------5---------6---------7---------8---------9--------10--------11--------12--------13--------14--------15--------16--------17--------18--------19------------------20--------21--------22--------23--------24--------25--------26--------27--------28--------29--------30--------31--------32--------33--------34--------35--------36--------37--------38--------39--------40--------41--------42--------43--------44--------45--------46--------47--------48--------49--------50--------51--------52--------53--------54--------55--------56--------57--------58--------59--------60--------61--------62--------63--------64--------65--------66--------67--------68--------69--------70--------71--------72--------73
            LAT            LON  P-LENGHT     SWH_o     SWH_c     P-DIR      LINE     POINT     ROW-Y     COL-X  M-INTENC        dB      WIND INC-ANGLE  ENERGY-M  ENERGY-N  ENERGY-R ENERGY-NN  FG-DEPTH      FLAG         HEADING-DEG    E30-75   E75-390  E390-600 meanincut   meanout   cut/out  STD-NORM  SPEC-MAX   GL-MEAN    GL-VAR      CORR   ENTROPY   HOMOGEN    ENERGY  CONTRAST  DISSIMIL     STD-O    E 1-30 E600-2000   E2000 >      GODA  LONG-HIG     Tmean  CONVOLUT  MEAN-DIR  relation     Sy/Sx  SKEWNESS  KURTOSIS  cutoff-A >50/10000     INT*V   INT-LOG  S-1_g1f1  S-2_g1f2  S-3_g1f3  S-4_g2f1  S-5_g2f2  S-6_g2f3  S-7_g3f1  S-8_g3f2  S-9_g3f3 S-10_g1f4 S-11_g2f4 S-12_g3f4 S-13_g1f5 S-14_g2f5 S-15_g3f5 S-16_g4f1 S-17_g4f2 S-18_g4f3 S-19_g4f4 S-20_g4f5
--------------1--------------2---------3---------4---------5---------6---------7---------8---------9--------10--------11--------12--------13--------14--------15--------16--------17--------18--------19--------20------------------21--------22--------23--------24--------25--------26--------27--------28--------29--------30--------31--------32--------33--------34--------35--------36--------37--------38--------39--------40--------41--------42--------43--------44--------45--------46--------47--------48--------49--------50--------51--------52--------53--------54--------55--------56--------57--------58--------59--------60--------61--------62--------63--------64--------65--------66--------67--------68--------69--------70--------71--------72--------73--------74
     -14.162661    -127.940895     353.1      1.04      2.66       5.4         1         1      1000      1000   2986.38    -5.249       8.8      23.5   402.434     0.748      92.7   0.17623     100.0         H               347.9  0.085901  0.051028  0.002404  4.590111  0.927045  4.951334  1.226903     66.68    5.4720   51.2843   0.26889   5.49928   0.24342   0.01066  74.98856   5.54785    3663.5  0.608408  0.001006  0.000021  0.000205  0.188124  7.077915  0.788384     81.28  1.000109  1.000013     3.343    24.372      92.7      85.2      97.1     488.4     13.37     -2.69     -4.68     -2.48      2.36      7.99      2.14      3.63      0.54      1.16      1.45      0.40      0.03     -1.66      3.45    -13.00      1.97     17.80      3.66     -5.68
     -14.150485    -127.885963     384.9      1.14      2.66       5.9         1         2      1000      2633   2758.46    -5.593       9.0      24.0   404.623     0.755      98.9   0.17982     100.0         H               347.9  0.085863  0.053411  0.002532  4.649231  0.937550  4.958916  1.231858     65.45    5.0160   44.2752   0.27208   5.33894   0.25957   0.01256  64.45757   5.11503    3397.7  0.612892  0.001016  0.000026  0.000200  0.194478  7.101626  0.796250     81.95  1.000104  1.000013     3.436    27.169      94.9      83.8      82.7     484.1     13.64     -3.30     -4.66     -2.88      2.88      7.67      1.86      3.39      0.56      1.61      0.66      1.02     -0.63     -1.87      3.31    -13.37      3.40     16.42      1.03     -5.48
     -14.138521    -127.832031     348.6      1.03      2.66      10.7         1         3      1000      4266   2435.57    -6.134       8.7      24.4   403.788     0.752     101.9   0.17951     100.0         H               347.9  0.085327  0.052195  0.002019  4.645793  0.929846  4.996304  1.229515     52.82    4.3750   34.7670   0.27072   5.09311   0.28321   0.01592  50.70903   4.51210    2994.5  0.612360  0.001035  0.000037  0.000202  0.191922  7.110545  0.792372     80.98  1.000143  1.000018     3.420    26.053      94.9      81.5      63.8     408.6     13.06     -2.80     -3.25     -1.23      3.02      7.06      1.66      3.77      1.41      1.54      1.43      1.39     -0.78     -1.12      3.70     -9.90      3.26     14.37      2.26     -4.28
     -14.109840    -127.952843     353.1      1.06      2.66       5.4         2         1      2443      1000   2997.74    -5.232       8.8      23.5   402.119     0.748      87.5   0.17734     100.0         H               347.9  0.085110  0.051176  0.001883  4.546135  0.928854  4.894347  1.226065     57.96    5.4994   51.3962   0.26807   5.50996   0.24200   0.01048  75.23714   5.56884    3675.1  0.609524  0.000899  0.000024  0.000199  0.189824  7.074911  0.787700     81.10  1.000112  1.000013     3.454    27.450      92.7      85.4      98.1     520.6     13.37     -3.11     -3.70     -1.72      1.98      6.85      0.97      4.08      1.13     -0.25      1.86      1.22     -0.74     -1.66      3.22    -10.23      1.25     14.07      3.89     -4.47
     -14.097671    -127.897926     348.6      1.13      2.66      10.7         2         2      2443      2633   2784.97    -5.552       9.1      24.0   405.729     0.753      91.5   0.17780     100.0         H               347.9  0.085000  0.052468  0.002269  4.633536  0.942013  4.918761  1.229711     63.05    5.0655   44.8301   0.26870   5.35883   0.25681   0.01220  65.56831   5.16103    3424.4  0.612661  0.000845  0.000029  0.000200  0.190203  7.093869  0.792518     81.94  1.000130  1.000013     3.451    26.084      92.7      84.1      84.2     462.3     13.42     -3.65     -3.43     -2.04      2.84      7.07      1.63      4.26      0.42      0.18      2.06      1.29     -1.15     -1.32      4.02    -11.55      2.61     15.75      3.86     -5.21
     -14.085711    -127.844025     298.3      0.91      2.66     134.5         2         3      2443      4266   2427.51    -6.148       8.6      24.4   400.450     0.741      96.1   0.17376     100.0         H               347.9  0.084898  0.049430  0.001415  4.447716  0.955898  4.652919  1.218955     43.38    4.3663   34.1634   0.26615   5.09403   0.28185   0.01567  50.14140   4.50626    2959.0  0.604664  0.001052  0.000050  0.000190  0.190381  7.067522  0.779813     82.38  1.000154  1.000016     3.351    24.699      90.6      81.7      63.0     399.5     12.90     -3.03     -2.41     -0.54      3.21      5.70      1.08      3.76      2.32      1.16      1.80      1.63     -1.84     -0.05      2.50     -7.59      3.57     10.47      2.46     -0.34
     -14.057020    -127.964783     384.9      0.96      2.66       5.9         3         1      3886      1000   3072.48    -5.125       9.1      23.5   397.015     0.729     102.1   0.16811     100.0         H               347.9  0.083475  0.047421  0.002109  4.167736  0.918874  4.535701  1.209895     58.80    5.6444   53.0694   0.26328   5.56158   0.23666   0.00983  78.19455   5.70083    3717.4  0.595726  0.001148  0.000047  0.000191  0.189292  7.042779  0.767949     83.70  1.000108  1.000012     3.242    22.822      90.6      86.0     101.3     483.6     13.57     -3.65     -4.21     -2.37      2.03      6.71      1.10      3.96      0.25      0.04      1.53      0.23     -1.38     -1.56      3.32    -12.48      1.57     14.62      4.11     -4.61
     -14.044854    -127.909882     353.1      0.88      2.66       5.4         3         2      3886      2633   2727.90    -5.642       8.9      24.0   399.094     0.736     100.4   0.17123     100.0         H               347.9  0.085610  0.047541  0.001873  4.287836  0.931570  4.602806  1.215936     45.52    4.9650   42.7448   0.26528   5.32594   0.25902   0.01251  62.81097   5.07137    3317.0  0.600567  0.001147  0.000051  0.000193  0.188205  7.042830  0.774707     82.36  1.000140  1.000016     3.252    22.395      90.6      83.8      79.7     424.0     13.21     -3.47     -3.50     -1.63      3.19      6.60      1.53      3.25      1.00      1.65      0.78      1.47     -0.95     -0.81      2.83    -10.84      4.55     13.59      0.65     -3.04
     -14.032899    -127.855995     384.9      0.78      2.66       5.9         3         3      3886      4266   2431.58    -6.141       8.6      24.4   396.791     0.726      86.4   0.16599     100.0         H               347.9  0.082606  0.045869  0.001545  4.285646  0.896510  4.780365  1.208906     39.60    4.3835   33.8957   0.25941   5.10447   0.28008   0.01543  50.20574   4.52660    2939.6  0.595706  0.001011  0.000033  0.000194  0.184309  7.022616  0.763218     83.24  1.000143  1.000015     3.237    22.192      92.7      81.8      62.7     360.3     12.95     -2.78     -3.05     -0.78      2.53      6.58      1.40      2.93      1.06      1.38      0.67      1.02     -0.54     -1.03      3.06     -9.26      2.94     13.45      0.94     -3.46
