corner points
-101.6669159    -64.26933289
-101.8660507    -64.11492157
-101.2991409    -64.17763519
-101.4997482    -64.02371216
========== RESULTS WAVE VERSION 16.10.2018 ====================
IMAGE SIZE  X: 4376     Y:4765    col:row     POLARIZATION:VV
COVERAGE    X: 20.45181844km       Y: 19.64857859km 
RESOLUTION dX: 4.673633098m       dY:4.123521214m  
resolution of original product 4.673633098m x 4.123521214m;   raster step x:5996.271265m  
===============================================================
FLAGS: H=HIGH PROBABILITY SEA STATE, I=LAND(ISLAND), O=OUTLIER NO SEA STATE, N=NO WIND AVAILABLE, SEA STATE NOT VISIBLE, M=MEAN PROBABILITY SEA STATE, L= LOW PROBABILITY SEA STATE
Filtering wave length
 integration  Lmin=1m
 integration  Lmax=2200m
  peak        Lmin=100m
               FFT=1024pixels, 4785.800293m 
   mean-Hs (SWH_c)=1.883317108m
         mean-wind=12.12551498m/s
--------------0--------------1---------2---------3---------4---------5---------6---------7---------8---------9--------10--------11--------12--------13--------14--------15--------16--------17--------18--------19------------------20--------21--------22--------23--------24--------25--------26--------27--------28--------29--------30--------31--------32--------33--------34--------35--------36--------37--------38--------39--------40--------41--------42--------43--------44--------45--------46--------47--------48--------49--------50--------51--------52--------53--------54--------55--------56--------57--------58--------59--------60--------61--------62--------63--------64--------65--------66--------67--------68--------69--------70--------71--------72--------73
            LAT            LON  P-LENGHT     SWH_o     SWH_c     P-DIR      LINE     POINT     ROW-Y     COL-X  M-INTENC        dB      WIND INC-ANGLE  ENERGY-M  ENERGY-N  ENERGY-R ENERGY-NN  FG-DEPTH      FLAG         HEADING-DEG    E30-75   E75-390  E390-600 meanincut   meanout   cut/out  STD-NORM  SPEC-MAX   GL-MEAN    GL-VAR      CORR   ENTROPY   HOMOGEN    ENERGY  CONTRAST  DISSIMIL     STD-O    E 1-30 E600-2000   E2000 >      GODA  LONG-HIG     Tmean  CONVOLUT  MEAN-DIR  relation     Sy/Sx  SKEWNESS  KURTOSIS  cutoff-A >50/10000     INT*V   INT-LOG  S-1_g1f1  S-2_g1f2  S-3_g1f3  S-4_g2f1  S-5_g2f2  S-6_g2f3  S-7_g3f1  S-8_g3f2  S-9_g3f3 S-10_g1f4 S-11_g2f4 S-12_g3f4 S-13_g1f5 S-14_g2f5 S-15_g3f5 S-16_g4f1 S-17_g4f2 S-18_g4f3 S-19_g4f4 S-20_g4f5
--------------1--------------2---------3---------4---------5---------6---------7---------8---------9--------10--------11--------12--------13--------14--------15--------16--------17--------18--------19--------20------------------21--------22--------23--------24--------25--------26--------27--------28--------29--------30--------31--------32--------33--------34--------35--------36--------37--------38--------39--------40--------41--------42--------43--------44--------45--------46--------47--------48--------49--------50--------51--------52--------53--------54--------55--------56--------57--------58--------59--------60--------61--------62--------63--------64--------65--------66--------67--------68--------69--------70--------71--------72--------73--------74
     -64.215836    -101.623672     263.8      2.04      3.40      55.8         1         1      1000      1000    532.48   -12.737      12.0      35.5   311.928     0.586      82.5   0.08836     169.3         H               338.2  0.049640  0.033501  0.001079  2.026489  0.742626  2.728815  1.086577    115.53   10.0804  122.7886   0.13844   6.67805   0.13599   0.00262 211.57864  10.12861     578.5  0.501965  0.000624  0.000083  0.000200  0.243688  7.319522  0.591990     55.36  1.000123  1.000009     2.494    13.471     117.4      94.5     278.0     629.3     16.40     12.99      5.55     -3.76     -4.83      0.24     -4.74     -6.07     -3.25      7.73     -1.04     -4.11     -6.24      3.66      3.38    -10.92     -8.65     -0.24     -2.80      5.29
     -64.188904    -101.515411     289.6      1.81      3.40      51.9         1         2      1000      2283    498.15   -13.026      11.7      35.8   310.246     0.582      77.1   0.08641     100.0         H               338.2  0.049130  0.031023  0.001114  2.110509  0.741221  2.847342  1.082031     82.23    9.4183  108.8063   0.13528   6.55622   0.14338   0.00297 188.17369   9.51238     539.0  0.500315  0.000680  0.000071  0.000162  0.234011  7.258332  0.586831     55.57  1.000138  1.000011     2.475    13.525     107.8      93.9     240.5     595.7     15.89     12.05      4.73     -3.40     -4.83      0.23     -3.61     -4.78     -2.19      6.51     -1.04     -2.74     -5.90      3.15      3.20    -11.23     -9.53     -0.15     -2.72      5.23
     -64.162140    -101.408348     273.0      1.60      3.40      58.8         1         3      1000      3566    476.01   -13.224      11.7      36.2   307.196     0.574      62.1   0.08252     100.0         H               338.2  0.048839  0.028396  0.001068  2.000531  0.727383  2.750314  1.074419     78.07    8.9903   99.2867   0.13071   6.47311   0.14807   0.00321 172.61740   9.10849     511.4  0.495360  0.000514  0.000041  0.000153  0.228127  7.207195  0.578186     55.09  1.000133  1.000010     2.425    12.719     107.8      93.5     216.4     520.7     15.72     11.18      3.71     -3.53     -4.49      0.67     -3.35     -4.99     -2.05      5.34     -0.75     -2.51     -5.97      3.31      3.44    -11.46     -7.98      0.77     -1.91      4.74
     -64.168724    -101.684685     289.6      2.03      3.40      51.9         2         1      2455      1000    560.40   -12.515      12.4      35.5   310.661     0.583      69.5   0.08714     100.0         H               338.2  0.049280  0.031876  0.001188  2.079566  0.740826  2.807090  1.083083     97.06   10.6194  133.6015   0.13684   6.77282   0.13009   0.00236 230.63864  10.62474     606.9  0.500279  0.000542  0.000032  0.000177  0.239758  7.281363  0.587947     52.55  1.000128  1.000011     2.468    13.243     110.8      95.1     308.4     662.2     16.37     12.73      4.77     -4.54     -6.19      0.13     -3.67     -4.43     -2.44      6.17     -1.02     -2.93     -6.90      4.57      2.57    -12.83    -11.84     -0.37     -2.62      7.96
     -64.141830    -101.576561     301.9      1.89      3.40      55.1         2         2      2455      2283    523.09   -12.814      12.1      35.8   308.278     0.578      71.2   0.08636     100.0         H               338.2  0.049221  0.031002  0.001152  2.065428  0.743500  2.777977  1.078460     84.51    9.9008  117.7280   0.13649   6.64769   0.13784   0.00269 203.31963   9.93245     564.1  0.496520  0.000610  0.000048  0.000166  0.235257  7.266356  0.583171     56.49  1.000122  1.000010     2.462    13.168     107.8      94.5     265.1     585.3     16.06     11.89      4.93     -3.55     -4.38      0.58     -3.72     -4.94     -2.69      6.98     -1.02     -3.48     -5.39      2.94      2.88    -11.66     -8.84      0.44     -2.47      4.81
     -64.115112    -101.469627     286.9      1.89      3.40      57.1         2         3      2455      3566    503.57   -12.979      12.2      36.2   310.009     0.581      69.9   0.08602     100.0         H               338.2  0.048932  0.031169  0.001265  2.113706  0.737390  2.866468  1.081113     92.62    9.5231  110.6637   0.13547   6.57647   0.14221   0.00291 191.34250   9.60199     544.4  0.499339  0.000578  0.000042  0.000172  0.236175  7.276225  0.585933     57.74  1.000148  1.000011     2.469    13.220     110.8      94.0     245.6     580.7     16.08     12.24      5.49     -3.65     -4.94     -0.04     -3.34     -4.46     -2.38      7.37     -1.33     -3.18     -6.04      3.39      2.94    -12.46    -10.27     -1.43     -3.33      5.89
     -64.121582    -101.745499     301.9      1.82      3.40      55.1         3         1      3910      1000    559.57   -12.521      12.4      35.5   308.403     0.577      61.3   0.08548     100.0         H               338.2  0.049346  0.029081  0.001112  1.998967  0.736785  2.713094  1.077855     86.44   10.6048  132.1287   0.13303   6.77221   0.12962   0.00234 229.10318  10.60952     603.1  0.497533  0.000499  0.000029  0.000163  0.230479  7.218726  0.581469     57.47  1.000131  1.000012     2.459    13.255     105.0      95.1     305.8     656.7     15.71     11.89      4.75     -3.07     -4.52      0.37     -3.28     -5.00     -2.42      6.62     -1.00     -3.27     -6.48      3.17      3.60    -11.44     -8.94     -0.09     -2.51      5.24
     -64.094734    -101.637505     286.9      2.04      3.40      57.1         3         2      3910      2283    543.66   -12.647      12.4      35.8   309.012     0.581      64.6   0.08704     100.0         H               338.2  0.048992  0.032112  0.001295  1.976045  0.736541  2.682870  1.081106    109.38   10.2968  126.4258   0.13605   6.71840   0.13328   0.00250 218.45090  10.31571     587.7  0.498401  0.000466  0.000018  0.000200  0.240628  7.307846  0.585951     54.90  1.000134  1.000011     2.474    13.545     114.0      94.8     288.7     650.9     16.31     13.77      4.64     -4.30     -6.02     -0.12     -3.74     -5.23     -2.04      7.09     -1.43     -3.04     -8.42      4.58      3.97    -12.82    -11.91     -1.25     -3.89      7.72
     -64.068062    -101.530701     276.3      1.84      3.40      53.9         3         3      3910      3566    505.92   -12.959      12.2      36.2   309.392     0.578      80.0   0.08507     100.0         H               338.2  0.048352  0.030160  0.001217  1.982781  0.734267  2.700355  1.078609    102.68    9.5695  111.2884   0.13307   6.58613   0.14118   0.00286 192.95911   9.65334     545.7  0.498069  0.000763  0.000074  0.000183  0.234562  7.268564  0.582670     54.14  1.000130  1.000010     2.449    12.952     110.8      94.0     247.3     560.3     15.97     12.87      4.29     -3.81     -5.02      0.28     -3.37     -5.55     -1.93      6.67     -1.22     -2.75     -7.58      3.72      3.93    -12.16     -9.31     -0.43     -3.49      6.07
