corner points
-126.0810928    -14.70868301
-126.122673    -14.53410339
-125.9006119    -14.66717625
-125.9423523    -14.49265575
========== RESULTS WAVE VERSION 16.10.2018 ====================
IMAGE SIZE  X: 4376     Y:4785    col:row     POLARIZATION:VV
COVERAGE    X: 19.9075794km       Y: 19.87549582km 
RESOLUTION dX: 4.549264031m       dY:4.153708636m  
resolution of original product 4.549264031m x 4.153708636m;   raster step x:5995.929993m  
===============================================================
FLAGS: H=HIGH PROBABILITY SEA STATE, I=LAND(ISLAND), O=OUTLIER NO SEA STATE, N=NO WIND AVAILABLE, SEA STATE NOT VISIBLE, M=MEAN PROBABILITY SEA STATE, L= LOW PROBABILITY SEA STATE
Filtering wave length
 integration  Lmin=1m
 integration  Lmax=2200m
  peak        Lmin=100m
               FFT=1024pixels, 4658.446368m 
   mean-Hs (SWH_c)=1.310124054m
         mean-wind=11.81872368m/s
--------------0--------------1---------2---------3---------4---------5---------6---------7---------8---------9--------10--------11--------12--------13--------14--------15--------16--------17--------18--------19------------------20--------21--------22--------23--------24--------25--------26--------27--------28--------29--------30--------31--------32--------33--------34--------35--------36--------37--------38--------39--------40--------41--------42--------43--------44--------45--------46--------47--------48--------49--------50--------51--------52--------53--------54--------55--------56--------57--------58--------59--------60--------61--------62--------63--------64--------65--------66--------67--------68--------69--------70--------71--------72--------73
            LAT            LON  P-LENGHT     SWH_o     SWH_c     P-DIR      LINE     POINT     ROW-Y     COL-X  M-INTENC        dB      WIND INC-ANGLE  ENERGY-M  ENERGY-N  ENERGY-R ENERGY-NN  FG-DEPTH      FLAG         HEADING-DEG    E30-75   E75-390  E390-600 meanincut   meanout   cut/out  STD-NORM  SPEC-MAX   GL-MEAN    GL-VAR      CORR   ENTROPY   HOMOGEN    ENERGY  CONTRAST  DISSIMIL     STD-O    E 1-30 E600-2000   E2000 >      GODA  LONG-HIG     Tmean  CONVOLUT  MEAN-DIR  relation     Sy/Sx  SKEWNESS  KURTOSIS  cutoff-A >50/10000     INT*V   INT-LOG  S-1_g1f1  S-2_g1f2  S-3_g1f3  S-4_g2f1  S-5_g2f2  S-6_g2f3  S-7_g3f1  S-8_g3f2  S-9_g3f3 S-10_g1f4 S-11_g2f4 S-12_g3f4 S-13_g1f5 S-14_g2f5 S-15_g3f5 S-16_g4f1 S-17_g4f2 S-18_g4f3 S-19_g4f4 S-20_g4f5
--------------1--------------2---------3---------4---------5---------6---------7---------8---------9--------10--------11--------12--------13--------14--------15--------16--------17--------18--------19--------20------------------21--------22--------23--------24--------25--------26--------27--------28--------29--------30--------31--------32--------33--------34--------35--------36--------37--------38--------39--------40--------41--------42--------43--------44--------45--------46--------47--------48--------49--------50--------51--------52--------53--------54--------55--------56--------57--------58--------59--------60--------61--------62--------63--------64--------65--------66--------67--------68--------69--------70--------71--------72--------73--------74
     -14.662614    -126.048080     381.5      1.15      2.71       9.4         1         1      1000      1000    422.51   -13.742      11.2      36.7   234.182     0.581     133.4   0.08128     100.0         H               347.9  0.049961  0.024574  0.001005  2.313865  0.696707  3.321147  1.081358     17.42    7.9405   80.5348   0.12541   6.24329   0.16336   0.00408 140.86909   8.15843     456.9  0.503181  0.001998  0.000265  0.000144  0.182015  6.998099  0.588692     78.54  1.000089  1.000006     2.467    13.135     107.8      92.2     169.6     462.7     12.57     -2.36     -2.07     -1.06      2.99      5.56      2.81      3.32      0.26      0.83      1.59      1.91     -0.79     -0.29      2.77    -11.01      3.67     12.38      2.16     -2.04
     -14.650076    -125.993530     381.5      1.38      2.71       9.4         1         2      1000      2318    466.25   -13.314      12.2      37.0   233.732     0.581     132.7   0.08353     100.0         H               347.9  0.050319  0.025078  0.001506  2.323153  0.710502  3.269735  1.082259     34.42    8.7986   96.9094   0.12944   6.43194   0.15104   0.00338 168.73126   8.97100     504.6  0.502813  0.001829  0.000285  0.000153  0.182456  7.003123  0.589817     75.98  1.000045  1.000004     2.448    12.857     107.8      93.1     209.0     531.3     12.83     -0.51     -4.07     -2.47      2.18      7.98      4.50      2.61     -0.88      0.65      2.74      1.63      0.95     -2.23      3.56    -15.98      2.07     19.53      4.53     -7.18
     -14.637634    -125.939461     385.3      1.36      2.71       4.7         1         3      1000      3636    459.06   -13.381      12.4      37.4   232.939     0.579      94.4   0.08214     100.0         H               347.9  0.050068  0.024516  0.001122  2.305978  0.706107  3.265765  1.079618     26.82    8.6576   93.6354   0.12687   6.40330   0.15283   0.00346 163.51146   8.82966     495.6  0.502314  0.001392  0.000161  0.000158  0.180714  6.998780  0.587285     78.25  1.000085  1.000005     2.454    13.010     107.8      93.1     201.6     509.1     12.47     -1.00     -2.73     -1.07      2.73      6.89      3.87      3.29      0.20      0.97      2.64      1.95      0.28     -1.05      3.12    -11.97      2.29     15.44      4.09     -4.38
     -14.609923    -126.060646     385.3      0.84      2.71     175.3         2         1      2444      1000    344.02   -14.634       9.7      36.7   237.055     0.591     317.7   0.08299     100.0         H               347.9  0.049791  0.024359  0.001750  2.217244  0.694882  3.190819  1.092250     29.84    6.3859   55.3054   0.12888   5.83844   0.19384   0.00619  96.35446   6.67155     375.7  0.509814  0.004974  0.000803  0.000140  0.184210  6.993430  0.600801     79.08  1.000053  1.000003     2.571    14.478     124.8      89.4     111.5     414.5     13.09     -2.15     -2.63     -3.17      3.16      6.00      4.65      1.80      0.11      1.41      0.67      1.84      1.15     -1.26      3.01    -18.39      5.68     14.03     -0.16     -5.31
     -14.597391    -126.006111     385.3      1.50      2.71       4.7         2         2      2444      2318    466.80   -13.309      12.2      37.0   234.405     0.585     114.0   0.08422     100.0         H               347.9  0.050773  0.026810  0.001493  2.467125  0.706678  3.491156  1.085151     44.08    8.8078   97.4168   0.13073   6.43315   0.15123   0.00338 169.36302   8.97587     506.5  0.504110  0.001581  0.000206  0.000166  0.183652  7.025028  0.593360     77.03  1.000033  1.000003     2.470    13.036     110.8      93.2     210.1     527.4     12.64     -0.54     -3.81     -2.04      2.40      8.33      4.75      2.77     -0.03      1.02      2.67      1.93      1.82     -2.50      3.70    -14.43      2.52     19.19      4.09     -7.92
     -14.584954    -125.952057     381.5      1.52      2.71       9.4         2         3      2444      3636    489.29   -13.104      12.9      37.4   233.274     0.582      81.3   0.08427     100.0         H               347.9  0.050460  0.025331  0.001222  2.355637  0.704951  3.341561  1.082528     24.94    9.2455  105.3639   0.13017   6.52294   0.14522   0.00307 183.29704   9.38047     529.7  0.504604  0.000963  0.000156  0.000153  0.183766  7.014513  0.590619     76.90  1.000095  1.000007     2.471    13.085     107.8      93.8     231.6     537.2     12.65     -1.46     -2.54     -1.53      3.04      6.62      3.73      2.77      0.22      1.55      1.77      1.89     -0.35     -0.37      3.16    -12.58      3.66     15.10      2.45     -3.21
     -14.557232    -126.073204     381.5      1.17      2.71       9.4         3         1      3888      1000    421.50   -13.752      11.1      36.7   238.356     0.598     443.5   0.08749     100.0         H               347.9  0.051394  0.025257  0.001645  2.323309  0.706463  3.288648  1.099466     41.33    7.9162   82.3026   0.13819   6.23303   0.16558   0.00421 141.85950   8.13603     463.4  0.512828  0.005421  0.001424  0.000154  0.182464  7.007267  0.607702     76.34  0.999968  0.999997     2.569    14.127     124.8      91.9     172.3     491.7     13.02     -0.55     -4.13     -2.75      1.50      8.17      4.57      3.11     -1.43      0.28      2.87      1.03      1.72     -3.02      3.95    -17.33      0.33     20.32      5.33    -10.46
     -14.544704    -126.018684     385.3      1.47      2.71       4.7         3         2      3888      2318    466.94   -13.307      12.2      37.0   235.052     0.588     129.9   0.08651     100.0         H               347.9  0.051338  0.026479  0.001469  2.434874  0.716389  3.398817  1.088740     33.22    8.8084   97.7077   0.13397   6.43259   0.15138   0.00339 169.23660   8.97050     508.3  0.507416  0.001827  0.000285  0.000160  0.185436  7.033616  0.597649     78.40  1.000058  1.000005     2.515    13.731     110.8      93.1     211.3     556.7     12.84     -0.80     -3.19     -2.12      2.55      7.35      4.35      2.71      0.04      1.12      2.19      2.10      0.90     -1.78      3.41    -14.74      2.25     16.92      2.58     -6.35
     -14.532273    -125.964645     385.3      1.39      2.71       4.7         3         3      3888      3636    460.00   -13.372      12.4      37.4   233.525     0.580      69.8   0.08264     100.0         H               347.9  0.050669  0.024924  0.001059  2.358289  0.717175  3.288304  1.080891     25.04    8.6756   94.0025   0.12660   6.40696   0.15256   0.00345 164.20328   8.85221     497.2  0.503087  0.001001  0.000093  0.000156  0.178288  6.992671  0.588385     77.96  1.000089  1.000008     2.475    13.360     107.8      93.2     202.9     527.4     12.01     -1.19     -2.46     -0.28      3.09      6.50      4.10      2.80      0.54      1.58      2.21      2.18     -0.14     -0.82      3.37    -10.45      3.87     14.94      2.64     -4.15
