corner points
-124.7614746    -19.99089622
-124.8059158    -19.81683731
-124.5757217    -19.94758797
-124.6203842    -19.77359581
========== RESULTS WAVE VERSION 16.10.2018 ====================
IMAGE SIZE  X: 4376     Y:4782    col:row     POLARIZATION:VV
COVERAGE    X: 19.95481103km       Y: 19.85913131km 
RESOLUTION dX: 4.560057365m       dY:4.152892369m  
resolution of original product 4.560057365m x 4.152892369m;   raster step x:5996.475435m  
===============================================================
FLAGS: H=HIGH PROBABILITY SEA STATE, I=LAND(ISLAND), O=OUTLIER NO SEA STATE, N=NO WIND AVAILABLE, SEA STATE NOT VISIBLE, M=MEAN PROBABILITY SEA STATE, L= LOW PROBABILITY SEA STATE
Filtering wave length
 integration  Lmin=1m
 integration  Lmax=2200m
  peak        Lmin=100m
               FFT=1024pixels, 4669.498742m 
   mean-Hs (SWH_c)=1.104456024m
         mean-wind=10.00082397m/s
--------------0--------------1---------2---------3---------4---------5---------6---------7---------8---------9--------10--------11--------12--------13--------14--------15--------16--------17--------18--------19------------------20--------21--------22--------23--------24--------25--------26--------27--------28--------29--------30--------31--------32--------33--------34--------35--------36--------37--------38--------39--------40--------41--------42--------43--------44--------45--------46--------47--------48--------49--------50--------51--------52--------53--------54--------55--------56--------57--------58--------59--------60--------61--------62--------63--------64--------65--------66--------67--------68--------69--------70--------71--------72--------73
            LAT            LON  P-LENGHT     SWH_o     SWH_c     P-DIR      LINE     POINT     ROW-Y     COL-X  M-INTENC        dB      WIND INC-ANGLE  ENERGY-M  ENERGY-N  ENERGY-R ENERGY-NN  FG-DEPTH      FLAG         HEADING-DEG    E30-75   E75-390  E390-600 meanincut   meanout   cut/out  STD-NORM  SPEC-MAX   GL-MEAN    GL-VAR      CORR   ENTROPY   HOMOGEN    ENERGY  CONTRAST  DISSIMIL     STD-O    E 1-30 E600-2000   E2000 >      GODA  LONG-HIG     Tmean  CONVOLUT  MEAN-DIR  relation     Sy/Sx  SKEWNESS  KURTOSIS  cutoff-A >50/10000     INT*V   INT-LOG  S-1_g1f1  S-2_g1f2  S-3_g1f3  S-4_g2f1  S-5_g2f2  S-6_g2f3  S-7_g3f1  S-8_g3f2  S-9_g3f3 S-10_g1f4 S-11_g2f4 S-12_g3f4 S-13_g1f5 S-14_g2f5 S-15_g3f5 S-16_g4f1 S-17_g4f2 S-18_g4f3 S-19_g4f4 S-20_g4f5
--------------1--------------2---------3---------4---------5---------6---------7---------8---------9--------10--------11--------12--------13--------14--------15--------16--------17--------18--------19--------20------------------21--------22--------23--------24--------25--------26--------27--------28--------29--------30--------31--------32--------33--------34--------35--------36--------37--------38--------39--------40--------41--------42--------43--------44--------45--------46--------47--------48--------49--------50--------51--------52--------53--------54--------55--------56--------57--------58--------59--------60--------61--------62--------63--------64--------65--------66--------67--------68--------69--------70--------71--------72--------73--------74
     -19.944502    -124.727844     282.3      1.04      2.61     142.8         1         1      1000      1000    363.88   -14.390      10.0      36.6   242.328     0.587      99.3   0.08248     100.0         H               347.7  0.051594  0.026641  0.000710  2.601466  0.700924  3.711480  1.087362     28.83    6.7841   61.2772   0.12628   5.95105   0.18473   0.00552 107.07899   7.05405     395.6  0.507092  0.001173  0.000226  0.000163  0.182845  7.006307  0.595572     81.81  1.000126  1.000009     2.506    13.461     117.4      90.2     124.8     397.0     12.82     -5.46     -0.10     -0.03      3.25      3.55      0.21      4.36      0.74      0.53      0.33      1.80     -3.75      1.61      3.50     -7.23      4.88      6.34      1.07      1.48
     -19.931450    -124.671829     287.1      1.02      2.61     132.5         1         2      1000      2315    334.19   -14.760       9.7      36.9   242.872     0.588      74.0   0.08246     100.0         H               347.7  0.051476  0.027359  0.000893  2.558468  0.695429  3.678977  1.088190     43.34    6.1912   52.0929   0.12597   5.78172   0.19818   0.00656  91.06113   6.48476     363.6  0.507816  0.000997  0.000093  0.000159  0.185912  7.022107  0.596884     86.69  1.000131  1.000009     2.515    13.632     117.4      89.0     104.5     374.9     13.45     -5.96     -0.22     -1.24      3.63      3.50      0.14      4.12     -0.22     -0.64      0.67      1.43     -3.99      1.61      3.87     -9.64      4.90      7.60      1.63      0.46
     -19.918495    -124.616318     267.9      1.09      2.61     145.0         1         3      1000      3630    348.86   -14.573      10.3      37.3   240.997     0.583      77.5   0.08084     100.0         H               347.7  0.050798  0.026679  0.001000  2.564550  0.700173  3.662736  1.083507     24.70    6.4862   56.1424   0.12471   5.86894   0.19084   0.00598  98.28245   6.76105     378.0  0.503837  0.001000  0.000115  0.000158  0.183997  7.007787  0.591701     81.77  1.000129  1.000009     2.494    13.525     114.0      89.7     113.7     398.2     13.11     -4.99     -0.76     -0.92      2.97      4.53      1.11      4.36     -0.26     -0.05      0.85      1.71     -2.61      0.86      3.93    -10.17      3.69     10.13      2.12     -0.70
     -19.891935    -124.741287     252.5      1.13      2.61     130.8         2         1      2444      1000    367.22   -14.351      10.1      36.6   241.447     0.587     109.4   0.08262      76.6         H               347.7  0.050579  0.027454  0.000802  2.593633  0.710036  3.652818  1.086971     34.44    6.8503   62.2942   0.12796   5.96875   0.18382   0.00543 108.64479   7.11217     399.1  0.506421  0.001497  0.000223  0.000163  0.187379  7.054002  0.595612     84.91  1.000136  1.000011     2.503    13.654     114.0      90.4     127.1     427.8     12.99     -5.71     -0.29     -0.30      3.15      3.48     -0.07      4.88      0.69     -0.06      0.79      2.20     -4.16      1.32      4.49     -7.45      4.11      7.19      1.03      0.53
     -19.878891    -124.685295     262.0      1.13      2.61     137.7         2         2      2444      2315    347.11   -14.595      10.0      36.9   241.540     0.586      70.7   0.08202     116.4         H               347.7  0.050695  0.027793  0.000879  2.735343  0.699565  3.910065  1.085737     28.73    6.4485   55.9023   0.12697   5.85713   0.19232   0.00610  97.60884   6.73220     376.9  0.505763  0.000920  0.000104  0.000177  0.180951  7.046876  0.594572     80.42  1.000137  1.000011     2.476    13.224     117.4      89.5     112.8     388.2     12.61     -4.59     -0.55     -0.20      2.31      3.97      1.15      4.87      0.81     -0.09      1.34      2.01     -3.29      1.02      4.13     -8.01      2.13      8.47      2.96      0.22
     -19.865942    -124.629799     274.4      1.16      2.61     130.2         2         3      2444      3630    341.51   -14.666      10.2      37.3   240.933     0.583      73.3   0.08105     100.0         H               347.7  0.050348  0.027865  0.000877  2.571474  0.687348  3.741152  1.083494     35.74    6.3408   54.0275   0.12560   5.82678   0.19443   0.00625  94.48263   6.62164     370.1  0.503520  0.000996  0.000087  0.000166  0.189613  7.058157  0.592150     86.42  1.000136  1.000010     2.460    12.920     114.0      89.4     108.6     367.8     13.52     -6.07     -0.59     -1.31      3.66      4.35     -0.06      4.77     -0.36     -0.06      0.38      2.46     -3.82      1.39      4.31     -9.18      4.52      9.40      0.42      0.17
     -19.839369    -124.754715     263.1      1.35      2.61     132.9         3         1      3888      1000    396.61   -14.016      10.6      36.6   243.674     0.598     249.0   0.08762     134.6         H               347.7  0.052547  0.029502  0.000920  2.662632  0.709095  3.754971  1.098417     54.48    7.4289   73.3247   0.13822   6.11584   0.17385   0.00473 126.37891   7.65769     435.6  0.511833  0.002891  0.000718  0.000179  0.192396  7.064298  0.608771     90.14  1.000111  1.000009     2.584    14.451     124.8      91.3     151.4     477.7     13.81     -7.15      0.07     -1.66      4.13      3.50     -0.74      5.41     -0.39     -0.54      0.71      2.33     -4.39      1.41      4.85     -9.16      5.06      7.51      0.81     -0.84
     -19.826330    -124.698746     262.0      0.84      2.61     137.7         3         2      3888      2315    302.70   -15.190       9.0      36.9   241.316     0.583      74.3   0.07953     116.4         H               347.7  0.050101  0.026204  0.000826  2.466907  0.681830  3.618070  1.083346     37.30    5.5656   42.6520   0.12079   5.58720   0.21333   0.00792  75.00012   5.88168     327.9  0.505150  0.000891  0.000124  0.000159  0.184190  7.011609  0.591314     87.03  1.000141  1.000010     2.474    13.137     117.4      87.5      84.7     336.6     13.07     -5.68     -0.39     -0.60      3.12      3.25      0.13      4.96      0.16     -0.10      1.13      1.48     -4.02      1.31      4.37     -8.35      3.20      7.07      2.35     -0.12
     -19.813387    -124.643272     282.3      1.17      2.61     142.8         3         3      3888      3630    341.34   -14.668      10.2      37.3   242.886     0.590     111.9   0.08254     100.0         H               347.7  0.051375  0.028278  0.000985  2.541604  0.707208  3.593855  1.089371     47.83    6.3357   54.3794   0.12751   5.82420   0.19493   0.00630  94.89059   6.62183     371.9  0.507546  0.001514  0.000198  0.000168  0.190332  7.053124  0.598857     89.06  1.000121  1.000009     2.511    13.604     117.4      89.3     109.5     386.3     13.71     -6.64     -1.06     -2.06      4.08      3.74     -0.09      4.64     -0.06      0.24      0.53      1.11     -4.26      1.78      4.40    -10.66      5.14      8.12      1.66      0.24
