corner points
-124.3013992    -21.74884605
-124.3469925    -21.57491302
-124.1134338    -21.70486832
-124.1592712    -21.53100586
========== RESULTS WAVE VERSION 16.10.2018 ====================
IMAGE SIZE  X: 4376     Y:4783    col:row     POLARIZATION:VV
COVERAGE    X: 19.97569756km       Y: 19.86096711km 
RESOLUTION dX: 4.564830338m       dY:4.152407926m  
resolution of original product 4.564830338m x 4.152407926m;   raster step x:5998.187064m  
===============================================================
FLAGS: H=HIGH PROBABILITY SEA STATE, I=LAND(ISLAND), O=OUTLIER NO SEA STATE, N=NO WIND AVAILABLE, SEA STATE NOT VISIBLE, M=MEAN PROBABILITY SEA STATE, L= LOW PROBABILITY SEA STATE
Filtering wave length
 integration  Lmin=1m
 integration  Lmax=2200m
  peak        Lmin=100m
               FFT=1024pixels, 4674.386266m 
   mean-Hs (SWH_c)=1.11133461m
         mean-wind=8.59835434m/s
--------------0--------------1---------2---------3---------4---------5---------6---------7---------8---------9--------10--------11--------12--------13--------14--------15--------16--------17--------18--------19------------------20--------21--------22--------23--------24--------25--------26--------27--------28--------29--------30--------31--------32--------33--------34--------35--------36--------37--------38--------39--------40--------41--------42--------43--------44--------45--------46--------47--------48--------49--------50--------51--------52--------53--------54--------55--------56--------57--------58--------59--------60--------61--------62--------63--------64--------65--------66--------67--------68--------69--------70--------71--------72--------73
            LAT            LON  P-LENGHT     SWH_o     SWH_c     P-DIR      LINE     POINT     ROW-Y     COL-X  M-INTENC        dB      WIND INC-ANGLE  ENERGY-M  ENERGY-N  ENERGY-R ENERGY-NN  FG-DEPTH      FLAG         HEADING-DEG    E30-75   E75-390  E390-600 meanincut   meanout   cut/out  STD-NORM  SPEC-MAX   GL-MEAN    GL-VAR      CORR   ENTROPY   HOMOGEN    ENERGY  CONTRAST  DISSIMIL     STD-O    E 1-30 E600-2000   E2000 >      GODA  LONG-HIG     Tmean  CONVOLUT  MEAN-DIR  relation     Sy/Sx  SKEWNESS  KURTOSIS  cutoff-A >50/10000     INT*V   INT-LOG  S-1_g1f1  S-2_g1f2  S-3_g1f3  S-4_g2f1  S-5_g2f2  S-6_g2f3  S-7_g3f1  S-8_g3f2  S-9_g3f3 S-10_g1f4 S-11_g2f4 S-12_g3f4 S-13_g1f5 S-14_g2f5 S-15_g3f5 S-16_g4f1 S-17_g4f2 S-18_g4f3 S-19_g4f4 S-20_g4f5
--------------1--------------2---------3---------4---------5---------6---------7---------8---------9--------10--------11--------12--------13--------14--------15--------16--------17--------18--------19--------20------------------21--------22--------23--------24--------25--------26--------27--------28--------29--------30--------31--------32--------33--------34--------35--------36--------37--------38--------39--------40--------41--------42--------43--------44--------45--------46--------47--------48--------49--------50--------51--------52--------53--------54--------55--------56--------57--------58--------59--------60--------61--------62--------63--------64--------65--------66--------67--------68--------69--------70--------71--------72--------73--------74
     -21.702332    -124.267502     234.0      1.01      2.35     131.3         1         1      1000      1000    292.93   -15.332       8.5      36.5   244.460     0.585      56.7   0.08055      52.3         H               347.6  0.050027  0.029696  0.000616  2.817854  0.704564  3.999428  1.085169     33.34    5.3759   40.0854   0.12464   5.52311   0.21965   0.00847  70.17853   5.68170     317.9  0.504272  0.000670  0.000054  0.000155  0.191675  7.094115  0.594109     86.19  1.000126  1.000009     2.480    13.245     110.8      87.1      79.2     325.1     13.16     -7.41     -0.19      0.35      2.46      3.24     -1.48      5.41      0.77     -0.50     -0.47      1.91     -4.78      0.99      4.15     -5.74      4.16      5.45      0.01      1.66
     -21.689089    -124.210861     252.4      1.20      2.35     135.4         1         2      1000      2314    289.55   -15.383       8.7      36.9   246.050     0.588      79.0   0.08133      76.3         H               347.6  0.049604  0.031728  0.000589  2.878020  0.703947  4.088406  1.087795     39.72    5.3049   39.3810   0.12609   5.49802   0.22192   0.00874  68.83102   5.62231     315.0  0.505099  0.000976  0.000112  0.000168  0.196042  7.135262  0.597107     87.30  1.000141  1.000010     2.494    13.344     114.0      86.7      77.7     319.0     13.38     -7.89     -0.48     -0.03      2.92      3.57     -1.72      5.96      0.96      0.59     -1.00      2.12     -5.21      1.34      4.45     -5.69      4.46      5.81     -1.00      1.89
     -21.675943    -124.154732     259.2      1.12      2.35     142.4         1         3      1000      3628    283.24   -15.479       8.8      37.3   245.201     0.584      68.8   0.07949      96.8         H               347.6  0.049004  0.030207  0.000637  2.851946  0.703615  4.053276  1.083958     34.41    5.1815   37.4272   0.12300   5.45608   0.22515   0.00906  65.64711   5.49696     307.0  0.503105  0.000823  0.000097  0.000157  0.193690  7.129841  0.592584     85.77  1.000112  1.000009     2.464    13.057     110.8      86.4      73.9     305.9     13.05     -6.71     -0.40      0.27      2.84      3.61     -0.95      5.08      0.83      0.36     -0.43      1.65     -4.96      1.12      4.33     -5.92      4.18      6.68     -0.04      1.29
     -21.649815    -124.281288     240.8      1.10      2.35     124.5         2         1      2444      1000    297.24   -15.269       8.6      36.5   244.976     0.585      62.3   0.08040      59.0         H               347.6  0.049889  0.030627  0.000657  2.984183  0.698889  4.269897  1.085342     32.47    5.4620   41.2031   0.12516   5.55242   0.21705   0.00820  72.09220   5.76203     322.6  0.503323  0.000773  0.000068  0.000163  0.188229  7.107289  0.594427     81.64  1.000129  1.000009     2.506    13.618     110.8      87.4      81.7     333.9     12.79     -6.16     -0.18      1.05      1.68      3.50     -0.86      5.07      0.95     -0.07     -0.54      1.70     -3.70      0.12      3.91     -5.11      2.56      6.17     -0.11     -0.00
     -21.636580    -124.224670     285.9      1.20      2.35     137.7         2         2      2444      2314    287.13   -15.419       8.6      36.9   244.409     0.585      69.2   0.08028     100.0         H               347.6  0.048983  0.031702  0.000696  2.881316  0.687285  4.192315  1.085468     46.86    5.2559   38.5492   0.12615   5.48170   0.22316   0.00884  67.37152   5.56429     311.6  0.503461  0.000816  0.000086  0.000172  0.196647  7.150193  0.595314     87.59  1.000118  1.000010     2.497    13.399     114.0      86.7      76.2     310.4     13.53     -8.12     -0.46     -0.40      2.99      3.59     -1.66      5.98      0.44     -0.22     -0.62      2.06     -5.01      1.18      4.33     -6.59      4.32      6.84     -0.06      1.15
     -21.623440    -124.168564     272.1      1.17      2.35     140.2         2         3      2444      3628    283.19   -15.479       8.8      37.3   245.023     0.583      66.8   0.07867     100.0         H               347.6  0.048500  0.030745  0.000623  2.818303  0.692799  4.067996  1.083404     46.23    5.1810   37.3792   0.12186   5.45615   0.22509   0.00905  65.64816   5.49500     306.8  0.502637  0.000814  0.000079  0.000157  0.196756  7.140173  0.592235     93.67  1.000109  1.000006     2.461    12.975     114.0      86.4      73.8     299.5     13.37     -7.99     -0.80     -0.35      3.41      3.50     -1.38      5.43      1.16      0.94     -1.12      1.50     -5.03      1.85      3.86     -6.34      5.35      5.79     -1.18      3.09
     -21.597298    -124.295067     242.6      1.07      2.35     128.9         3         1      3888      1000    293.54   -15.323       8.5      36.5   244.441     0.583      59.5   0.07958      61.1         H               347.6  0.048752  0.030066  0.000493  2.814972  0.684339  4.113418  1.083273     33.82    5.3880   40.0769   0.12333   5.52779   0.21910   0.00840  70.26817   5.69217     318.0  0.503106  0.000713  0.000070  0.000154  0.192557  7.126068  0.591958     88.17  1.000137  1.000011     2.476    13.329     110.8      87.2      79.5     337.9     12.91     -7.02      0.02      1.05      2.11      3.29     -1.41      5.15      1.10     -0.29     -1.04      1.78     -4.60      0.97      4.02     -4.34      3.89      4.99     -0.49      1.50
     -21.584068    -124.238472     233.6      1.07      2.35     135.6         3         2      3888      2314    280.53   -15.520       8.5      36.9   245.753     0.585      82.7   0.07977      52.0         H               347.6  0.048850  0.030202  0.000663  2.869148  0.692515  4.143085  1.085557     32.38    5.1242   36.8556   0.12293   5.43555   0.22734   0.00926  64.65012   5.44554     304.5  0.504740  0.001003  0.000138  0.000154  0.191540  7.129326  0.594529     85.39  1.000134  1.000010     2.481    13.159     107.8      86.3      72.5     297.2     12.76     -6.36     -0.69      1.05      1.62      3.81     -0.99      5.11      1.50      0.33     -0.38      0.71     -4.06      0.72      4.36     -4.98      2.69      6.70      0.95      0.55
     -21.570936    -124.182388     272.1      1.08      2.35     140.2         3         3      3888      3628    263.74   -15.788       8.4      37.3   244.520     0.582      70.1   0.07874     100.0         H               347.6  0.048593  0.030639  0.000598  2.742105  0.679678  4.034416  1.082460     42.31    4.7933   32.4081   0.12222   5.31478   0.23823   0.01042  56.89384   5.11073     285.4  0.501569  0.000874  0.000084  0.000154  0.198965  7.150081  0.591311     95.29  1.000115  1.000009     2.456    12.936     110.8      85.3      63.8     282.7     13.38     -8.05     -0.54      0.05      2.79      3.35     -1.98      5.78      0.98      0.25     -0.54      1.37     -5.27      1.32      4.62     -5.48      4.26      5.91     -0.03      1.36
