corner points
-110.8987656    -54.52887726
-111.0123749    -54.36395264
-110.6064377    -54.45909119
-110.7210846    -54.29443359
========== RESULTS WAVE VERSION 16.10.2018 ====================
IMAGE SIZE  X: 4376     Y:4772    col:row     POLARIZATION:VV
COVERAGE    X: 20.36408283km       Y: 19.71212269km 
RESOLUTION dX: 4.653583827m       dY:4.130788493m  
resolution of original product 4.653583827m x 4.130788493m;   raster step x:5998.469553m  
===============================================================
FLAGS: H=HIGH PROBABILITY SEA STATE, I=LAND(ISLAND), O=OUTLIER NO SEA STATE, N=NO WIND AVAILABLE, SEA STATE NOT VISIBLE, M=MEAN PROBABILITY SEA STATE, L= LOW PROBABILITY SEA STATE
Filtering wave length
 integration  Lmin=1m
 integration  Lmax=2200m
  peak        Lmin=100m
               FFT=1024pixels, 4765.269839m 
   mean-Hs (SWH_c)=1.618885345m
         mean-wind=10.62551498m/s
--------------0--------------1---------2---------3---------4---------5---------6---------7---------8---------9--------10--------11--------12--------13--------14--------15--------16--------17--------18--------19------------------20--------21--------22--------23--------24--------25--------26--------27--------28--------29--------30--------31--------32--------33--------34--------35--------36--------37--------38--------39--------40--------41--------42--------43--------44--------45--------46--------47--------48--------49--------50--------51--------52--------53--------54--------55--------56--------57--------58--------59--------60--------61--------62--------63--------64--------65--------66--------67--------68--------69--------70--------71--------72--------73
            LAT            LON  P-LENGHT     SWH_o     SWH_c     P-DIR      LINE     POINT     ROW-Y     COL-X  M-INTENC        dB      WIND INC-ANGLE  ENERGY-M  ENERGY-N  ENERGY-R ENERGY-NN  FG-DEPTH      FLAG         HEADING-DEG    E30-75   E75-390  E390-600 meanincut   meanout   cut/out  STD-NORM  SPEC-MAX   GL-MEAN    GL-VAR      CORR   ENTROPY   HOMOGEN    ENERGY  CONTRAST  DISSIMIL     STD-O    E 1-30 E600-2000   E2000 >      GODA  LONG-HIG     Tmean  CONVOLUT  MEAN-DIR  relation     Sy/Sx  SKEWNESS  KURTOSIS  cutoff-A >50/10000     INT*V   INT-LOG  S-1_g1f1  S-2_g1f2  S-3_g1f3  S-4_g2f1  S-5_g2f2  S-6_g2f3  S-7_g3f1  S-8_g3f2  S-9_g3f3 S-10_g1f4 S-11_g2f4 S-12_g3f4 S-13_g1f5 S-14_g2f5 S-15_g3f5 S-16_g4f1 S-17_g4f2 S-18_g4f3 S-19_g4f4 S-20_g4f5
--------------1--------------2---------3---------4---------5---------6---------7---------8---------9--------10--------11--------12--------13--------14--------15--------16--------17--------18--------19--------20------------------21--------22--------23--------24--------25--------26--------27--------28--------29--------30--------31--------32--------33--------34--------35--------36--------37--------38--------39--------40--------41--------42--------43--------44--------45--------46--------47--------48--------49--------50--------51--------52--------53--------54--------55--------56--------57--------58--------59--------60--------61--------62--------63--------64--------65--------66--------67--------68--------69--------70--------71--------72--------73--------74
     -54.478249    -110.854996     232.4      1.81      3.47      77.3         1         1      1000      1000    445.47   -13.512      10.7      35.7   302.963     0.601      64.6   0.09173      51.0         H               343.3  0.051278  0.034607  0.000881  3.385813  0.737477  4.591073  1.100267     39.69    8.3837   90.3645   0.13945   6.33899   0.15792   0.00374 155.52499   8.55841     490.2  0.514214  0.000739  0.000053  0.000156  0.214482  7.286913  0.608061     79.99  1.000342  1.000032     2.683    16.265     137.8      92.7     193.8     590.2     13.64      2.69     10.07      4.09      1.03      5.53     -0.40     -0.38     -1.80      3.35      1.86     -0.80      6.14      3.09     -0.09     -3.82     -0.79      2.54      0.30      0.35
     -54.457653    -110.768578     170.8      1.55      3.47      68.7         1         2      1000      2289    406.83   -13.906      10.4      36.0   300.586     0.592      53.3   0.08771      20.9         H               343.3  0.050246  0.031762  0.000863  3.117325  0.732573  4.255307  1.091844     35.85    7.6285   75.7830   0.13342   6.16679   0.16885   0.00442 131.34503   7.84580     444.2  0.509220  0.000514  0.000036  0.000151  0.211512  7.241020  0.598168     75.56  1.000315  1.000028     2.607    15.017     128.8      91.7     158.6     498.2     13.47      3.47      9.40      4.11      1.28      5.15     -0.04     -0.62     -1.33      4.33      2.42     -0.86      5.11      2.69      0.36     -4.05     -0.99      2.02      0.48      0.60
     -54.437187    -110.683022     229.3      1.57      3.47      74.3         1         3      1000      3578    395.13   -14.033      10.5      36.4   300.364     0.589      61.5   0.08572      48.5         H               343.3  0.049245  0.031759  0.000903  2.913608  0.726891  4.008316  1.088820     45.37    7.3973   71.4367   0.13120   6.11049   0.17313   0.00468 124.12871   7.62347     430.2  0.506738  0.000655  0.000049  0.000150  0.215353  7.251037  0.594766     76.14  1.000321  1.000026     2.589    14.842     128.8      91.4     148.6     486.6     14.15      4.29     10.00      2.51      0.83      3.62     -1.18     -1.35     -2.55      5.26      1.92     -1.69      5.48      2.03     -0.25     -5.34     -1.11      1.00      0.01      0.21
     -54.428082    -110.889679     309.9      1.63      3.47      77.3         2         1      2452      1000    440.03   -13.565      10.6      35.7   300.954     0.595      57.8   0.08883     100.0         H               343.3  0.050650  0.032127  0.000834  3.134681  0.739070  4.241388  1.093840     37.53    8.2810   87.8484   0.13516   6.31767   0.15854   0.00380 151.94969   8.47313     481.4  0.510733  0.000512  0.000041  0.000147  0.216590  7.237337  0.600610     76.62  1.000315  1.000028     2.598    14.768     128.8      92.6     187.4     516.8     14.25      3.68     10.65      2.52      0.58      3.10     -1.22     -0.88     -2.22      4.23      1.38     -0.84      5.70      1.68     -0.03     -5.17     -1.44     -0.46     -0.84     -0.69
     -54.407509    -110.803360     219.2      1.84      3.47      75.0         2         2      2452      2289    421.50   -13.752      10.7      36.0   302.760     0.600      63.8   0.09102      41.5         H               343.3  0.050605  0.035200  0.001011  3.180415  0.745888  4.263929  1.099113     56.60    7.9149   81.6144   0.13794   6.23298   0.16489   0.00416 140.71262   8.11747     463.3  0.513043  0.000604  0.000048  0.000162  0.220344  7.307770  0.606844     76.03  1.000322  1.000028     2.670    15.899     133.1      92.0     172.2     543.6     14.14      3.70     10.85      3.18      1.13      4.21     -0.94     -1.01     -2.14      5.13      1.96     -1.37      6.00      2.73     -0.21     -4.80     -0.56      0.62     -0.01      0.75
     -54.387062    -110.717896     225.7      1.51      3.47      71.3         2         3      2452      3578    401.69   -13.961      10.6      36.4   297.867     0.583      60.2   0.08375      45.8         H               343.3  0.048197  0.030269  0.000751  2.808295  0.723062  3.883895  1.083690     40.59    7.5281   73.1889   0.12835   6.14408   0.17017   0.00450 127.59041   7.75167     435.3  0.503898  0.000649  0.000052  0.000145  0.215418  7.234876  0.588841     77.31  1.000295  1.000026     2.554    14.723     128.8      91.6     152.8     503.2     13.95      3.78     10.10      3.17      0.85      3.85     -1.31     -1.13     -2.43      4.78      1.86     -1.66      5.69      2.36     -0.76     -4.25     -0.68      0.56      0.38      0.73
     -54.377903    -110.924286     185.9      1.50      3.47      77.3         3         1      3904      1000    440.68   -13.559      10.7      35.7   300.287     0.592      56.6   0.08833      25.9         H               343.3  0.051464  0.030529  0.000759  3.045375  0.749645  4.062424  1.091940     31.31    8.2938   87.7086   0.13381   6.32144   0.15812   0.00377 151.94290   8.47844     481.2  0.509220  0.000583  0.000048  0.000141  0.209469  7.177084  0.597952     79.89  1.000293  1.000024     2.619    15.405     128.8      92.7     187.5     556.8     13.65      2.43      9.89      3.70      1.03      4.52     -0.43     -0.28     -1.78      3.34      1.64     -0.49      6.07      2.54     -0.46     -4.03     -0.26      1.30      0.28      0.13
     -54.357353    -110.838058     221.9      1.57      3.47      77.9         3         2      3904      2289    420.19   -13.766      10.6      36.0   300.575     0.594      56.8   0.08800      43.2         H               343.3  0.050998  0.031690  0.000989  2.975199  0.745410  3.991359  1.093261     40.55    7.8906   80.4857   0.13370   6.22901   0.16474   0.00416 139.44949   8.09597     459.4  0.509848  0.000590  0.000036  0.000153  0.212726  7.227758  0.599793     79.75  1.000349  1.000029     2.636    15.841     133.1      92.0     170.0     555.2     13.77      2.67     10.37      3.41      1.22      4.70     -0.18     -0.41     -2.07      3.90      1.85     -0.43      6.94      2.62     -0.71     -5.12     -0.20      1.46     -0.29     -0.33
     -54.336933    -110.752686     232.4      1.58      3.47      77.3         3         3      3904      3578    406.79   -13.906      10.7      36.4   298.452     0.585      57.1   0.08445      51.0         H               343.3  0.048970  0.031221  0.000938  2.868660  0.741924  3.866517  1.085214     41.86    7.6284   75.1448   0.13043   6.16809   0.16857   0.00440 130.68628   7.84539     441.5  0.503811  0.000573  0.000035  0.000146  0.217160  7.250716  0.590989     77.41  1.000290  1.000023     2.550    14.471     124.8      91.7     157.2     498.6     14.27      3.81     10.18      2.44      0.81      3.55     -1.11     -1.01     -2.68      4.41      1.94     -1.62      6.19      1.40     -0.39     -5.87     -1.23      0.59      0.82     -1.50
