corner points
-120.6488037    -33.99351883
-120.7060013    -33.82168579
-120.438652    -33.94372559
-120.4962845    -33.77199936
========== RESULTS WAVE VERSION 16.10.2018 ====================
IMAGE SIZE  X: 4376     Y:4770    col:row     POLARIZATION:VV
COVERAGE    X: 20.10809234km       Y: 19.77839702km 
RESOLUTION dX: 4.595085087m       dY:4.14641447m  
resolution of original product 4.595085087m x 4.14641447m;   raster step x:5996.586039m  
===============================================================
FLAGS: H=HIGH PROBABILITY SEA STATE, I=LAND(ISLAND), O=OUTLIER NO SEA STATE, N=NO WIND AVAILABLE, SEA STATE NOT VISIBLE, M=MEAN PROBABILITY SEA STATE, L= LOW PROBABILITY SEA STATE
Filtering wave length
 integration  Lmin=1m
 integration  Lmax=2200m
  peak        Lmin=100m
               FFT=1024pixels, 4705.367129m 
   mean-Hs (SWH_c)=0.7594286346m
         mean-wind=4.645267487m/s
--------------0--------------1---------2---------3---------4---------5---------6---------7---------8---------9--------10--------11--------12--------13--------14--------15--------16--------17--------18--------19------------------20--------21--------22--------23--------24--------25--------26--------27--------28--------29--------30--------31--------32--------33--------34--------35--------36--------37--------38--------39--------40--------41--------42--------43--------44--------45--------46--------47--------48--------49--------50--------51--------52--------53--------54--------55--------56--------57--------58--------59--------60--------61--------62--------63--------64--------65--------66--------67--------68--------69--------70--------71--------72--------73
            LAT            LON  P-LENGHT     SWH_o     SWH_c     P-DIR      LINE     POINT     ROW-Y     COL-X  M-INTENC        dB      WIND INC-ANGLE  ENERGY-M  ENERGY-N  ENERGY-R ENERGY-NN  FG-DEPTH      FLAG         HEADING-DEG    E30-75   E75-390  E390-600 meanincut   meanout   cut/out  STD-NORM  SPEC-MAX   GL-MEAN    GL-VAR      CORR   ENTROPY   HOMOGEN    ENERGY  CONTRAST  DISSIMIL     STD-O    E 1-30 E600-2000   E2000 >      GODA  LONG-HIG     Tmean  CONVOLUT  MEAN-DIR  relation     Sy/Sx  SKEWNESS  KURTOSIS  cutoff-A >50/10000     INT*V   INT-LOG  S-1_g1f1  S-2_g1f2  S-3_g1f3  S-4_g2f1  S-5_g2f2  S-6_g2f3  S-7_g3f1  S-8_g3f2  S-9_g3f3 S-10_g1f4 S-11_g2f4 S-12_g3f4 S-13_g1f5 S-14_g2f5 S-15_g3f5 S-16_g4f1 S-17_g4f2 S-18_g4f3 S-19_g4f4 S-20_g4f5
--------------1--------------2---------3---------4---------5---------6---------7---------8---------9--------10--------11--------12--------13--------14--------15--------16--------17--------18--------19--------20------------------21--------22--------23--------24--------25--------26--------27--------28--------29--------30--------31--------32--------33--------34--------35--------36--------37--------38--------39--------40--------41--------42--------43--------44--------45--------46--------47--------48--------49--------50--------51--------52--------53--------54--------55--------56--------57--------58--------59--------60--------61--------62--------63--------64--------65--------66--------67--------68--------69--------70--------71--------72--------73--------74
     -33.946014    -120.612228     234.7      0.64      2.84     131.6         1         1      1000      1000    139.69   -18.548       4.4      36.2   266.309     0.577     100.3   0.06977      53.0         H               346.9  0.043151  0.031999  0.001592  2.389299  0.641540  3.724318  1.078675     67.44    2.3251    8.9907   0.10170   4.05560   0.37437   0.03578  16.15273   2.69354     150.7  0.499813  0.001083  0.000155  0.000169  0.227268  7.349048  0.586136    131.07  1.000057  1.000002     2.439    12.821     128.8      71.3      18.5     139.5     14.69    -12.69      0.35     -2.02      3.93      2.59     -1.70      3.29     -0.01     -1.81     -2.45      1.18     -9.17      2.92      3.17    -12.39     12.89      3.68     -2.75      9.05
     -33.931129    -120.549339     234.2      0.65      2.84     135.8         1         2      1000      2305    136.96   -18.634       4.5      36.6   267.099     0.579      90.7   0.06992      52.5         H               346.9  0.043517  0.032018  0.001448  2.494842  0.653452  3.817944  1.079701     53.26    2.2754    8.6450   0.10196   4.02012   0.37864   0.03675  15.52708   2.63696     147.9  0.501254  0.001095  0.000117  0.000154  0.221636  7.320595  0.587861    132.20  1.000122  1.000007     2.470    13.190     124.8      71.1      17.8     143.7     14.23    -11.51      0.79     -1.01      2.77      2.81     -1.51      3.06      0.54     -1.73     -2.34      0.88     -8.09      2.73      3.32    -10.53     10.71      3.51     -2.82      8.22
     -33.916344    -120.487030     272.6      0.60      2.84     140.4         1         3      1000      3610    141.24   -18.501       4.8      37.0   264.515     0.572      68.0   0.06761     100.0         H               346.9  0.042238  0.030272  0.001236  2.434720  0.628266  3.875303  1.072904     70.44    2.3557    9.0978   0.09786   4.07848   0.37089   0.03466  16.41491   2.72054     151.5  0.497330  0.000734  0.000063  0.000156  0.220876  7.306889  0.579517    136.94  1.000074  1.000002     2.430    12.851     121.0      71.9      18.8     147.8     14.23    -11.88     -0.44     -1.26      3.43      3.02     -1.85      3.79      0.74     -0.10     -2.81      0.43     -8.48      2.83      3.56    -10.28     10.76      4.35     -3.71      7.77
     -33.893887    -120.629623     234.7      0.80      2.84     131.6         2         1      2447      1000    149.67   -18.249       4.7      36.2   267.782     0.584      80.6   0.07261      53.0         H               346.9  0.044978  0.034096  0.001462  2.554047  0.655782  3.894656  1.084100     62.55    2.5228   10.4427   0.10822   4.19076   0.35809   0.03155  18.62528   2.89151     162.2  0.502545  0.000858  0.000086  0.000170  0.224986  7.348458  0.593216    129.64  1.000077  1.000004     2.474    13.153     124.8      73.0      21.1     155.2     14.40    -12.38      1.22     -0.97      2.67      2.27     -2.00      3.74      0.22     -3.01     -1.83      0.95     -8.92      2.30      3.59    -10.21     10.42      2.59     -0.82      7.69
     -33.879013    -120.566780     243.4      0.74      2.84     129.1         2         2      2447      2305    132.95   -18.763       4.4      36.6   268.378     0.583     130.5   0.07093      62.1         H               346.9  0.043353  0.033296  0.001428  2.509613  0.643971  3.897093  1.083670     46.84    2.1962    8.2011   0.10346   3.96099   0.38682   0.03912  14.70532   2.55777     144.1  0.503498  0.001492  0.000243  0.000162  0.226009  7.364036  0.592198    126.34  1.000081  1.000004     2.511    13.842     124.8      70.2      16.9     147.8     14.23    -11.84      1.30     -0.31      2.02      2.55     -1.93      3.39      0.26     -2.99     -2.31      0.94     -7.87      1.76      3.01    -10.10     10.38      2.36     -0.88      7.30
     -33.864235    -120.504501     253.0      0.85      2.84     135.7         2         3      2447      3610    145.88   -18.360       4.9      37.0   266.874     0.582     105.9   0.07251      77.6         H               346.9  0.044148  0.033819  0.001329  2.406701  0.663787  3.625713  1.082499     55.04    2.4482    9.8847   0.10794   4.14071   0.36420   0.03296  17.63555   2.81089     157.9  0.501252  0.001261  0.000155  0.000168  0.229305  7.376996  0.590866    130.64  1.000083  1.000005     2.492    13.476     124.8      72.5      20.1     153.4     14.51    -12.48      0.57     -1.29      2.75      2.64     -2.31      4.07      0.43     -2.22     -2.48      0.98     -8.52      2.37      3.60    -10.03      9.88      3.27     -2.44      7.10
     -33.841755    -120.646996     218.0      0.90      2.84     128.0         3         1      3894      1000    145.21   -18.380       4.5      36.2   269.214     0.591     151.5   0.07590      40.8         H               346.9  0.046137  0.036186  0.001679  2.532342  0.663726  3.815344  1.091286     67.32    2.4346    9.9528   0.11485   4.12956   0.36650   0.03373  17.61956   2.79894     158.4  0.505166  0.001690  0.000307  0.000184  0.230322  7.377656  0.601471    128.50  1.000138  1.000006     2.529    13.752     133.1      72.1      20.1     154.8     14.83    -13.01      1.40     -1.62      3.22      2.16     -2.29      3.94      0.24     -2.94     -1.97      1.13     -9.50      2.93      3.69    -11.66     11.82      1.74     -0.80      8.88
     -33.826885    -120.584190     233.9      0.59      2.84     127.3         3         2      3894      2305    136.10   -18.661       4.5      36.6   266.362     0.577     117.7   0.06925      52.3         H               346.9  0.043292  0.031169  0.001137  2.459375  0.630834  3.898607  1.077458     47.40    2.2583    8.5033   0.10036   4.00802   0.38028   0.03707  15.29981   2.61798     146.7  0.499627  0.001387  0.000230  0.000153  0.220603  7.306702  0.584852    127.59  1.000093  1.000004     2.471    13.348     124.8      71.0      17.6     148.1     13.95    -11.19      1.06     -0.02      1.62      2.56     -1.82      3.71      0.72     -2.50     -2.34      0.46     -7.64      1.44      3.49     -8.60      8.05      2.33     -1.12      5.56
     -33.812122    -120.521957     252.3      1.05      2.84     126.5         3         3      3894      3610    150.38   -18.228       5.1      37.0   268.047     0.587      92.1   0.07412      76.1         H               346.9  0.044127  0.036058  0.001935  2.436925  0.647889  3.761334  1.087249     68.75    2.5372   10.5993   0.11137   4.19978   0.35774   0.03134  18.83779   2.90223     163.5  0.503900  0.000902  0.000108  0.000186  0.232700  7.424231  0.596832    128.23  1.000069  1.000003     2.514    13.773     128.8      73.2      21.4     165.8     14.87    -13.09      1.36     -1.67      3.03      2.47     -2.28      3.82     -0.36     -3.48     -2.03      1.63     -8.94      2.49      3.54    -12.15     12.33      3.27     -1.67      8.46
