corner points
-112.0185699    -52.85521317
-112.123764    -52.68935776
-111.7362671    -52.78797531
-111.8424454    -52.62236404
========== RESULTS WAVE VERSION 16.10.2018 ====================
IMAGE SIZE  X: 4376     Y:4770    col:row     POLARIZATION:VV
COVERAGE    X: 20.34170678km       Y: 19.71041311km 
RESOLUTION dX: 4.64847047m       dY:4.132162077m  
resolution of original product 4.64847047m x 4.132162077m;   raster step x:5996.526906m  
===============================================================
FLAGS: H=HIGH PROBABILITY SEA STATE, I=LAND(ISLAND), O=OUTLIER NO SEA STATE, N=NO WIND AVAILABLE, SEA STATE NOT VISIBLE, M=MEAN PROBABILITY SEA STATE, L= LOW PROBABILITY SEA STATE
Filtering wave length
 integration  Lmin=1m
 integration  Lmax=2200m
  peak        Lmin=100m
               FFT=1024pixels, 4760.033761m 
   mean-Hs (SWH_c)=1.323309937m
         mean-wind=9.303292274m/s
--------------0--------------1---------2---------3---------4---------5---------6---------7---------8---------9--------10--------11--------12--------13--------14--------15--------16--------17--------18--------19------------------20--------21--------22--------23--------24--------25--------26--------27--------28--------29--------30--------31--------32--------33--------34--------35--------36--------37--------38--------39--------40--------41--------42--------43--------44--------45--------46--------47--------48--------49--------50--------51--------52--------53--------54--------55--------56--------57--------58--------59--------60--------61--------62--------63--------64--------65--------66--------67--------68--------69--------70--------71--------72--------73
            LAT            LON  P-LENGHT     SWH_o     SWH_c     P-DIR      LINE     POINT     ROW-Y     COL-X  M-INTENC        dB      WIND INC-ANGLE  ENERGY-M  ENERGY-N  ENERGY-R ENERGY-NN  FG-DEPTH      FLAG         HEADING-DEG    E30-75   E75-390  E390-600 meanincut   meanout   cut/out  STD-NORM  SPEC-MAX   GL-MEAN    GL-VAR      CORR   ENTROPY   HOMOGEN    ENERGY  CONTRAST  DISSIMIL     STD-O    E 1-30 E600-2000   E2000 >      GODA  LONG-HIG     Tmean  CONVOLUT  MEAN-DIR  relation     Sy/Sx  SKEWNESS  KURTOSIS  cutoff-A >50/10000     INT*V   INT-LOG  S-1_g1f1  S-2_g1f2  S-3_g1f3  S-4_g2f1  S-5_g2f2  S-6_g2f3  S-7_g3f1  S-8_g3f2  S-9_g3f3 S-10_g1f4 S-11_g2f4 S-12_g3f4 S-13_g1f5 S-14_g2f5 S-15_g3f5 S-16_g4f1 S-17_g4f2 S-18_g4f3 S-19_g4f4 S-20_g4f5
--------------1--------------2---------3---------4---------5---------6---------7---------8---------9--------10--------11--------12--------13--------14--------15--------16--------17--------18--------19--------20------------------21--------22--------23--------24--------25--------26--------27--------28--------29--------30--------31--------32--------33--------34--------35--------36--------37--------38--------39--------40--------41--------42--------43--------44--------45--------46--------47--------48--------49--------50--------51--------52--------53--------54--------55--------56--------57--------58--------59--------60--------61--------62--------63--------64--------65--------66--------67--------68--------69--------70--------71--------72--------73--------74
     -52.804962    -111.975365     132.7      1.39      3.10      77.3         1         1      1000      1000    371.29   -14.303       9.4      35.7   299.101     0.590      59.9   0.08429      11.7         H               343.8  0.048892  0.031576  0.000884  3.189152  0.717521  4.444678  1.089868     29.71    6.9266   63.6063   0.12772   5.98911   0.18121   0.00527 110.96379   7.18690     404.6  0.508379  0.000676  0.000058  0.000155  0.206066  7.236508  0.595930     78.76  1.000251  1.000022     2.597    14.967     128.8      90.6     130.3     450.3     12.74      0.88      7.87      4.45      1.53      6.21      1.65      0.91      0.94      1.48      2.69      1.20      3.97      3.51      1.79     -3.50      1.11      3.64      2.41      1.50
     -52.785103    -111.891853     140.3      1.21      3.10      76.6         1         2      1000      2290    352.33   -14.530       9.4      36.1   295.068     0.581      47.0   0.08117      13.2         H               343.8  0.048165  0.029316  0.000865  2.944307  0.721802  4.079105  1.080972     24.50    6.5539   56.8248   0.12414   5.88853   0.18870   0.00581  99.54091   6.81930     380.8  0.502053  0.000528  0.000024  0.000142  0.202456  7.186877  0.585929     78.76  1.000270  1.000021     2.528    14.363     121.0      89.8     115.6     434.2     12.91      0.66      7.56      3.65      1.48      5.16      1.15      1.41      0.12      1.28      2.71      1.17      3.97      2.83      0.92     -4.45      0.53      2.78      2.67      1.24
     -52.765362    -111.809158     152.0      1.40      3.10      81.7         1         3      1000      3580    331.51   -14.795       9.3      36.5   298.435     0.591      67.7   0.08446      15.9         H               343.8  0.049169  0.032559  0.001091  3.275534  0.724810  4.519162  1.090983     27.85    6.1393   51.2044   0.12945   5.76610   0.19872   0.00661  89.15184   6.42188     361.7  0.507893  0.000743  0.000067  0.000155  0.210399  7.253321  0.597632     78.85  1.000296  1.000024     2.627    15.698     133.1      89.0     103.3     427.4     13.39      0.72      8.60      3.02      1.83      5.04      1.13      0.93     -0.12      1.43      2.65      1.39      4.44      2.73      1.02     -5.61      1.63      2.57      2.45      0.96
     -52.754486    -112.007500     146.5      1.29      3.10      80.0         2         1      2452      1000    364.79   -14.380       9.3      35.7   297.043     0.586      52.7   0.08338      14.6         H               343.8  0.049177  0.030635  0.000769  3.085176  0.721624  4.275325  1.086228     26.56    6.7997   61.3265   0.12733   5.95552   0.18397   0.00545 107.03468   7.06281     396.2  0.505354  0.000650  0.000036  0.000148  0.201041  7.193685  0.591933     78.81  1.000233  1.000020     2.543    14.105     121.0      90.4     125.2     426.8     12.44      0.70      7.19      4.20      1.59      5.25      2.02      1.11      1.74      1.01      2.38      1.53      3.22      2.81      2.06     -2.99      1.40      2.76      2.60      1.48
     -52.734646    -111.924065     162.2      1.36      3.10      81.2         2         2      2452      2290    350.89   -14.548       9.4      36.1   297.143     0.587      55.7   0.08363      18.5         H               343.8  0.049171  0.031766  0.000811  3.061836  0.715568  4.278891  1.087254     40.00    6.5228   56.8779   0.12918   5.87848   0.18960   0.00589  99.06137   6.78856     381.5  0.505238  0.000627  0.000050  0.000161  0.202643  7.224804  0.593400     78.83  1.000235  1.000018     2.589    14.973     124.8      89.7     115.5     437.6     12.31      1.19      7.38      5.12      1.63      6.58      2.19      1.59      1.57      1.77      3.15      2.08      3.66      3.53      2.06     -2.54      0.54      4.22      2.32      1.82
     -52.714928    -111.841461     187.4      1.30      3.10      79.8         2         3      2452      3580    326.51   -14.861       9.2      36.5   298.437     0.591      51.6   0.08434      26.5         H               343.8  0.049497  0.031669  0.000809  3.138782  0.723000  4.341328  1.090722     33.67    6.0411   49.8336   0.12868   5.73639   0.20139   0.00681  86.84142   6.32861     356.1  0.508775  0.000530  0.000036  0.000154  0.205526  7.218001  0.597178     79.57  1.000277  1.000023     2.597    14.980     124.8      88.9      99.9     402.7     12.77      1.08      8.26      4.38      1.64      5.72      1.47      0.84      0.69      1.97      2.75      1.03      3.91      3.83      1.49     -3.18      1.09      3.01      2.36      1.98
     -52.704002    -112.039558     167.8      1.27      3.10      80.9         3         1      3904      1000    362.32   -14.409       9.3      35.7   297.202     0.586      50.8   0.08261      20.1         H               343.8  0.049654  0.030750  0.000788  3.131756  0.718460  4.358985  1.086004     29.19    6.7497   60.3612   0.12701   5.94216   0.18501   0.00552 105.38910   7.00939     393.5  0.504700  0.000552  0.000037  0.000148  0.199142  7.187007  0.591957     78.95  1.000275  1.000022     2.571    14.855     121.0      90.3     123.3     451.6     12.41      0.84      7.47      4.54      1.44      5.47      2.10      1.50      1.59      1.03      2.85      1.71      3.66      2.99      1.69     -3.09      0.76      2.56      3.21      1.52
     -52.684185    -111.956223     154.8      1.39      3.10      77.3         3         2      3904      2290    343.59   -14.640       9.2      36.1   298.384     0.592      51.8   0.08458      16.6         H               343.8  0.049473  0.032648  0.000813  3.229542  0.735292  4.392190  1.091032     33.23    6.3789   55.0732   0.13032   5.83632   0.19317   0.00619  95.79113   6.65880     374.9  0.508380  0.000569  0.000035  0.000162  0.204726  7.235565  0.597941     78.70  1.000261  1.000024     2.579    14.752     128.8      89.3     111.0     422.1     12.53      1.36      7.86      4.79      1.71      6.24      1.99      1.39      1.39      1.80      3.06      1.96      3.70      3.45      2.09     -2.68      0.52      3.93      2.19      1.71
     -52.664490    -111.873695     144.4      1.30      3.10      76.2         3         3      3904      3580    322.94   -14.909       9.1      36.5   296.788     0.585      50.3   0.08283      14.1         H               343.8  0.048809  0.031545  0.000768  3.207926  0.723673  4.432841  1.085279     29.92    5.9702   48.3355   0.12633   5.71567   0.20255   0.00692  84.45919   6.25629     350.5  0.503773  0.000511  0.000033  0.000153  0.204716  7.230515  0.590776     77.55  1.000284  1.000023     2.555    14.518     128.8      88.7      97.0     388.1     12.75      0.85      8.32      4.46      1.74      5.41      1.36      1.15      0.69      1.52      2.57      1.75      3.98      3.00      1.42     -2.87      1.53      2.62      2.12      1.28
