corner points
-117.358139    -42.64641571
-117.4302292    -42.47644043
-117.1224442    -42.59050751
-117.1951675    -42.420681
========== RESULTS WAVE VERSION 16.10.2018 ====================
IMAGE SIZE  X: 4376     Y:4772    col:row     POLARIZATION:VV
COVERAGE    X: 20.21559533km       Y: 19.75752283km 
RESOLUTION dX: 4.619651583m       dY:4.140302354m  
resolution of original product 4.619651583m x 4.140302354m;   raster step x:5996.307755m  
===============================================================
FLAGS: H=HIGH PROBABILITY SEA STATE, I=LAND(ISLAND), O=OUTLIER NO SEA STATE, N=NO WIND AVAILABLE, SEA STATE NOT VISIBLE, M=MEAN PROBABILITY SEA STATE, L= LOW PROBABILITY SEA STATE
Filtering wave length
 integration  Lmin=1m
 integration  Lmax=2200m
  peak        Lmin=100m
               FFT=1024pixels, 4730.523221m 
   mean-Hs (SWH_c)=1.259364166m
         mean-wind=8.124485016m/s
--------------0--------------1---------2---------3---------4---------5---------6---------7---------8---------9--------10--------11--------12--------13--------14--------15--------16--------17--------18--------19------------------20--------21--------22--------23--------24--------25--------26--------27--------28--------29--------30--------31--------32--------33--------34--------35--------36--------37--------38--------39--------40--------41--------42--------43--------44--------45--------46--------47--------48--------49--------50--------51--------52--------53--------54--------55--------56--------57--------58--------59--------60--------61--------62--------63--------64--------65--------66--------67--------68--------69--------70--------71--------72--------73
            LAT            LON  P-LENGHT     SWH_o     SWH_c     P-DIR      LINE     POINT     ROW-Y     COL-X  M-INTENC        dB      WIND INC-ANGLE  ENERGY-M  ENERGY-N  ENERGY-R ENERGY-NN  FG-DEPTH      FLAG         HEADING-DEG    E30-75   E75-390  E390-600 meanincut   meanout   cut/out  STD-NORM  SPEC-MAX   GL-MEAN    GL-VAR      CORR   ENTROPY   HOMOGEN    ENERGY  CONTRAST  DISSIMIL     STD-O    E 1-30 E600-2000   E2000 >      GODA  LONG-HIG     Tmean  CONVOLUT  MEAN-DIR  relation     Sy/Sx  SKEWNESS  KURTOSIS  cutoff-A >50/10000     INT*V   INT-LOG  S-1_g1f1  S-2_g1f2  S-3_g1f3  S-4_g2f1  S-5_g2f2  S-6_g2f3  S-7_g3f1  S-8_g3f2  S-9_g3f3 S-10_g1f4 S-11_g2f4 S-12_g3f4 S-13_g1f5 S-14_g2f5 S-15_g3f5 S-16_g4f1 S-17_g4f2 S-18_g4f3 S-19_g4f4 S-20_g4f5
--------------1--------------2---------3---------4---------5---------6---------7---------8---------9--------10--------11--------12--------13--------14--------15--------16--------17--------18--------19--------20------------------21--------22--------23--------24--------25--------26--------27--------28--------29--------30--------31--------32--------33--------34--------35--------36--------37--------38--------39--------40--------41--------42--------43--------44--------45--------46--------47--------48--------49--------50--------51--------52--------53--------54--------55--------56--------57--------58--------59--------60--------61--------62--------63--------64--------65--------66--------67--------68--------69--------70--------71--------72--------73--------74
     -42.597916    -117.318771     265.7      1.24      3.36     116.0         1         1      1000      1000    297.13   -15.271       8.2      36.0   277.518     0.579      56.4   0.07906     100.0         H               346.0  0.046133  0.032162  0.001013  2.443059  0.698872  3.495720  1.079727     86.31    5.4582   40.7269   0.12171   5.55224   0.21602   0.00814  71.54037   5.75810     320.8  0.499739  0.000436  0.000022  0.000174  0.229820  7.339870  0.586272    116.79  1.000130  1.000010     2.505    14.139     121.0      87.3      81.2     366.3     15.05     -9.71      7.60     -0.53      2.26      0.86     -2.49      3.73     -1.78     -9.70      1.04      3.50     -2.67      1.93      2.50     -8.12      6.01     -1.54      4.59      3.32
     -42.581295    -117.248619     311.9      1.27      3.36     121.0         1         2      1000      2298    280.65   -15.518       8.1      36.4   279.517     0.585      64.0   0.08056     100.0         H               346.0  0.046597  0.033006  0.001209  2.372924  0.710806  3.338357  1.085438    109.45    5.1273   36.7666   0.12444   5.43676   0.22611   0.00918  64.38232   5.44287     304.6  0.504181  0.000474  0.000028  0.000184  0.234657  7.352340  0.592566    117.46  1.000150  1.000010     2.552    14.664     128.8      86.4      72.7     344.2     15.82    -11.18      8.37     -2.57      4.81     -0.55     -2.40      3.66     -2.03    -10.71      3.21      3.78     -3.28      3.23      2.12    -11.15     10.19     -3.71      7.95      5.17
     -42.564777    -117.179123     284.9      1.31      3.36     122.5         1         3      1000      3596    272.72   -15.643       8.2      36.7   277.673     0.581      78.0   0.07962     100.0         H               346.0  0.045367  0.032881  0.001084  2.362725  0.698545  3.382350  1.081016    107.99    4.9698   34.4912   0.12400   5.38054   0.23156   0.00969  60.42882   5.27949     294.8  0.500939  0.000720  0.000066  0.000191  0.238471  7.363295  0.588146    119.47  1.000136  1.000009     2.482    13.442     124.8      86.0      68.1     300.2     15.85    -11.14      8.34     -2.25      4.31     -0.27     -3.07      4.02     -2.61    -10.32      2.62      3.87     -3.79      2.81      2.62    -10.13      8.84     -2.72      6.03      4.16
     -42.546303    -117.340729     246.4      1.03      3.36     117.7         2         1      2449      1000    293.73   -15.321       8.1      36.0   277.052     0.575      51.0   0.07668      66.0         H               346.0  0.046101  0.029532  0.000858  2.345663  0.688272  3.408048  1.076007     55.24    5.3906   39.6151   0.11765   5.53033   0.21739   0.00828  69.90818   5.70220     316.0  0.498648  0.000383  0.000023  0.000149  0.224231  7.268874  0.581603    115.53  1.000170  1.000011     2.454    13.262     114.0      87.2      78.9     332.3     14.82     -8.97      7.75      0.01      1.67      1.18     -2.28      3.26     -2.21     -9.35      0.80      3.16     -1.35      1.76      1.75     -7.79      5.42     -1.40      4.86      2.31
     -42.529697    -117.270630     279.7      1.24      3.36     117.5         2         2      2449      2298    279.01   -15.544       8.1      36.4   278.822     0.583      58.5   0.07934     100.0         H               346.0  0.046125  0.032485  0.001052  2.438539  0.707578  3.446320  1.083440    107.66    5.0945   36.2295   0.12232   5.42568   0.22702   0.00926  63.59552   5.41340     302.3  0.503388  0.000448  0.000020  0.000176  0.233365  7.351661  0.590708    115.81  1.000160  1.000010     2.528    14.099     124.8      86.3      71.7     320.8     15.48     -9.81      8.55     -1.27      3.19      0.43     -2.64      3.69     -2.33    -10.12      2.17      3.85     -1.93      2.37      2.04     -9.01      6.99     -2.34      5.67      3.20
     -42.513195    -117.201195     279.7      1.25      3.36     117.5         2         3      2449      3596    267.01   -15.735       8.0      36.7   277.692     0.581      68.5   0.07880     100.0         H               346.0  0.045477  0.032518  0.000946  2.365270  0.698002  3.388629  1.081268     96.94    4.8560   33.0527   0.12217   5.33880   0.23550   0.01008  58.02949   5.16498     288.6  0.501692  0.000567  0.000059  0.000185  0.235798  7.385887  0.588358    117.69  1.000143  1.000010     2.508    13.922     124.8      85.7      65.2     314.8     15.40    -10.23      7.89     -0.87      2.82      0.42     -3.49      4.35     -2.63     -9.90      1.30      4.28     -3.31      2.02      2.80     -8.03      6.23     -1.98      4.25      2.79
     -42.494686    -117.362648     295.1      1.43      3.36     119.2         3         1      3898      1000    304.40   -15.166       8.3      36.0   279.026     0.585      62.3   0.08103     100.0         H               346.0  0.046583  0.034482  0.001131  2.545603  0.710692  3.581864  1.085234    105.62    5.6024   43.1321   0.12667   5.59868   0.21270   0.00782  75.33622   5.89799     330.3  0.502747  0.000477  0.000023  0.000186  0.235677  7.390429  0.593054    117.24  1.000138  1.000010     2.525    13.921     128.8      87.7      85.9     344.5     15.39    -10.35      8.31     -1.10      2.96      0.74     -2.20      3.43     -1.80    -10.60      1.74      3.40     -2.81      2.56      2.43     -9.31      7.42     -2.08      5.97      3.84
     -42.478092    -117.292603     295.1      1.12      3.36     119.2         3         2      3898      2298    285.29   -15.447       8.2      36.4   278.773     0.579      56.1   0.07824     100.0         H               346.0  0.045912  0.030541  0.000994  2.420154  0.703656  3.439400  1.079969     80.25    5.2202   37.6075   0.11915   5.47075   0.22286   0.00881  66.25266   5.53374     308.1  0.501816  0.000429  0.000026  0.000157  0.228153  7.306846  0.585706    118.81  1.000153  1.000011     2.510    13.922     117.4      86.7      74.6     327.2     15.20     -9.54      7.61     -0.87      3.06      0.60     -2.52      3.44     -1.99     -9.26      1.56      3.20     -2.78      2.40      2.23     -9.04      7.07     -2.66      5.66      3.25
     -42.461605    -117.223228     295.1      1.44      3.36     119.2         3         3      3898      3596    259.76   -15.854       7.9      36.7   279.892     0.588      85.4   0.08223     100.0         H               346.0  0.046309  0.035624  0.001326  2.297144  0.706748  3.250304  1.087901    143.35    4.7124   31.6966   0.12877   5.28271   0.24157   0.01076  55.22981   5.02424     282.6  0.504591  0.000679  0.000073  0.000217  0.245192  7.430818  0.596775    117.40  1.000123  1.000009     2.546    14.396     133.1      85.1      62.3     314.0     16.30    -11.81      8.69     -3.07      4.92     -0.73     -3.13      3.81     -2.69    -11.47      3.08      4.18     -3.65      2.84      2.27    -11.82     10.64     -3.80      7.50      4.63
