corner points
-121.2244568    -32.25204849
-121.2796173    -32.07948685
-121.018364    -32.20325089
-121.0739288    -32.03078842
========== RESULTS WAVE VERSION 16.10.2018 ====================
IMAGE SIZE  X: 4376     Y:4782    col:row     POLARIZATION:VV
COVERAGE    X: 20.08374386km       Y: 19.83362987km 
RESOLUTION dX: 4.589520991m       dY:4.147559571m  
resolution of original product 4.589520991m x 4.147559571m;   raster step x:5998.503935m  
===============================================================
FLAGS: H=HIGH PROBABILITY SEA STATE, I=LAND(ISLAND), O=OUTLIER NO SEA STATE, N=NO WIND AVAILABLE, SEA STATE NOT VISIBLE, M=MEAN PROBABILITY SEA STATE, L= LOW PROBABILITY SEA STATE
Filtering wave length
 integration  Lmin=1m
 integration  Lmax=2200m
  peak        Lmin=100m
               FFT=1024pixels, 4699.669495m 
   mean-Hs (SWH_c)=0.6331745148m
         mean-wind=4.206378937m/s
--------------0--------------1---------2---------3---------4---------5---------6---------7---------8---------9--------10--------11--------12--------13--------14--------15--------16--------17--------18--------19------------------20--------21--------22--------23--------24--------25--------26--------27--------28--------29--------30--------31--------32--------33--------34--------35--------36--------37--------38--------39--------40--------41--------42--------43--------44--------45--------46--------47--------48--------49--------50--------51--------52--------53--------54--------55--------56--------57--------58--------59--------60--------61--------62--------63--------64--------65--------66--------67--------68--------69--------70--------71--------72--------73
            LAT            LON  P-LENGHT     SWH_o     SWH_c     P-DIR      LINE     POINT     ROW-Y     COL-X  M-INTENC        dB      WIND INC-ANGLE  ENERGY-M  ENERGY-N  ENERGY-R ENERGY-NN  FG-DEPTH      FLAG         HEADING-DEG    E30-75   E75-390  E390-600 meanincut   meanout   cut/out  STD-NORM  SPEC-MAX   GL-MEAN    GL-VAR      CORR   ENTROPY   HOMOGEN    ENERGY  CONTRAST  DISSIMIL     STD-O    E 1-30 E600-2000   E2000 >      GODA  LONG-HIG     Tmean  CONVOLUT  MEAN-DIR  relation     Sy/Sx  SKEWNESS  KURTOSIS  cutoff-A >50/10000     INT*V   INT-LOG  S-1_g1f1  S-2_g1f2  S-3_g1f3  S-4_g2f1  S-5_g2f2  S-6_g2f3  S-7_g3f1  S-8_g3f2  S-9_g3f3 S-10_g1f4 S-11_g2f4 S-12_g3f4 S-13_g1f5 S-14_g2f5 S-15_g3f5 S-16_g4f1 S-17_g4f2 S-18_g4f3 S-19_g4f4 S-20_g4f5
--------------1--------------2---------3---------4---------5---------6---------7---------8---------9--------10--------11--------12--------13--------14--------15--------16--------17--------18--------19--------20------------------21--------22--------23--------24--------25--------26--------27--------28--------29--------30--------31--------32--------33--------34--------35--------36--------37--------38--------39--------40--------41--------42--------43--------44--------45--------46--------47--------48--------49--------50--------51--------52--------53--------54--------55--------56--------57--------58--------59--------60--------61--------62--------63--------64--------65--------66--------67--------68--------69--------70--------71--------72--------73--------74
     -32.204708    -121.188362     218.4      0.90      2.57     132.0         1         1      1000      1000    137.38   -18.621       4.4      36.3   268.251     0.597     112.4   0.07706      41.0         H               347.1  0.047010  0.036869  0.001171  2.917261  0.668466  4.364115  1.097089     71.88    2.2801    8.9934   0.11498   4.01966   0.38090   0.03761  15.91859   2.64632     150.7  0.510849  0.001505  0.000187  0.000164  0.217442  7.358987  0.608106    133.14  1.000120  1.000007     2.611    14.988     117.4      70.7      18.2     161.6     13.58    -10.07     -0.15      1.07     -0.15      2.54     -2.63      4.65      1.75     -0.61     -2.28     -0.56     -6.63     -0.30      4.00     -6.75      4.38      2.10     -1.63      2.20
     -32.190102    -121.126595     211.0      0.69      2.57     130.2         1         2      1000      2307    126.11   -18.992       4.3      36.6   266.207     0.587      93.2   0.07237      36.9         H               347.1  0.045962  0.033899  0.000940  2.772755  0.657888  4.214631  1.087049     55.51    2.0608    7.4138   0.10634   3.85605   0.40109   0.04354  13.25079   2.42058     137.1  0.505240  0.001180  0.000151  0.000153  0.213172  7.316200  0.596961    129.83  1.000040  1.000002     2.523    13.971     114.0      68.6      15.3     138.2     13.16     -9.90     -0.24      1.75     -0.57      2.86     -2.17      3.92      1.18     -1.04     -2.80     -0.10     -6.35     -0.76      3.55     -5.56      3.92      3.79     -3.02      1.54
     -32.175591    -121.065392     196.9      0.73      2.57     137.9         1         3      1000      3614    122.20   -19.129       4.3      37.0   265.883     0.585      75.3   0.07118      30.2         H               347.1  0.045334  0.033991  0.000794  2.792617  0.662446  4.215615  1.085170     58.48    1.9801    6.9431   0.10345   3.79134   0.40968   0.04650  12.44962   2.34162     132.6  0.504119  0.000889  0.000092  0.000152  0.213176  7.320961  0.594525    136.42  1.000055  1.000002     2.517    13.813     114.0      67.5      14.4     131.7     13.16     -9.89     -0.81      1.70     -0.15      2.46     -2.70      4.32      1.77     -0.19     -2.58     -1.13     -6.59     -0.44      3.45     -4.76      4.01      2.94     -2.38      2.04
     -32.152527    -121.205086     208.2      0.58      2.57     141.7         2         1      2446      1000    126.13   -18.992       4.1      36.3   264.622     0.582      98.9   0.07034      35.4         H               347.1  0.044407  0.032409  0.000981  2.781214  0.646085  4.304718  1.083172     46.26    2.0584    7.3726   0.10208   3.85470   0.40107   0.04360  13.24012   2.42165     136.6  0.502871  0.001452  0.000157  0.000138  0.209675  7.295800  0.591210    137.15  1.000070  1.000003     2.475    13.102     110.8      68.6      15.2     128.0     13.00     -8.95     -0.69      1.48     -0.29      2.60     -1.58      3.65      2.23      0.24     -2.64     -1.27     -5.29     -0.34      3.01     -6.10      3.27      2.60     -2.87      1.50
     -32.137928    -121.143349     210.1      0.56      2.57     137.9         2         2      2446      2307    121.93   -19.139       4.2      36.7   265.624     0.581      84.6   0.06920      36.4         H               347.1  0.044122  0.031877  0.001006  2.732443  0.636330  4.294067  1.081324     40.42    1.9785    6.8500   0.09809   3.79143   0.40865   0.04587  12.35614   2.33883     131.8  0.503089  0.001102  0.000116  0.000141  0.210301  7.286301  0.589697    132.57  1.000090  1.000004     2.495    13.552     114.0      67.9      14.2     125.3     13.06     -9.13     -0.41      1.51     -0.37      3.08     -1.45      3.09      1.49     -0.53     -3.19     -0.73     -5.66     -0.18      2.71     -6.29      4.45      3.91     -3.50      2.74
     -32.123425    -121.082184     197.2      0.90      2.57     127.1         2         3      2446      3614    131.46   -18.812       4.6      37.0   265.306     0.584      87.1   0.07241      30.3         H               347.1  0.044103  0.035209  0.001053  2.878426  0.648994  4.435212  1.085069     46.85    2.1628    8.0461   0.10588   3.93508   0.39020   0.04033  14.38835   2.52710     142.6  0.503187  0.001072  0.000127  0.000148  0.214010  7.350399  0.594048    130.52  1.000050  1.000001     2.523    13.775     114.0      69.7      16.6     141.0     13.23     -9.14     -0.48      1.49     -0.28      3.20     -2.10      3.75      1.23     -1.01     -2.47     -0.12     -5.93     -0.47      3.40     -6.10      4.32      4.38     -2.36      2.13
     -32.100342    -121.221786     204.3      0.24      2.57     132.3         3         1      3892      1000    108.94   -19.628       3.7      36.3   264.986     0.575     252.4   0.06592      33.5         H               347.1  0.041909  0.027042  0.001169  2.285147  0.627459  3.641904  1.078357     44.67    1.7195    5.4252   0.08979   3.56827   0.43832   0.05689   9.87606   2.08295     117.5  0.501116  0.003875  0.000677  0.000137  0.208935  7.231965  0.583833    131.90  0.999942  0.999998     2.490    13.741     121.0      64.4      11.4     119.2     13.19     -8.89     -0.45      0.72     -0.43      2.09     -1.09      3.89      1.52     -0.40     -2.41     -0.73     -5.43     -0.69      3.59     -9.00      3.51      2.10     -2.09      0.87
     -32.085751    -121.160088     217.9      0.48      2.57     135.9         3         2      3892      2307    114.57   -19.409       4.0      36.7   264.561     0.576     102.1   0.06706      40.7         H               347.1  0.042394  0.030657  0.001018  2.554461  0.637415  4.007533  1.077234     52.31    1.8333    5.9921   0.09297   3.66991   0.42484   0.05147  10.86999   2.19097     123.4  0.501023  0.001422  0.000187  0.000142  0.210971  7.291320  0.584805    132.45  1.000068  1.000003     2.476    13.517     117.4      66.1      12.6     123.7     13.25     -9.17     -0.11      1.05     -0.38      2.48     -1.63      3.83      1.39     -1.02     -2.26     -0.54     -5.75     -0.18      3.42     -7.03      3.28      2.69     -1.81      1.54
     -32.071259    -121.098961     217.9      0.65      2.57     128.0         3         3      3892      3614    120.74   -19.181       4.3      37.0   263.495     0.576      75.1   0.06740      40.7         H               347.1  0.042473  0.032005  0.000854  2.576376  0.632017  4.076435  1.077133     42.83    1.9510    6.6714   0.09502   3.76916   0.41145   0.04708  12.07487   2.31637     130.0  0.499819  0.000956  0.000094  0.000141  0.216085  7.334824  0.584505    130.89  1.000059  1.000003     2.439    12.832     117.4      67.4      13.9     119.6     13.42     -9.53     -0.35      1.09      0.07      2.60     -2.67      4.28      1.32     -1.03     -2.22     -0.25     -5.73     -0.15      3.07     -5.61      3.80      3.01     -1.68      2.05
