corner points
-129.6307068    1.196233034
-129.6673431    1.37151885
-129.4562073    1.233470559
-129.4928284    1.408715725
========== RESULTS WAVE VERSION 16.10.2018 ====================
IMAGE SIZE  X: 4376     Y:4787    col:row     POLARIZATION:VV
COVERAGE    X: 19.79141175km       Y: 19.86494565km 
RESOLUTION dX: 4.522717493m       dY:4.149769301m  
resolution of original product 4.522717493m x 4.149769301m;   raster step x:5997.123396m  
===============================================================
FLAGS: H=HIGH PROBABILITY SEA STATE, I=LAND(ISLAND), O=OUTLIER NO SEA STATE, N=NO WIND AVAILABLE, SEA STATE NOT VISIBLE, M=MEAN PROBABILITY SEA STATE, L= LOW PROBABILITY SEA STATE
Filtering wave length
 integration  Lmin=1m
 integration  Lmax=2200m
  peak        Lmin=100m
               FFT=1024pixels, 4631.262713m 
   mean-Hs (SWH_c)=0.600773468m
         mean-wind=10.28189373m/s
--------------0--------------1---------2---------3---------4---------5---------6---------7---------8---------9--------10--------11--------12--------13--------14--------15--------16--------17--------18--------19------------------20--------21--------22--------23--------24--------25--------26--------27--------28--------29--------30--------31--------32--------33--------34--------35--------36--------37--------38--------39--------40--------41--------42--------43--------44--------45--------46--------47--------48--------49--------50--------51--------52--------53--------54--------55--------56--------57--------58--------59--------60--------61--------62--------63--------64--------65--------66--------67--------68--------69--------70--------71--------72--------73
            LAT            LON  P-LENGHT     SWH_o     SWH_c     P-DIR      LINE     POINT     ROW-Y     COL-X  M-INTENC        dB      WIND INC-ANGLE  ENERGY-M  ENERGY-N  ENERGY-R ENERGY-NN  FG-DEPTH      FLAG         HEADING-DEG    E30-75   E75-390  E390-600 meanincut   meanout   cut/out  STD-NORM  SPEC-MAX   GL-MEAN    GL-VAR      CORR   ENTROPY   HOMOGEN    ENERGY  CONTRAST  DISSIMIL     STD-O    E 1-30 E600-2000   E2000 >      GODA  LONG-HIG     Tmean  CONVOLUT  MEAN-DIR  relation     Sy/Sx  SKEWNESS  KURTOSIS  cutoff-A >50/10000     INT*V   INT-LOG  S-1_g1f1  S-2_g1f2  S-3_g1f3  S-4_g2f1  S-5_g2f2  S-6_g2f3  S-7_g3f1  S-8_g3f2  S-9_g3f3 S-10_g1f4 S-11_g2f4 S-12_g3f4 S-13_g1f5 S-14_g2f5 S-15_g3f5 S-16_g4f1 S-17_g4f2 S-18_g4f3 S-19_g4f4 S-20_g4f5
--------------1--------------2---------3---------4---------5---------6---------7---------8---------9--------10--------11--------12--------13--------14--------15--------16--------17--------18--------19--------20------------------21--------22--------23--------24--------25--------26--------27--------28--------29--------30--------31--------32--------33--------34--------35--------36--------37--------38--------39--------40--------41--------42--------43--------44--------45--------46--------47--------48--------49--------50--------51--------52--------53--------54--------55--------56--------57--------58--------59--------60--------61--------62--------63--------64--------65--------66--------67--------68--------69--------70--------71--------72--------73--------74
       1.241461    -129.598053     251.1      0.70      2.94      19.0         1         1      1000      1000    376.44   -14.243      10.5      36.9   219.606     0.566     171.1   0.07458      73.8         H               348.0  0.045382  0.019479  0.001237  1.438760  0.676019  2.128283  1.067799     23.75    7.0324   63.5578   0.11261   6.02173   0.17803   0.00504 112.79985   7.29801     402.0  0.497193  0.002284  0.000412  0.000108  0.211633  7.063864  0.571392     45.22  1.000016  1.000002     2.374    12.130      94.9      90.8     130.9     399.7     13.80      2.68     -5.27     -2.62      2.07      5.60      0.17     -1.66      0.96      1.36      0.93      1.02     -0.41     -1.17      0.71    -14.10      2.22     11.13     -0.10     -0.83
       1.252783    -129.544983     338.6      0.61      2.94     163.0         1         2      1000      2326    356.83   -14.475      10.4      37.3   219.344     0.565     178.2   0.07433     100.0         H               348.0  0.045672  0.018661  0.001865  1.419451  0.685651  2.070224  1.067667     23.02    6.6456   57.1596   0.11309   5.91734   0.18562   0.00557 101.39032   6.91246     381.0  0.496562  0.002423  0.000415  0.000103  0.207111  7.027768  0.571350     94.87  1.000033  1.000003     2.403    12.748      97.3      90.2     116.9     410.2     13.86      2.29     -5.09     -3.63      1.49      6.08      2.22      0.12     -0.59      1.77      1.68     -1.34     -0.22     -1.07      0.66    -19.78     -1.56     14.66      4.86     -0.86
       1.264006    -129.492371     301.0      0.59      2.94     157.0         1         3      1000      3652    324.58   -14.887      10.0      37.6   219.088     0.561     146.8   0.07172     100.0         H               348.0  0.044770  0.018965  0.001381  1.373925  0.679245  2.022724  1.063650     19.82    6.0043   47.2263   0.10804   5.73072   0.19973   0.00669  84.24837   6.30005     345.2  0.493854  0.002392  0.000299  0.000106  0.209844  7.054033  0.567194     68.04  1.000010  1.000001     2.367    12.236      94.9      88.9      95.6     349.1     13.72      1.72     -5.32     -3.11      2.57      5.51      1.13     -1.04      0.60      1.64      0.87      0.43      0.09     -1.45      1.09    -15.99      2.70     11.76      0.41     -2.80
       1.294381    -129.609100     350.0      0.81      2.94     171.3         2         1      2445      1000    396.45   -14.018      10.9      36.9   219.413     0.565      94.5   0.07458     100.0         H               348.0  0.045579  0.019914  0.001643  1.451516  0.682699  2.126144  1.066965     27.96    7.4270   69.8429   0.11229   6.12317   0.17032   0.00453 124.00134   7.67163     422.9  0.496788  0.001531  0.000135  0.000106  0.211877  7.060384  0.570991    101.61  1.000009  1.000000     2.406    12.707      92.7      91.5     145.7     442.5     14.01      2.00     -5.55     -3.75      2.36      6.49      1.56     -0.91     -0.37      2.20      0.47      0.17      0.33     -1.61      1.02    -18.00      2.05     14.47     -0.00     -2.54
       1.305699    -129.556046     323.7      0.58      2.94     172.0         2         2      2445      2326    329.80   -14.817       9.9      37.3   219.306     0.562     137.8   0.07209     100.0         H               348.0  0.045114  0.018431  0.001520  1.397256  0.669743  2.086257  1.064160     22.29    6.1085   48.8082   0.10787   5.76232   0.19701   0.00649  87.08588   6.40375     351.0  0.495038  0.002042  0.000284  0.000104  0.205385  7.013361  0.567644     99.41  0.999993  0.999999     2.361    12.049      92.7      89.1      98.7     343.6     13.74      2.07     -5.38     -3.32      1.60      6.19      1.79     -0.22     -0.57      1.02      1.70     -0.39      0.31     -1.90      1.21    -17.78     -0.19     14.65      4.02     -3.82
       1.316918    -129.503433     345.1      0.58      2.94     167.1         2         3      2445      3652    318.45   -14.970       9.9      37.6   219.841     0.561     153.8   0.07059     100.0         H               348.0  0.044543  0.018126  0.001609  1.285949  0.681401  1.887214  1.063268     26.24    5.8821   45.4884   0.10491   5.69300   0.20260   0.00694  81.43227   6.19221     338.6  0.494404  0.002168  0.000343  0.000105  0.208910  7.006163  0.566119     91.61  0.999992  0.999999     2.347    11.867      92.7      88.6      91.7     319.6     14.11      1.45     -6.19     -4.32      2.30      6.16      1.52     -1.49      0.02      1.06      0.36      0.57      0.68     -1.67      0.62    -19.16      3.22     13.91      0.20     -2.82
       1.347301    -129.620163     314.6      0.68      2.94     164.2         3         1      3890      1000    377.62   -14.229      10.5      36.9   219.113     0.564     149.6   0.07430     100.0         H               348.0  0.045414  0.019181  0.001495  1.443264  0.683968  2.110135  1.065995     24.33    7.0545   63.6570   0.11185   6.02782   0.17714   0.00499 113.07339   7.31819     402.5  0.495845  0.002097  0.000340  0.000106  0.207798  7.033515  0.569716     79.78  1.000023  1.000002     2.379    12.240      92.7      90.8     131.4     394.8     13.69      1.92     -4.88     -2.88      2.76      5.31      1.26     -1.44      0.49      2.37      0.04      1.10     -0.33     -1.28      0.76    -16.29      3.87     11.06     -1.93     -1.55
       1.358615    -129.567093     323.7      0.59      2.94     172.0         3         2      3890      2326    340.18   -14.683      10.1      37.3   219.079     0.563     127.1   0.07285     100.0         H               348.0  0.045051  0.018678  0.001906  1.388152  0.669356  2.073864  1.064851     20.70    6.3148   51.8724   0.10947   5.82340   0.19267   0.00611  92.38780   6.59723     362.3  0.495123  0.002104  0.000250  0.000104  0.208248  7.026717  0.568546    114.00  0.999989  0.999999     2.369    12.203      92.7      89.6     105.4     358.6     14.08      1.12     -5.50     -4.32      2.63      6.36      2.31     -0.89     -0.76      1.73      1.24     -1.03      0.28     -1.67      1.32    -20.95      2.94     15.18      3.31     -3.54
       1.369830    -129.514481     338.6      0.59      2.94     163.0         3         3      3890      3652    332.32   -14.784      10.2      37.7   219.730     0.564     152.8   0.07264     100.0         H               348.0  0.045260  0.019209  0.001842  1.411789  0.675554  2.089825  1.066147     24.89    6.1578   49.6064   0.10949   5.77688   0.19587   0.00640  88.35001   6.45122     354.3  0.495298  0.002263  0.000325  0.000108  0.208324  7.030612  0.569805    105.28  0.999963  0.999999     2.400    12.811      92.7      89.2     100.5     380.0     13.86      1.37     -5.93     -3.77      2.55      6.74      2.28     -0.67     -0.57      1.88      0.78      0.54      1.11     -2.15      0.86    -19.47      2.78     16.02      0.09     -4.04
