corner points
-125.3687897    -24.79071617
-125.4147034    -24.61124802
-125.172905    -24.74727821
-125.2191925    -24.56788445
========== RESULTS WAVE VERSION 16.10.2018 ====================
IMAGE SIZE  X: 5471     Y:4924    col:row     POLARIZATION:VV
COVERAGE    X: 20.30782493km       Y: 20.44250769km 
RESOLUTION dX: 3.711903661m       dY:4.151605948m  
resolution of original product 3.711903661m x 4.151605948m;   raster step x:5998.436317m  
===============================================================
FLAGS: H=HIGH PROBABILITY SEA STATE, I=LAND(ISLAND), O=OUTLIER NO SEA STATE, N=NO WIND AVAILABLE, SEA STATE NOT VISIBLE, M=MEAN PROBABILITY SEA STATE, L= LOW PROBABILITY SEA STATE
Filtering wave length
 integration  Lmin=1m
 integration  Lmax=2200m
  peak        Lmin=100m
               FFT=1024pixels, 3800.989349m 
   mean-Hs (SWH_c)=1.787924194m
         mean-wind=5.638065815m/s
--------------0--------------1---------2---------3---------4---------5---------6---------7---------8---------9--------10--------11--------12--------13--------14--------15--------16--------17--------18--------19------------------20--------21--------22--------23--------24--------25--------26--------27--------28--------29--------30--------31--------32--------33--------34--------35--------36--------37--------38--------39--------40--------41--------42--------43--------44--------45--------46--------47--------48--------49--------50--------51--------52--------53--------54--------55--------56--------57--------58--------59--------60--------61--------62--------63--------64--------65--------66--------67--------68--------69--------70--------71--------72--------73
            LAT            LON  P-LENGHT     SWH_o     SWH_c     P-DIR      LINE     POINT     ROW-Y     COL-X  M-INTENC        dB      WIND INC-ANGLE  ENERGY-M  ENERGY-N  ENERGY-R ENERGY-NN  FG-DEPTH      FLAG         HEADING-DEG    E30-75   E75-390  E390-600 meanincut   meanout   cut/out  STD-NORM  SPEC-MAX   GL-MEAN    GL-VAR      CORR   ENTROPY   HOMOGEN    ENERGY  CONTRAST  DISSIMIL     STD-O    E 1-30 E600-2000   E2000 >      GODA  LONG-HIG     Tmean  CONVOLUT  MEAN-DIR  relation     Sy/Sx  SKEWNESS  KURTOSIS  cutoff-A >50/10000     INT*V   INT-LOG  S-1_g1f1  S-2_g1f2  S-3_g1f3  S-4_g2f1  S-5_g2f2  S-6_g2f3  S-7_g3f1  S-8_g3f2  S-9_g3f3 S-10_g1f4 S-11_g2f4 S-12_g3f4 S-13_g1f5 S-14_g2f5 S-15_g3f5 S-16_g4f1 S-17_g4f2 S-18_g4f3 S-19_g4f4 S-20_g4f5
--------------1--------------2---------3---------4---------5---------6---------7---------8---------9--------10--------11--------12--------13--------14--------15--------16--------17--------18--------19--------20------------------21--------22--------23--------24--------25--------26--------27--------28--------29--------30--------31--------32--------33--------34--------35--------36--------37--------38--------39--------40--------41--------42--------43--------44--------45--------46--------47--------48--------49--------50--------51--------52--------53--------54--------55--------56--------57--------58--------59--------60--------61--------62--------63--------64--------65--------66--------67--------68--------69--------70--------71--------72--------73--------74
     -24.746136    -125.341377     211.9      1.80      2.41     123.3         1         1      1000      1000   2248.29    -6.481       5.6      23.2   371.937     0.775      96.7   0.18848      37.3         H               347.5  0.088057  0.080746  0.000855  6.571249  0.951308  6.907593  1.249100    101.46    4.0112   30.7586   0.28731   4.92525   0.30664   0.01977  43.84234   4.14753    2808.2  0.605020  0.000775  0.000029  0.000221  0.201190  7.319719  0.821844    115.15  1.000175  1.000019     3.369    24.089      90.6      79.2      55.4     361.6     13.03     -9.12      0.68      2.92     -1.29      4.11     -2.87      4.94      1.95     -2.09     -3.24     -0.37     -5.33     -0.53      4.19     -1.41      0.55      4.47     -1.64      0.33
     -24.733187    -125.282928     210.6      1.82      2.41     133.9         1         2      1000      2616   2068.50    -6.843       5.8      23.7   371.089     0.770     100.3   0.18423      36.6         H               347.5  0.085655  0.079569  0.001056  6.354214  0.927640  6.849867  1.244921    105.25    3.6659   26.1440   0.28188   4.76697   0.32405   0.02309  37.54865   3.82700    2575.0  0.603727  0.000829  0.000024  0.000226  0.203198  7.309618  0.815957    120.42  1.000184  1.000020     3.321    23.295      94.9      77.4      46.8     325.4     13.36     -9.59      0.67      2.21     -0.76      3.95     -3.26      5.56      1.49     -1.76     -2.86     -0.15     -5.83     -0.64      4.79     -2.35      1.01      4.89     -1.65      0.19
     -24.720457    -125.225578     227.5      1.80      2.41     134.1         1         3      1000      4232   1907.36    -7.196       5.9      24.2   370.739     0.768      96.7   0.18415      47.1         H               347.5  0.084744  0.078267  0.001067  6.411876  0.952398  6.732348  1.241299    119.36    3.3404   22.1516   0.28215   4.60536   0.34192   0.02685  31.80362   3.51367    2367.5  0.603980  0.000810  0.000023  0.000228  0.202178  7.326268  0.813860    118.07  1.000195  1.000020     3.327    23.490      92.7      75.6      39.6     311.0     13.38     -9.34     -0.04      1.72     -0.18      4.03     -3.14      5.35      1.57     -0.85     -2.55     -0.50     -5.16     -0.60      4.36     -2.76      1.20      5.60     -1.85     -0.50
     -24.693462    -125.354889     218.0      1.72      2.41     131.8         2         1      2445      1000   2221.47    -6.534       5.5      23.2   374.886     0.783     104.5   0.18959      40.8         H               347.5  0.089612  0.079763  0.001162  6.512325  0.950239  6.853355  1.252279    102.46    3.9592   30.3956   0.28595   4.89979   0.30977   0.02042  43.40794   4.10643    2781.6  0.612098  0.000846  0.000031  0.000228  0.202536  7.298735  0.830108    117.62  1.000193  1.000021     3.365    23.662      94.9      78.8      54.4     354.8     13.37     -9.62      0.93      2.26     -1.05      4.08     -3.09      5.43      1.13     -1.95     -3.19     -0.32     -5.49     -0.47      4.70     -2.65      0.41      5.07     -2.11      0.11
     -24.680521    -125.296463     219.2      1.86      2.41     136.2         2         2      2445      2616   2033.02    -6.919       5.7      23.7   374.961     0.785     114.1   0.19095      41.5         H               347.5  0.088263  0.082117  0.001106  6.348821  0.949041  6.689721  1.255619    127.62    3.5834   25.5068   0.28727   4.72301   0.33006   0.02434  36.35879   3.74494    2552.6  0.612619  0.000984  0.000039  0.000237  0.206223  7.322787  0.832326    123.45  1.000188  1.000021     3.432    24.877      94.9      76.8      45.5     317.4     13.67    -10.02      0.86      1.80     -0.63      3.38     -4.08      6.32      1.03     -2.07     -2.27      0.17     -6.59     -0.15      5.13     -2.49      0.34      4.27     -1.26      0.51
     -24.667797    -125.239143     225.5      1.71      2.41     129.5         2         3      2445      4232   1845.89    -7.338       5.7      24.2   368.795     0.763     100.2   0.18122      45.7         H               347.5  0.084937  0.076984  0.001090  6.144370  0.948557  6.477600  1.238780    108.74    3.2193   20.6328   0.27984   4.54269   0.34902   0.02838  29.71814   3.39768    2286.4  0.599918  0.000809  0.000023  0.000223  0.205818  7.319519  0.808237    118.94  1.000185  1.000019     3.311    23.130      94.9      75.0      36.9     292.4     13.65     -9.72      0.55      1.53     -0.02      3.76     -3.63      6.07      1.31     -1.12     -2.41      0.03     -5.64      0.08      4.82     -2.96      1.31      4.73     -1.30      0.34
     -24.640789    -125.368378     200.3      1.62      2.41     127.8         3         1      3890      1000   2234.12    -6.509       5.6      23.2   374.241     0.785     122.3   0.19213      31.7         H               347.5  0.090877  0.077732  0.001391  6.553743  0.962740  6.807389  1.255475     80.56    3.9819   30.6932   0.28906   4.91093   0.30787   0.02000  43.64211   4.12359    2804.5  0.614510  0.001122  0.000075  0.000227  0.195398  7.246596  0.832808    108.93  1.000180  1.000021     3.462    25.398      92.7      79.1      55.2     365.4     13.36     -8.78      0.50      2.12     -1.42      4.45     -2.74      4.93      0.82     -2.25     -3.08     -0.05     -5.11     -0.85      4.64     -3.88      0.35      6.15     -1.37     -0.98
     -24.627853    -125.309998     228.1      1.91      2.41     138.7         3         2      3890      2616   1954.76    -7.089       5.4      23.7   375.419     0.786     115.7   0.19165      47.5         H               347.5  0.088122  0.084326  0.001354  6.555699  0.971475  6.748191  1.256842    115.82    3.4341   23.7306   0.28901   4.64846   0.33846   0.02604  33.74442   3.59680    2456.6  0.611305  0.001038  0.000037  0.000233  0.205459  7.339867  0.834133    121.41  1.000176  1.000019     3.449    25.146      92.7      76.1      42.2     316.3     13.52    -10.35      0.74      1.77     -0.52      3.53     -3.49      6.25      0.82     -2.21     -2.32      0.69     -6.63     -0.60      5.33     -2.98      1.15      5.14     -1.68     -0.26
     -24.615137    -125.252701     235.3      1.85      2.41     146.1         3         3      3890      4232   1770.48    -7.519       5.4      24.2   371.404     0.770     105.7   0.18429      53.5         H               347.5  0.084458  0.081032  0.001174  6.346462  0.943311  6.727859  1.244808    104.03    3.0665   19.1087   0.28246   4.45612   0.35996   0.03111  27.42268   3.25163    2204.0  0.603137  0.000862  0.000029  0.000230  0.206139  7.358377  0.816231    121.46  1.000191  1.000019     3.338    23.338      90.6      73.8      34.1     270.0     13.43     -9.94      0.01      1.83     -0.41      3.93     -3.40      5.94      1.64     -0.85     -2.78     -0.54     -6.07     -0.47      4.99     -2.78      1.14      5.17     -1.90      0.10
