corner points
-132.1726379    13.59036255
-132.2080994    13.76550484
-131.9929962    13.62508392
-132.0283203    13.80019474
========== RESULTS WAVE VERSION 16.10.2018 ====================
IMAGE SIZE  X: 4376     Y:4783    col:row     POLARIZATION:VV
COVERAGE    X: 19.75027189km       Y: 19.80064168km 
RESOLUTION dX: 4.513316245m       dY:4.139795459m  
resolution of original product 4.513316245m x 4.139795459m;   raster step x:5998.197289m  
===============================================================
FLAGS: H=HIGH PROBABILITY SEA STATE, I=LAND(ISLAND), O=OUTLIER NO SEA STATE, N=NO WIND AVAILABLE, SEA STATE NOT VISIBLE, M=MEAN PROBABILITY SEA STATE, L= LOW PROBABILITY SEA STATE
Filtering wave length
 integration  Lmin=1m
 integration  Lmax=2200m
  peak        Lmin=100m
               FFT=1024pixels, 4621.635835m 
   mean-Hs (SWH_c)=0.6333031464m
         mean-wind=11.38127613m/s
--------------0--------------1---------2---------3---------4---------5---------6---------7---------8---------9--------10--------11--------12--------13--------14--------15--------16--------17--------18--------19------------------20--------21--------22--------23--------24--------25--------26--------27--------28--------29--------30--------31--------32--------33--------34--------35--------36--------37--------38--------39--------40--------41--------42--------43--------44--------45--------46--------47--------48--------49--------50--------51--------52--------53--------54--------55--------56--------57--------58--------59--------60--------61--------62--------63--------64--------65--------66--------67--------68--------69--------70--------71--------72--------73
            LAT            LON  P-LENGHT     SWH_o     SWH_c     P-DIR      LINE     POINT     ROW-Y     COL-X  M-INTENC        dB      WIND INC-ANGLE  ENERGY-M  ENERGY-N  ENERGY-R ENERGY-NN  FG-DEPTH      FLAG         HEADING-DEG    E30-75   E75-390  E390-600 meanincut   meanout   cut/out  STD-NORM  SPEC-MAX   GL-MEAN    GL-VAR      CORR   ENTROPY   HOMOGEN    ENERGY  CONTRAST  DISSIMIL     STD-O    E 1-30 E600-2000   E2000 >      GODA  LONG-HIG     Tmean  CONVOLUT  MEAN-DIR  relation     Sy/Sx  SKEWNESS  KURTOSIS  cutoff-A >50/10000     INT*V   INT-LOG  S-1_g1f1  S-2_g1f2  S-3_g1f3  S-4_g2f1  S-5_g2f2  S-6_g2f3  S-7_g3f1  S-8_g3f2  S-9_g3f3 S-10_g1f4 S-11_g2f4 S-12_g3f4 S-13_g1f5 S-14_g2f5 S-15_g3f5 S-16_g4f1 S-17_g4f2 S-18_g4f3 S-19_g4f4 S-20_g4f5
--------------1--------------2---------3---------4---------5---------6---------7---------8---------9--------10--------11--------12--------13--------14--------15--------16--------17--------18--------19--------20------------------21--------22--------23--------24--------25--------26--------27--------28--------29--------30--------31--------32--------33--------34--------35--------36--------37--------38--------39--------40--------41--------42--------43--------44--------45--------46--------47--------48--------49--------50--------51--------52--------53--------54--------55--------56--------57--------58--------59--------60--------61--------62--------63--------64--------65--------66--------67--------68--------69--------70--------71--------72--------73--------74
      13.635021    -132.138550     371.4      0.78      2.60      28.8         1         1      1000      1000    466.35   -13.313      12.2      37.0   218.648     0.562      71.7   0.07571     100.0         H               347.9  0.047778  0.016576  0.001528  1.303510  0.686023  1.900096  1.063697     36.99    8.8049   93.9922   0.11268   6.43891   0.14875   0.00326 166.80124   8.98111     496.0  0.495252  0.001145  0.000087  0.000123  0.182072  6.819736  0.565696     53.15  1.000092  1.000006     2.403    12.924      97.3      93.4     204.4     538.9     13.92      5.50     -5.35     -5.76     -5.52      5.42      3.99      1.49     -1.59     -4.26      5.03     -1.64     -2.19      1.69      0.26    -22.81    -13.32     13.90     12.27      4.35
      13.645605    -132.083786     355.7      0.75      2.60      22.6         1         2      1000      2329    428.54   -13.680      11.8      37.3   219.193     0.563      91.3   0.07494     100.0         H               347.9  0.047305  0.017325  0.001913  1.339396  0.678549  1.973913  1.064196     54.82    8.0629   80.6447   0.11256   6.27621   0.16008   0.00387 143.13293   8.27577     456.0  0.494925  0.001318  0.000127  0.000128  0.186676  6.847291  0.566545     41.91  1.000081  1.000006     2.366    12.294      99.7      92.6     171.1     469.7     14.57      6.62     -6.04     -7.16     -6.95      6.85      4.51      2.75     -2.42     -4.69      6.33     -2.83     -1.82      1.42      0.16    -26.07    -18.24     17.77     16.66      3.75
      13.656088    -132.029495     356.7      0.64      2.60      32.7         1         3      1000      3658    372.09   -14.294      11.0      37.7   219.392     0.562     153.2   0.07347     100.0         H               347.9  0.046372  0.017010  0.001707  1.339997  0.667264  2.008198  1.064500     46.00    6.9493   61.7547   0.11057   6.00047   0.17864   0.00511 109.85324   7.21736     396.0  0.495043  0.002164  0.000330  0.000122  0.184293  6.848254  0.566251     39.51  1.000081  1.000005     2.356    11.938      99.7      90.7     127.1     369.4     14.21      5.97     -5.75     -6.38     -6.48      6.20      4.40      2.35     -1.51     -4.66      5.72     -1.80     -1.36      0.98      0.74    -24.77    -16.39     15.11     13.91      1.83
      13.688089    -132.149277     385.3      0.66      2.60      24.6         2         1      2449      1000    425.81   -13.708      11.5      37.0   218.461     0.561      86.9   0.07428     100.0         H               347.9  0.047481  0.016551  0.001738  1.291057  0.686755  1.879940  1.062940     41.35    8.0101   79.5430   0.11196   6.26412   0.16040   0.00391 141.27414   8.22597     452.6  0.494289  0.001309  0.000135  0.000123  0.183360  6.815845  0.565080     49.03  1.000083  1.000005     2.366    12.157      97.3      92.4     168.7     449.0     14.22      5.87     -6.14     -6.42     -6.20      6.79      4.44      2.24     -2.06     -4.27      5.38     -1.97     -1.13      0.73      0.59    -24.68    -15.83     17.42     13.79      1.54
      13.698670    -132.094513     344.6      0.67      2.60      26.6         2         2      2449      2329    420.38   -13.764      11.7      37.3   218.198     0.560      87.6   0.07422     100.0         H               347.9  0.047047  0.016737  0.001753  1.285521  0.690280  1.862319  1.061953     48.16    7.9016   77.4172   0.11169   6.23892   0.16203   0.00400 137.54117   8.11679     446.4  0.493649  0.001351  0.000124  0.000124  0.184152  6.831244  0.564096     37.11  1.000077  1.000006     2.375    12.426      97.3      92.4     163.9     461.4     14.36      5.85     -6.61     -6.89     -6.35      7.21      4.49      2.04     -2.57     -5.03      6.26     -2.33     -0.99      0.21      1.15    -25.48    -15.70     18.69     15.37     -0.30
      13.709149    -132.040207     371.4      0.65      2.60      28.8         2         3      2449      3658    381.11   -14.190      11.2      37.7   219.257     0.561     117.6   0.07276     100.0         H               347.9  0.046428  0.016761  0.001721  1.313385  0.663885  1.978333  1.062934     44.11    7.1268   64.3556   0.10946   6.04750   0.17506   0.00485 114.62169   7.38145     405.0  0.494227  0.001795  0.000217  0.000121  0.186912  6.851654  0.564754     35.19  1.000065  1.000004     2.380    12.457      97.3      91.1     133.3     425.6     14.39      5.87     -5.89     -6.62     -5.78      6.59      4.13      1.50     -2.22     -4.20      5.21     -1.64     -1.64      0.75      0.93    -24.66    -14.13     16.81     12.13      1.38
      13.741157    -132.160019     371.4      0.64      2.60      28.8         3         1      3898      1000    399.79   -13.982      11.0      37.0   219.447     0.564      85.8   0.07503     100.0         H               347.9  0.047557  0.017416  0.002005  1.314754  0.675912  1.945157  1.065970     56.59    7.4953   70.9269   0.11271   6.14028   0.16880   0.00445 125.86538   7.74081     426.2  0.496283  0.001289  0.000113  0.000129  0.189763  6.852495  0.568659     37.50  1.000100  1.000006     2.384    12.340     105.0      91.6     148.0     427.8     14.75      7.24     -6.22     -7.77     -7.90      6.87      4.65      3.05     -2.14     -5.48      6.00     -1.72     -2.99      2.80     -0.72    -27.26    -20.46     17.45     14.68      7.94
      13.751736    -132.105225     344.6      0.65      2.60      26.6         3         2      3898      2329    394.61   -14.038      11.2      37.3   219.759     0.565      89.8   0.07480     100.0         H               347.9  0.047047  0.017440  0.002232  1.320569  0.688188  1.918909  1.066683     63.62    7.3915   69.1645   0.11273   6.11425   0.17089   0.00456 122.73534   7.63370     420.9  0.497547  0.001320  0.000137  0.000126  0.186920  6.852929  0.569588     34.18  1.000078  1.000005     2.403    12.615     102.3      91.6     144.2     424.4     14.75      7.03     -6.62     -8.11     -8.04      7.53      5.52      3.36     -3.00     -5.29      6.87     -2.92     -2.12      2.17     -0.14    -29.47    -21.04     20.17     17.57      5.13
      13.762212    -132.050903     365.6      0.62      2.60      18.4         3         3      3898      3658    359.24   -14.446      10.8      37.7   219.035     0.560      73.3   0.07200     100.0         H               347.9  0.046204  0.016841  0.001848  1.291228  0.671279  1.923532  1.061353     52.58    6.6941   57.3029   0.10720   5.93202   0.18389   0.00544 102.32013   6.96506     381.3  0.493771  0.001165  0.000081  0.000123  0.186502  6.857100  0.563283     32.58  1.000069  1.000005     2.364    12.278     102.3      90.4     117.6     390.1     14.37      6.18     -6.51     -6.88     -6.53      7.42      4.73      1.90     -2.74     -5.22      6.25     -2.37     -1.54      0.64      1.14    -25.74    -15.72     19.75     15.83      0.66
