corner points
-111.907959    -57.65936661
-112.0278168    -57.48895645
-111.5783997    -57.59033585
-111.6997833    -57.42023468
========== RESULTS WAVE VERSION 16.10.2018 ====================
IMAGE SIZE  X: 5471     Y:4903    col:row     POLARIZATION:VV
COVERAGE    X: 21.01694578km       Y: 20.20878842km 
RESOLUTION dX: 3.841518147m       dY:4.121719034m  
resolution of original product 3.841518147m x 4.121719034m;   raster step x:5996.609827m  
===============================================================
FLAGS: H=HIGH PROBABILITY SEA STATE, I=LAND(ISLAND), O=OUTLIER NO SEA STATE, N=NO WIND AVAILABLE, SEA STATE NOT VISIBLE, M=MEAN PROBABILITY SEA STATE, L= LOW PROBABILITY SEA STATE
Filtering wave length
 integration  Lmin=1m
 integration  Lmax=2200m
  peak        Lmin=100m
               FFT=1024pixels, 3933.714582m 
   mean-Hs (SWH_c)=2.600213928m
         mean-wind=6.722633839m/s
--------------0--------------1---------2---------3---------4---------5---------6---------7---------8---------9--------10--------11--------12--------13--------14--------15--------16--------17--------18--------19------------------20--------21--------22--------23--------24--------25--------26--------27--------28--------29--------30--------31--------32--------33--------34--------35--------36--------37--------38--------39--------40--------41--------42--------43--------44--------45--------46--------47--------48--------49--------50--------51--------52--------53--------54--------55--------56--------57--------58--------59--------60--------61--------62--------63--------64--------65--------66--------67--------68--------69--------70--------71--------72--------73
            LAT            LON  P-LENGHT     SWH_o     SWH_c     P-DIR      LINE     POINT     ROW-Y     COL-X  M-INTENC        dB      WIND INC-ANGLE  ENERGY-M  ENERGY-N  ENERGY-R ENERGY-NN  FG-DEPTH      FLAG         HEADING-DEG    E30-75   E75-390  E390-600 meanincut   meanout   cut/out  STD-NORM  SPEC-MAX   GL-MEAN    GL-VAR      CORR   ENTROPY   HOMOGEN    ENERGY  CONTRAST  DISSIMIL     STD-O    E 1-30 E600-2000   E2000 >      GODA  LONG-HIG     Tmean  CONVOLUT  MEAN-DIR  relation     Sy/Sx  SKEWNESS  KURTOSIS  cutoff-A >50/10000     INT*V   INT-LOG  S-1_g1f1  S-2_g1f2  S-3_g1f3  S-4_g2f1  S-5_g2f2  S-6_g2f3  S-7_g3f1  S-8_g3f2  S-9_g3f3 S-10_g1f4 S-11_g2f4 S-12_g3f4 S-13_g1f5 S-14_g2f5 S-15_g3f5 S-16_g4f1 S-17_g4f2 S-18_g4f3 S-19_g4f4 S-20_g4f5
--------------1--------------2---------3---------4---------5---------6---------7---------8---------9--------10--------11--------12--------13--------14--------15--------16--------17--------18--------19--------20------------------21--------22--------23--------24--------25--------26--------27--------28--------29--------30--------31--------32--------33--------34--------35--------36--------37--------38--------39--------40--------41--------42--------43--------44--------45--------46--------47--------48--------49--------50--------51--------52--------53--------54--------55--------56--------57--------58--------59--------60--------61--------62--------63--------64--------65--------66--------67--------68--------69--------70--------71--------72--------73--------74
     -57.611713    -111.870514     278.5      2.77      3.33      82.4         1         1      1000      1000   3030.70    -5.185       6.5      22.4   235.325     0.837     124.6   0.21792     100.0         H               342.4  0.092376  0.102887  0.001721  6.997717  1.035068  6.760638  1.297500    101.70    5.5447   57.4310   0.30773   5.49024   0.25287   0.01179  79.51543   5.57729    3932.2  0.640093  0.000811  0.000016  0.000233  0.226919  7.574028  0.885582     75.92  1.000336  1.000039     3.760    31.429     114.0      84.3     108.3     574.9     13.98      3.83      9.92      4.33      1.63      5.25     -1.56     -0.83     -1.20      4.38      2.13     -0.64      3.57      1.57     -0.01     -2.09      0.12      2.45      0.73      0.63
     -57.591850    -111.775429     236.0      2.71      3.33      73.8         1         2      1000      2561   2810.93    -5.512       6.8      22.8   241.531     0.866     139.6   0.22922      54.2         H               342.4  0.098937  0.103829  0.001908  7.382156  1.073662  6.875682  1.318717    106.21    5.1212   51.1559   0.31213   5.33911   0.26867   0.01389  70.37669   5.19041    3706.3  0.660956  0.001045  0.000029  0.000224  0.225255  7.514037  0.916295     76.18  1.000337  1.000040     4.010    37.929     117.4      82.7      95.0     605.2     14.32      3.79     10.06      3.66      1.17      4.67     -2.39     -1.43     -2.15      4.25      1.42     -1.43      3.34      1.69      0.22     -2.84     -0.15      2.21      0.19      0.72
     -57.572296    -111.682266     250.4      2.65      3.33      72.7         1         3      1000      4122   2546.57    -5.940       6.8      23.3   237.820     0.851     141.2   0.22403      72.5         H               342.4  0.095898  0.100709  0.002008  7.098479  1.068446  6.643744  1.307839    118.10    4.6031   42.2707   0.30845   5.14986   0.28681   0.01657  58.46484   4.70924    3330.2  0.651585  0.001104  0.000034  0.000234  0.227840  7.532920  0.898752     75.72  1.000309  1.000037     3.799    30.431     117.4      81.0      76.6     465.7     14.26      4.77      9.97      3.64      0.84      4.98     -1.86     -1.73     -1.45      5.75      1.41     -2.12      3.15      2.13      0.65     -2.84     -0.95      2.52     -0.28      1.16
     -57.561153    -111.906227     254.5      2.49      3.33      76.0         2         1      2455      1000   2941.71    -5.314       6.2      22.4   233.580     0.822     136.6   0.20868      81.1         H               342.4  0.090227  0.095795  0.001583  6.683826  1.035250  6.456244  1.285572     80.86    5.3803   53.8425   0.30040   5.44116   0.25659   0.01219  75.33785   5.43115    3781.5  0.633502  0.001174  0.000037  0.000231  0.222153  7.524540  0.867620     76.81  1.000336  1.000038     3.635    27.732     114.0      84.0     100.6     507.2     13.85      4.27      9.44      4.40      1.90      5.35     -1.49     -1.04     -0.83      4.67      2.42     -0.50      3.24      2.06      0.72     -1.89      0.41      2.71      0.59      1.05
     -57.541317    -111.811272     239.4      2.52      3.33      76.9         2         2      2455      2561   2750.85    -5.605       6.6      22.8   234.835     0.827     124.4   0.21087      57.6         H               342.4  0.091327  0.095806  0.002015  6.784397  1.013547  6.693718  1.288716     91.11    5.0020   47.5101   0.29949   5.30965   0.26839   0.01382  66.56196   5.08737    3544.8  0.637078  0.000923  0.000023  0.000227  0.225425  7.550565  0.871836     74.87  1.000311  1.000036     3.754    30.815     110.8      82.8      87.9     508.5     13.86      4.21      9.30      4.21      1.45      5.24     -1.03     -0.94     -0.46      4.94      1.98     -0.75      2.96      1.74      0.53     -2.70     -0.32      2.42     -0.12      1.07
     -57.521790    -111.718231     201.9      2.85      3.33      67.5         2         3      2455      4122   2634.90    -5.792       7.1      23.3   236.625     0.846     140.5   0.22135      32.4         H               342.4  0.093474  0.103120  0.002297  6.733772  1.035659  6.501917  1.303844    107.60    4.7758   44.8052   0.30744   5.21794   0.27972   0.01547  62.06057   4.87037    3435.0  0.646273  0.001235  0.000023  0.000241  0.229601  7.595428  0.894459     76.23  1.000345  1.000041     3.809    31.800     114.0      81.7      81.9     509.8     14.17      4.19      9.65      4.18      1.72      5.59     -1.69     -1.22     -1.37      4.93      2.26     -1.08      3.72      1.70      0.08     -3.32     -0.33      2.43     -0.04      0.32
     -57.510586    -111.941841     257.8      2.54      3.33      79.4         3         1      3910      1000   2990.37    -5.243       6.4      22.4   232.946     0.818     167.9   0.20692      91.0         H               342.4  0.088943  0.095567  0.001893  6.772905  1.042630  6.495980  1.281535    118.68    5.4882   55.4729   0.29963   5.47788   0.25289   0.01178  77.70331   5.53136    3831.7  0.630545  0.001719  0.000073  0.000228  0.225437  7.534233  0.863577     76.18  1.000346  1.000036     3.643    28.904     110.8      84.3     104.1     533.1     14.12      4.10      9.83      3.95      2.02      4.72     -1.91     -0.97     -1.75      4.56      2.66     -0.72      4.09      1.08     -0.52     -2.73      0.10      2.15      0.78      0.18
     -57.490776    -111.847015     232.1      2.55      3.33      70.7         3         2      3910      2561   2919.80    -5.346       7.2      22.8   232.890     0.820     127.1   0.20953      50.7         H               342.4  0.090904  0.094221  0.002263  6.452043  1.032943  6.246274  1.283542    136.27    5.3393   52.8928   0.30011   5.42957   0.25661   0.01217  74.03757   5.39255    3747.6  0.632391  0.001014  0.000018  0.000234  0.226540  7.523942  0.865542     73.97  1.000299  1.000034     3.705    29.549     110.8      84.1      99.1     531.7     14.19      4.99      9.36      3.36      1.92      4.49     -1.85     -1.53     -1.80      5.88      2.16     -1.30      3.00      1.07     -0.18     -3.55      0.31      2.70      0.18      0.96
     -57.471275    -111.754112     239.4      2.33      3.33      76.9         3         3      3910      4122   2590.59    -5.866       7.0      23.3   230.982     0.807     118.0   0.20206      57.6         H               342.4  0.087927  0.088463  0.001975  6.333200  1.007540  6.285807  1.273942     96.87    4.6854   41.7323   0.29297   5.19662   0.27891   0.01529  59.01186   4.79331    3299.9  0.628686  0.000900  0.000015  0.000217  0.224831  7.499694  0.850260     73.38  1.000300  1.000033     3.627    29.117     107.8      81.8      76.3     473.8     14.08      4.59      8.89      3.43      1.74      4.46     -1.60     -0.96     -1.18      5.07      2.46     -0.79      3.00      0.73     -0.16     -3.68     -0.48      1.81      0.19     -0.18
