corner points
-117.7103806    -47.45434189
-117.7880096    -47.27927017
-117.446106    -47.39816666
-117.5247116    -47.22327423
========== RESULTS WAVE VERSION 16.10.2018 ====================
IMAGE SIZE  X: 5471     Y:4909    col:row     POLARIZATION:VV
COVERAGE    X: 20.78569313km       Y: 20.28260739km 
RESOLUTION dX: 3.799249338m       dY:4.13171876m  
resolution of original product 3.799249338m x 4.13171876m;   raster step x:5999.014705m  
===============================================================
FLAGS: H=HIGH PROBABILITY SEA STATE, I=LAND(ISLAND), O=OUTLIER NO SEA STATE, N=NO WIND AVAILABLE, SEA STATE NOT VISIBLE, M=MEAN PROBABILITY SEA STATE, L= LOW PROBABILITY SEA STATE
Filtering wave length
 integration  Lmin=1m
 integration  Lmax=2200m
  peak        Lmin=100m
               FFT=1024pixels, 3890.431322m 
   mean-Hs (SWH_c)=2.288669128m
         mean-wind=8.498353958m/s
--------------0--------------1---------2---------3---------4---------5---------6---------7---------8---------9--------10--------11--------12--------13--------14--------15--------16--------17--------18--------19------------------20--------21--------22--------23--------24--------25--------26--------27--------28--------29--------30--------31--------32--------33--------34--------35--------36--------37--------38--------39--------40--------41--------42--------43--------44--------45--------46--------47--------48--------49--------50--------51--------52--------53--------54--------55--------56--------57--------58--------59--------60--------61--------62--------63--------64--------65--------66--------67--------68--------69--------70--------71--------72--------73
            LAT            LON  P-LENGHT     SWH_o     SWH_c     P-DIR      LINE     POINT     ROW-Y     COL-X  M-INTENC        dB      WIND INC-ANGLE  ENERGY-M  ENERGY-N  ENERGY-R ENERGY-NN  FG-DEPTH      FLAG         HEADING-DEG    E30-75   E75-390  E390-600 meanincut   meanout   cut/out  STD-NORM  SPEC-MAX   GL-MEAN    GL-VAR      CORR   ENTROPY   HOMOGEN    ENERGY  CONTRAST  DISSIMIL     STD-O    E 1-30 E600-2000   E2000 >      GODA  LONG-HIG     Tmean  CONVOLUT  MEAN-DIR  relation     Sy/Sx  SKEWNESS  KURTOSIS  cutoff-A >50/10000     INT*V   INT-LOG  S-1_g1f1  S-2_g1f2  S-3_g1f3  S-4_g2f1  S-5_g2f2  S-6_g2f3  S-7_g3f1  S-8_g3f2  S-9_g3f3 S-10_g1f4 S-11_g2f4 S-12_g3f4 S-13_g1f5 S-14_g2f5 S-15_g3f5 S-16_g4f1 S-17_g4f2 S-18_g4f3 S-19_g4f4 S-20_g4f5
--------------1--------------2---------3---------4---------5---------6---------7---------8---------9--------10--------11--------12--------13--------14--------15--------16--------17--------18--------19--------20------------------21--------22--------23--------24--------25--------26--------27--------28--------29--------30--------31--------32--------33--------34--------35--------36--------37--------38--------39--------40--------41--------42--------43--------44--------45--------46--------47--------48--------49--------50--------51--------52--------53--------54--------55--------56--------57--------58--------59--------60--------61--------62--------63--------64--------65--------66--------67--------68--------69--------70--------71--------72--------73--------74
     -47.408176    -117.676590     275.5      2.47      3.34     113.0         1         1      1000      1000   3441.81    -4.632       8.5      22.6   285.816     0.846     109.5   0.22121     100.0         H               345.2  0.101094  0.092132  0.001858  7.440860  1.087052  6.844989  1.303301     84.36    6.3558   72.4216   0.30484   5.74288   0.22696   0.00887 100.68924   6.34224    4485.2  0.650933  0.000853  0.000013  0.000247  0.203521  7.321743  0.895418     92.52  1.000355  1.000046     4.001    38.943     117.4      86.7     142.8     724.3     13.53     -4.28      7.93      3.45     -0.05      5.39     -0.36      1.45      0.31     -5.55     -1.03      2.11      2.59      2.85      2.00     -3.13      1.85      3.73      0.86      2.13
     -47.391819    -117.599495     288.0      2.33      3.34     105.8         1         2      1000      2579   3156.12    -5.008       8.6      23.1   282.303     0.834     113.2   0.21792     100.0         H               345.2  0.099212  0.087626  0.002044  7.083096  1.076712  6.578451  1.294988     97.32    5.7954   61.5649   0.30308   5.57647   0.24186   0.01047  85.81104   5.82231    4086.6  0.645368  0.000903  0.000020  0.000235  0.206576  7.337342  0.882214     96.51  1.000333  1.000043     3.767    29.830     117.4      85.4     117.7     559.4     13.66     -4.30      8.68      3.02      0.15      4.72     -0.05      1.31      0.29     -6.04     -0.47      2.13      3.29      2.68      1.56     -3.87      2.13      2.82      1.63      2.23
     -47.375729    -117.523911     251.9      2.31      3.34     103.8         1         3      1000      4158   2861.83    -5.434       8.6      23.6   281.936     0.829     111.5   0.21355      75.3         H               345.2  0.097876  0.086919  0.001999  7.074609  1.060027  6.673988  1.290785     79.78    5.2240   51.3470   0.29989   5.38969   0.25901   0.01252  71.89693   5.29608    3693.8  0.641966  0.000942  0.000021  0.000236  0.204672  7.308588  0.875897     95.02  1.000344  1.000045     3.775    30.153     117.4      83.8      95.9     520.1     13.47     -3.94      7.73      3.04     -0.19      5.32      0.07      1.10      0.48     -5.32     -0.81      1.55      2.77      3.04      1.87     -3.68      1.20      3.98      0.85      2.67
     -47.356396    -117.699631     268.8      2.35      3.34     104.7         2         1      2452      1000   3445.69    -4.627       8.5      22.6   281.236     0.828     112.2   0.21413     100.0         H               345.2  0.099297  0.088324  0.001800  7.587052  1.049939  7.226184  1.289954    101.64    6.3595   71.4720   0.30200   5.74830   0.22604   0.00876  99.77452   6.33480    4444.3  0.638358  0.000870  0.000022  0.000240  0.202376  7.299791  0.875362     93.18  1.000325  1.000042     3.767    30.349     117.4      86.9     140.6     624.5     13.67     -4.16      7.90      2.79     -0.12      4.74     -0.45      1.67      0.08     -5.85     -0.70      2.24      2.33      2.40      1.74     -3.44      1.04      3.74      1.19      2.32
     -47.340057    -117.622620     252.5      2.28      3.34     114.7         2         2      2452      2579   3140.23    -5.030       8.5      23.1   281.987     0.833     109.1   0.21603      76.5         H               345.2  0.099166  0.086499  0.002146  7.200881  1.054017  6.831845  1.293170     95.04    5.7722   60.8242   0.30078   5.57088   0.24210   0.01049  85.05903   5.80523    4060.5  0.644833  0.000780  0.000018  0.000240  0.204737  7.299882  0.880197     93.97  1.000323  1.000042     3.848    32.511     117.4      85.4     116.6     588.8     13.84     -4.39      7.85      2.43      0.39      4.81     -0.61      1.46     -0.44     -6.03     -0.44      2.51      2.39      2.48      1.78     -4.64      2.10      3.79      1.06      1.63
     -47.323978    -117.547119     243.4      2.15      3.34     110.2         2         3      2452      4158   2824.52    -5.491       8.4      23.6   281.818     0.825     107.9   0.21135      62.1         H               345.2  0.096966  0.083071  0.001843  6.975682  1.065030  6.549754  1.287677     83.60    5.1462   49.5107   0.29644   5.36575   0.26014   0.01275  69.66753   5.22864    3636.7  0.642649  0.000870  0.000023  0.000232  0.203610  7.288620  0.870074     95.41  1.000322  1.000040     3.978    39.892     114.0      83.6      92.8     591.4     13.63     -5.09      7.84      2.66      0.19      4.30     -0.51      1.59     -0.05     -6.22     -0.99      2.20      2.32      2.16      1.63     -3.85      2.32      2.94      0.76      1.66
     -47.304607    -117.722633     214.0      2.12      3.34     110.7         3         1      3904      1000   3428.35    -4.649       8.4      22.6   277.847     0.811     108.3   0.20638      38.5         H               345.2  0.095641  0.080994  0.001606  7.034969  1.063059  6.617665  1.277064     87.00    6.3278   69.5632   0.29551   5.74633   0.22477   0.00862  98.01303   6.30900    4377.8  0.632623  0.000943  0.000032  0.000231  0.201626  7.295886  0.855890     96.22  1.000293  1.000036     3.835    35.245     110.8      87.0     137.0     661.8     13.33     -3.87      6.56      3.52     -0.65      5.52     -0.63      1.69      0.15     -5.35     -1.70      2.02      0.76      2.52      2.20     -3.16      0.58      4.45      0.42      2.69
     -47.288284    -117.645706     258.5      2.14      3.34     111.5         3         2      3904      2579   3149.23    -5.018       8.6      23.1   277.502     0.809     104.9   0.20441      93.9         H               345.2  0.094517  0.080966  0.001679  6.867638  1.055058  6.509254  1.274563     84.26    5.7814   59.5294   0.29380   5.58194   0.23931   0.01015  84.07953   5.80909    4013.5  0.631422  0.000806  0.000026  0.000228  0.202929  7.304861  0.853115     94.65  1.000291  1.000036     3.766    31.344     114.0      85.7     114.6     569.1     13.46     -4.27      7.65      2.97      0.42      4.70     -0.20      1.41      0.77     -5.59     -0.23      2.14      1.85      3.22      1.98     -3.25      2.08      2.98      1.73      3.24
     -47.272221    -117.570282     282.1      2.44      3.34     109.5         3         3      3904      4158   2821.57    -5.495       8.4      23.6   282.630     0.834     122.6   0.21661     100.0         H               345.2  0.096027  0.089851  0.002184  7.043043  1.055106  6.675201  1.295105    106.60    5.1412   50.0450   0.30134   5.35936   0.26277   0.01301  69.92907   5.21577    3653.8  0.645928  0.001075  0.000015  0.000241  0.211495  7.376805  0.881378     94.68  1.000306  1.000039     3.868    32.705     117.4      83.4      93.4     526.2     14.00     -4.30      8.15      2.08      0.52      4.59     -0.79      1.84     -0.29     -6.20      0.18      2.78      3.11      2.69      1.31     -4.63      2.02      3.30      2.24      2.12
