corner points
-66.04182434    33.40539551
-66.08015442    33.23112869
-66.25785828    33.43825912
-66.29573822    33.26400757
========== RESULTS WAVE VERSION 16.10.2018 ====================
IMAGE SIZE  X: 4500     Y:4777    col:row     POLARIZATION:VV
COVERAGE    X: 20.33360157km       Y: 19.65340745km 
RESOLUTION dX: 4.518578127m       dY:4.114173634m  
resolution of original product 4.518578127m x 4.114173634m;   raster step x:5996.153175m  
===============================================================
FLAGS: H=HIGH PROBABILITY SEA STATE, I=LAND(ISLAND), O=OUTLIER NO SEA STATE, N=NO WIND AVAILABLE, SEA STATE NOT VISIBLE, M=MEAN PROBABILITY SEA STATE, L= LOW PROBABILITY SEA STATE
Filtering wave length
 integration  Lmin=1m
 integration  Lmax=2200m
  peak        Lmin=100m
               FFT=1024pixels, 4627.024002m 
   mean-Hs (SWH_c)=0.562721405m
         mean-wind=12.82160473m/s
--------------0--------------1---------2---------3---------4---------5---------6---------7---------8---------9--------10--------11--------12--------13--------14--------15--------16--------17--------18--------19------------------20--------21--------22--------23--------24--------25--------26--------27--------28--------29--------30--------31--------32--------33--------34--------35--------36--------37--------38--------39--------40--------41--------42--------43--------44--------45--------46--------47--------48--------49--------50--------51--------52--------53--------54--------55--------56--------57--------58--------59--------60--------61--------62--------63--------64--------65--------66--------67--------68--------69--------70--------71--------72--------73
            LAT            LON  P-LENGHT     SWH_o     SWH_c     P-DIR      LINE     POINT     ROW-Y     COL-X  M-INTENC        dB      WIND INC-ANGLE  ENERGY-M  ENERGY-N  ENERGY-R ENERGY-NN  FG-DEPTH      FLAG         HEADING-DEG    E30-75   E75-390  E390-600 meanincut   meanout   cut/out  STD-NORM  SPEC-MAX   GL-MEAN    GL-VAR      CORR   ENTROPY   HOMOGEN    ENERGY  CONTRAST  DISSIMIL     STD-O    E 1-30 E600-2000   E2000 >      GODA  LONG-HIG     Tmean  CONVOLUT  MEAN-DIR  relation     Sy/Sx  SKEWNESS  KURTOSIS  cutoff-A >50/10000     INT*V   INT-LOG  S-1_g1f1  S-2_g1f2  S-3_g1f3  S-4_g2f1  S-5_g2f2  S-6_g2f3  S-7_g3f1  S-8_g3f2  S-9_g3f3 S-10_g1f4 S-11_g2f4 S-12_g3f4 S-13_g1f5 S-14_g2f5 S-15_g3f5 S-16_g4f1 S-17_g4f2 S-18_g4f3 S-19_g4f4 S-20_g4f5
--------------1--------------2---------3---------4---------5---------6---------7---------8---------9--------10--------11--------12--------13--------14--------15--------16--------17--------18--------19--------20------------------21--------22--------23--------24--------25--------26--------27--------28--------29--------30--------31--------32--------33--------34--------35--------36--------37--------38--------39--------40--------41--------42--------43--------44--------45--------46--------47--------48--------49--------50--------51--------52--------53--------54--------55--------56--------57--------58--------59--------60--------61--------62--------63--------64--------65--------66--------67--------68--------69--------70--------71--------72--------73--------74
      33.376328     -66.098381     385.6      0.73      1.90      90.0         1         1      1000      1000    513.99   -12.890      12.8      36.8   236.133     0.561     376.6   0.07462     100.0         H               192.9  0.045879  0.012515  0.000938  1.203428  0.680782  1.767715  1.064954      7.48    9.7307  112.1241   0.11178   6.62222   0.13673   0.00268 199.18027   9.86850     547.4  0.495283  0.005975  0.001012  0.000098  0.166115  6.746969  0.561186     85.75  1.000262  1.000019     2.417    13.137     114.0      94.5     251.7     610.4     11.83     -0.51      2.54      0.33      0.20     -1.41      3.90      0.11      2.07     -0.26      0.12     -0.36      1.47     -0.90      2.04    -13.35      0.32     -7.46      0.78     -5.01
      33.386074     -66.162308     382.0      0.85      1.90      35.3         1         2      1000      2327    563.21   -12.493      13.8      37.2   237.495     0.567     563.4   0.07806     100.0         H               192.9  0.046084  0.012772  0.001134  1.188860  0.697831  1.703649  1.072498      4.69   10.6801  132.7678   0.12293   6.78740   0.12772   0.00227 232.89343  10.71522     604.0  0.496912  0.008984  0.001510  0.000096  0.167087  6.759301  0.568264     85.23  1.000120  1.000009     2.426    12.713     124.8      95.2     308.0     617.7     11.74      0.13      1.12     -0.24     -0.81      0.32      4.69      1.20      0.87      0.10      0.39     -0.19      0.55      0.39      0.80    -15.88     -3.63     -1.73      0.82     -0.35
      33.395702     -66.225700     185.1      0.73      1.90      90.0         1         3      1000      3654    485.20   -13.141      12.9      37.6   234.460     0.554     357.4   0.07250      25.6         H               192.9  0.044514  0.012095  0.000826  1.148306  0.682923  1.681457  1.058790      4.25    9.1764  100.4343   0.11023   6.51643   0.14323   0.00299 178.72705   9.32998     513.7  0.491257  0.005108  0.001036  0.000098  0.165455  6.749474  0.554089     84.86  1.000136  1.000010     2.367    12.475     102.3      93.9     221.3     555.9     11.53     -0.31      1.14      0.93     -0.54      0.56      3.69      0.58      0.40     -0.40      0.21     -0.12      0.82     -0.22      1.49    -11.87     -1.17     -0.94      1.02     -2.55
      33.323132     -66.110054     390.6      0.92      1.90      68.2         2         1      2458      1000    593.73   -12.264      13.9      36.8   235.758     0.562     505.7   0.07736     100.0         H               192.9  0.045054  0.012814  0.000965  1.194575  0.689905  1.731507  1.067049      4.91   11.2638  144.3483   0.11946   6.88389   0.12169   0.00203 254.20807  11.25952     633.5  0.494579  0.007952  0.001413  0.000096  0.168514  6.771626  0.563109     86.56  1.000073  1.000006     2.390    12.380     110.8      95.7     342.2     644.9     11.69     -0.26      0.79      0.32     -0.60      0.77      3.96      0.20      0.19      0.19     -0.67     -0.29      0.82      0.10      1.15    -13.35     -1.26      0.40     -1.12     -1.51
      33.332878     -66.173943     377.8      0.72      1.90     170.6         2         2      2458      2327    482.30   -13.167      12.6      37.2   235.578     0.557     433.4   0.07292     100.0         H               192.9  0.044616  0.012218  0.000711  1.143506  0.673529  1.697783  1.062618      3.13    9.1212   99.9630   0.11167   6.50442   0.14419   0.00304 177.59918   9.28778     512.5  0.493065  0.005418  0.001602  0.000095  0.164664  6.761278  0.557127     85.79  1.000010  1.000002     2.362    12.206     105.0      93.8     219.4     531.6     11.27     -0.84     -0.29      1.29     -0.45      0.94      3.07      0.35     -0.09     -0.20     -0.51      0.09      0.73     -0.40      1.33    -10.40     -0.80      1.83     -0.75     -3.04
      33.342506     -66.237289     179.0      0.68      1.90      75.2         2         3      2458      3654    425.74   -13.709      11.9      37.6   233.655     0.546     173.8   0.06689      23.5         H               192.9  0.043213  0.011889  0.000621  1.125845  0.655625  1.717209  1.049849      3.96    8.0124   78.0135   0.09705   6.26813   0.15877   0.00382 140.88512   8.25171     446.9  0.488036  0.002410  0.000484  0.000097  0.162720  6.741839  0.544758     84.57  1.000128  1.000009     2.278    11.273      88.6      92.6     165.9     431.1     11.09     -0.64      0.09      1.75      0.48      1.19      3.17      0.41     -0.33      0.35      0.37      0.18      0.39      0.25      0.82     -9.04      0.50      2.26      0.19     -0.47
      33.269932     -66.121727     389.4      0.72      1.90     137.7         3         1      3916      1000    504.28   -12.973      12.7      36.8   230.360     0.537      80.2   0.06535     100.0         H               192.9  0.043086  0.011076  0.000540  1.060691  0.659338  1.608721  1.040234      2.78    9.5572  105.1733   0.09397   6.59586   0.13681   0.00269 190.58022   9.70466     524.6  0.481341  0.001320  0.000160  0.000096  0.160042  6.718349  0.535036     85.04  1.000084  1.000005     2.239    11.020      75.2      94.5     234.8     512.6     10.89     -0.35     -0.18      1.96     -0.49      0.77      2.98      0.35     -0.34      0.05      0.08     -0.33     -0.62      0.52      0.56     -8.14     -0.99      1.75      0.53      1.30
      33.279678     -66.185562     384.0      0.72      1.90      95.2         3         2      3916      2327    487.25   -13.122      12.7      37.2   233.755     0.551     288.6   0.07040     100.0         H               192.9  0.043344  0.012322  0.000782  1.167143  0.663564  1.758900  1.055113      3.66    9.2227  100.9817   0.10571   6.52672   0.14225   0.00295 180.61227   9.39231     514.1  0.489498  0.004378  0.000807  0.000095  0.166025  6.765572  0.549899     88.60  1.000064  1.000005     2.303    11.483      94.9      94.0     222.3     503.8     11.38     -0.49      0.63      1.17     -0.43      0.81      3.39      0.71     -0.10     -0.12     -0.02     -0.20     -0.14      0.19      1.00    -10.95     -1.29      1.17      0.19     -0.33
      33.289310     -66.248871     381.7      0.68      1.90     175.3         3         3      3916      3654    428.09   -13.685      12.0      37.6   241.005     0.577     970.9   0.07864     100.0         H               192.9  0.044081  0.012735  0.001228  1.172420  0.682180  1.718638  1.084383      7.38    8.0510   82.8287   0.12788   6.26820   0.16167   0.00398 144.47321   8.26346     464.2  0.504036  0.011976  0.003208  0.000095  0.168736  6.779934  0.579343     87.64  0.999830  0.999989     2.506    13.570     174.0      92.3     175.1     500.8     11.76     -0.04     -0.47     -0.49     -1.23      2.15      4.87      1.60     -1.02      0.32     -0.95      0.35      1.12     -0.32      0.92    -16.94     -4.61      5.92     -2.41     -2.16
