corner points
-68.26991272    22.80697441
-68.30587769    22.63208961
-68.465065    22.84113693
-68.50076294    22.66627693
========== RESULTS WAVE VERSION 16.10.2018 ====================
IMAGE SIZE  X: 4500     Y:4782    col:row     POLARIZATION:VV
COVERAGE    X: 20.31223032km       Y: 19.74484239km 
RESOLUTION dX: 4.513828959m       dY:4.128992552m  
resolution of original product 4.513828959m x 4.128992552m;   raster step x:5998.878687m  
===============================================================
FLAGS: H=HIGH PROBABILITY SEA STATE, I=LAND(ISLAND), O=OUTLIER NO SEA STATE, N=NO WIND AVAILABLE, SEA STATE NOT VISIBLE, M=MEAN PROBABILITY SEA STATE, L= LOW PROBABILITY SEA STATE
Filtering wave length
 integration  Lmin=1m
 integration  Lmax=2200m
  peak        Lmin=100m
               FFT=1024pixels, 4622.160854m 
   mean-Hs (SWH_c)=1.465377655m
         mean-wind=13.41646099m/s
--------------0--------------1---------2---------3---------4---------5---------6---------7---------8---------9--------10--------11--------12--------13--------14--------15--------16--------17--------18--------19------------------20--------21--------22--------23--------24--------25--------26--------27--------28--------29--------30--------31--------32--------33--------34--------35--------36--------37--------38--------39--------40--------41--------42--------43--------44--------45--------46--------47--------48--------49--------50--------51--------52--------53--------54--------55--------56--------57--------58--------59--------60--------61--------62--------63--------64--------65--------66--------67--------68--------69--------70--------71--------72--------73
            LAT            LON  P-LENGHT     SWH_o     SWH_c     P-DIR      LINE     POINT     ROW-Y     COL-X  M-INTENC        dB      WIND INC-ANGLE  ENERGY-M  ENERGY-N  ENERGY-R ENERGY-NN  FG-DEPTH      FLAG         HEADING-DEG    E30-75   E75-390  E390-600 meanincut   meanout   cut/out  STD-NORM  SPEC-MAX   GL-MEAN    GL-VAR      CORR   ENTROPY   HOMOGEN    ENERGY  CONTRAST  DISSIMIL     STD-O    E 1-30 E600-2000   E2000 >      GODA  LONG-HIG     Tmean  CONVOLUT  MEAN-DIR  relation     Sy/Sx  SKEWNESS  KURTOSIS  cutoff-A >50/10000     INT*V   INT-LOG  S-1_g1f1  S-2_g1f2  S-3_g1f3  S-4_g2f1  S-5_g2f2  S-6_g2f3  S-7_g3f1  S-8_g3f2  S-9_g3f3 S-10_g1f4 S-11_g2f4 S-12_g3f4 S-13_g1f5 S-14_g2f5 S-15_g3f5 S-16_g4f1 S-17_g4f2 S-18_g4f3 S-19_g4f4 S-20_g4f5
--------------1--------------2---------3---------4---------5---------6---------7---------8---------9--------10--------11--------12--------13--------14--------15--------16--------17--------18--------19--------20------------------21--------22--------23--------24--------25--------26--------27--------28--------29--------30--------31--------32--------33--------34--------35--------36--------37--------38--------39--------40--------41--------42--------43--------44--------45--------46--------47--------48--------49--------50--------51--------52--------53--------54--------55--------56--------57--------58--------59--------60--------61--------62--------63--------64--------65--------66--------67--------68--------69--------70--------71--------72--------73--------74
      22.778097     -68.321281     213.5      1.36      2.56     123.7         1         1      1000      1000    507.89   -12.942      12.8      36.9   225.505     0.564     103.6   0.07607      38.2         H               192.3  0.046615  0.022236  0.000699  2.204113  0.687064  3.208016  1.065471     15.13    9.6169  110.4097   0.11748   6.60000   0.13883   0.00278 194.87834   9.74088     541.1  0.492422  0.001809  0.000189  0.000131  0.181842  7.003054  0.567330    101.12  1.000063  1.000005     2.356    11.951      97.3      94.2     245.5     532.7     11.55     -3.02      1.32      3.29     -1.92      3.79      1.99      1.40      1.76     -2.37     -1.95     -0.17     -1.81      0.05      2.24     -4.86     -1.81      4.45     -0.86      0.97
      22.788237     -68.379128     184.8      1.33      2.56     113.2         1         2      1000      2329    490.39   -13.095      12.8      37.3   227.562     0.569     141.9   0.07644      25.5         H               192.3  0.048058  0.022266  0.000621  2.242595  0.679986  3.298000  1.070572     17.99    9.2762  104.3956   0.11857   6.53318   0.14376   0.00299 184.03442   9.42650     525.0  0.495600  0.002111  0.000326  0.000135  0.179241  6.965745  0.572573    102.16  1.000078  1.000006     2.391    12.390      99.7      93.9     229.4     540.2     11.66     -3.61      1.88      3.85     -1.97      3.72      1.30      1.53      1.39     -2.47     -2.17      0.04     -1.44     -0.48      1.96     -4.09     -0.97      3.49     -0.80      0.08
      22.798267     -68.436478     191.8      1.62      2.56     114.1         1         3      1000      3658    531.28   -12.747      13.7      37.7   226.612     0.569     108.0   0.07845      28.1         H               192.3  0.047613  0.023817  0.000664  2.410594  0.683248  3.528140  1.070120     20.12   10.0682  120.0482   0.12164   6.68234   0.13422   0.00255 210.88922  10.15488     568.5  0.494801  0.002005  0.000174  0.000141  0.182543  7.018080  0.572956    103.53  1.000066  1.000004     2.400    12.520      99.7      94.6     271.5     591.1     11.69     -4.68      2.05      3.77     -2.26      3.97      1.31      1.84      1.38     -2.96     -2.59     -0.12     -1.97      0.16      2.12     -4.02     -1.10      3.87     -0.92      1.57
      22.724949     -68.332199     184.4      1.52      2.56     118.7         2         1      2453      1000    537.53   -12.696      13.2      36.9   228.350     0.572     134.8   0.07829      25.4         H               192.3  0.047603  0.023253  0.000771  2.338158  0.692897  3.374469  1.073241     18.00   10.1852  122.9627   0.12066   6.70241   0.13295   0.00250 216.25200  10.28274     576.9  0.498008  0.002116  0.000314  0.000145  0.180097  7.015745  0.575772    102.71  1.000044  1.000004     2.416    12.618      97.3      94.7     279.5     594.2     11.55     -3.87      1.23      3.15     -2.39      3.28      1.71      1.43      1.42     -2.26     -2.30     -0.59     -2.20     -0.28      2.40     -5.59     -1.60      4.14     -1.00      1.18
      22.735090     -68.390007     202.8      1.49      2.56     118.7         2         2      2453      2329    544.40   -12.641      13.6      37.3   225.444     0.563      87.1   0.07652      32.8         H               192.3  0.046640  0.021777  0.000659  2.178617  0.680395  3.201989  1.064818     15.98   10.3261  124.6342   0.11752   6.72997   0.13094   0.00242 219.97325  10.40496     579.7  0.492696  0.001481  0.000162  0.000134  0.180079  6.988409  0.566337    103.34  1.000047  1.000004     2.350    11.955      92.7      95.0     284.4     581.3     11.59     -3.69      1.39      3.23     -2.13      2.95      1.23      1.58      1.29     -2.65     -1.77     -0.15     -2.07     -0.25      2.51     -4.75     -1.38      3.27     -0.40      0.67
      22.745125     -68.447342     195.2      1.46      2.56     117.5         2         3      2453      3658    521.98   -12.823      13.5      37.7   225.719     0.564     124.3   0.07611      29.5         H               192.3  0.046862  0.021931  0.000646  2.210170  0.677954  3.260060  1.065925     24.75    9.8924  115.9320   0.11808   6.65184   0.13576   0.00263 204.48541   9.99728     556.4  0.492325  0.002168  0.000244  0.000135  0.180554  6.992626  0.567405    106.49  1.000062  1.000005     2.359    12.067      94.9      94.5     260.3     567.1     11.58     -3.93      1.73      3.69     -2.43      3.45      1.19      1.70      0.95     -3.20     -2.26      0.41     -2.29     -0.35      2.29     -4.48     -1.24      3.89     -0.55      1.43
      22.671801     -68.343109     208.6      1.45      2.56     129.9         3         1      3906      1000    556.10   -12.549      13.5      36.9   225.759     0.564     101.6   0.07667      35.6         H               192.3  0.047615  0.021561  0.000649  2.153231  0.683811  3.148866  1.065898     12.19   10.5485  129.5342   0.11850   6.76729   0.12872   0.00232 228.36887  10.61359     592.7  0.493052  0.001598  0.000210  0.000136  0.175474  6.952339  0.567840    100.17  1.000078  1.000006     2.355    11.970      94.9      95.1     297.6     592.1     11.35     -2.52      0.99      3.24     -1.27      3.10      1.79      1.50      1.73     -0.88     -1.01     -0.64     -1.97      0.34      2.80     -4.48     -1.48      4.07     -0.53      1.22
      22.681946     -68.400894     117.8      1.48      2.56     104.5         3         2      3906      2329    559.37   -12.523      13.8      37.3   226.031     0.566     128.3   0.07866       9.0         H               192.3  0.047784  0.021343  0.000656  2.154869  0.686749  3.137781  1.067612     13.59   10.6105  130.8956   0.12110   6.77719   0.12836   0.00230 230.08810  10.65039     597.2  0.494106  0.001918  0.000282  0.000134  0.173640  6.948176  0.568972     99.32  1.000060  1.000004     2.373    12.178      92.7      95.2     301.7     604.5     11.15     -2.51      1.36      3.41     -1.52      3.43      2.57      0.75      1.52     -1.95     -1.51     -0.49     -1.25      0.41      2.44     -4.67     -1.19      4.66     -0.48      1.06
      22.691980     -68.458206     198.1      1.46      2.56     121.0         3         3      3906      3658    543.76   -12.646      13.8      37.7   226.007     0.566     111.2   0.07726      30.7         H               192.3  0.047283  0.021177  0.000772  2.120740  0.687344  3.085412  1.067897     14.68   10.3091  124.4950   0.11883   6.72545   0.13106   0.00243 219.40167  10.38084     580.7  0.495258  0.001918  0.000207  0.000135  0.176787  6.957022  0.569678    101.32  1.000056  1.000004     2.385    12.206      92.7      94.9     284.3     573.1     11.38     -2.37      1.22      3.00     -1.67      3.38      2.46      0.83      1.23     -1.72     -1.65     -0.71     -1.38     -0.09      2.42     -6.00     -1.98      4.94     -1.18      0.56
