corner points
-101.9601898    -18.91254044
-102.0040283    -19.08649063
-102.1482925    -18.8687973
-102.1923523    -19.04268074
========== RESULTS WAVE VERSION 16.10.2018 ====================
IMAGE SIZE  X: 4460     Y:4777    col:row     POLARIZATION:VV
COVERAGE    X: 20.33505417km       Y: 19.83870792km 
RESOLUTION dX: 4.559429185m       dY:4.152963768m  
resolution of original product 4.559429185m x 4.152963768m;   raster step x:5995.649379m  
===============================================================
FLAGS: H=HIGH PROBABILITY SEA STATE, I=LAND(ISLAND), O=OUTLIER NO SEA STATE, N=NO WIND AVAILABLE, SEA STATE NOT VISIBLE, M=MEAN PROBABILITY SEA STATE, L= LOW PROBABILITY SEA STATE
Filtering wave length
 integration  Lmin=1m
 integration  Lmax=2200m
  peak        Lmin=100m
               FFT=1024pixels, 4668.855486m 
   mean-Hs (SWH_c)=0.4156961441m
         mean-wind=10.69513893m/s
--------------0--------------1---------2---------3---------4---------5---------6---------7---------8---------9--------10--------11--------12--------13--------14--------15--------16--------17--------18--------19------------------20--------21--------22--------23--------24--------25--------26--------27--------28--------29--------30--------31--------32--------33--------34--------35--------36--------37--------38--------39--------40--------41--------42--------43--------44--------45--------46--------47--------48--------49--------50--------51--------52--------53--------54--------55--------56--------57--------58--------59--------60--------61--------62--------63--------64--------65--------66--------67--------68--------69--------70--------71--------72--------73
            LAT            LON  P-LENGHT     SWH_o     SWH_c     P-DIR      LINE     POINT     ROW-Y     COL-X  M-INTENC        dB      WIND INC-ANGLE  ENERGY-M  ENERGY-N  ENERGY-R ENERGY-NN  FG-DEPTH      FLAG         HEADING-DEG    E30-75   E75-390  E390-600 meanincut   meanout   cut/out  STD-NORM  SPEC-MAX   GL-MEAN    GL-VAR      CORR   ENTROPY   HOMOGEN    ENERGY  CONTRAST  DISSIMIL     STD-O    E 1-30 E600-2000   E2000 >      GODA  LONG-HIG     Tmean  CONVOLUT  MEAN-DIR  relation     Sy/Sx  SKEWNESS  KURTOSIS  cutoff-A >50/10000     INT*V   INT-LOG  S-1_g1f1  S-2_g1f2  S-3_g1f3  S-4_g2f1  S-5_g2f2  S-6_g2f3  S-7_g3f1  S-8_g3f2  S-9_g3f3 S-10_g1f4 S-11_g2f4 S-12_g3f4 S-13_g1f5 S-14_g2f5 S-15_g3f5 S-16_g4f1 S-17_g4f2 S-18_g4f3 S-19_g4f4 S-20_g4f5
--------------1--------------2---------3---------4---------5---------6---------7---------8---------9--------10--------11--------12--------13--------14--------15--------16--------17--------18--------19--------20------------------21--------22--------23--------24--------25--------26--------27--------28--------29--------30--------31--------32--------33--------34--------35--------36--------37--------38--------39--------40--------41--------42--------43--------44--------45--------46--------47--------48--------49--------50--------51--------52--------53--------54--------55--------56--------57--------58--------59--------60--------61--------62--------63--------64--------65--------66--------67--------68--------69--------70--------71--------72--------73--------74
     -18.939054    -102.012047     382.7      0.68      1.79      79.6         1         1      1000      1000    469.59   -13.283      11.9      36.6   246.433     0.602    1679.5   0.08992     100.0         M               192.3  0.047244  0.013328  0.001707  1.164417  0.713921  1.631017  1.111715     12.90    8.8538  101.9320   0.15481   6.43399   0.15345   0.00349 172.30342   8.97440     522.0  0.514851  0.019488  0.005439  0.000101  0.173127  6.743784  0.613359     96.06  0.999997  1.000000     2.610    14.294     450.0      93.1     219.6     547.4     13.18      0.23      0.18     -4.17     -0.26     -1.38      5.19      0.16      0.06      0.36     -0.97      0.46      2.88     -3.03      2.26    -24.95     -0.40     -1.68     -1.99    -11.78
     -18.926109    -102.067749     370.2      0.54      1.79      52.5         1         2      1000      2315    311.85   -15.061       9.2      36.9   230.099     0.532      70.6   0.06008     100.0         H               192.3  0.041747  0.010103  0.000546  0.909080  0.655534  1.386777  1.035278      5.77    5.7487   41.4768   0.08280   5.65536   0.20257   0.00696  76.08429   6.05943     322.9  0.478793  0.001049  0.000148  0.000097  0.159130  6.678930  0.534365     93.99  1.000031  1.000001     2.193    10.633      72.4      88.6      84.7     304.4     11.18      1.55     -1.54      0.61     -1.20     -1.12      2.60      0.62      0.34      0.53     -0.35     -0.07     -0.28      0.59     -0.05    -10.14     -3.67     -0.71     -0.54      1.50
     -18.913261    -102.122955     353.8      0.56      1.79      65.4         1         3      1000      3630    308.32   -15.110       9.5      37.3   229.644     0.532      61.2   0.06065     100.0         H               192.3  0.041293  0.010723  0.000526  0.946209  0.635256  1.489491  1.034831      6.54    5.6812   40.5208   0.08441   5.63366   0.20465   0.00710  74.20119   5.97879     319.0  0.478456  0.001088  0.000099  0.000099  0.163186  6.704374  0.534611     95.11  1.000028  1.000001     2.201    10.715      72.4      88.6      82.8     299.7     11.48      1.30     -1.59      0.17     -1.12     -1.11      2.11      0.20      0.30      0.45     -0.69      0.17     -0.29      0.00      0.35    -10.08     -2.82     -0.49     -1.26      0.01
     -18.991642    -102.025314     354.1      1.20      1.79      80.4         2         1      2444      1000    718.35   -11.437      15.2      36.6   230.791     0.550     356.3   0.07621     100.0         H               192.3  0.046011  0.012304  0.001153  1.057592  0.692882  1.526365  1.054421      9.44   13.6114  193.8014   0.11795   7.20864   0.10377   0.00139 341.88391  13.31648     757.4  0.484990  0.005255  0.000954  0.000102  0.169477  6.725692  0.555418     98.06  1.000115  1.000009     2.275    11.176      86.6      97.3     503.2     737.1     12.45      0.41     -0.56     -2.30     -0.23     -2.06      3.74     -0.15      1.31      1.27     -1.55      0.83      1.82     -1.78      1.08    -18.50      0.15     -4.25     -4.92     -6.52
     -18.978691    -102.081032     371.3      0.56      1.79      45.7         2         2      2444      2315    326.40   -14.862       9.5      36.9   228.738     0.529      65.3   0.05985     100.0         H               192.3  0.041752  0.010433  0.000521  0.918383  0.659531  1.392480  1.032462      7.96    6.0387   45.1867   0.08347   5.74630   0.19515   0.00634  82.82934   6.33241     336.9  0.475642  0.000960  0.000139  0.000096  0.162487  6.694586  0.531876     93.21  1.000046  1.000003     2.171    10.391      69.9      89.3      92.8     310.2     11.46      2.16     -1.41      0.38     -1.56     -1.04      2.31      0.60      0.20      0.02     -0.19     -0.09     -0.83      0.35     -0.13    -10.10     -4.44     -0.36      0.21      1.51
     -18.965837    -102.136253     394.5      0.54      1.79      49.5         2         3      2444      3630    296.39   -15.281       9.2      37.3   229.361     0.532      60.2   0.06059     100.0         H               192.3  0.042196  0.010197  0.000517  0.904957  0.646775  1.399185  1.034643      6.80    5.4435   37.4431   0.08563   5.55523   0.21085   0.00767  68.47392   5.74506     306.6  0.477852  0.000948  0.000112  0.000099  0.159772  6.668059  0.534476     93.04  1.000008  1.000000     2.194    10.616      68.7      87.9      76.5     286.5     11.24      1.45     -1.76      0.41     -1.45     -1.23      2.30      0.45     -0.08      0.49     -0.74      0.17     -0.14      0.47     -0.49     -9.86     -3.35      0.16     -1.60      1.47
     -19.044230    -102.038589     350.8      0.92      1.79      48.7         3         1      3888      1000    631.38   -11.997      14.2      36.5   229.659     0.540     157.1   0.06958     100.0         H               192.3  0.044757  0.011674  0.000622  1.007182  0.683266  1.474070  1.043236      7.99   12.0063  155.9057   0.10324   7.00436   0.11394   0.00174 279.62286  11.93429     658.6  0.480372  0.002309  0.000414  0.000101  0.163981  6.694507  0.543274     97.26  0.999997  0.999999     2.250    11.151      64.2      96.5     379.3     651.7     11.53      0.94     -2.43      0.00     -1.44     -0.53      2.17      0.52     -0.39      0.41     -0.36     -0.18     -0.01     -0.04      0.11    -11.08     -2.86      2.73     -0.53     -1.03
     -19.031273    -102.094322     353.8      0.57      1.79      65.4         3         2      3888      2315    334.66   -14.754       9.7      36.9   229.594     0.529      57.7   0.05862     100.0         H               192.3  0.041129  0.010174  0.000465  0.905440  0.626754  1.444649  1.031912      6.87    6.2036   47.4517   0.07935   5.79647   0.19088   0.00602  87.37199   6.50623     345.3  0.476253  0.000919  0.000116  0.000100  0.160435  6.664140  0.531081     93.55  1.000019  1.000000     2.166    10.297      72.4      89.7      97.8     313.5     11.36      1.83     -1.46      0.61     -1.61     -1.43      1.75      0.67      0.30      0.50     -0.94      0.22     -0.02      0.12     -0.40     -8.94     -4.65     -0.82     -1.45      0.76
     -19.018412    -102.149567     382.7      0.53      1.79      79.6         3         3      3888      3630    289.45   -15.384       9.0      37.3   232.141     0.539     217.5   0.06151     100.0         H               192.3  0.041844  0.010547  0.000567  0.932447  0.650761  1.432856  1.042378      6.31    5.3047   36.2397   0.08844   5.50707   0.21569   0.00812  66.06940   5.61742     301.7  0.482484  0.002758  0.000629  0.000099  0.162102  6.687026  0.541965     95.73  1.000060  1.000004     2.246    11.070      83.0      87.5      73.5     286.3     11.53      1.30     -0.92      0.04     -0.94     -1.58      2.31      0.28      0.43      0.80     -0.77      0.11      0.83     -0.37      0.23    -10.70     -2.38     -2.18     -1.51     -1.83
