corner points
-130.9415131    -67.90951538
-131.2080078    -68.05519104
-131.351532    -67.80236053
-131.6194611    -67.9473877
========== RESULTS WAVE VERSION 16.10.2018 ====================
IMAGE SIZE  X: 4460     Y:4756    col:row     POLARIZATION:VV
COVERAGE    X: 20.86611367km       Y: 19.59988724km 
RESOLUTION dX: 4.678500823m       dY:4.121086467m  
resolution of original product 4.678500823m x 4.121086467m;   raster step x:5997.838056m  
===============================================================
FLAGS: H=HIGH PROBABILITY SEA STATE, I=LAND(ISLAND), O=OUTLIER NO SEA STATE, N=NO WIND AVAILABLE, SEA STATE NOT VISIBLE, M=MEAN PROBABILITY SEA STATE, L= LOW PROBABILITY SEA STATE
Filtering wave length
 integration  Lmin=1m
 integration  Lmax=2200m
  peak        Lmin=100m
               FFT=1024pixels, 4790.784843m 
   mean-Hs (SWH_c)=0.4666030884m
         mean-wind=10.38935184m/s
--------------0--------------1---------2---------3---------4---------5---------6---------7---------8---------9--------10--------11--------12--------13--------14--------15--------16--------17--------18--------19------------------20--------21--------22--------23--------24--------25--------26--------27--------28--------29--------30--------31--------32--------33--------34--------35--------36--------37--------38--------39--------40--------41--------42--------43--------44--------45--------46--------47--------48--------49--------50--------51--------52--------53--------54--------55--------56--------57--------58--------59--------60--------61--------62--------63--------64--------65--------66--------67--------68--------69--------70--------71--------72--------73
            LAT            LON  P-LENGHT     SWH_o     SWH_c     P-DIR      LINE     POINT     ROW-Y     COL-X  M-INTENC        dB      WIND INC-ANGLE  ENERGY-M  ENERGY-N  ENERGY-R ENERGY-NN  FG-DEPTH      FLAG         HEADING-DEG    E30-75   E75-390  E390-600 meanincut   meanout   cut/out  STD-NORM  SPEC-MAX   GL-MEAN    GL-VAR      CORR   ENTROPY   HOMOGEN    ENERGY  CONTRAST  DISSIMIL     STD-O    E 1-30 E600-2000   E2000 >      GODA  LONG-HIG     Tmean  CONVOLUT  MEAN-DIR  relation     Sy/Sx  SKEWNESS  KURTOSIS  cutoff-A >50/10000     INT*V   INT-LOG  S-1_g1f1  S-2_g1f2  S-3_g1f3  S-4_g2f1  S-5_g2f2  S-6_g2f3  S-7_g3f1  S-8_g3f2  S-9_g3f3 S-10_g1f4 S-11_g2f4 S-12_g3f4 S-13_g1f5 S-14_g2f5 S-15_g3f5 S-16_g4f1 S-17_g4f2 S-18_g4f3 S-19_g4f4 S-20_g4f5
--------------1--------------2---------3---------4---------5---------6---------7---------8---------9--------10--------11--------12--------13--------14--------15--------16--------17--------18--------19--------20------------------21--------22--------23--------24--------25--------26--------27--------28--------29--------30--------31--------32--------33--------34--------35--------36--------37--------38--------39--------40--------41--------42--------43--------44--------45--------46--------47--------48--------49--------50--------51--------52--------53--------54--------55--------56--------57--------58--------59--------60--------61--------62--------63--------64--------65--------66--------67--------68--------69--------70--------71--------72--------73--------74
     -67.915916    -131.090775     375.1      0.78      2.60      51.5         1         1      1000      1000    678.95   -11.682      13.9      35.4   407.110     0.832    1201.7   0.18194     100.0         H               205.6  0.098083  0.057130  0.008612  4.898412  1.741346  2.813003  1.296834     53.53   12.4515  202.0255   0.23648   6.95513   0.12675   0.00213 308.50012  12.09841     880.5  0.641899  0.025077  0.002223  0.000100  0.179722  6.993882  0.863838    131.98  1.000310  1.000029     4.000    35.768      88.6      95.3     577.2    1194.2     13.23      0.63      1.58     -5.43     -1.49     -4.21      6.67     -0.98      0.98      1.19     -0.60      0.77     -1.42     -0.08     -0.08    -28.39     -2.44    -11.15     -2.46     -0.85
     -67.884979    -131.209381     387.0      0.68      2.60      62.7         1         2      1000      2282    511.45   -12.912      11.9      35.8   393.208     0.811    2696.2   0.17702     100.0         M               205.6  0.074812  0.053728  0.011539  4.280269  1.227746  3.486281  1.289610    100.54    9.4739  128.6930   0.23712   6.50394   0.15140   0.00334 196.35353   9.43500     659.6  0.621648  0.043197  0.007000  0.000103  0.217715  7.214024  0.844111     68.58  1.000399  1.000033     4.392    42.609     309.6      93.3     318.9     985.2     15.94      4.88      5.72     -9.35     -4.13     -5.42      6.51      1.37      3.08      3.52     -3.29      2.65     -0.70     -0.58      1.77    -38.40    -13.62    -19.76    -12.85     -4.51
     -67.854240    -131.326599     100.1      0.56      2.60      79.1         1         3      1000      3564    357.39   -14.469       9.6      36.2   301.630     0.529      37.6   0.06021       6.4         H               205.6  0.041009  0.011874  0.000355  1.150714  0.670761  1.715535  1.032064      2.91    6.6560   53.8608   0.08251   5.92649   0.18081   0.00526  98.83325   6.93136     368.8  0.475556  0.000461  0.000063  0.000091  0.157700  6.756541  0.526911     81.33  1.000074  1.000004     2.221    11.242      65.3      90.6     112.1     377.1     10.61      0.37     -0.77      2.61     -0.45     -0.14      2.07      0.05      0.10     -0.16      0.34      0.21     -0.80      0.35      0.46     -5.05     -0.94      0.30      0.48      0.97
     -67.960464    -131.172302     387.0      0.59      2.60      62.7         2         1      2455      1000    416.94   -13.799      10.1      35.4   304.610     0.540      55.8   0.06452     100.0         H               205.6  0.042076  0.013393  0.000720  1.254729  0.682209  1.839215  1.043054      4.95    7.8365   73.7966   0.09011   6.22834   0.16041   0.00392 134.29333   8.08125     434.9  0.483368  0.000971  0.000077  0.000090  0.166824  6.809204  0.539037     82.34  1.000083  1.000007     2.309    12.235      69.9      92.4     157.4     472.3     11.60      2.50      0.29      0.70     -1.20     -0.51      2.72      0.01      0.11      1.40      0.06     -0.20     -0.80      0.03      0.54    -10.68     -4.78     -1.53     -1.07      0.43
     -67.929466    -131.291031     330.7      0.58      2.60      38.4         2         2      2455      2282    393.44   -14.051       9.9      35.8   301.502     0.531      32.2   0.06154     100.0         H               205.6  0.041756  0.011362  0.000347  1.099659  0.671709  1.637107  1.034163      3.03    7.3730   65.0927   0.08407   6.11641   0.16770   0.00435 119.24093   7.62386     406.8  0.477523  0.000398  0.000048  0.000091  0.154507  6.722817  0.529396     83.27  1.000059  1.000003     2.287    13.764      65.3      91.9     137.6     496.2     10.34      0.84     -1.16      2.55     -0.91     -0.56      2.36      0.11      0.01      0.03      0.19     -0.06     -0.68      0.05      0.25     -4.93     -2.09     -0.20      0.69      0.68
     -67.898682    -131.408356     212.8      0.56      2.60     131.0         2         3      2455      3564    357.95   -14.462       9.6      36.2   301.437     0.527      38.1   0.05901      37.8         H               205.6  0.040276  0.010774  0.000286  1.028768  0.661904  1.554256  1.030409      2.22    6.6676   53.9341   0.07968   5.92989   0.18045   0.00523  99.27365   6.94607     368.8  0.475655  0.000446  0.000071  0.000091  0.154458  6.719702  0.524537     84.72  1.000063  1.000004     2.195    10.741      65.3      90.7     112.3     351.7     10.27      0.26     -1.56      2.86     -0.18     -0.65      1.89      0.30     -0.16      0.11      0.13      0.00     -0.66     -0.12      0.42     -4.09     -0.93      0.06      0.07      0.17
     -68.004974    -131.254120     264.0      0.66      2.60     124.3         3         1      3910      1000    429.58   -13.670      10.3      35.4   334.803     0.634      89.2   0.10187     206.4         H               205.6  0.061745  0.021601  0.000844  2.051888  0.983327  2.086679  1.129269      5.22    8.0781   77.6930   0.09244   6.28462   0.15642   0.00370 141.02072   8.29462     485.1  0.548562  0.001384  0.000161  0.000090  0.167740  6.838501  0.643040     91.42  1.000075  1.000005    34.656  7760.333      55.3      92.8     168.8     741.5     11.32     -0.83     -0.87      1.55      0.14      0.30      1.87     -0.03     -0.02      0.27      0.14     -0.06     -0.62     -0.70      0.09     -7.73      1.24      1.26      0.22     -0.57
     -67.973923    -131.372971     282.2      2.00      2.60     109.5         3         2      3910      2282    407.77   -13.896      10.2      35.8   437.449     0.858     256.9   0.16165     100.0         H               205.6  0.093572  0.052576  0.004583  4.708272  1.436621  3.277324  1.314016     28.21    7.6003   71.7175   0.11729   6.16496   0.16542   0.00422 126.61133   7.81208     535.8  0.702296  0.005603  0.000254  0.000095  0.203660  7.105896  0.879159     97.64  1.000178  1.000014    78.639  9999.000      76.6      92.1     166.5    1005.8     14.22     -2.07      1.88     -3.05     -0.25      1.25      2.17      0.69      0.41     -1.18     -0.62      0.37      0.09      0.00      0.47    -19.11      0.33      0.45     -0.55     -0.53
     -67.943069    -131.490417     395.8      0.57      2.60      41.4         3         3      3910      3564    360.64   -14.429       9.6      36.2   307.907     0.549      56.2   0.06718     100.0         H               205.6  0.045776  0.014628  0.000847  1.348292  0.741336  1.818734  1.051668      4.87    6.7153   55.2443   0.08892   5.94178   0.18009   0.00521 100.66426   6.98501     379.3  0.487481  0.000986  0.000071  0.000092  0.162724  6.784204  0.549751     87.13  1.000075  1.000004     3.544    95.515      67.5      90.6     116.5     655.9     11.29     -0.36     -1.51     -0.04     -0.42     -0.04      3.50     -0.26     -0.24      0.16      0.05      0.07     -1.14     -0.20      0.20    -11.46      0.07      1.38     -0.34      0.50
