corner points
-126.1380692    -64.87346649
-126.3482437    -65.02645874
-126.5186005    -64.77804565
-126.730278    -64.93051147
========== RESULTS WAVE VERSION 16.10.2018 ====================
IMAGE SIZE  X: 4460     Y:4763    col:row     POLARIZATION:VV
COVERAGE    X: 20.84806688km       Y: 19.63809365km 
RESOLUTION dX: 4.674454457m       dY:4.123051365m  
resolution of original product 4.674454457m x 4.123051365m;   raster step x:5997.325068m  
===============================================================
FLAGS: H=HIGH PROBABILITY SEA STATE, I=LAND(ISLAND), O=OUTLIER NO SEA STATE, N=NO WIND AVAILABLE, SEA STATE NOT VISIBLE, M=MEAN PROBABILITY SEA STATE, L= LOW PROBABILITY SEA STATE
Filtering wave length
 integration  Lmin=1m
 integration  Lmax=2200m
  peak        Lmin=100m
               FFT=1024pixels, 4786.641364m 
   mean-Hs (SWH_c)=2.293362579m
         mean-wind=15.2798357m/s
--------------0--------------1---------2---------3---------4---------5---------6---------7---------8---------9--------10--------11--------12--------13--------14--------15--------16--------17--------18--------19------------------20--------21--------22--------23--------24--------25--------26--------27--------28--------29--------30--------31--------32--------33--------34--------35--------36--------37--------38--------39--------40--------41--------42--------43--------44--------45--------46--------47--------48--------49--------50--------51--------52--------53--------54--------55--------56--------57--------58--------59--------60--------61--------62--------63--------64--------65--------66--------67--------68--------69--------70--------71--------72--------73
            LAT            LON  P-LENGHT     SWH_o     SWH_c     P-DIR      LINE     POINT     ROW-Y     COL-X  M-INTENC        dB      WIND INC-ANGLE  ENERGY-M  ENERGY-N  ENERGY-R ENERGY-NN  FG-DEPTH      FLAG         HEADING-DEG    E30-75   E75-390  E390-600 meanincut   meanout   cut/out  STD-NORM  SPEC-MAX   GL-MEAN    GL-VAR      CORR   ENTROPY   HOMOGEN    ENERGY  CONTRAST  DISSIMIL     STD-O    E 1-30 E600-2000   E2000 >      GODA  LONG-HIG     Tmean  CONVOLUT  MEAN-DIR  relation     Sy/Sx  SKEWNESS  KURTOSIS  cutoff-A >50/10000     INT*V   INT-LOG  S-1_g1f1  S-2_g1f2  S-3_g1f3  S-4_g2f1  S-5_g2f2  S-6_g2f3  S-7_g3f1  S-8_g3f2  S-9_g3f3 S-10_g1f4 S-11_g2f4 S-12_g3f4 S-13_g1f5 S-14_g2f5 S-15_g3f5 S-16_g4f1 S-17_g4f2 S-18_g4f3 S-19_g4f4 S-20_g4f5
--------------1--------------2---------3---------4---------5---------6---------7---------8---------9--------10--------11--------12--------13--------14--------15--------16--------17--------18--------19--------20------------------21--------22--------23--------24--------25--------26--------27--------28--------29--------30--------31--------32--------33--------34--------35--------36--------37--------38--------39--------40--------41--------42--------43--------44--------45--------46--------47--------48--------49--------50--------51--------52--------53--------54--------55--------56--------57--------58--------59--------60--------61--------62--------63--------64--------65--------66--------67--------68--------69--------70--------71--------72--------73--------74
     -64.884010    -126.268723     128.4      2.42      3.85      83.0         1         1      1000      1000    790.19   -11.023      15.2      35.4   319.759     0.620      55.7   0.10380      10.9         H               202.4  0.064271  0.032541  0.001159  3.381523  0.771748  4.381639  1.116838     26.48   14.7424  228.6734   0.15205   7.30311   0.10063   0.00126 387.80981  14.20172     882.5  0.521691  0.000771  0.000040  0.000186  0.172597  6.969353  0.627558     86.22  1.000266  1.000028     2.755    16.712     137.8      97.6     656.2    1011.8     11.45      0.77      3.31      2.79     -1.23      5.13      4.70      0.75      3.84      0.30      0.10      0.08      0.41      3.64      3.31     -6.06     -4.06      5.67     -0.62      5.62
     -64.856445    -126.378853     115.2      2.37      3.85      80.6         1         2      1000      2283    781.98   -11.068      15.4      35.8   319.620     0.615      69.4   0.10121       8.6         H               202.4  0.062920  0.031058  0.001018  3.212485  0.770732  4.168097  1.112554     23.68   14.6114  225.4374   0.14854   7.29107   0.10105   0.00128 383.90192  14.11662     870.0  0.519366  0.001197  0.000062  0.000178  0.172002  6.958575  0.621748     87.26  1.000256  1.000026     2.711    16.317     137.8      97.6     639.1    1005.0     11.42      1.19      3.00      2.83     -1.41      4.57      4.07      0.37      3.23      0.48     -0.41     -0.75      0.03      3.20      2.81     -5.65     -4.65      5.08     -1.05      5.25
     -64.829048    -126.487762     103.3      2.32      3.85      83.0         1         3      1000      3566    764.31   -11.167      15.5      36.2   316.531     0.604      56.1   0.09628       6.8         H               202.4  0.059950  0.029518  0.000927  3.046938  0.759977  4.009251  1.102797     22.37   14.3266  217.2437   0.14311   7.26704   0.10194   0.00131 372.30814  13.89067     842.8  0.513494  0.000846  0.000045  0.000168  0.174383  6.980454  0.610195     89.18  1.000246  1.000023     2.676    16.413     128.8      97.5     602.7     971.2     11.35      0.61      3.10      3.19     -0.83      5.13      4.17      0.16      3.51      0.62     -0.51     -0.89     -0.10      3.38      3.27     -4.71     -3.22      5.87     -1.54      5.34
     -64.930733    -126.332947     130.1      2.31      3.85     107.9         2         1      2455      1000    782.06   -11.068      15.1      35.4   315.791     0.607      52.7   0.09913      11.2         H               202.4  0.061280  0.030317  0.000908  3.129060  0.767297  4.078029  1.105394     21.61   14.6308  224.7479   0.14588   7.29618   0.10050   0.00126 383.92706  14.13852     864.5  0.514408  0.000781  0.000038  0.000167  0.171769  6.965894  0.613603     94.83  1.000241  1.000024     2.654    15.526     128.8      97.6     634.5     972.5     11.06      0.59      3.18      3.53     -1.43      4.94      4.51     -0.26      3.58      0.19     -0.77     -1.30      0.15      3.44      2.94     -4.25     -3.75      5.53     -1.51      5.34
     -64.903122    -126.443207     122.5      2.24      3.85     103.4         2         2      2455      2283    773.95   -11.113      15.3      35.8   315.309     0.600      51.6   0.09521       9.8         H               202.4  0.058992  0.028425  0.000926  2.894315  0.758903  3.813813  1.098813     26.05   14.5012  220.7762   0.14115   7.28601   0.10076   0.00128 379.22861  14.04567     850.4  0.511447  0.000779  0.000035  0.000164  0.171762  6.969252  0.605461     97.42  1.000209  1.000022     2.597    14.606     124.8      97.6     616.4     915.5     11.18      0.55      2.65      2.97     -1.61      4.57      4.47     -0.37      3.59     -0.17     -1.24     -1.76     -0.05      3.38      3.14     -5.17     -4.27      5.37     -1.88      5.10
     -64.875679    -126.552254     133.6      2.25      3.85     108.4         2         3      2455      3566    751.76   -11.239      15.4      36.2   316.576     0.603      60.0   0.09559      11.8         H               202.4  0.059391  0.028813  0.000965  2.954995  0.752513  3.926839  1.101365     18.29   14.1072  212.4455   0.14272   7.24359   0.10313   0.00136 364.25043  13.71606     827.9  0.513209  0.000917  0.000057  0.000153  0.175231  6.965856  0.608499     95.04  1.000221  1.000021     2.617    15.038     124.8      97.3     582.1     935.5     11.55      0.56      3.07      3.06     -1.60      4.84      3.96     -0.25      3.01      0.11     -1.33     -0.93     -0.00      2.84      2.31     -5.48     -3.81      5.18     -2.33      4.53
     -64.977432    -126.397385     107.1      2.28      3.85     100.2         3         1      3910      1000    787.36   -11.038      15.2      35.4   319.098     0.614      49.4   0.10153       7.3         H               202.4  0.063727  0.030371  0.000974  3.152995  0.760038  4.148469  1.111867     17.33   14.7044  227.2943   0.14906   7.30088   0.10052   0.00126 386.82623  14.18579     875.4  0.519082  0.000764  0.000025  0.000178  0.168408  6.925757  0.620842     89.55  1.000247  1.000024     2.694    15.819     133.1      97.6     647.9     982.8     11.19      0.86      2.69      3.20     -1.15      4.75      4.49      0.45      3.81      0.35     -0.25     -0.54      0.37      2.96      2.64     -5.28     -4.05      5.02     -1.32      4.82
     -64.949768    -126.507790     119.5      2.20      3.85     103.1         3         2      3910      2283    771.89   -11.124      15.3      35.8   317.745     0.608      53.1   0.09866       9.3         H               202.4  0.063085  0.028802  0.000899  3.006495  0.772636  3.891217  1.106345     24.26   14.4488  220.9555   0.14544   7.27677   0.10153   0.00130 377.63904  13.99159     854.0  0.515268  0.000837  0.000040  0.000173  0.168565  6.911346  0.614325     92.65  1.000229  1.000023     2.649    15.314     124.8      97.5     617.8     968.3     10.99      0.82      2.29      3.35     -1.45      4.82      4.39      0.11      3.51      0.16     -0.66     -1.10      0.06      2.73      2.58     -4.62     -4.75      5.96     -1.47      4.81
     -64.922287    -126.616959     120.7      2.26      3.85     106.6         3         3      3910      3566    739.82   -11.309      15.2      36.2   318.530     0.612      55.2   0.09960       9.5         H               202.4  0.062364  0.030143  0.000891  3.098614  0.759448  4.080090  1.109365     22.09   13.8821  208.7729   0.14819   7.21470   0.10529   0.00141 355.67319  13.51143     820.6  0.517922  0.000804  0.000044  0.000175  0.171136  6.950442  0.618371     90.14  1.000230  1.000023     2.692    16.420     133.1      97.1     567.4     946.0     11.08      1.14      2.90      3.50     -1.55      5.08      4.62      0.37      4.10      0.20     -0.61     -0.34      0.29      3.28      2.62     -4.17     -4.91      5.26     -2.01      5.77
