corner points
-99.04156494    -6.563896179
-99.08007812    -6.738883018
-99.22057343    -6.524013519
-99.25915527    -6.698951721
========== RESULTS WAVE VERSION 16.10.2018 ====================
IMAGE SIZE  X: 4460     Y:4785    col:row     POLARIZATION:VV
COVERAGE    X: 20.22185775km       Y: 19.8708367km 
RESOLUTION dX: 4.534048823m       dY:4.152734943m  
resolution of original product 4.534048823m x 4.152734943m;   raster step x:5998.546593m  
===============================================================
FLAGS: H=HIGH PROBABILITY SEA STATE, I=LAND(ISLAND), O=OUTLIER NO SEA STATE, N=NO WIND AVAILABLE, SEA STATE NOT VISIBLE, M=MEAN PROBABILITY SEA STATE, L= LOW PROBABILITY SEA STATE
Filtering wave length
 integration  Lmin=1m
 integration  Lmax=2200m
  peak        Lmin=100m
               FFT=1024pixels, 4642.865995m 
   mean-Hs (SWH_c)=0.2m
         mean-wind=7.185596943m/s
--------------0--------------1---------2---------3---------4---------5---------6---------7---------8---------9--------10--------11--------12--------13--------14--------15--------16--------17--------18--------19------------------20--------21--------22--------23--------24--------25--------26--------27--------28--------29--------30--------31--------32--------33--------34--------35--------36--------37--------38--------39--------40--------41--------42--------43--------44--------45--------46--------47--------48--------49--------50--------51--------52--------53--------54--------55--------56--------57--------58--------59--------60--------61--------62--------63--------64--------65--------66--------67--------68--------69--------70--------71--------72--------73
            LAT            LON  P-LENGHT     SWH_o     SWH_c     P-DIR      LINE     POINT     ROW-Y     COL-X  M-INTENC        dB      WIND INC-ANGLE  ENERGY-M  ENERGY-N  ENERGY-R ENERGY-NN  FG-DEPTH      FLAG         HEADING-DEG    E30-75   E75-390  E390-600 meanincut   meanout   cut/out  STD-NORM  SPEC-MAX   GL-MEAN    GL-VAR      CORR   ENTROPY   HOMOGEN    ENERGY  CONTRAST  DISSIMIL     STD-O    E 1-30 E600-2000   E2000 >      GODA  LONG-HIG     Tmean  CONVOLUT  MEAN-DIR  relation     Sy/Sx  SKEWNESS  KURTOSIS  cutoff-A >50/10000     INT*V   INT-LOG  S-1_g1f1  S-2_g1f2  S-3_g1f3  S-4_g2f1  S-5_g2f2  S-6_g2f3  S-7_g3f1  S-8_g3f2  S-9_g3f3 S-10_g1f4 S-11_g2f4 S-12_g3f4 S-13_g1f5 S-14_g2f5 S-15_g3f5 S-16_g4f1 S-17_g4f2 S-18_g4f3 S-19_g4f4 S-20_g4f5
--------------1--------------2---------3---------4---------5---------6---------7---------8---------9--------10--------11--------12--------13--------14--------15--------16--------17--------18--------19--------20------------------21--------22--------23--------24--------25--------26--------27--------28--------29--------30--------31--------32--------33--------34--------35--------36--------37--------38--------39--------40--------41--------42--------43--------44--------45--------46--------47--------48--------49--------50--------51--------52--------53--------54--------55--------56--------57--------58--------59--------60--------61--------62--------63--------64--------65--------66--------67--------68--------69--------70--------71--------72--------73--------74
      -6.591432     -99.090218     248.7      0.44      1.89     173.9         1         1      1000      1000    235.15   -16.286       7.3      36.8   219.239     0.535      36.9   0.05879      69.5         H               192.0  0.039570  0.015293  0.000470  0.972703  0.638553  1.523293  1.037825     23.58    4.2216   23.7329   0.08070   5.09439   0.25288   0.01219  43.63509   4.56354     244.1  0.479530  0.000422  0.000034  0.000113  0.203807  6.968450  0.538697    167.92  0.999894  0.999994     2.207    10.718      75.2      84.0      48.2     226.1     13.24      0.82     -6.62     -1.89     -1.52      0.23     -2.76      0.50      4.39      3.01     -1.41     -1.62      2.97     -0.26     -3.16     -8.43     -2.14      0.66     -2.05      1.27
      -6.579555     -99.143524     235.9      0.44      1.89     177.1         1         2      1000      2323    220.18   -16.572       7.2      37.2   220.166     0.534      34.5   0.05748      54.1         H               192.0  0.038968  0.015226  0.000430  0.927052  0.633709  1.462898  1.037422     28.57    3.9254   20.7785   0.07607   4.96474   0.26505   0.01383  38.39575   4.27881     228.4  0.479536  0.000374  0.000028  0.000116  0.204696  6.970562  0.537397    168.59  0.999852  0.999992     2.195    10.514      78.1      82.6      42.4     203.7     13.09      1.35     -7.64     -1.65     -1.75      0.77     -3.00      0.50      4.76      2.21     -0.68     -1.40      3.18      0.05     -3.40     -7.81     -2.96      1.78     -1.14      1.52
      -6.567775     -99.196373     235.9      0.44      1.89     177.1         1         3      1000      3646    210.75   -16.762       7.2      37.5   219.251     0.531      36.7   0.05599      54.1         H               192.0  0.038383  0.014104  0.000469  0.919225  0.621871  1.478160  1.034268     25.53    3.7365   18.9099   0.07258   4.87775   0.27363   0.01500  35.07485   4.09440     218.0  0.477791  0.000438  0.000037  0.000113  0.200045  6.922697  0.533726    167.49  0.999874  0.999994     2.182    10.477      78.1      82.0      38.7     196.9     13.23      1.72     -6.41     -1.98     -2.01      0.47     -2.37      0.29      4.10      2.60     -1.25     -0.91      3.20     -0.20     -3.39     -8.89     -3.77      0.98     -2.26      1.41
      -6.644247     -99.101845     235.9      0.44      1.89     177.1         2         1      2444      1000    229.89   -16.385       7.2      36.8   219.417     0.536      34.3   0.05869      54.1         H               192.0  0.038960  0.015942  0.000436  0.978859  0.630088  1.553528  1.038389     31.63    4.1171   22.7084   0.08028   5.04945   0.25729   0.01276  41.77082   4.46414     238.7  0.480205  0.000364  0.000024  0.000123  0.207920  7.013987  0.539260    168.22  0.999858  0.999992     2.200    10.553      79.7      83.5      46.1     210.9     13.24      0.88     -7.72     -1.74     -1.13      0.93     -3.49      0.59      4.88      2.96     -1.22     -1.47      4.12     -1.03     -3.40     -7.28     -2.19      1.50     -1.93     -0.30
      -6.632365     -99.155159     212.4      0.44      1.89       2.6         2         2      2444      2323    219.71   -16.582       7.2      37.2   219.147     0.532      38.5   0.05694      37.6         H               192.0  0.038696  0.013989  0.000403  0.897369  0.621208  1.444555  1.035391     18.78    3.9165   20.6102   0.07519   4.96091   0.26481   0.01385  38.12106   4.27083     227.5  0.478772  0.000479  0.000048  0.000107  0.197849  6.926029  0.535138    139.67  0.999901  0.999995     2.186    10.503      76.6      82.6      42.1     204.0     12.75      0.89     -7.31     -1.07     -0.99      0.79     -2.55      0.55      4.30      1.78     -0.37     -1.09      3.41     -0.46     -2.82     -7.34     -2.04      1.94     -0.78      0.35
      -6.620581     -99.208015     235.9      0.44      1.89     177.1         2         3      2444      3646    213.21   -16.712       7.2      37.5   218.994     0.532      31.7   0.05638      54.1         H               192.0  0.038255  0.014309  0.000394  0.911447  0.622583  1.463976  1.034821     26.71    3.7857   19.3835   0.07377   4.90075   0.27173   0.01468  35.90691   4.14017     220.6  0.478490  0.000358  0.000024  0.000111  0.198091  6.937029  0.534553    167.58  0.999898  0.999996     2.186    10.491      78.1      82.3      39.7     200.0     12.69      0.32     -7.41     -0.98     -1.18      0.46     -2.65      0.75      4.75      2.39     -0.85     -1.18      3.66     -0.77     -3.27     -6.83     -2.22      0.83     -1.76      0.20
      -6.697061     -99.113472     248.7      0.43      1.89     173.9         3         1      3888      1000    226.22   -16.455       7.1      36.8   218.788     0.531      32.0   0.05677      69.5         H               192.0  0.038709  0.013343  0.000416  0.928035  0.625695  1.483207  1.034648     15.55    4.0437   21.8196   0.07493   5.01796   0.25932   0.01308  40.36926   4.39686     234.0  0.478887  0.000353  0.000031  0.000101  0.192910  6.897004  0.534348    144.37  0.999926  0.999997     2.180    10.417      73.8      83.3      44.6     208.8     12.70      1.48     -5.72     -0.98     -1.38      0.18     -2.03      0.25      3.30      1.80     -0.61     -0.88      2.33     -0.20     -2.12     -7.64     -2.49      0.89     -0.99      0.58
      -6.685175     -99.166801     235.9      0.43      1.89     177.1         3         2      3888      2323    218.25   -16.610       7.1      37.2   218.651     0.532      32.2   0.05710      54.1         H               192.0  0.038969  0.014924  0.000418  0.946177  0.633038  1.494661  1.035514     25.48    3.8879   20.3403   0.07740   4.94776   0.26679   0.01404  37.53181   4.23446     226.0  0.477926  0.000350  0.000021  0.000113  0.203197  6.964923  0.535767    165.74  0.999875  0.999994     2.188    10.500      78.1      82.5      41.6     201.4     13.18      1.93     -6.81     -1.78     -2.01      0.12     -2.98      0.63      4.56      2.59     -1.12     -1.26      2.76      0.03     -2.94     -7.85     -4.11      0.35     -1.69      1.33
      -6.673387     -99.219658     235.9      0.44      1.89     177.1         3         3      3888      3646    211.98   -16.737       7.2      37.5   219.086     0.534      33.1   0.05773      54.1         H               192.0  0.038764  0.015445  0.000376  0.930989  0.637453  1.460482  1.037038     37.30    3.7605   19.2288   0.07761   4.88855   0.27310   0.01491  35.47271   4.11173     219.8  0.479129  0.000353  0.000023  0.000127  0.206016  6.992641  0.537384    163.81  0.999831  0.999991     2.207    10.767      79.7      82.1      39.3     203.9     13.14      0.39     -8.32     -1.56     -1.14      1.19     -3.63      0.72      5.28      1.99     -0.51     -1.40      4.62     -0.82     -3.94     -6.82     -1.99      1.73     -0.47      0.05
