corner points
-109.9349136    -43.30983353
-110.008934    -43.479599
-110.1774063    -43.25230408
-110.2520981    -43.42191696
========== RESULTS WAVE VERSION 16.10.2018 ====================
IMAGE SIZE  X: 4460     Y:4773    col:row     POLARIZATION:VV
COVERAGE    X: 20.60192061km       Y: 19.75856304km 
RESOLUTION dX: 4.61926471m       dY:4.139652847m  
resolution of original product 4.61926471m x 4.139652847m;   raster step x:5995.805594m  
===============================================================
FLAGS: H=HIGH PROBABILITY SEA STATE, I=LAND(ISLAND), O=OUTLIER NO SEA STATE, N=NO WIND AVAILABLE, SEA STATE NOT VISIBLE, M=MEAN PROBABILITY SEA STATE, L= LOW PROBABILITY SEA STATE
Filtering wave length
 integration  Lmin=1m
 integration  Lmax=2200m
  peak        Lmin=100m
               FFT=1024pixels, 4730.127063m 
   mean-Hs (SWH_c)=3.440413513m
         mean-wind=15.00637817m/s
--------------0--------------1---------2---------3---------4---------5---------6---------7---------8---------9--------10--------11--------12--------13--------14--------15--------16--------17--------18--------19------------------20--------21--------22--------23--------24--------25--------26--------27--------28--------29--------30--------31--------32--------33--------34--------35--------36--------37--------38--------39--------40--------41--------42--------43--------44--------45--------46--------47--------48--------49--------50--------51--------52--------53--------54--------55--------56--------57--------58--------59--------60--------61--------62--------63--------64--------65--------66--------67--------68--------69--------70--------71--------72--------73
            LAT            LON  P-LENGHT     SWH_o     SWH_c     P-DIR      LINE     POINT     ROW-Y     COL-X  M-INTENC        dB      WIND INC-ANGLE  ENERGY-M  ENERGY-N  ENERGY-R ENERGY-NN  FG-DEPTH      FLAG         HEADING-DEG    E30-75   E75-390  E390-600 meanincut   meanout   cut/out  STD-NORM  SPEC-MAX   GL-MEAN    GL-VAR      CORR   ENTROPY   HOMOGEN    ENERGY  CONTRAST  DISSIMIL     STD-O    E 1-30 E600-2000   E2000 >      GODA  LONG-HIG     Tmean  CONVOLUT  MEAN-DIR  relation     Sy/Sx  SKEWNESS  KURTOSIS  cutoff-A >50/10000     INT*V   INT-LOG  S-1_g1f1  S-2_g1f2  S-3_g1f3  S-4_g2f1  S-5_g2f2  S-6_g2f3  S-7_g3f1  S-8_g3f2  S-9_g3f3 S-10_g1f4 S-11_g2f4 S-12_g3f4 S-13_g1f5 S-14_g2f5 S-15_g3f5 S-16_g4f1 S-17_g4f2 S-18_g4f3 S-19_g4f4 S-20_g4f5
--------------1--------------2---------3---------4---------5---------6---------7---------8---------9--------10--------11--------12--------13--------14--------15--------16--------17--------18--------19--------20------------------21--------22--------23--------24--------25--------26--------27--------28--------29--------30--------31--------32--------33--------34--------35--------36--------37--------38--------39--------40--------41--------42--------43--------44--------45--------46--------47--------48--------49--------50--------51--------52--------53--------54--------55--------56--------57--------58--------59--------60--------61--------62--------63--------64--------65--------66--------67--------68--------69--------70--------71--------72--------73--------74
     -43.332394    -110.005501     258.9      3.38      5.50     111.5         1         1      1000      1000    669.25   -11.744      14.2      36.0   301.496     0.682     424.3   0.12581      95.4         H               194.2  0.065368  0.052123  0.001967  4.427271  0.813790  5.440314  1.173610    119.43   12.5050  187.5526   0.18337   7.01727   0.11930   0.00187 306.32281  12.25235     785.4  0.556604  0.004979  0.001283  0.000226  0.220615  7.352980  0.699107    101.41  1.000286  1.000032     3.135    22.249     200.3      96.0     493.5    1012.0     14.97     -3.29     11.29      1.54     -0.03      4.36     -1.60      3.23     -3.40     -5.08      0.95      3.85      4.23      3.59      0.51     -7.94     -0.86      2.01      1.94      2.36
     -43.315590    -110.076424     246.3      3.42      5.50     110.4         1         2      1000      2298    778.55   -11.087      15.8      36.4   292.708     0.649     226.9   0.11474      65.9         H               194.2  0.061271  0.045773  0.001616  4.174752  0.800303  5.216468  1.143522     61.69   14.4802  228.3956   0.16923   7.25989   0.10451   0.00136 379.49255  13.94353     890.3  0.537105  0.003439  0.000461  0.000204  0.212856  7.287868  0.662938     89.36  1.000300  1.000032     2.878    18.156     181.9      97.3     654.5    1045.2     14.04     -1.37     10.21      2.63      0.08      5.15     -0.06      2.57     -1.58     -2.16      0.84      2.97      4.15      3.94      1.40     -6.33     -1.60      2.98      0.52      3.03
     -43.298893    -110.146675     241.1      3.42      5.50     113.5         1         3      1000      3596    733.00   -11.349      15.6      36.7   292.766     0.650     195.1   0.11475      59.4         H               194.2  0.061935  0.047050  0.001649  4.125786  0.793331  5.200585  1.143908    105.19   13.6858  210.1357   0.17006   7.17548   0.10934   0.00152 348.79938  13.27842     838.5  0.536327  0.003087  0.000308  0.000213  0.218234  7.304232  0.664080     99.87  1.000273  1.000029     2.897    18.712     174.0      96.9     577.4    1004.0     14.46     -2.96     10.02      2.03      0.74      4.89     -1.09      3.07     -2.92     -3.85      1.27      4.05      3.49      3.30      1.08     -6.61      0.36      4.29      1.10      2.66
     -43.383934    -110.028008     234.8      3.59      5.50     109.4         2         1      2449      1000    722.29   -11.413      14.9      36.0   294.603     0.661     149.0   0.11963      53.1         H               194.2  0.063291  0.052190  0.001860  4.252161  0.819917  5.186089  1.153439    126.62   13.4809  206.9234   0.17651   7.14595   0.11103   0.00158 340.80121  13.08196     833.1  0.541716  0.002217  0.000201  0.000222  0.222519  7.357555  0.676903    102.15  1.000317  1.000035     2.942    18.576     181.9      96.7     566.0     951.6     14.74     -3.13     11.03      1.76      0.10      4.28     -1.53      3.65     -3.00     -4.55      0.65      4.92      4.04      3.90      0.09     -6.91     -0.73      1.98      0.58      4.20
     -43.367119    -110.098991     251.0      3.09      5.50     107.2         2         2      2449      2298    605.41   -12.179      13.7      36.4   296.001     0.662     242.5   0.11751      73.5         H               194.2  0.063824  0.048855  0.001598  4.339864  0.815721  5.320279  1.155277     78.83   11.3790  159.8833   0.17514   6.86742   0.12759   0.00222 263.76605  11.28095     699.5  0.544845  0.002926  0.000624  0.000202  0.218258  7.311145  0.677857     93.70  1.000308  1.000033     3.015    20.195     190.7      95.2     392.8     851.6     14.46     -2.38     10.17      2.13      0.12      5.19     -1.03      2.90     -2.46     -3.65      0.94      3.50      3.57      4.12      1.12     -6.37     -1.27      3.87      0.90      3.60
     -43.350407    -110.169304     246.3      3.55      5.50     110.4         2         3      2449      3596    739.35   -11.311      15.6      36.7   298.286     0.671     750.4   0.12372      65.9         H               194.2  0.061798  0.048839  0.002296  4.312222  0.816619  5.280580  1.165526     81.25   13.7509  215.4263   0.18652   7.16913   0.11081   0.00155 350.49442  13.26553     861.7  0.546246  0.009964  0.001950  0.000201  0.218298  7.328091  0.687840     96.10  1.000265  1.000030     2.998    19.406     210.9      96.7     601.7    1007.7     14.90     -2.94     10.43      0.84      0.28      4.14     -0.63      2.73     -2.84     -3.38      0.17      3.72      3.95      3.66      0.11    -10.18      0.19      1.75     -0.41      3.27
     -43.435467    -110.050552     234.8      3.49      5.50     109.4         3         1      3898      1000    711.73   -11.477      14.7      36.0   296.405     0.662     143.2   0.11903      53.1         H               194.2  0.063642  0.051223  0.001839  4.532345  0.808024  5.609173  1.154482     94.63   13.2951  202.5321   0.17370   7.12511   0.11242   0.00162 334.70374  12.94159     821.6  0.543617  0.002247  0.000158  0.000213  0.217847  7.347811  0.677455     97.93  1.000281  1.000031     3.030    21.255     181.9      96.6     549.1    1019.4     14.53     -1.80      9.77      1.94     -0.49      5.50     -1.00      3.41     -2.73     -3.07      0.76      3.40      3.27      4.23      0.61     -7.24     -3.13      4.42      0.81      4.55
     -43.418640    -110.121590     246.3      3.50      5.50     110.4         3         2      3898      2298    716.36   -11.449      15.1      36.3   294.167     0.658     115.8   0.11801      65.9         H               194.2  0.063372  0.050324  0.001875  4.462268  0.810158  5.507895  1.150506     98.36   13.3826  203.9910   0.17321   7.13720   0.11140   0.00160 337.31464  13.01509     824.2  0.540893  0.001812  0.000092  0.000210  0.217631  7.336146  0.672996     97.95  1.000299  1.000034     2.965    19.312     181.9      96.6     554.6     957.1     14.63     -2.28     10.42      1.90     -0.50      4.97     -1.18      3.06     -3.00     -3.41     -0.12      3.84      4.43      3.39      0.32     -7.51     -1.98      2.91     -0.81      2.37
     -43.401917    -110.191963     220.3      3.53      5.50     111.3         3         3      3898      3596    719.30   -11.431      15.4      36.7   294.382     0.657     383.1   0.11800      42.2         H               194.2  0.061389  0.049178  0.001829  4.313334  0.787592  5.476610  1.151406     74.97   13.4323  206.0807   0.17737   7.14041   0.11182   0.00160 339.05853  13.04419     828.2  0.539117  0.005253  0.000908  0.000207  0.217682  7.334386  0.672869     96.58  1.000281  1.000030     2.915    18.602     181.9      96.6     560.0     999.6     14.65     -2.22     10.14      1.66     -0.05      4.70     -1.09      2.65     -2.77     -3.19      0.26      3.19      3.98      3.53      0.83     -7.86     -0.47      2.81      0.60      2.21
