corner points
-95.69148254    1.049256086
-95.72913361    0.8684878945
-95.87146759    1.087735176
-95.90914154    0.9069989324
========== RESULTS WAVE VERSION 16.10.2018 ====================
IMAGE SIZE  X: 5601     Y:4928    col:row     POLARIZATION:VV
COVERAGE    X: 20.41865843km       Y: 20.48436124km 
RESOLUTION dX: 3.645538017m       dY:4.156729148m  
resolution of original product 3.645538017m x 4.156729148m;   raster step x:5996.910038m  
===============================================================
FLAGS: H=HIGH PROBABILITY SEA STATE, I=LAND(ISLAND), O=OUTLIER NO SEA STATE, N=NO WIND AVAILABLE, SEA STATE NOT VISIBLE, M=MEAN PROBABILITY SEA STATE, L= LOW PROBABILITY SEA STATE
Filtering wave length
 integration  Lmin=1m
 integration  Lmax=2200m
  peak        Lmin=100m
               FFT=1024pixels, 3733.030929m 
   mean-Hs (SWH_c)=0.2m
         mean-wind=4.158641815m/s
--------------0--------------1---------2---------3---------4---------5---------6---------7---------8---------9--------10--------11--------12--------13--------14--------15--------16--------17--------18--------19------------------20--------21--------22--------23--------24--------25--------26--------27--------28--------29--------30--------31--------32--------33--------34--------35--------36--------37--------38--------39--------40--------41--------42--------43--------44--------45--------46--------47--------48--------49--------50--------51--------52--------53--------54--------55--------56--------57--------58--------59--------60--------61--------62--------63--------64--------65--------66--------67--------68--------69--------70--------71--------72--------73
            LAT            LON  P-LENGHT     SWH_o     SWH_c     P-DIR      LINE     POINT     ROW-Y     COL-X  M-INTENC        dB      WIND INC-ANGLE  ENERGY-M  ENERGY-N  ENERGY-R ENERGY-NN  FG-DEPTH      FLAG         HEADING-DEG    E30-75   E75-390  E390-600 meanincut   meanout   cut/out  STD-NORM  SPEC-MAX   GL-MEAN    GL-VAR      CORR   ENTROPY   HOMOGEN    ENERGY  CONTRAST  DISSIMIL     STD-O    E 1-30 E600-2000   E2000 >      GODA  LONG-HIG     Tmean  CONVOLUT  MEAN-DIR  relation     Sy/Sx  SKEWNESS  KURTOSIS  cutoff-A >50/10000     INT*V   INT-LOG  S-1_g1f1  S-2_g1f2  S-3_g1f3  S-4_g2f1  S-5_g2f2  S-6_g2f3  S-7_g3f1  S-8_g3f2  S-9_g3f3 S-10_g1f4 S-11_g2f4 S-12_g3f4 S-13_g1f5 S-14_g2f5 S-15_g3f5 S-16_g4f1 S-17_g4f2 S-18_g4f3 S-19_g4f4 S-20_g4f5
--------------1--------------2---------3---------4---------5---------6---------7---------8---------9--------10--------11--------12--------13--------14--------15--------16--------17--------18--------19--------20------------------21--------22--------23--------24--------25--------26--------27--------28--------29--------30--------31--------32--------33--------34--------35--------36--------37--------38--------39--------40--------41--------42--------43--------44--------45--------46--------47--------48--------49--------50--------51--------52--------53--------54--------55--------56--------57--------58--------59--------60--------61--------62--------63--------64--------65--------66--------67--------68--------69--------70--------71--------72--------73--------74
       1.019617     -95.732094     293.0      0.28      1.44      51.7         1         1      1000      1000   1573.55    -8.031       4.2      23.7   384.986     0.612     123.0   0.11723     100.0         H               192.0  0.053415  0.030875  0.001107  1.921074  0.814988  2.357181  1.109478     53.19    2.6767   12.0844   0.21122   4.27218   0.36387   0.03133  19.06411   2.88196    1745.7  0.524301  0.002172  0.000077  0.000152  0.220017  7.186189  0.636680     54.35  0.999928  0.999996     2.638    15.080      51.0      73.9      23.8     184.8     13.78      5.17     -3.24     -1.52     -1.49     -0.94     -3.65     -2.89      2.38      2.42     -0.36     -1.70     -1.58      1.12     -0.31     -8.79     -1.21     -0.60     -0.30      2.21
       1.031041     -95.785515     293.0      0.28      1.44      51.7         1         2      1000      2645   1447.06    -8.395       4.3      24.1   385.453     0.609     129.5   0.11530     100.0         H               192.0  0.052378  0.029412  0.001087  1.897653  0.794895  2.387300  1.105756     63.59    2.4112   10.0439   0.20749   4.09742   0.38569   0.03702  15.91970   2.62915    1600.1  0.523988  0.002090  0.000106  0.000149  0.215087  7.155181  0.633127     55.17  0.999957  0.999997     2.605    14.612      51.0      71.7      20.0     165.0     13.83      5.97     -1.94     -1.88     -2.71     -1.57     -2.92     -2.69      1.66      3.34     -1.09     -1.97     -2.90      2.42      0.01     -9.55     -3.42     -1.54     -1.39      4.06
       1.042258     -95.837975     293.0      0.27      1.44      51.7         1         3      1000      4290   1224.94    -9.119       4.1      24.6   386.227     0.612     164.2   0.11788     100.0         H               192.0  0.053595  0.031382  0.001172  1.879059  0.809457  2.321383  1.110366     67.11    1.9932    7.3260   0.21190   3.78297   0.42837   0.05046  11.54723   2.21966    1360.0  0.523820  0.002619  0.000152  0.000157  0.220838  7.187027  0.637557     59.98  0.999916  0.999994     2.614    14.414      51.0      67.2      14.8     137.7     13.87      5.87     -3.08     -1.91     -2.50     -0.88     -3.38     -2.42      2.23      3.19     -0.78     -2.05     -1.82      1.81     -0.73     -9.26     -3.60     -0.48     -1.08      3.28
       0.966676     -95.743118     305.6      0.27      1.44      54.9         2         1      2443      1000   1535.53    -8.137       4.1      23.7   385.238     0.613     134.8   0.11869     100.0         H               192.0  0.053684  0.032278  0.001111  1.941889  0.817574  2.375184  1.110402     68.82    2.6017   11.5236   0.21369   4.22361   0.37027   0.03289  18.12211   2.80699    1705.0  0.523870  0.002126  0.000105  0.000161  0.223534  7.203350  0.638081     58.08  0.999918  0.999996     2.633    14.852      53.8      73.3      22.7     177.3     14.17      5.48     -2.10     -2.31     -2.35     -1.73     -3.70     -2.68      1.99      3.26     -1.11     -2.33     -1.74      2.08     -0.71     -9.39     -2.87     -1.87     -1.19      3.57
       0.978103     -95.796547     305.6      0.27      1.44      54.9         2         2      2443      2645   1380.54    -8.600       4.1      24.1   385.706     0.613     117.7   0.11809     100.0         H               192.0  0.053705  0.031669  0.001166  1.979538  0.794515  2.491504  1.110612     71.51    2.2863    9.2384   0.21176   4.00771   0.39797   0.04052  14.56418   2.50399    1533.2  0.524868  0.001977  0.000068  0.000162  0.220004  7.181399  0.638298     57.60  0.999936  0.999995     2.649    14.969      51.7      70.4      18.4     152.6     13.99      5.80     -2.07     -1.95     -2.29     -1.91     -3.55     -2.82      2.09      3.17     -0.65     -2.40     -2.35      2.06     -0.17     -9.47     -2.50     -2.37      0.15      3.18
       0.989322     -95.849007     293.0      0.28      1.44      51.7         2         3      2443      4290   1265.43    -8.978       4.3      24.6   384.369     0.609     129.4   0.11687     100.0         H               192.0  0.053773  0.031081  0.001178  1.956583  0.798456  2.450459  1.106104     66.28    2.0641    7.7188   0.21093   3.84029   0.42049   0.04764  12.18131   2.28705    1399.7  0.520680  0.002196  0.000081  0.000154  0.220891  7.162019  0.633667     62.50  0.999937  0.999996     2.584    14.119      51.0      68.1      15.6     136.7     14.05      5.32     -2.44     -2.21     -2.18     -1.27     -3.25     -1.96      2.01      3.29     -0.90     -2.08     -2.59      2.25     -0.56     -9.91     -3.35     -0.95     -1.40      4.50
       0.913735     -95.754150     305.6      0.27      1.44      54.9         3         1      3886      1000   1515.61    -8.194       4.1      23.7   387.292     0.616     135.6   0.11888     100.0         H               192.0  0.053819  0.031349  0.001304  1.916752  0.832275  2.303029  1.113379     65.71    2.5706   11.3469   0.21300   4.20283   0.37354   0.03366  17.86014   2.77857    1687.3  0.527861  0.002302  0.000087  0.000153  0.219749  7.185420  0.641930     64.16  0.999934  0.999996     2.664    15.236      51.7      73.0      22.4     174.2     14.09      5.37     -2.10     -2.49     -2.50     -1.84     -3.10     -2.26      1.98      3.24     -1.19     -1.85     -1.45      2.18     -1.03    -10.66     -3.37     -2.02     -1.70      3.99
       0.925165     -95.807579     275.7      0.26      1.44      54.3         3         2      3886      2645   1326.45    -8.773       4.0      24.1   383.369     0.606     102.3   0.11488     100.0         H               192.0  0.052304  0.031739  0.000883  1.941204  0.806678  2.406419  1.105084     73.64    2.1923    8.5044   0.20832   3.93955   0.40705   0.04324  13.46556   2.41222    1465.8  0.519802  0.001640  0.000063  0.000161  0.220320  7.194599  0.630873     56.22  0.999937  0.999995     2.570    13.987      51.0      69.5      17.1     144.6     13.86      6.50     -2.26     -1.66     -2.99     -1.90     -3.75     -2.54      2.08      3.86     -1.47     -2.07     -3.09      2.31      0.18     -8.11     -4.60     -1.97     -2.32      3.90
       0.936387     -95.860039     275.7      0.27      1.44      54.3         3         3      3886      4290   1220.96    -9.133       4.1      24.6   386.955     0.613     111.9   0.11748     100.0         H               192.0  0.053027  0.033015  0.001139  1.896882  0.805949  2.353601  1.110436     89.16    1.9807    7.2559   0.21092   3.77256   0.43038   0.05112  11.45094   2.20746    1355.7  0.524834  0.001775  0.000050  0.000175  0.227146  7.215401  0.638871     57.26  0.999916  0.999995     2.626    14.661      53.1      67.0      14.7     134.7     14.37      6.22     -2.61     -2.77     -3.22     -1.47     -3.76     -2.23      2.09      3.90     -1.40     -2.21     -2.89      2.77     -0.43     -9.93     -4.41     -1.05     -1.72      4.76
