corner points
-116.5632172    -55.17206955
-116.6812744    -55.33638763
-116.865036    -55.09992599
-116.9841995    -55.26396179
========== RESULTS WAVE VERSION 16.10.2018 ====================
IMAGE SIZE  X: 4460     Y:4770    col:row     POLARIZATION:VV
COVERAGE    X: 20.74942201km       Y: 19.70112001km 
RESOLUTION dX: 4.652336772m       dY:4.130213839m  
resolution of original product 4.652336772m x 4.130213839m;   raster step x:5996.8621m  
===============================================================
FLAGS: H=HIGH PROBABILITY SEA STATE, I=LAND(ISLAND), O=OUTLIER NO SEA STATE, N=NO WIND AVAILABLE, SEA STATE NOT VISIBLE, M=MEAN PROBABILITY SEA STATE, L= LOW PROBABILITY SEA STATE
Filtering wave length
 integration  Lmin=1m
 integration  Lmax=2200m
  peak        Lmin=100m
               FFT=1024pixels, 4763.992855m 
   mean-Hs (SWH_c)=1.810432129m
         mean-wind=15.70020676m/s
--------------0--------------1---------2---------3---------4---------5---------6---------7---------8---------9--------10--------11--------12--------13--------14--------15--------16--------17--------18--------19------------------20--------21--------22--------23--------24--------25--------26--------27--------28--------29--------30--------31--------32--------33--------34--------35--------36--------37--------38--------39--------40--------41--------42--------43--------44--------45--------46--------47--------48--------49--------50--------51--------52--------53--------54--------55--------56--------57--------58--------59--------60--------61--------62--------63--------64--------65--------66--------67--------68--------69--------70--------71--------72--------73
            LAT            LON  P-LENGHT     SWH_o     SWH_c     P-DIR      LINE     POINT     ROW-Y     COL-X  M-INTENC        dB      WIND INC-ANGLE  ENERGY-M  ENERGY-N  ENERGY-R ENERGY-NN  FG-DEPTH      FLAG         HEADING-DEG    E30-75   E75-390  E390-600 meanincut   meanout   cut/out  STD-NORM  SPEC-MAX   GL-MEAN    GL-VAR      CORR   ENTROPY   HOMOGEN    ENERGY  CONTRAST  DISSIMIL     STD-O    E 1-30 E600-2000   E2000 >      GODA  LONG-HIG     Tmean  CONVOLUT  MEAN-DIR  relation     Sy/Sx  SKEWNESS  KURTOSIS  cutoff-A >50/10000     INT*V   INT-LOG  S-1_g1f1  S-2_g1f2  S-3_g1f3  S-4_g2f1  S-5_g2f2  S-6_g2f3  S-7_g3f1  S-8_g3f2  S-9_g3f3 S-10_g1f4 S-11_g2f4 S-12_g3f4 S-13_g1f5 S-14_g2f5 S-15_g3f5 S-16_g4f1 S-17_g4f2 S-18_g4f3 S-19_g4f4 S-20_g4f5
--------------1--------------2---------3---------4---------5---------6---------7---------8---------9--------10--------11--------12--------13--------14--------15--------16--------17--------18--------19--------20------------------21--------22--------23--------24--------25--------26--------27--------28--------29--------30--------31--------32--------33--------34--------35--------36--------37--------38--------39--------40--------41--------42--------43--------44--------45--------46--------47--------48--------49--------50--------51--------52--------53--------54--------55--------56--------57--------58--------59--------60--------61--------62--------63--------64--------65--------66--------67--------68--------69--------70--------71--------72--------73--------74
     -55.190208    -116.656563     369.0      1.84      3.55      58.4         1         1      1000      1000    822.85   -10.847      15.7      35.7   293.055     0.575      59.4   0.08636     100.0         H               197.0  0.052758  0.019551  0.000942  1.917872  0.731874  2.620493  1.076224      8.54   15.4102  236.5905   0.12356   7.38752   0.09419   0.00110 414.71259  14.85318     885.5  0.501510  0.000964  0.000064  0.000119  0.173813  6.852396  0.578556     86.70  1.000201  1.000019     2.468    13.312     105.0      98.1     683.2     920.4     12.31      1.62      1.81      1.09     -1.59      2.98      2.51      1.05      0.44      0.51     -0.05     -0.18     -1.01      2.17      1.33     -9.99     -5.46      3.42      0.16      4.16
     -55.169281    -116.744270     272.2      1.72      3.55      59.0         1         2      1000      2289    750.97   -11.244      15.2      36.0   294.275     0.579      63.0   0.08761     100.0         H               197.0  0.053380  0.019978  0.001011  1.945422  0.744512  2.613018  1.079875      7.41   14.1387  208.9564   0.12707   7.25827   0.10113   0.00131 364.81006  13.78730     810.9  0.504177  0.001173  0.000063  0.000117  0.175334  6.866559  0.582790     86.74  1.000216  1.000020     2.492    13.549     105.0      97.4     567.3     858.6     12.25      0.72      2.04      1.04     -0.86      2.55      2.63      1.14      0.78      0.75     -0.26      0.57     -0.85      1.90      1.56    -10.20     -3.53      1.90     -1.30      3.22
     -55.148479    -116.831093     395.4      1.77      3.55      41.6         1         3      1000      3578    775.50   -11.104      15.8      36.4   293.409     0.574      92.9   0.08511     100.0         H               197.0  0.052104  0.019056  0.001044  1.872941  0.733950  2.551864  1.075329      7.19   14.5828  218.0472   0.12388   7.30685   0.09847   0.00122 382.06830  14.15862     833.9  0.500638  0.001806  0.000136  0.000113  0.173634  6.858761  0.577572     87.22  1.000183  1.000017     2.461    13.172     105.0      97.8     603.8     872.5     12.18      1.24      1.65      0.98     -1.57      2.81      2.96      1.22      0.70      0.52     -0.16     -0.22     -0.49      1.70      1.39    -11.15     -5.72      2.72     -0.24      3.08
     -55.240223    -116.692543     136.1      1.83      3.55      90.0         2         1      2452      1000    816.25   -10.882      15.6      35.7   294.977     0.580      99.0   0.08730      12.4         H               197.0  0.053169  0.019807  0.001035  1.954127  0.749706  2.606523  1.080927      6.87   15.2844  234.4781   0.12566   7.37503   0.09477   0.00112 410.02747  14.75046     882.2  0.504845  0.001805  0.000155  0.000117  0.171121  6.842059  0.583890     86.17  1.000189  1.000016     2.519    14.137     105.0      98.1     675.4     963.8     12.06      1.38      1.50      0.83     -1.78      2.54      3.05      1.54      0.67     -0.01      0.21      0.18     -0.83      2.42      1.49    -10.72     -6.18      3.39      0.26      4.82
     -55.219273    -116.780342     395.4      1.76      3.55      41.6         2         2      2452      2289    782.89   -11.063      15.6      36.0   293.348     0.576      73.5   0.08636     100.0         H               197.0  0.052596  0.019322  0.001108  1.907155  0.729031  2.616015  1.077087      8.82   14.7109  221.2441   0.12481   7.31980   0.09782   0.00120 387.26227  14.26618     843.2  0.502213  0.001392  0.000087  0.000117  0.171658  6.855568  0.579632     87.31  1.000189  1.000017     2.483    13.594     102.3      97.8     616.4     904.4     12.16      1.30      1.34      0.75     -1.85      3.01      3.24      1.94      0.35      0.07      0.35     -0.19     -0.82      1.99      0.97    -11.69     -7.35      4.08      1.00      4.57
     -55.198444    -116.867271     398.1      1.80      3.55      48.8         2         3      2452      3578    788.34   -11.033      15.9      36.4   294.447     0.578     119.0   0.08631     100.0         H               197.0  0.053332  0.019277  0.001028  1.914577  0.741303  2.582721  1.079107      7.98   14.8000  223.3563   0.12560   7.32761   0.09751   0.00119 390.60370  14.33722     850.7  0.502740  0.002080  0.000218  0.000123  0.170705  6.840899  0.581744     86.41  1.000209  1.000018     2.522    14.480     107.8      97.9     627.1     948.9     12.16      0.82      1.82      0.96     -1.50      2.78      3.17      1.55      0.54      0.51     -0.35      0.33     -0.20      1.97      1.47    -10.77     -5.03      3.55     -0.58      2.99
     -55.290230    -116.728607     395.4      1.88      3.55      41.6         3         1      3904      1000    827.15   -10.824      15.7      35.6   294.856     0.580      96.3   0.08729     100.0         H               197.0  0.053529  0.020166  0.001091  1.963194  0.752888  2.607551  1.080692      8.51   15.4706  239.0238   0.12539   7.38995   0.09392   0.00110 418.10190  14.91296     893.8  0.503919  0.001699  0.000151  0.000115  0.173376  6.867182  0.584009     87.18  1.000190  1.000017     2.483    13.420     105.0      98.2     693.6     938.0     12.22      1.30      1.61      0.79     -1.35      3.02      3.12      1.18      0.24      0.57     -0.17     -0.03     -0.58      1.61      1.87    -10.98     -4.77      4.43     -0.38      2.18
     -55.269249    -116.816521     104.3      1.86      3.55      80.1         3         2      3904      2289    811.28   -10.908      15.9      36.0   294.873     0.579     110.0   0.08701       6.9         H               197.0  0.052969  0.019766  0.000893  1.959365  0.739551  2.649399  1.079662      7.12   15.2009  232.4931   0.12442   7.36687   0.09504   0.00113 407.13257  14.68733     875.9  0.503519  0.001934  0.000191  0.000125  0.170981  6.850243  0.582104     85.85  1.000187  1.000016     2.518    14.218     107.8      98.0     665.8     940.0     11.95      0.92      1.40      1.47     -0.75      3.23      2.74      0.79      0.25      0.36      0.16     -0.12     -0.31      1.77      1.44     -9.13     -3.25      4.61      0.38      3.25
     -55.248398    -116.903534     101.1      1.83      3.55      77.6         3         3      3904      3578    782.67   -11.064      15.9      36.4   293.176     0.573      93.5   0.08483       6.5         H               197.0  0.051802  0.019497  0.001096  1.927135  0.729737  2.640861  1.074551      7.34   14.7104  221.0008   0.12361   7.32055   0.09761   0.00120 387.36618  14.27408     841.0  0.499696  0.001621  0.000150  0.000121  0.173384  6.862052  0.576404     85.23  1.000205  1.000019     2.444    12.932     107.8      97.8     614.9     868.1     12.34      1.04      1.92      0.76     -1.50      3.03      3.03      1.84      0.19      0.15      0.51     -0.16     -0.39      2.54      0.77    -11.68     -6.49      3.73      1.23      5.32
