corner points
-95.32008362    2.822148085
-95.35762024    2.641372919
-95.50013733    2.860360622
-95.53767395    2.679615021
========== RESULTS WAVE VERSION 16.10.2018 ====================
IMAGE SIZE  X: 5601     Y:4928    col:row     POLARIZATION:VV
COVERAGE    X: 20.39900496km       Y: 20.48155284km 
RESOLUTION dX: 3.642029095m       dY:4.156159261m  
resolution of original product 3.642029095m x 4.156159261m;   raster step x:5998.421919m  
===============================================================
FLAGS: H=HIGH PROBABILITY SEA STATE, I=LAND(ISLAND), O=OUTLIER NO SEA STATE, N=NO WIND AVAILABLE, SEA STATE NOT VISIBLE, M=MEAN PROBABILITY SEA STATE, L= LOW PROBABILITY SEA STATE
Filtering wave length
 integration  Lmin=1m
 integration  Lmax=2200m
  peak        Lmin=100m
               FFT=1024pixels, 3729.437793m 
   mean-Hs (SWH_c)=0.2m
         mean-wind=4.675514698m/s
--------------0--------------1---------2---------3---------4---------5---------6---------7---------8---------9--------10--------11--------12--------13--------14--------15--------16--------17--------18--------19------------------20--------21--------22--------23--------24--------25--------26--------27--------28--------29--------30--------31--------32--------33--------34--------35--------36--------37--------38--------39--------40--------41--------42--------43--------44--------45--------46--------47--------48--------49--------50--------51--------52--------53--------54--------55--------56--------57--------58--------59--------60--------61--------62--------63--------64--------65--------66--------67--------68--------69--------70--------71--------72--------73
            LAT            LON  P-LENGHT     SWH_o     SWH_c     P-DIR      LINE     POINT     ROW-Y     COL-X  M-INTENC        dB      WIND INC-ANGLE  ENERGY-M  ENERGY-N  ENERGY-R ENERGY-NN  FG-DEPTH      FLAG         HEADING-DEG    E30-75   E75-390  E390-600 meanincut   meanout   cut/out  STD-NORM  SPEC-MAX   GL-MEAN    GL-VAR      CORR   ENTROPY   HOMOGEN    ENERGY  CONTRAST  DISSIMIL     STD-O    E 1-30 E600-2000   E2000 >      GODA  LONG-HIG     Tmean  CONVOLUT  MEAN-DIR  relation     Sy/Sx  SKEWNESS  KURTOSIS  cutoff-A >50/10000     INT*V   INT-LOG  S-1_g1f1  S-2_g1f2  S-3_g1f3  S-4_g2f1  S-5_g2f2  S-6_g2f3  S-7_g3f1  S-8_g3f2  S-9_g3f3 S-10_g1f4 S-11_g2f4 S-12_g3f4 S-13_g1f5 S-14_g2f5 S-15_g3f5 S-16_g4f1 S-17_g4f2 S-18_g4f3 S-19_g4f4 S-20_g4f5
--------------1--------------2---------3---------4---------5---------6---------7---------8---------9--------10--------11--------12--------13--------14--------15--------16--------17--------18--------19--------20------------------21--------22--------23--------24--------25--------26--------27--------28--------29--------30--------31--------32--------33--------34--------35--------36--------37--------38--------39--------40--------41--------42--------43--------44--------45--------46--------47--------48--------49--------50--------51--------52--------53--------54--------55--------56--------57--------58--------59--------60--------61--------62--------63--------64--------65--------66--------67--------68--------69--------70--------71--------72--------73--------74
       2.792460     -95.360680     276.7      0.31      1.55      62.9         1         1      1000      1000   1768.50    -7.524       4.8      23.7   397.837     0.639     107.7   0.12935     100.0         H               192.0  0.062969  0.034559  0.001045  2.112251  0.817775  2.582924  1.133912    103.20    3.0657   15.9753   0.22664   4.49741   0.33948   0.02584  24.70920   3.25544    2005.4  0.539220  0.001436  0.000055  0.000191  0.226154  7.149651  0.666773     60.27  1.000088  1.000007     2.751    15.964      64.2      76.3      30.5     206.0     15.23      9.55      2.92     -2.59     -3.76     -2.05     -4.70     -4.42     -0.87      7.35     -2.31     -4.18     -4.17      1.71      1.36     -8.88     -6.48     -3.72     -3.55      3.25
       2.803819     -95.414185     285.9      0.31      1.55      57.5         1         2      1000      2647   1614.34    -7.920       4.9      24.2   391.981     0.626      95.7   0.12411     100.0         H               192.0  0.062085  0.030252  0.000931  1.976462  0.819929  2.410528  1.121795     69.72    2.7517   12.9583   0.22020   4.31567   0.35965   0.03040  20.20978   2.95345    1810.9  0.531704  0.001352  0.000053  0.000169  0.213589  7.035814  0.652412     58.88  1.000107  1.000008     2.699    15.454      61.3      74.3      25.2     192.1     14.59      8.57      1.57     -2.07     -3.57     -1.86     -3.87     -3.76      0.08      6.15     -2.07     -3.31     -3.88      1.50      1.56     -8.58     -6.35     -3.45     -3.46      2.78
       2.814970     -95.466728     285.9      0.31      1.55      57.5         1         3      1000      4294   1437.98    -8.422       4.9      24.6   394.974     0.631     170.3   0.12605     100.0         H               192.0  0.062385  0.029294  0.001123  1.937649  0.825000  2.348665  1.125225     73.23    2.3929   10.2719   0.22161   4.07909   0.39054   0.03842  15.99106   2.60740    1618.1  0.535609  0.002743  0.000155  0.000167  0.210755  7.000670  0.657619     57.67  1.000120  1.000008     2.747    16.255      61.3      71.2      20.1     175.7     14.65      8.67      1.39     -2.70     -3.69     -2.38     -3.40     -3.98      0.88      4.98     -1.95     -2.47     -3.62      1.23      1.83    -10.19     -6.00     -5.45     -3.12      1.44
       2.739517     -95.371674     265.2      0.30      1.55      51.5         2         1      2443      1000   1733.98    -7.610       4.7      23.7   396.240     0.635     181.0   0.12724     100.0         H               192.0  0.062622  0.032289  0.000765  2.065612  0.833871  2.477135  1.131695     89.62    2.9960   15.2604   0.22517   4.45863   0.34374   0.02672  23.64855   3.18503    1962.2  0.537151  0.002266  0.000215  0.000182  0.218938  7.090387  0.662843     57.93  1.000081  1.000005     2.737    15.696      62.2      75.9      29.3     208.2     14.63      8.70      1.27     -1.68     -3.32     -1.51     -4.74     -4.16     -0.18      6.04     -1.59     -3.52     -4.60      1.61      2.08     -7.00     -5.42     -2.45     -2.40      2.46
       2.750878     -95.425179     296.1      0.30      1.55      60.9         2         2      2443      2647   1556.95    -8.077       4.7      24.2   392.316     0.623     120.5   0.12277     100.0         H               192.0  0.061281  0.029496  0.001074  1.922053  0.807887  2.379112  1.119997     69.17    2.6352   11.9764   0.21842   4.24281   0.36871   0.03259  18.72108   2.84073    1743.6  0.530279  0.001681  0.000086  0.000159  0.213162  7.031191  0.649472     60.44  1.000070  1.000006     2.705    15.775      59.4      73.4      23.4     181.2     14.53      8.09      0.85     -2.33     -3.99     -1.95     -3.58     -2.94      0.43      5.71     -2.13     -2.79     -3.12      1.80      0.61     -9.68     -7.47     -3.49     -3.87      3.49
       2.762032     -95.477722     305.4      0.30      1.55      55.0         2         3      2443      4294   1368.73    -8.637       4.6      24.6   394.900     0.630     151.4   0.12493     100.0         H               192.0  0.062312  0.030566  0.001069  1.954283  0.824285  2.370883  1.126672     91.36    2.2727    9.4008   0.22053   3.99369   0.40180   0.04179  14.65513   2.49239    1542.1  0.534090  0.002565  0.000110  0.000180  0.214353  7.025632  0.657471     55.57  1.000098  1.000006     2.777    17.091      62.2      70.0      18.5     175.5     14.80      9.26      0.86     -2.93     -4.33     -1.85     -3.74     -3.72      0.33      5.41     -1.99     -2.88     -5.11      2.79      1.49     -9.88     -7.08     -3.33     -2.90      4.69
       2.686573     -95.382668     285.9      0.28      1.55      57.5         3         1      3886      1000   1630.22    -7.878       4.4      23.7   394.617     0.629     165.5   0.12462     100.0         H               192.0  0.061693  0.029792  0.000978  1.987780  0.818558  2.428391  1.126157     67.78    2.7893   13.3583   0.22104   4.33791   0.35771   0.02987  20.81132   2.99019    1835.8  0.534726  0.002589  0.000149  0.000160  0.214320  7.048159  0.656536     59.04  1.000071  1.000005     2.735    16.025      58.5      74.5      25.9     200.5     14.27      7.76      0.77     -1.57     -2.86     -1.54     -3.66     -3.50      0.49      5.49     -1.41     -3.22     -3.32      1.14      1.29     -8.39     -5.17     -3.00     -2.13      2.01
       2.697938     -95.436172     268.3      0.29      1.55      59.7         3         2      3886      2647   1508.59    -8.214       4.5      24.2   392.108     0.625     106.0   0.12364     100.0         H               192.0  0.060693  0.032290  0.000920  2.040780  0.816098  2.500657  1.120836     84.41    2.5421   11.2792   0.22036   4.18149   0.37706   0.03469  17.58741   2.74822    1690.8  0.529559  0.001527  0.000055  0.000178  0.222086  7.121324  0.651228     58.69  1.000079  1.000005     2.703    15.658      60.3      72.6      22.1     180.9     14.96      9.23      2.19     -2.36     -3.39     -2.07     -4.47     -4.55     -0.47      6.11     -1.81     -3.54     -3.91      1.32      1.59     -8.59     -5.27     -3.42     -2.59      2.30
       2.709094     -95.488716     275.5      0.29      1.55      54.4         3         3      3886      4294   1338.59    -8.734       4.5      24.6   395.808     0.632      97.4   0.12599     100.0         H               192.0  0.061783  0.031803  0.001020  1.987775  0.844502  2.353783  1.127751     94.94    2.2126    9.0003   0.22076   3.94898   0.40822   0.04369  14.02684   2.43235    1509.6  0.536510  0.001366  0.000042  0.000181  0.218316  7.069291  0.659045     57.35  1.000057  1.000004     2.766    16.543      59.4      69.3      17.7     165.0     14.80      9.23      1.14     -2.54     -4.32     -1.60     -4.13     -4.06     -0.06      5.59     -1.77     -3.32     -5.10      2.46      1.75     -9.03     -7.20     -2.58     -2.73      4.37
