corner points
-113.2670746    -54.93839645
-113.3728485    -55.11040878
-113.5829773    -54.87211609
-113.6901398    -55.04385376
========== RESULTS WAVE VERSION 16.10.2018 ====================
IMAGE SIZE  X: 5601     Y:4907    col:row     POLARIZATION:VV
COVERAGE    X: 21.45632879km       Y: 20.23732399km 
RESOLUTION dX: 3.830803213m       dY:4.124174443m  
resolution of original product 3.830803213m x 4.124174443m;   raster step x:5999.037831m  
===============================================================
FLAGS: H=HIGH PROBABILITY SEA STATE, I=LAND(ISLAND), O=OUTLIER NO SEA STATE, N=NO WIND AVAILABLE, SEA STATE NOT VISIBLE, M=MEAN PROBABILITY SEA STATE, L= LOW PROBABILITY SEA STATE
Filtering wave length
 integration  Lmin=1m
 integration  Lmax=2200m
  peak        Lmin=100m
               FFT=1024pixels, 3922.74249m 
   mean-Hs (SWH_c)=1.444659576m
         mean-wind=10.71707821m/s
--------------0--------------1---------2---------3---------4---------5---------6---------7---------8---------9--------10--------11--------12--------13--------14--------15--------16--------17--------18--------19------------------20--------21--------22--------23--------24--------25--------26--------27--------28--------29--------30--------31--------32--------33--------34--------35--------36--------37--------38--------39--------40--------41--------42--------43--------44--------45--------46--------47--------48--------49--------50--------51--------52--------53--------54--------55--------56--------57--------58--------59--------60--------61--------62--------63--------64--------65--------66--------67--------68--------69--------70--------71--------72--------73
            LAT            LON  P-LENGHT     SWH_o     SWH_c     P-DIR      LINE     POINT     ROW-Y     COL-X  M-INTENC        dB      WIND INC-ANGLE  ENERGY-M  ENERGY-N  ENERGY-R ENERGY-NN  FG-DEPTH      FLAG         HEADING-DEG    E30-75   E75-390  E390-600 meanincut   meanout   cut/out  STD-NORM  SPEC-MAX   GL-MEAN    GL-VAR      CORR   ENTROPY   HOMOGEN    ENERGY  CONTRAST  DISSIMIL     STD-O    E 1-30 E600-2000   E2000 >      GODA  LONG-HIG     Tmean  CONVOLUT  MEAN-DIR  relation     Sy/Sx  SKEWNESS  KURTOSIS  cutoff-A >50/10000     INT*V   INT-LOG  S-1_g1f1  S-2_g1f2  S-3_g1f3  S-4_g2f1  S-5_g2f2  S-6_g2f3  S-7_g3f1  S-8_g3f2  S-9_g3f3 S-10_g1f4 S-11_g2f4 S-12_g3f4 S-13_g1f5 S-14_g2f5 S-15_g3f5 S-16_g4f1 S-17_g4f2 S-18_g4f3 S-19_g4f4 S-20_g4f5
--------------1--------------2---------3---------4---------5---------6---------7---------8---------9--------10--------11--------12--------13--------14--------15--------16--------17--------18--------19--------20------------------21--------22--------23--------24--------25--------26--------27--------28--------29--------30--------31--------32--------33--------34--------35--------36--------37--------38--------39--------40--------41--------42--------43--------44--------45--------46--------47--------48--------49--------50--------51--------52--------53--------54--------55--------56--------57--------58--------59--------60--------61--------62--------63--------64--------65--------66--------67--------68--------69--------70--------71--------72--------73--------74
     -54.961338    -113.346725     191.1      1.75      3.47     103.1         1         1      1000      1000   4554.47    -3.416      11.4      22.4   235.719     0.782     109.6   0.19389      27.8         H               196.7  0.093500  0.058947  0.001488  5.204872  1.023965  5.083055  1.253253     61.27    8.4811  110.4692   0.27769   6.29207   0.17719   0.00473 159.58528   8.30667    5707.9  0.626932  0.001511  0.000052  0.000212  0.195418  7.148848  0.818866     97.85  1.000306  1.000038     3.547    27.120     114.0      91.3     240.8     763.3     12.39     -1.83      5.69      4.88     -1.90      6.71      1.41      0.63      2.09     -2.80     -2.48     -0.31      2.29      3.82      2.47     -2.80     -1.89      4.80     -0.98      3.14
     -54.942604    -113.436264     168.4      1.71      3.47      99.2         1         2      1000      2566   3812.91    -4.187      10.3      22.9   241.012     0.819     115.6   0.21171      20.2         H               196.7  0.100017  0.065224  0.001899  5.631724  1.042504  5.402113  1.283301     75.09    7.0626   83.7231   0.29080   5.94816   0.20599   0.00692 118.75249   7.00553    4893.1  0.650871  0.001455  0.000043  0.000222  0.199679  7.156802  0.860151     96.76  1.000307  1.000041     3.859    32.619     117.4      88.7     172.1     689.2     12.75     -1.82      5.79      4.37     -2.14      6.98      1.17      1.00      1.84     -2.96     -2.29      0.29      2.08      4.25      2.72     -4.05     -2.29      5.14     -0.72      3.51
     -54.924164    -113.524010     175.8      1.77      3.47      99.6         1         3      1000      4132   3729.57    -4.283      11.2      23.4   235.989     0.783     205.4   0.19470      22.5         H               196.7  0.091717  0.061484  0.001942  5.357453  1.028934  5.206799  1.254854     92.04    6.9141   78.9967   0.28172   5.91797   0.20766   0.00705 113.48341   6.87365    4679.5  0.625456  0.002880  0.000165  0.000212  0.202233  7.196995  0.820567    100.34  1.000266  1.000033     3.582    27.620     114.0      88.6     159.4     646.0     12.99     -2.35      5.37      3.87     -2.67      6.56      0.57      1.37      0.99     -3.29     -3.03      0.25      1.16      3.32      2.23     -4.90     -2.58      5.03     -1.37      2.74
     -55.012310    -113.378120     188.9      1.34      3.47     105.6         2         1      2454      1000   4190.58    -3.777      10.3      22.4   233.067     0.768     178.8   0.18850      27.0         H               196.7  0.090341  0.052210  0.001545  5.086756  1.025712  4.959243  1.243158     47.15    7.8005   94.9133   0.27298   6.14538   0.18785   0.00545 138.00711   7.68932    5209.1  0.622010  0.002424  0.000174  0.000182  0.192097  7.088017  0.802688     95.50  1.000250  1.000030     3.569    28.136     105.0      90.4     200.1     725.4     12.56     -2.00      4.17      3.61     -2.02      5.05      0.95      1.18      1.48     -2.29     -2.01      0.28      0.09      1.65      2.29     -4.63     -2.43      3.68     -0.96      1.49
     -54.993553    -113.467773     186.5      1.47      3.47     108.0         2         2      2454      2566   4262.53    -3.703      11.8      22.9   226.654     0.736     141.8   0.17427      26.1         H               196.7  0.084823  0.049053  0.001708  4.538260  0.951922  4.767473  1.216736     61.07    7.9586   95.8157   0.26488   6.19065   0.18315   0.00512 140.87112   7.82909    5186.0  0.598991  0.002000  0.000096  0.000187  0.196174  7.112843  0.768555    101.20  1.000234  1.000026     3.322    23.709     107.8      90.8     201.8     672.8     12.86     -2.18      4.53      3.39     -2.33      5.64      0.78      1.26      1.10     -3.18     -2.51      0.50      0.38      2.30      2.34     -5.58     -2.27      4.39     -0.98      2.28
     -54.975090    -113.555626     157.8      1.40      3.47     105.2         2         3      2454      4132   3501.17    -4.558      10.4      23.3   234.392     0.774     100.5   0.19000      17.3         H               196.7  0.091871  0.055570  0.001595  5.035454  0.996699  5.052130  1.247308     64.19    6.4735   69.7246   0.27656   5.80203   0.21623   0.00783 100.88495   6.47215    4366.9  0.624249  0.001302  0.000034  0.000200  0.196982  7.111578  0.810168    100.23  1.000236  1.000028     3.646    30.412     107.8      87.8     138.5     636.5     12.80     -2.45      4.32      3.48     -1.72      5.72      0.80      0.61      1.55     -2.34     -2.59     -0.47      0.50      2.13      2.78     -4.45     -1.06      4.98     -1.62      1.22
     -55.063271    -113.409576     164.1      1.08      3.47     105.8         3         1      3908      1000   3869.67    -4.123       9.2      22.4   232.530     0.767     102.0   0.18771      19.0         H               196.7  0.091459  0.050017  0.001461  5.008482  0.993698  5.040245  1.241826     31.65    7.1897   82.9032   0.27267   5.99648   0.19959   0.00637 120.59424   7.13746    4805.2  0.622899  0.001329  0.000053  0.000183  0.188881  7.035140  0.800750     93.66  1.000240  1.000029     3.520    26.638     105.0      89.3     169.5     647.1     12.67     -1.59      3.27      2.95     -1.22      4.51      0.42      1.02      1.13     -1.30     -1.28     -0.20     -0.61      1.37      2.18     -4.91     -1.10      4.22     -0.30      1.84
     -55.044491    -113.499352     134.2      1.34      3.47     106.6         3         2      3908      2566   4280.02    -3.686      11.9      22.9   224.821     0.720     159.9   0.16653      12.0         H               196.7  0.080199  0.044506  0.001558  4.360296  0.937178  4.652580  1.203239     30.89    7.9897   94.8808   0.25614   6.20393   0.18065   0.00496 141.15736   7.86890    5149.6  0.591919  0.002315  0.000144  0.000167  0.194796  7.078932  0.749720     96.49  1.000216  1.000021     3.261    22.885      97.3      91.1     199.9     667.1     12.83     -1.89      3.06      2.30     -1.74      4.26      0.48      1.16      1.08     -1.25     -1.93     -0.16     -0.48      1.31      2.05     -6.04     -2.16      4.30     -1.94      1.63
     -55.026005    -113.587318     198.1      1.15      3.47     106.3         3         3      3908      4132   3329.76    -4.776       9.8      23.3   237.347     0.789     180.8   0.19674      30.7         H               196.7  0.095624  0.052948  0.001614  5.079470  1.044061  4.865107  1.258066     47.97    6.1402   64.6613   0.28045   5.70097   0.22553   0.00875  93.05224   6.17357    4188.7  0.636691  0.002575  0.000156  0.000177  0.192253  7.051596  0.825595     96.01  1.000246  1.000029     3.687    30.145     105.0      86.9     126.7     590.9     12.93     -2.18      3.45      2.62     -1.49      4.66     -0.03      1.22      0.61     -1.98     -1.97      0.17     -0.54      1.87      1.92     -5.32     -1.48      4.61     -1.13      2.17
