corner points
-96.44376373    -2.495690823
-96.48178864    -2.676419497
-96.62397003    -2.456672907
-96.6620636    -2.637364626
========== RESULTS WAVE VERSION 16.10.2018 ====================
IMAGE SIZE  X: 5601     Y:4928    col:row     POLARIZATION:VV
COVERAGE    X: 20.4410162km       Y: 20.48807504km 
RESOLUTION dX: 3.649529763m       dY:4.15748276m  
resolution of original product 3.649529763m x 4.15748276m;   raster step x:5999.82693m  
===============================================================
FLAGS: H=HIGH PROBABILITY SEA STATE, I=LAND(ISLAND), O=OUTLIER NO SEA STATE, N=NO WIND AVAILABLE, SEA STATE NOT VISIBLE, M=MEAN PROBABILITY SEA STATE, L= LOW PROBABILITY SEA STATE
Filtering wave length
 integration  Lmin=1m
 integration  Lmax=2200m
  peak        Lmin=100m
               FFT=1024pixels, 3737.118477m 
   mean-Hs (SWH_c)=0.2m
         mean-wind=3.516666651m/s
--------------0--------------1---------2---------3---------4---------5---------6---------7---------8---------9--------10--------11--------12--------13--------14--------15--------16--------17--------18--------19------------------20--------21--------22--------23--------24--------25--------26--------27--------28--------29--------30--------31--------32--------33--------34--------35--------36--------37--------38--------39--------40--------41--------42--------43--------44--------45--------46--------47--------48--------49--------50--------51--------52--------53--------54--------55--------56--------57--------58--------59--------60--------61--------62--------63--------64--------65--------66--------67--------68--------69--------70--------71--------72--------73
            LAT            LON  P-LENGHT     SWH_o     SWH_c     P-DIR      LINE     POINT     ROW-Y     COL-X  M-INTENC        dB      WIND INC-ANGLE  ENERGY-M  ENERGY-N  ENERGY-R ENERGY-NN  FG-DEPTH      FLAG         HEADING-DEG    E30-75   E75-390  E390-600 meanincut   meanout   cut/out  STD-NORM  SPEC-MAX   GL-MEAN    GL-VAR      CORR   ENTROPY   HOMOGEN    ENERGY  CONTRAST  DISSIMIL     STD-O    E 1-30 E600-2000   E2000 >      GODA  LONG-HIG     Tmean  CONVOLUT  MEAN-DIR  relation     Sy/Sx  SKEWNESS  KURTOSIS  cutoff-A >50/10000     INT*V   INT-LOG  S-1_g1f1  S-2_g1f2  S-3_g1f3  S-4_g2f1  S-5_g2f2  S-6_g2f3  S-7_g3f1  S-8_g3f2  S-9_g3f3 S-10_g1f4 S-11_g2f4 S-12_g3f4 S-13_g1f5 S-14_g2f5 S-15_g3f5 S-16_g4f1 S-17_g4f2 S-18_g4f3 S-19_g4f4 S-20_g4f5
--------------1--------------2---------3---------4---------5---------6---------7---------8---------9--------10--------11--------12--------13--------14--------15--------16--------17--------18--------19--------20------------------21--------22--------23--------24--------25--------26--------27--------28--------29--------30--------31--------32--------33--------34--------35--------36--------37--------38--------39--------40--------41--------42--------43--------44--------45--------46--------47--------48--------49--------50--------51--------52--------53--------54--------55--------56--------57--------58--------59--------60--------61--------62--------63--------64--------65--------66--------67--------68--------69--------70--------71--------72--------73--------74
      -2.525225     -96.484489     201.5      0.21      1.60     173.8         1         1      1000      1000   1156.01    -9.370       3.2      23.6   383.876     0.612     134.7   0.11652      32.2         H               192.0  0.054541  0.035524  0.001622  1.784027  0.801517  2.225814  1.108850     61.40    1.8588    6.5112   0.21082   3.67067   0.44530   0.05653  10.27706   2.08561    1281.8  0.517856  0.002713  0.000060  0.000199  0.227839  7.264461  0.638424    164.00  0.999780  0.999983     2.619    15.003      56.1      65.4      13.3     137.2     13.45      2.03     -8.05     -2.24     -2.16     -0.45     -3.26      0.34      5.56      1.81     -0.12     -1.39      2.55      1.32     -3.83    -11.06     -3.41      1.12     -0.16      2.96
      -2.513649     -96.537956     193.3      0.22      1.60     177.0         1         2      1000      2644   1071.69    -9.699       3.3      24.1   384.341     0.613     135.5   0.11570      28.7         H               192.0  0.055047  0.035596  0.001293  1.728900  0.834609  2.071510  1.109458     83.71    1.6945    5.5965   0.20994   3.52418   0.46624   0.06510   8.84309   1.92482    1189.0  0.518620  0.002278  0.000100  0.000233  0.226818  7.280311  0.639447    166.28  0.999754  0.999981     2.599    14.309      59.4      63.2      11.5     114.0     13.03      1.77     -9.08     -1.16     -2.24     -0.56     -3.90      0.72      6.21      1.57      0.23     -1.37      3.71      1.44     -4.79     -8.73     -4.28      1.56      0.29      2.70
      -2.502281     -96.590446     314.7      0.24      1.60      42.3         1         3      1000      4288   1043.81    -9.814       3.6      24.6   382.403     0.608     109.3   0.11537     100.0         H               192.0  0.054104  0.035103  0.001211  1.765859  0.814404  2.168285  1.106405     55.17    1.6314    5.2248   0.20892   3.46561   0.47462   0.06860   8.26651   1.86048    1154.8  0.516549  0.001783  0.000052  0.000188  0.227121  7.262488  0.634713    120.88  0.999780  0.999982     2.600    14.451      53.8      62.3      10.8     112.2     13.51      3.66     -7.97     -2.16     -3.19     -0.32     -3.65      0.13      5.19      1.41     -0.10     -1.19      1.54      2.24     -3.71     -9.68     -5.72      1.48      0.06      4.51
      -2.578155     -96.495636     211.5      0.24      1.60     173.5         2         1      2443      1000   1336.37    -8.741       3.6      23.6   384.963     0.617     213.2   0.11857      37.1         H               192.0  0.054806  0.035328  0.001769  1.818276  0.820901  2.214978  1.113717     55.79    2.2052    8.7469   0.21609   3.94654   0.40717   0.04336  13.71346   2.42161    1488.3  0.520954  0.004158  0.000123  0.000185  0.228366  7.272180  0.644142    148.21  0.999847  0.999990     2.670    15.518      53.8      69.5      17.4     161.4     13.79      3.47     -6.55     -2.98     -2.89     -1.16     -2.80     -0.17      5.21      2.04      0.01     -1.92      2.01      1.61     -3.31    -12.53     -5.03     -1.30      0.78      2.77
      -2.566576     -96.549103     332.4      0.23      1.60      45.4         2         2      2443      2644   1138.90    -9.435       3.4      24.1   384.370     0.612     126.9   0.11564     100.0         H               192.0  0.053718  0.035802  0.001677  1.785039  0.803565  2.221399  1.109548     56.91    1.8216    6.2974   0.20933   3.63867   0.44912   0.05818   9.95831   2.05176    1263.6  0.518651  0.002306  0.000058  0.000188  0.230742  7.286655  0.638195    133.14  0.999784  0.999983     2.635    15.080      53.1      65.0      12.8     132.1     13.82      3.95     -7.35     -2.89     -3.64     -0.68     -3.19      0.45      5.21      1.88     -0.49     -1.13      1.07      2.30     -3.45    -11.83     -7.19      0.60     -0.76      4.81
      -2.555204     -96.601601     193.3      0.24      1.60       3.0         2         3      2443      4288   1066.96    -9.719       3.6      24.6   379.432     0.599      97.9   0.11112      28.7         H               192.0  0.053118  0.032236  0.001236  1.654189  0.803961  2.057548  1.098086     52.30    1.6773    5.3869   0.20367   3.51121   0.46655   0.06497   8.57936   1.90778    1171.5  0.511049  0.001768  0.000039  0.000188  0.220229  7.218389  0.623996     67.17  0.999790  0.999984     2.526    13.398      54.5      63.2      11.2     107.4     12.92      2.39     -8.80     -1.29     -2.22     -0.10     -3.17      0.40      5.48      0.20      0.96     -0.87      2.84      1.64     -4.02     -9.38     -4.06      2.57      2.04      2.70
      -2.631083     -96.506775     201.5      0.25      1.60     173.8         3         1      3886      1000   1394.61    -8.555       3.8      23.6   385.973     0.620     286.9   0.12105      32.2         H               192.0  0.054321  0.035254  0.003038  1.809272  0.841397  2.150319  1.118978     63.42    2.3146    9.5506   0.22030   4.02557   0.39714   0.04029  14.89316   2.52632    1560.5  0.521641  0.006354  0.000210  0.000188  0.228573  7.272128  0.648901    159.80  0.999845  0.999988     2.688    15.412      56.9      70.5      18.9     161.4     13.95      0.54     -6.07     -4.12      0.54     -2.40     -1.29     -2.26      6.82     -0.39      1.99     -2.56      2.08      1.94     -4.27    -17.83      6.07     -6.54      7.67      5.17
      -2.619501     -96.560249     351.1      0.24      1.60      48.7         3         2      3886      2644   1196.47    -9.221       3.6      24.1   380.827     0.606     124.3   0.11446     100.0         H               192.0  0.053213  0.035058  0.001471  1.747821  0.817729  2.137408  1.102978     65.78    1.9283    6.8535   0.20965   3.73056   0.43608   0.05309  10.83314   2.15199    1319.7  0.514403  0.002030  0.000062  0.000193  0.228741  7.295788  0.631806    125.42  0.999827  0.999987     2.552    13.760      53.8      66.4      14.0     124.5     13.69      3.87     -7.06     -2.53     -3.82     -1.09     -3.39      0.36      5.28      2.03     -0.61     -1.42      1.05      2.73     -3.67    -10.84     -7.06     -0.19     -0.74      5.26
      -2.608127     -96.612755     193.3      0.24      1.60     177.0         3         3      3886      4288   1063.12    -9.734       3.6      24.6   381.238     0.604     105.0   0.11262      28.7         H               192.0  0.051933  0.035291  0.001072  1.657668  0.803976  2.061837  1.100458     64.19    1.6762    5.4195   0.20546   3.50939   0.46686   0.06530   8.61200   1.90742    1169.9  0.513909  0.001674  0.000054  0.000207  0.230209  7.311070  0.628960    115.81  0.999766  0.999982     2.578    14.377      54.5      63.1      11.2     118.7     13.46      3.52     -8.06     -1.86     -2.82     -0.46     -4.08     -0.02      5.34      1.87     -0.62     -1.25      2.25      1.75     -3.65     -8.76     -5.30      1.53     -0.64      2.90
