corner points
-137.0989532    -70.77319336
-137.4454956    -70.90840912
-137.5337372    -70.65142059
-137.8812103    -70.78583527
========== RESULTS WAVE VERSION 16.10.2018 ====================
IMAGE SIZE  X: 4460     Y:4759    col:row     POLARIZATION:VV
COVERAGE    X: 20.89108666km       Y: 19.60491605km 
RESOLUTION dX: 4.684100148m       dY:4.119545292m  
resolution of original product 4.684100148m x 4.119545292m;   raster step x:5995.648189m  
===============================================================
FLAGS: H=HIGH PROBABILITY SEA STATE, I=LAND(ISLAND), O=OUTLIER NO SEA STATE, N=NO WIND AVAILABLE, SEA STATE NOT VISIBLE, M=MEAN PROBABILITY SEA STATE, L= LOW PROBABILITY SEA STATE
Filtering wave length
 integration  Lmin=1m
 integration  Lmax=2200m
  peak        Lmin=100m
               FFT=1024pixels, 4796.518552m 
   mean-Hs (SWH_c)=0.9610016632m
         mean-wind=11.72633839m/s
--------------0--------------1---------2---------3---------4---------5---------6---------7---------8---------9--------10--------11--------12--------13--------14--------15--------16--------17--------18--------19------------------20--------21--------22--------23--------24--------25--------26--------27--------28--------29--------30--------31--------32--------33--------34--------35--------36--------37--------38--------39--------40--------41--------42--------43--------44--------45--------46--------47--------48--------49--------50--------51--------52--------53--------54--------55--------56--------57--------58--------59--------60--------61--------62--------63--------64--------65--------66--------67--------68--------69--------70--------71--------72--------73
            LAT            LON  P-LENGHT     SWH_o     SWH_c     P-DIR      LINE     POINT     ROW-Y     COL-X  M-INTENC        dB      WIND INC-ANGLE  ENERGY-M  ENERGY-N  ENERGY-R ENERGY-NN  FG-DEPTH      FLAG         HEADING-DEG    E30-75   E75-390  E390-600 meanincut   meanout   cut/out  STD-NORM  SPEC-MAX   GL-MEAN    GL-VAR      CORR   ENTROPY   HOMOGEN    ENERGY  CONTRAST  DISSIMIL     STD-O    E 1-30 E600-2000   E2000 >      GODA  LONG-HIG     Tmean  CONVOLUT  MEAN-DIR  relation     Sy/Sx  SKEWNESS  KURTOSIS  cutoff-A >50/10000     INT*V   INT-LOG  S-1_g1f1  S-2_g1f2  S-3_g1f3  S-4_g2f1  S-5_g2f2  S-6_g2f3  S-7_g3f1  S-8_g3f2  S-9_g3f3 S-10_g1f4 S-11_g2f4 S-12_g3f4 S-13_g1f5 S-14_g2f5 S-15_g3f5 S-16_g4f1 S-17_g4f2 S-18_g4f3 S-19_g4f4 S-20_g4f5
--------------1--------------2---------3---------4---------5---------6---------7---------8---------9--------10--------11--------12--------13--------14--------15--------16--------17--------18--------19--------20------------------21--------22--------23--------24--------25--------26--------27--------28--------29--------30--------31--------32--------33--------34--------35--------36--------37--------38--------39--------40--------41--------42--------43--------44--------45--------46--------47--------48--------49--------50--------51--------52--------53--------54--------55--------56--------57--------58--------59--------60--------61--------62--------63--------64--------65--------66--------67--------68--------69--------70--------71--------72--------73--------74
     -70.774063    -137.270645     386.9      2.28      4.10     145.6         1         1      1000      1000    534.39   -12.721      11.9      35.3   375.964     0.736     692.5   0.13609     100.0         H               210.2  0.075997  0.045841  0.007183  3.575252  1.418837  2.519846  1.218791     31.03    9.9924  134.3210   0.18816   6.62657   0.14528   0.00302 218.09276  10.05182     651.3  0.591754  0.014493  0.001257  0.000086  0.206071  7.118064  0.758273    103.50  1.000014  1.000000     4.069    45.841      94.9      93.5     323.1    1018.1     14.12     -1.63     -0.31     -5.64      1.51      0.87      5.18     -1.72     -0.66     -0.45      0.31      0.04      0.29      0.40      0.86    -28.47      7.15      3.13      0.89     -0.56
     -70.738953    -137.396225     378.7      2.35      4.10       9.1         1         2      1000      2280    568.00   -12.457      12.6      35.7   383.874     0.752     751.8   0.14119     100.0         H               210.2  0.081408  0.045940  0.005316  3.634391  1.499535  2.423678  1.233027     26.88   10.6077  148.0508   0.18792   6.73156   0.13978   0.00273 240.45737  10.61110     700.3  0.605851  0.012395  0.001751  0.000085  0.199788  7.084583  0.774701    103.09  0.999941  0.999996     4.445    57.735      84.8      94.1     371.6    1102.5     13.51     -0.49     -0.25     -3.67     -0.08     -0.02      3.67     -0.26     -0.21      0.03      0.42     -0.23      0.32     -0.18      1.03    -21.96      0.99      0.71      1.23     -2.15
     -70.704079    -137.520233     386.9      0.71      4.10     145.6         1         3      1000      3560    531.63   -12.744      12.5      36.1   401.270     0.805    1144.9   0.16274     100.0         H               210.2  0.086531  0.055901  0.007240  4.589926  1.574566  2.915041  1.277513     28.37    9.9004  137.0015   0.20697   6.59450   0.14943   0.00324 217.29288   9.94886     679.1  0.633811  0.019158  0.002978  0.000088  0.201262  7.150460  0.833587    110.31  1.000113  1.000009     5.696   131.545     105.0      93.1     336.1    1116.4     13.40     -1.32      0.37     -3.21      0.29      0.74      4.40     -0.67     -0.14      0.41     -0.51      0.56      1.32     -0.41      0.65    -23.45      2.13      1.01     -2.29     -3.03
     -70.815407    -137.376556     392.7      0.68      4.10     100.7         2         1      2456      1000    539.62   -12.679      11.9      35.3   399.962     0.802    1163.0   0.16009     100.0         H               210.2  0.084527  0.054636  0.009239  4.118166  1.641726  2.508438  1.274640     37.26   10.0333  143.8673   0.21951   6.60564   0.15022   0.00326 224.57227  10.06235     687.9  0.630559  0.021595  0.002460  0.000086  0.206731  7.154234  0.832330    104.38  1.000030  1.000002     4.011    36.874     107.8      93.1     351.3     993.9     14.02     -0.18     -0.00     -5.74     -0.85     -0.75      5.33      0.50      0.14      0.29     -0.44      0.46      0.47     -0.13      0.31    -29.50     -2.31     -1.36     -1.49     -0.95
     -70.780228    -137.502228     386.9      0.68      4.10     145.6         2         2      2456      2280    510.97   -12.916      11.8      35.7   403.653     0.814    1124.9   0.16291     100.0         H               210.2  0.086635  0.057528  0.009606  4.130912  1.679100  2.460194  1.283155     48.17    9.5027  132.8387   0.22290   6.50692   0.15772   0.00367 206.45956   9.57378     655.6  0.635967  0.021885  0.002400  0.000088  0.208736  7.180964  0.845179    123.30  0.999889  0.999994     4.148    41.926     105.0      92.5     316.1     977.0     13.92     -1.89     -1.86     -5.84      0.66      0.78      5.30     -0.51     -0.47      0.20     -0.84      0.99      0.10      0.31     -0.18    -29.19      3.51      3.69     -3.16      0.59
     -70.745285    -137.626312     350.6      0.57      4.10     175.8         2         3      2456      3560    368.46   -14.336       9.7      36.1   404.695     0.816    2231.4   0.16346     100.0         H               210.2  0.077217  0.051980  0.010545  3.691938  1.481772  2.491569  1.290056     55.44    6.8102   77.0578   0.22699   5.90543   0.19722   0.00650 119.13313   7.06270     475.3  0.633633  0.037855  0.005384  0.000091  0.216097  7.205188  0.849572    131.51  1.000102  1.000007     4.692    60.444     250.9      89.0     161.6     818.2     14.72     -1.78     -0.37     -7.67      0.98     -0.09      6.38     -1.21      0.39     -0.50      0.77     -0.99      1.29     -0.80      0.64    -34.53      4.47     -1.28      3.18     -3.24
     -70.856697    -137.482925     382.3      2.24      4.10       4.6         3         1      3912      1000    510.73   -12.918      11.5      35.3   387.659     0.766     751.0   0.14439     100.0         H               210.2  0.081459  0.048157  0.007516  3.532064  1.513109  2.334309  1.242824     38.07    9.5310  129.0923   0.20212   6.52813   0.15313   0.00344 206.00076   9.64180     634.7  0.611083  0.016922  0.001208  0.000087  0.205042  7.119849  0.791258    118.17  0.999976  0.999999     3.846    35.429      92.7      92.9     302.9     926.8     13.79     -1.33     -1.86     -5.50     -0.14      1.11      4.99     -0.07     -0.76     -0.22      0.49     -0.63      0.26     -0.10      0.97    -27.69      1.18      4.43      2.45     -2.01
     -70.821449    -137.608658     356.1      0.68      4.10     158.2         3         2      3912      2280    521.89   -12.824      12.0      35.7   392.874     0.784    1120.1   0.15293     100.0         H               210.2  0.081986  0.049324  0.008367  3.612719  1.609071  2.245220  1.259894     34.19    9.7281  134.7033   0.21258   6.55872   0.15318   0.00342 212.13766   9.78384     657.4  0.620378  0.022425  0.002325  0.000088  0.204550  7.123924  0.812451    133.68  0.999866  0.999991     4.175    48.504     107.8      92.8     322.3    1021.1     13.82     -2.53     -1.75     -5.69      0.62      0.74      5.34     -0.30     -0.94      0.67     -0.41      0.52      0.93     -1.04      1.55    -29.39      3.68      4.18     -2.32     -4.97
     -70.786438    -137.732819     378.7      1.78      4.10       9.1         3         3      3912      3560    481.47   -13.174      11.7      36.1   364.844     0.698     732.2   0.11937     100.0         H               210.2  0.067639  0.036415  0.005731  2.615132  1.294735  2.019821  1.188070     26.34    9.0338  114.3666   0.18279   6.44692   0.15706   0.00368 186.91916   9.20191     572.0  0.573698  0.013546  0.001556  0.000086  0.204238  7.074498  0.715803    123.20  0.999934  0.999996     3.202    23.051      90.6      92.5     252.4     748.6     13.78     -1.45     -2.23     -5.47      0.37      1.03      4.83     -0.11     -1.00      0.39     -0.37     -0.01      0.73     -0.51      0.64    -27.54      1.92      5.19     -1.18     -2.56
