corner points
-99.60666656    -16.65152931
-99.64837646    -16.8315506
-99.795578    -16.60956955
-99.83753967    -16.7895298
========== RESULTS WAVE VERSION 16.10.2018 ====================
IMAGE SIZE  X: 5601     Y:4923    col:row     POLARIZATION:VV
COVERAGE    X: 20.61937479km       Y: 20.45809651km 
RESOLUTION dX: 3.681373824m       dY:4.155615785m  
resolution of original product 3.681373824m x 4.155615785m;   raster step x:5996.957959m  
===============================================================
FLAGS: H=HIGH PROBABILITY SEA STATE, I=LAND(ISLAND), O=OUTLIER NO SEA STATE, N=NO WIND AVAILABLE, SEA STATE NOT VISIBLE, M=MEAN PROBABILITY SEA STATE, L= LOW PROBABILITY SEA STATE
Filtering wave length
 integration  Lmin=1m
 integration  Lmax=2200m
  peak        Lmin=100m
               FFT=1024pixels, 3769.726796m 
   mean-Hs (SWH_c)=0.2m
         mean-wind=4.480658054m/s
--------------0--------------1---------2---------3---------4---------5---------6---------7---------8---------9--------10--------11--------12--------13--------14--------15--------16--------17--------18--------19------------------20--------21--------22--------23--------24--------25--------26--------27--------28--------29--------30--------31--------32--------33--------34--------35--------36--------37--------38--------39--------40--------41--------42--------43--------44--------45--------46--------47--------48--------49--------50--------51--------52--------53--------54--------55--------56--------57--------58--------59--------60--------61--------62--------63--------64--------65--------66--------67--------68--------69--------70--------71--------72--------73
            LAT            LON  P-LENGHT     SWH_o     SWH_c     P-DIR      LINE     POINT     ROW-Y     COL-X  M-INTENC        dB      WIND INC-ANGLE  ENERGY-M  ENERGY-N  ENERGY-R ENERGY-NN  FG-DEPTH      FLAG         HEADING-DEG    E30-75   E75-390  E390-600 meanincut   meanout   cut/out  STD-NORM  SPEC-MAX   GL-MEAN    GL-VAR      CORR   ENTROPY   HOMOGEN    ENERGY  CONTRAST  DISSIMIL     STD-O    E 1-30 E600-2000   E2000 >      GODA  LONG-HIG     Tmean  CONVOLUT  MEAN-DIR  relation     Sy/Sx  SKEWNESS  KURTOSIS  cutoff-A >50/10000     INT*V   INT-LOG  S-1_g1f1  S-2_g1f2  S-3_g1f3  S-4_g2f1  S-5_g2f2  S-6_g2f3  S-7_g3f1  S-8_g3f2  S-9_g3f3 S-10_g1f4 S-11_g2f4 S-12_g3f4 S-13_g1f5 S-14_g2f5 S-15_g3f5 S-16_g4f1 S-17_g4f2 S-18_g4f3 S-19_g4f4 S-20_g4f5
--------------1--------------2---------3---------4---------5---------6---------7---------8---------9--------10--------11--------12--------13--------14--------15--------16--------17--------18--------19--------20------------------21--------22--------23--------24--------25--------26--------27--------28--------29--------30--------31--------32--------33--------34--------35--------36--------37--------38--------39--------40--------41--------42--------43--------44--------45--------46--------47--------48--------49--------50--------51--------52--------53--------54--------55--------56--------57--------58--------59--------60--------61--------62--------63--------64--------65--------66--------67--------68--------69--------70--------71--------72--------73--------74
     -16.680426     -99.649773     202.3      0.28      1.50       3.1         1         1      1000      1000   1704.68    -7.684       4.3      23.4   363.100     0.646      42.6   0.13289      32.6         H               192.2  0.073388  0.023412  0.000823  1.736030  0.849475  2.043649  1.139585     30.40    2.9368   14.9521   0.22765   4.42264   0.34836   0.02780  23.09627   3.13468    1942.7  0.548196  0.000462  0.000010  0.000178  0.177890  6.730247  0.673212     81.73  1.000052  1.000005     2.873    18.295      58.5      75.4      28.6     228.4     11.98      1.47     -5.59      0.56     -1.61     -0.59     -1.53      0.53      3.50      0.97     -0.45     -0.46      1.47      0.39     -2.57     -6.75     -3.67      1.26     -0.99      1.39
     -16.668093     -99.705330     202.3      0.29      1.50     176.9         1         2      1000      2629   1581.76    -8.009       4.5      23.9   365.407     0.650      85.0   0.13305      32.6         H               192.2  0.073000  0.022951  0.000808  1.777793  0.865080  2.055063  1.143304     25.15    2.6954   12.9687   0.22594   4.27548   0.36698   0.03222  20.07695   2.90883    1808.3  0.551950  0.001199  0.000056  0.000180  0.175103  6.717110  0.676821     87.37  1.000073  1.000006     2.856    17.536      61.3      73.5      24.9     202.1     11.87      1.81     -4.91      0.73     -1.50     -1.02     -1.20      0.75      3.21      1.25      0.10     -0.70      0.48      0.56     -1.96     -6.80     -3.95      0.11      0.03      2.06
     -16.655972     -99.759872     202.3      0.29      1.50     176.9         1         3      1000      4258   1449.92    -8.387       4.6      24.4   363.546     0.648      69.7   0.13384      32.6         H               192.2  0.072676  0.022084  0.000972  1.725681  0.817715  2.110370  1.142026     20.98    2.4319   10.8313   0.22740   4.10252   0.38855   0.03802  16.73641   2.65021    1655.9  0.551623  0.000900  0.000042  0.000194  0.170444  6.682226  0.675162     83.70  1.000092  1.000009     2.883    17.888      63.2      71.2      21.0     181.6     12.12      2.26     -4.72     -0.03     -2.40     -1.16     -0.65      1.25      3.60      1.54     -0.68     -0.26      0.66      1.28     -2.74     -8.79     -6.54     -0.74     -1.88      4.00
     -16.733200     -99.662010     193.2      0.27      1.50       2.9         2         1      2443      1000   1651.90    -7.820       4.2      23.4   364.294     0.648     203.1   0.13314      28.7         H               192.2  0.072677  0.022698  0.000796  1.711984  0.859185  1.992568  1.142944     20.10    2.8287   14.0746   0.22957   4.35764   0.35666   0.02969  21.68722   3.03088    1887.9  0.548539  0.003049  0.000250  0.000174  0.175270  6.712127  0.675860     86.10  1.000065  1.000005     2.881    18.066      60.3      74.6      26.9     217.2     11.62      1.16     -4.96      1.16     -1.46     -1.38     -1.08      1.03      3.40      1.05     -0.24     -0.52      0.95      1.03     -2.38     -6.54     -3.72     -0.35     -0.37      2.54
     -16.720861     -99.717598     202.3      0.28      1.50     176.9         2         2      2443      2629   1547.91    -8.103       4.4      23.9   361.480     0.640      59.9   0.12951      32.6         H               192.2  0.071706  0.021849  0.000794  1.729570  0.845224  2.046287  1.134280     23.04    2.6258   12.1928   0.22332   4.23369   0.37093   0.03321  18.93987   2.83901    1755.7  0.544889  0.000805  0.000037  0.000192  0.170845  6.679501  0.666265     86.44  1.000098  1.000008     2.845    18.371      62.2      73.1      23.6     207.5     11.77      1.97     -4.48      0.79     -1.83     -0.92     -0.65      0.78      3.21      0.65      0.02     -0.36      0.85      0.66     -2.45     -6.93     -4.71      0.07     -0.06      2.27
     -16.708736     -99.772156     372.4      0.30      1.50      52.2         2         3      2443      4258   1471.60    -8.322       4.7      24.4   363.953     0.648      63.7   0.13264     100.0         H               192.2  0.072056  0.022154  0.000977  1.800823  0.840164  2.143420  1.141539     26.50    2.4786   11.1860   0.22512   4.13491   0.38368   0.03675  17.33549   2.70034    1679.8  0.552266  0.000845  0.000037  0.000179  0.171935  6.696603  0.674685     86.57  1.000121  1.000011     2.891    18.420      64.2      71.7      21.6     193.5     12.22      3.14     -3.43     -0.02     -2.56     -0.66     -0.06      1.20      2.47      1.37     -0.36     -0.47     -1.08      1.82     -1.75     -9.14     -7.04      0.35     -0.97      4.92
     -16.785975     -99.674255     202.3      0.29      1.50       3.1         3         1      3886      1000   1788.91    -7.474       4.6      23.4   363.301     0.647     267.3   0.13213      32.6         H               192.2  0.071038  0.022713  0.001049  1.699305  0.832352  2.041572  1.141062     30.17    3.1029   16.5149   0.22955   4.51686   0.33728   0.02542  25.44802   3.29424    2041.3  0.547757  0.004084  0.000343  0.000174  0.178144  6.736641  0.674833     82.99  1.000053  1.000004     2.861    18.027      65.3      76.4      31.4     239.6     12.28      2.53     -4.94     -0.39     -1.76     -0.86     -0.79      0.59      3.52      0.73     -0.45     -0.17      1.67      0.28     -2.57     -9.35     -4.90     -0.12     -0.74      1.15
     -16.773632     -99.729858     352.7      0.29      1.50      48.5         3         2      3886      2629   1565.12    -8.055       4.5      23.9   361.114     0.640      61.1   0.12973     100.0         H               192.2  0.070975  0.021866  0.001010  1.703717  0.826330  2.061787  1.134808     21.84    2.6636   12.5089   0.22374   4.25802   0.36727   0.03229  19.42059   2.87302    1776.0  0.545513  0.000766  0.000032  0.000176  0.173094  6.703356  0.666256     85.28  1.000078  1.000006     2.862    17.950      60.3      73.5      24.2     205.8     12.23      2.81     -4.11     -0.20     -2.60     -0.94     -0.52      1.00      2.87      0.89     -0.54     -0.07      0.08      1.54     -2.39     -9.18     -6.96     -0.10     -1.30      4.70
     -16.761499     -99.784447     202.3      0.30      1.50     176.9         3         3      3886      4258   1459.92    -8.357       4.6      24.4   364.219     0.647     100.2   0.13175      32.6         H               192.2  0.071168  0.022179  0.000748  1.793632  0.848423  2.114076  1.141152     25.46    2.4467   10.9365   0.22373   4.11318   0.38646   0.03757  16.97941   2.67082    1665.9  0.552083  0.001510  0.000096  0.000176  0.171466  6.711245  0.674053     88.07  1.000101  1.000009     2.866    17.924      64.2      71.4      21.2     189.6     11.87      1.50     -4.08      0.95     -1.30     -0.89     -1.12      0.65      3.35      1.12     -0.30     -0.28      0.69      0.53     -1.67     -6.56     -3.28     -1.10     -1.01      1.81
