corner points
-133.8197784    -69.36779022
-134.1231689    -69.50891876
-134.2434082    -69.25371552
-134.5480499    -69.39411163
========== RESULTS WAVE VERSION 16.10.2018 ====================
IMAGE SIZE  X: 4460     Y:4762    col:row     POLARIZATION:VV
COVERAGE    X: 20.87949153km       Y: 19.62088953km 
RESOLUTION dX: 4.681500343m       dY:4.120304395m  
resolution of original product 4.681500343m x 4.120304395m;   raster step x:5997.00194m  
===============================================================
FLAGS: H=HIGH PROBABILITY SEA STATE, I=LAND(ISLAND), O=OUTLIER NO SEA STATE, N=NO WIND AVAILABLE, SEA STATE NOT VISIBLE, M=MEAN PROBABILITY SEA STATE, L= LOW PROBABILITY SEA STATE
Filtering wave length
 integration  Lmin=1m
 integration  Lmax=2200m
  peak        Lmin=100m
               FFT=1024pixels, 4793.856351m 
   mean-Hs (SWH_c)=0.4617915344m
         mean-wind=9.35161972m/s
--------------0--------------1---------2---------3---------4---------5---------6---------7---------8---------9--------10--------11--------12--------13--------14--------15--------16--------17--------18--------19------------------20--------21--------22--------23--------24--------25--------26--------27--------28--------29--------30--------31--------32--------33--------34--------35--------36--------37--------38--------39--------40--------41--------42--------43--------44--------45--------46--------47--------48--------49--------50--------51--------52--------53--------54--------55--------56--------57--------58--------59--------60--------61--------62--------63--------64--------65--------66--------67--------68--------69--------70--------71--------72--------73
            LAT            LON  P-LENGHT     SWH_o     SWH_c     P-DIR      LINE     POINT     ROW-Y     COL-X  M-INTENC        dB      WIND INC-ANGLE  ENERGY-M  ENERGY-N  ENERGY-R ENERGY-NN  FG-DEPTH      FLAG         HEADING-DEG    E30-75   E75-390  E390-600 meanincut   meanout   cut/out  STD-NORM  SPEC-MAX   GL-MEAN    GL-VAR      CORR   ENTROPY   HOMOGEN    ENERGY  CONTRAST  DISSIMIL     STD-O    E 1-30 E600-2000   E2000 >      GODA  LONG-HIG     Tmean  CONVOLUT  MEAN-DIR  relation     Sy/Sx  SKEWNESS  KURTOSIS  cutoff-A >50/10000     INT*V   INT-LOG  S-1_g1f1  S-2_g1f2  S-3_g1f3  S-4_g2f1  S-5_g2f2  S-6_g2f3  S-7_g3f1  S-8_g3f2  S-9_g3f3 S-10_g1f4 S-11_g2f4 S-12_g3f4 S-13_g1f5 S-14_g2f5 S-15_g3f5 S-16_g4f1 S-17_g4f2 S-18_g4f3 S-19_g4f4 S-20_g4f5
--------------1--------------2---------3---------4---------5---------6---------7---------8---------9--------10--------11--------12--------13--------14--------15--------16--------17--------18--------19--------20------------------21--------22--------23--------24--------25--------26--------27--------28--------29--------30--------31--------32--------33--------34--------35--------36--------37--------38--------39--------40--------41--------42--------43--------44--------45--------46--------47--------48--------49--------50--------51--------52--------53--------54--------55--------56--------57--------58--------59--------60--------61--------62--------63--------64--------65--------66--------67--------68--------69--------70--------71--------72--------73--------74
     -69.371628    -133.979828     374.8      1.18      3.37     135.3         1         1      1000      1000    396.32   -14.020       9.6      35.4   338.863     0.635     216.5   0.10212     100.0         H               207.7  0.059809  0.031039  0.003674  2.801217  0.768051  3.647178  1.130845     40.90    7.4021   66.9592   0.10314   6.11943   0.16767   0.00437 120.10547   7.63227     448.2  0.536067  0.004897  0.000254  0.000109  0.197539  7.031403  0.643530    125.04  1.000145  1.000012    17.901  2468.610      84.8      91.8     147.6     852.8     14.44     -6.80      0.95     -4.98      3.71      0.27      3.74     -0.95      0.75     -0.05      0.04     -0.47     -5.27      3.68     -0.11    -25.27     13.58     -0.76      0.72     11.48
     -69.338715    -134.102264     222.2      0.55      3.37      61.7         1         2      1000      2281    361.99   -14.413       9.3      35.8   302.568     0.527      69.7   0.05963      43.4         H               207.7  0.041668  0.009915  0.000293  0.975766  0.662958  1.471838  1.030481      2.72    6.7492   55.1815   0.08237   5.95234   0.17951   0.00513 101.27220   7.01663     373.0  0.474631  0.000825  0.000169  0.000094  0.150029  6.679301  0.525021     92.35  1.000061  1.000004     2.177    10.476      67.5      90.8     115.0     338.3     10.26      1.46     -0.17      2.93     -0.78     -1.04      2.28     -0.22     -0.23      0.67     -0.01     -0.42     -0.14      0.50      0.38     -4.28     -2.68     -1.81     -0.47      0.85
     -69.306023    -134.223236     319.2      0.51      3.37      47.1         1         3      1000      3562    307.23   -15.125       8.5      36.1   366.942     0.679      68.5   0.09824     100.0         H               207.7  0.064353  0.018739  0.000671  1.752087  0.971588  1.803324  1.169014      5.94    5.6509   39.8798   0.08426   5.62397   0.20468   0.00712  73.03905   5.94333     359.2  0.594265  0.000912  0.000116  0.000091  0.159980  6.728373  0.681175     94.91  1.000072  1.000007    73.011  9999.000      56.1      88.5      83.3     631.6     10.82      0.63     -0.97      2.17     -0.65     -1.00      1.72     -0.23      0.16      0.22      0.17      0.09     -0.24      0.33      0.42     -6.20     -1.26     -1.11      0.07      0.45
     -69.414757    -134.072525     399.1      0.56      3.37      48.5         2         1      2456      1000    393.02   -14.056       9.6      35.4   315.918     0.561      81.4   0.07091     100.0         H               207.7  0.045288  0.016542  0.000952  1.509278  0.756969  1.993843  1.063049      6.09    7.3562   64.6247   0.08633   6.11196   0.16749   0.00437 118.09121   7.59676     417.8  0.497328  0.001266  0.000138  0.000089  0.176892  6.853664  0.561241     93.27  1.000077  1.000005     6.590   421.230      69.9      91.8     139.4     759.9     12.26     -0.11      0.20     -0.18     -0.40      0.64      2.24      0.01      0.71      0.15     -0.29      0.00     -0.00      0.56      0.64    -11.97     -0.51      0.36     -0.96      0.76
     -69.381783    -134.195084     399.1      0.55      3.37      48.5         2         2      2456      2281    361.95   -14.414       9.3      35.8   301.664     0.524      54.7   0.05873     100.0         H               207.7  0.040666  0.010894  0.000517  1.023460  0.669063  1.529692  1.027771      5.97    6.7482   54.8064   0.08084   5.95256   0.17870   0.00510 100.75189   7.01212     372.0  0.471736  0.000866  0.000094  0.000092  0.156318  6.712790  0.522552     81.86  1.000060  1.000004     2.192    11.288      66.4      90.9     114.6     391.8     10.86      2.42     -0.85      1.30     -1.62     -0.82      2.78      0.68     -0.39      1.16     -0.23     -0.08     -1.11      1.41     -0.09     -8.74     -5.90     -0.33     -1.25      4.10
     -69.349022    -134.316177     396.1      0.60      3.37     124.3         2         3      2456      3562    313.55   -15.037       8.6      36.1   331.100     0.613     578.1   0.09286     100.0         M               207.7  0.051872  0.024020  0.006268  1.791253  0.951976  1.881615  1.112507     40.53    5.7602   43.8820   0.12381   5.65054   0.20351   0.00702  76.89731   6.03945     348.8  0.516849  0.013574  0.000930  0.000096  0.196458  6.987101  0.623113    141.44  1.000142  1.000009     4.500    73.003     124.8      88.6      93.9     664.4     14.59     -7.83     -0.02     -9.33      8.39     -1.80      8.90     -6.08      0.96     -0.02      0.83     -1.53     -0.32      1.10     -0.63    -41.50     30.58     -5.47      3.88      3.59
     -69.457840    -134.165604     252.5      1.14      3.37      57.4         3         1      3912      1000    409.09   -13.882       9.9      35.4   327.374     0.599     118.6   0.08941      76.4         H               207.7  0.055312  0.028559  0.002218  2.509240  1.041377  2.409540  1.098033     11.61    7.6623   70.0398   0.09033   6.18685   0.16260   0.00406 127.42500   7.89075     449.2  0.510752  0.002291  0.000125  0.000093  0.193168  7.000814  0.605055     91.31  1.000098  1.000007     8.717   501.509      75.2      92.3     156.3     903.6     13.28      0.78      1.13     -1.63      0.77      1.37      1.88      0.21     -0.19      0.92      0.45      0.48     -0.81      0.63      0.97    -15.10      0.40      1.27      0.87      1.70
     -69.424797    -134.288269     252.5      0.56      3.37      57.4         3         2      3912      2281    373.20   -14.281       9.5      35.7   300.977     0.525      45.3   0.05951      76.4         H               207.7  0.041138  0.010135  0.000344  0.977058  0.660043  1.480295  1.028229      3.54    6.9720   58.3107   0.08242   6.01300   0.17477   0.00481 107.00887   7.22020     383.7  0.473014  0.000640  0.000083  0.000092  0.153692  6.686236  0.522970     86.37  1.000080  1.000004     2.175    10.497      65.3      91.3     122.2     352.5     10.41      1.45     -0.26      2.70     -0.82     -1.22      2.32      0.04      0.28      1.52     -0.17     -0.24     -0.24      0.38      0.73     -5.18     -2.72     -2.34     -1.22      0.63
     -69.391975    -134.409454     248.7      0.54      3.37      61.9         3         3      3912      3562    337.90   -14.712       9.1      36.1   303.621     0.530      41.7   0.06032      69.5         H               207.7  0.042030  0.010425  0.000311  0.993017  0.676999  1.466792  1.033007      3.13    6.2691   47.9779   0.08189   5.81598   0.18897   0.00586  88.09834   6.54634     349.1  0.476967  0.000528  0.000085  0.000092  0.152910  6.682631  0.528355     84.05  1.000060  1.000003     2.836    61.807      64.2      89.9      99.7     490.9     10.29      1.52     -0.58      2.81     -0.53     -1.23      2.14     -0.21      0.05      0.91     -0.07     -0.10     -0.57      0.39      0.42     -4.40     -1.93     -1.92     -0.79      0.97
