corner points
-99.83639526    -10.09739494
-99.87612152    -10.27229691
-100.0170822    -10.05651665
-100.0569229    -10.23136616
========== RESULTS WAVE VERSION 16.10.2018 ====================
IMAGE SIZE  X: 4460     Y:4787    col:row     POLARIZATION:VV
COVERAGE    X: 20.25313796km       Y: 19.88228771km 
RESOLUTION dX: 4.541062323m       dY:4.153392043m  
resolution of original product 4.541062323m x 4.153392043m;   raster step x:5998.743329m  
===============================================================
FLAGS: H=HIGH PROBABILITY SEA STATE, I=LAND(ISLAND), O=OUTLIER NO SEA STATE, N=NO WIND AVAILABLE, SEA STATE NOT VISIBLE, M=MEAN PROBABILITY SEA STATE, L= LOW PROBABILITY SEA STATE
Filtering wave length
 integration  Lmin=1m
 integration  Lmax=2200m
  peak        Lmin=100m
               FFT=1024pixels, 4650.047819m 
   mean-Hs (SWH_c)=0.2m
         mean-wind=7.510082722m/s
--------------0--------------1---------2---------3---------4---------5---------6---------7---------8---------9--------10--------11--------12--------13--------14--------15--------16--------17--------18--------19------------------20--------21--------22--------23--------24--------25--------26--------27--------28--------29--------30--------31--------32--------33--------34--------35--------36--------37--------38--------39--------40--------41--------42--------43--------44--------45--------46--------47--------48--------49--------50--------51--------52--------53--------54--------55--------56--------57--------58--------59--------60--------61--------62--------63--------64--------65--------66--------67--------68--------69--------70--------71--------72--------73
            LAT            LON  P-LENGHT     SWH_o     SWH_c     P-DIR      LINE     POINT     ROW-Y     COL-X  M-INTENC        dB      WIND INC-ANGLE  ENERGY-M  ENERGY-N  ENERGY-R ENERGY-NN  FG-DEPTH      FLAG         HEADING-DEG    E30-75   E75-390  E390-600 meanincut   meanout   cut/out  STD-NORM  SPEC-MAX   GL-MEAN    GL-VAR      CORR   ENTROPY   HOMOGEN    ENERGY  CONTRAST  DISSIMIL     STD-O    E 1-30 E600-2000   E2000 >      GODA  LONG-HIG     Tmean  CONVOLUT  MEAN-DIR  relation     Sy/Sx  SKEWNESS  KURTOSIS  cutoff-A >50/10000     INT*V   INT-LOG  S-1_g1f1  S-2_g1f2  S-3_g1f3  S-4_g2f1  S-5_g2f2  S-6_g2f3  S-7_g3f1  S-8_g3f2  S-9_g3f3 S-10_g1f4 S-11_g2f4 S-12_g3f4 S-13_g1f5 S-14_g2f5 S-15_g3f5 S-16_g4f1 S-17_g4f2 S-18_g4f3 S-19_g4f4 S-20_g4f5
--------------1--------------2---------3---------4---------5---------6---------7---------8---------9--------10--------11--------12--------13--------14--------15--------16--------17--------18--------19--------20------------------21--------22--------23--------24--------25--------26--------27--------28--------29--------30--------31--------32--------33--------34--------35--------36--------37--------38--------39--------40--------41--------42--------43--------44--------45--------46--------47--------48--------49--------50--------51--------52--------53--------54--------55--------56--------57--------58--------59--------60--------61--------62--------63--------64--------65--------66--------67--------68--------69--------70--------71--------72--------73--------74
     -10.124674     -99.885681     248.7      0.45      1.86     173.9         1         1      1000      1000    239.12   -16.214       7.4      36.7   221.382     0.531      33.9   0.05739      69.6         H               192.0  0.039827  0.013145  0.000395  0.912495  0.636764  1.433020  1.034128     22.80    4.3015   24.3642   0.07734   5.12849   0.24905   0.01171  44.95959   4.64126     247.3  0.477908  0.000469  0.000026  0.000104  0.190314  6.849039  0.534533    162.79  0.999931  0.999996     2.180    10.423      76.6      84.4      49.6     225.1     12.73      1.54     -5.81     -1.13     -1.58      0.56     -1.96      0.38      3.72      1.70     -0.84     -0.99      2.10      0.03     -2.45     -7.49     -3.47      0.45     -1.04      1.92
     -10.112519     -99.939415     222.8      0.44      1.86     174.5         1         2      1000      2321    227.31   -16.434       7.3      37.1   221.216     0.532      43.3   0.05829      43.8         H               192.0  0.039750  0.013925  0.000438  0.922013  0.635284  1.451341  1.035457     26.90    4.0662   22.0683   0.07950   5.02735   0.25904   0.01300  40.62742   4.40894     235.3  0.477642  0.000642  0.000046  0.000112  0.195611  6.889878  0.535522    168.22  0.999928  0.999996     2.194    10.600      78.1      83.2      45.0     211.7     13.00      0.86     -6.66     -1.76     -0.76      0.81     -2.19      0.54      3.97      2.94     -1.20     -1.49      3.40     -1.17     -3.01     -8.14     -1.85      1.03     -1.51     -0.25
     -10.100462     -99.992683     248.7      0.46      1.86     173.9         1         3      1000      3642    224.27   -16.492       7.5      37.5   222.063     0.533      47.2   0.05756      69.6         H               192.0  0.039769  0.013647  0.000485  0.926336  0.633859  1.461423  1.036478     32.27    4.0059   21.5138   0.07744   5.00091   0.26192   0.01331  39.69545   4.35162     232.4  0.478885  0.000692  0.000060  0.000110  0.193669  6.871006  0.536477    171.65  0.999907  0.999995     2.199    10.595      78.1      83.3      43.9     209.0     13.04      0.99     -6.25     -1.85     -1.46      0.81     -1.80      0.22      4.00      2.15     -1.26     -0.77      3.32     -0.85     -2.90     -9.02     -2.56      0.56     -1.99      0.08
     -10.177441     -99.897675     249.8      0.45      1.86     176.9         2         1      2444      1000    239.19   -16.213       7.4      36.7   222.368     0.535      43.9   0.05862      71.4         H               192.0  0.040252  0.013537  0.000482  0.932937  0.642433  1.452195  1.037439     25.82    4.3021   24.5263   0.07949   5.12836   0.24926   0.01176  45.15305   4.64662     248.1  0.480069  0.000610  0.000054  0.000106  0.190801  6.861125  0.537888    169.05  0.999928  0.999996     2.200    10.640      75.2      84.3      49.7     234.1     12.77      0.77     -6.48     -1.50     -0.93      1.00     -1.59      0.66      3.64      2.16     -0.96     -1.26      3.46     -1.53     -2.28     -8.59     -2.54      1.45     -1.27     -1.22
     -10.165282     -99.951416     233.6      0.45      1.86     171.3         2         2      2444      2321    232.23   -16.341       7.5      37.1   222.785     0.536      45.6   0.05886      52.0         H               192.0  0.039424  0.013922  0.000458  0.911443  0.624931  1.458470  1.038840     27.79    4.1632   23.1781   0.07896   5.06929   0.25507   0.01250  42.69609   4.51344     241.2  0.481403  0.000750  0.000049  0.000111  0.195146  6.903955  0.538801    169.15  0.999920  0.999997     2.208    10.738      76.6      83.6      47.0     217.1     12.73      0.14     -7.34     -1.22     -0.55      1.31     -2.02      0.76      4.36      2.34     -0.79     -1.58      3.67     -0.97     -3.26     -7.96     -1.44      1.90     -0.76      0.36
     -10.153219    -100.004692     249.8      0.47      1.86     176.9         2         3      2444      3642    232.68   -16.332       7.8      37.5   221.915     0.533      48.6   0.05852      71.4         H               192.0  0.040350  0.013010  0.000457  0.920191  0.645290  1.426012  1.036292     21.33    4.1727   23.1636   0.07929   5.07363   0.25482   0.01240  42.65371   4.51457     241.2  0.478783  0.000790  0.000060  0.000105  0.186808  6.827868  0.536346    163.96  0.999934  0.999996     2.202    10.693      75.2      83.9      47.1     223.1     12.72      1.41     -6.10     -1.39     -1.21      0.63     -1.53      0.49      3.42      1.92     -0.96     -0.86      2.71     -0.56     -2.49     -8.64     -2.84      0.80     -1.56      0.63
     -10.230207     -99.909676     236.0      0.45      1.86     177.1         3         1      3888      1000    240.19   -16.195       7.4      36.7   222.310     0.533      45.8   0.05770      54.1         H               192.0  0.039952  0.013228  0.000406  0.930718  0.638020  1.458761  1.035919     22.11    4.3225   24.6654   0.07743   5.13704   0.24815   0.01165  45.51091   4.66879     248.8  0.479035  0.000630  0.000064  0.000103  0.190329  6.873987  0.536031    160.74  0.999933  0.999996     2.187    10.530      78.1      84.3      50.1     233.6     12.63      1.02     -6.10     -0.94     -1.25      0.40     -2.07      0.35      3.72      1.46     -0.59     -0.79      2.91     -0.97     -2.29     -7.37     -2.68      0.54     -0.75     -0.57
     -10.218044     -99.963425     248.7      0.46      1.86     173.9         3         2      3888      2321    238.75   -16.220       7.6      37.1   222.085     0.536      57.4   0.05980      69.6         H               192.0  0.040445  0.014066  0.000551  0.935505  0.636231  1.470386  1.038660     30.48    4.2936   24.5029   0.08276   5.12425   0.25014   0.01187  44.95007   4.63014     248.0  0.479807  0.000846  0.000081  0.000111  0.194819  6.889855  0.538935    169.07  0.999929  0.999996     2.206    10.665      76.6      84.1      49.6     219.3     13.02      0.99     -6.38     -2.07     -1.10      0.64     -1.55      0.80      4.08      2.90     -1.38     -1.67      2.88     -0.28     -2.97     -9.71     -2.58      0.63     -1.79      1.26
     -10.205976    -100.016716     233.6      0.47      1.86     171.3         3         3      3888      3642    232.23   -16.341       7.7      37.5   222.008     0.533      57.4   0.05833      52.0         H               192.0  0.039488  0.013341  0.000467  0.894593  0.630160  1.419628  1.035779     25.94    4.1633   23.0520   0.07864   5.06962   0.25483   0.01243  42.47828   4.50740     240.6  0.478764  0.000892  0.000086  0.000111  0.192684  6.876399  0.535748    166.48  0.999924  0.999996     2.203    10.729      78.1      83.9      46.9     217.1     12.86      0.92     -6.94     -1.57     -0.96      1.43     -1.82      0.51      4.21      1.75     -1.02     -1.10      3.92     -1.37     -2.98     -8.59     -2.38      1.76     -1.37     -0.71
