corner points
-103.2737579    -30.73487854
-103.3244629    -30.91350555
-103.4863281    -30.68809128
-103.5375366    -30.86662102
========== RESULTS WAVE VERSION 16.10.2018 ====================
IMAGE SIZE  X: 5601     Y:4919    col:row     POLARIZATION:VV
COVERAGE    X: 20.93646054km       Y: 20.3990481km 
RESOLUTION dX: 3.73798617m       dY:4.146990873m  
resolution of original product 3.73798617m x 4.146990873m;   raster step x:5999.467803m  
===============================================================
FLAGS: H=HIGH PROBABILITY SEA STATE, I=LAND(ISLAND), O=OUTLIER NO SEA STATE, N=NO WIND AVAILABLE, SEA STATE NOT VISIBLE, M=MEAN PROBABILITY SEA STATE, L= LOW PROBABILITY SEA STATE
Filtering wave length
 integration  Lmin=1m
 integration  Lmax=2200m
  peak        Lmin=100m
               FFT=1024pixels, 3827.697838m 
   mean-Hs (SWH_c)=0.2m
         mean-wind=5.8082304m/s
--------------0--------------1---------2---------3---------4---------5---------6---------7---------8---------9--------10--------11--------12--------13--------14--------15--------16--------17--------18--------19------------------20--------21--------22--------23--------24--------25--------26--------27--------28--------29--------30--------31--------32--------33--------34--------35--------36--------37--------38--------39--------40--------41--------42--------43--------44--------45--------46--------47--------48--------49--------50--------51--------52--------53--------54--------55--------56--------57--------58--------59--------60--------61--------62--------63--------64--------65--------66--------67--------68--------69--------70--------71--------72--------73
            LAT            LON  P-LENGHT     SWH_o     SWH_c     P-DIR      LINE     POINT     ROW-Y     COL-X  M-INTENC        dB      WIND INC-ANGLE  ENERGY-M  ENERGY-N  ENERGY-R ENERGY-NN  FG-DEPTH      FLAG         HEADING-DEG    E30-75   E75-390  E390-600 meanincut   meanout   cut/out  STD-NORM  SPEC-MAX   GL-MEAN    GL-VAR      CORR   ENTROPY   HOMOGEN    ENERGY  CONTRAST  DISSIMIL     STD-O    E 1-30 E600-2000   E2000 >      GODA  LONG-HIG     Tmean  CONVOLUT  MEAN-DIR  relation     Sy/Sx  SKEWNESS  KURTOSIS  cutoff-A >50/10000     INT*V   INT-LOG  S-1_g1f1  S-2_g1f2  S-3_g1f3  S-4_g2f1  S-5_g2f2  S-6_g2f3  S-7_g3f1  S-8_g3f2  S-9_g3f3 S-10_g1f4 S-11_g2f4 S-12_g3f4 S-13_g1f5 S-14_g2f5 S-15_g3f5 S-16_g4f1 S-17_g4f2 S-18_g4f3 S-19_g4f4 S-20_g4f5
--------------1--------------2---------3---------4---------5---------6---------7---------8---------9--------10--------11--------12--------13--------14--------15--------16--------17--------18--------19--------20------------------21--------22--------23--------24--------25--------26--------27--------28--------29--------30--------31--------32--------33--------34--------35--------36--------37--------38--------39--------40--------41--------42--------43--------44--------45--------46--------47--------48--------49--------50--------51--------52--------53--------54--------55--------56--------57--------58--------59--------60--------61--------62--------63--------64--------65--------66--------67--------68--------69--------70--------71--------72--------73--------74
     -30.762642    -103.323082     106.7      0.34      1.84     116.9         1         1      1000      1000   2277.42    -6.426       5.4      23.0   332.069     0.739      59.3   0.17314       7.3         H               192.8  0.095158  0.035735  0.000970  3.632963  0.950417  3.822492  1.217785     19.17    4.0752   30.1288   0.26474   4.97211   0.29360   0.01749  44.30544   4.23197    2773.4  0.607113  0.000703  0.000025  0.000172  0.165037  6.832931  0.774446    101.76  1.000165  1.000020     3.395    25.441      78.1      80.6      55.4     370.6     11.44     -0.58     -0.76      2.44     -1.51      1.40      1.29     -0.26      2.51      0.41     -0.87     -0.86     -1.02     -0.91     -0.34     -4.73     -2.26      1.21     -1.63     -0.15
     -30.749092    -103.384727     106.7      0.36      1.84     116.9         1         2      1000      2605   2123.52    -6.729       5.7      23.5   330.729     0.739      62.5   0.17363       7.3         H               192.8  0.092341  0.036808  0.001094  3.648418  0.946304  3.855440  1.218173     14.25    3.7693   26.2505   0.26380   4.83443   0.30788   0.01991  38.65131   3.94262    2586.6  0.608508  0.000739  0.000022  0.000170  0.169831  6.859924  0.774184     99.43  1.000189  1.000023     3.453    26.611      83.0      79.2      48.1     358.0     11.96     -0.51     -0.56      1.73     -1.44      1.82      0.92      0.09      1.82      1.06     -1.03     -1.42     -1.19     -0.18     -0.31     -6.03     -2.73      2.22     -1.59      1.23
     -30.735767    -103.445213     380.3      0.36      1.84      63.4         1         3      1000      4210   1940.42    -7.121       5.8      24.0   329.933     0.736      60.9   0.17256     100.0         H               192.8  0.092615  0.036466  0.001116  3.630764  0.954136  3.805290  1.215522     13.33    3.4034   21.9221   0.26416   4.65473   0.32826   0.02376  32.26193   3.58707    2358.5  0.605960  0.000652  0.000026  0.000171  0.168345  6.851431  0.771834     98.86  1.000182  1.000021     3.399    24.989      81.3      77.2      40.0     299.5     11.66     -0.50     -0.17      2.07     -1.92      1.24      1.43      0.43      2.35      0.68     -1.47     -0.66     -1.64     -0.43     -0.47     -5.40     -3.97      0.83     -2.76      1.15
     -30.815157    -103.338013     106.3      0.35      1.84     113.6         2         1      2446      1000   2358.03    -6.275       5.7      23.0   330.832     0.742      58.9   0.17541       7.2         H               192.8  0.094740  0.037217  0.001098  3.777810  0.944729  3.998828  1.220649     13.84    4.2356   32.3612   0.26688   5.04008   0.28640   0.01639  47.44953   4.38141    2878.2  0.609135  0.000624  0.000019  0.000178  0.165077  6.842895  0.778394    101.24  1.000172  1.000022     3.446    26.602      81.3      81.2      59.6     390.1     11.76     -0.10     -0.89      1.82     -1.63      1.68      1.18     -0.02      2.29      1.04     -1.21     -0.76     -1.30     -0.41     -0.36     -5.86     -3.34      1.78     -2.87      1.33
     -30.801600    -103.399704     114.9      0.36      1.84     122.8         2         2      2446      2605   2160.09    -6.655       5.8      23.5   330.621     0.737      57.0   0.17257       8.5         H               192.8  0.092086  0.035969  0.001121  3.561327  0.933933  3.813259  1.217991     13.70    3.8323   26.9397   0.26159   4.86454   0.30449   0.01931  39.78480   4.00387    2631.0  0.607744  0.000619  0.000019  0.000174  0.167526  6.838007  0.771740    101.55  1.000185  1.000023     3.478    27.773      83.0      79.5      49.6     370.9     11.85      0.19     -0.60      1.66     -1.36      1.65      1.38     -0.21      2.39      0.86     -1.25     -1.10     -1.31     -0.55      0.07     -6.25     -3.29      1.30     -2.39     -0.02
     -30.788267    -103.460228     396.4      0.36      1.84      55.9         2         3      2446      4210   1923.20    -7.160       5.7      24.0   335.050     0.749      70.8   0.17618     100.0         H               192.8  0.094744  0.037513  0.001401  3.775159  0.954896  3.953478  1.226922     18.91    3.3695   21.8432   0.26478   4.63465   0.33099   0.02444  32.11869   3.56656    2359.6  0.615617  0.000799  0.000038  0.000183  0.167769  6.834517  0.785720    100.66  1.000182  1.000021     3.557    29.538      83.0      76.8      39.8     340.3     11.90      0.74      0.20      1.32     -2.25      1.45      1.90      0.15      2.00      1.21     -1.31     -1.06     -1.96      0.31     -0.19     -7.24     -5.61      1.65     -2.77      2.37
     -30.867670    -103.352951     100.6      0.36      1.84     119.8         3         1      3892      1000   2410.48    -6.179       5.8      23.0   335.026     0.751      61.0   0.17818       6.4         H               192.8  0.096902  0.037375  0.001072  3.813340  0.950635  4.011360  1.228998     16.22    4.3378   34.1702   0.26777   5.08029   0.28325   0.01585  50.04035   4.48485    2962.6  0.615753  0.000710  0.000021  0.000205  0.163151  6.806399  0.787902    102.22  1.000175  1.000023     3.448    26.204      83.0      81.6      62.9     409.4     11.60      0.20      0.27      2.40     -2.21      1.63      1.59     -0.36      1.38      0.07     -1.28     -0.70     -2.15     -0.22     -0.28     -5.28     -4.18      2.09     -2.12      1.84
     -30.854105    -103.414688     108.1      0.38      1.84     118.9         3         2      3892      2605   2259.80    -6.459       6.2      23.5   335.136     0.755      73.5   0.18118       7.5         H               192.8  0.100949  0.038150  0.001131  3.863428  0.978745  3.947330  1.230051     15.28    4.0396   30.2746   0.27152   4.95155   0.29713   0.01810  44.10891   4.19642    2779.7  0.615078  0.000840  0.000031  0.000203  0.164901  6.795094  0.793463     99.99  1.000188  1.000025     3.450    25.830      86.6      80.2      55.4     378.3     11.74     -0.09     -0.28      2.04     -1.60      1.72      1.35      0.36      2.35      0.97     -1.32     -0.78     -1.34     -0.33     -0.46     -5.40     -3.70      1.62     -2.80      1.44
     -30.840763    -103.475258     273.9      0.39      1.84     154.6         3         3      3892      4210   2064.49    -6.852       6.2      24.0   335.464     0.754      60.9   0.18010     100.0         H               192.8  0.099842  0.038546  0.001279  3.827990  0.965997  3.962734  1.232665     16.11    3.6449   25.2847   0.27109   4.76983   0.31670   0.02157  36.86070   3.81976    2544.7  0.614700  0.000685  0.000014  0.000221  0.165289  6.803432  0.792222    100.65  1.000169  1.000021     3.514    26.800      84.8      78.3      46.0     336.4     11.98      0.23     -0.85      1.31     -1.05      2.03      1.46      0.04      2.34      1.36     -1.25     -1.01     -1.48     -0.50     -0.11     -6.79     -3.02      2.42     -2.67      1.41
