corner points
-110.7109375    -45.02521896
-110.789238    -45.19448853
-110.9601593    -44.96609116
-111.0391846    -45.13519287
========== RESULTS WAVE VERSION 16.10.2018 ====================
IMAGE SIZE  X: 4460     Y:4774    col:row     POLARIZATION:VV
COVERAGE    X: 20.62666348km       Y: 19.75626399km 
RESOLUTION dX: 4.62481244m       dY:4.138304146m  
resolution of original product 4.62481244m x 4.138304146m;   raster step x:5998.381734m  
===============================================================
FLAGS: H=HIGH PROBABILITY SEA STATE, I=LAND(ISLAND), O=OUTLIER NO SEA STATE, N=NO WIND AVAILABLE, SEA STATE NOT VISIBLE, M=MEAN PROBABILITY SEA STATE, L= LOW PROBABILITY SEA STATE
Filtering wave length
 integration  Lmin=1m
 integration  Lmax=2200m
  peak        Lmin=100m
               FFT=1024pixels, 4735.807938m 
   mean-Hs (SWH_c)=3.425892944m
         mean-wind=14.39135742m/s
--------------0--------------1---------2---------3---------4---------5---------6---------7---------8---------9--------10--------11--------12--------13--------14--------15--------16--------17--------18--------19------------------20--------21--------22--------23--------24--------25--------26--------27--------28--------29--------30--------31--------32--------33--------34--------35--------36--------37--------38--------39--------40--------41--------42--------43--------44--------45--------46--------47--------48--------49--------50--------51--------52--------53--------54--------55--------56--------57--------58--------59--------60--------61--------62--------63--------64--------65--------66--------67--------68--------69--------70--------71--------72--------73
            LAT            LON  P-LENGHT     SWH_o     SWH_c     P-DIR      LINE     POINT     ROW-Y     COL-X  M-INTENC        dB      WIND INC-ANGLE  ENERGY-M  ENERGY-N  ENERGY-R ENERGY-NN  FG-DEPTH      FLAG         HEADING-DEG    E30-75   E75-390  E390-600 meanincut   meanout   cut/out  STD-NORM  SPEC-MAX   GL-MEAN    GL-VAR      CORR   ENTROPY   HOMOGEN    ENERGY  CONTRAST  DISSIMIL     STD-O    E 1-30 E600-2000   E2000 >      GODA  LONG-HIG     Tmean  CONVOLUT  MEAN-DIR  relation     Sy/Sx  SKEWNESS  KURTOSIS  cutoff-A >50/10000     INT*V   INT-LOG  S-1_g1f1  S-2_g1f2  S-3_g1f3  S-4_g2f1  S-5_g2f2  S-6_g2f3  S-7_g3f1  S-8_g3f2  S-9_g3f3 S-10_g1f4 S-11_g2f4 S-12_g3f4 S-13_g1f5 S-14_g2f5 S-15_g3f5 S-16_g4f1 S-17_g4f2 S-18_g4f3 S-19_g4f4 S-20_g4f5
--------------1--------------2---------3---------4---------5---------6---------7---------8---------9--------10--------11--------12--------13--------14--------15--------16--------17--------18--------19--------20------------------21--------22--------23--------24--------25--------26--------27--------28--------29--------30--------31--------32--------33--------34--------35--------36--------37--------38--------39--------40--------41--------42--------43--------44--------45--------46--------47--------48--------49--------50--------51--------52--------53--------54--------55--------56--------57--------58--------59--------60--------61--------62--------63--------64--------65--------66--------67--------68--------69--------70--------71--------72--------73--------74
     -45.047306    -110.783951     217.9      3.64      5.54     104.9         1         1      1000      1000    734.74   -11.339      15.0      35.9   299.795     0.666     296.6   0.12160      40.7         H               194.4  0.062294  0.052176  0.002267  4.272310  0.811994  5.261503  1.158660     63.62   13.6861  211.7763   0.17669   7.16837   0.10979   0.00153 348.71985  13.25951     851.2  0.544659  0.004167  0.000695  0.000214  0.221657  7.401757  0.681996     88.53  1.000383  1.000043     3.023    20.284     190.7      96.8     589.8    1059.3     14.47     -0.34     11.31      2.38     -0.74      5.65      0.10      1.82     -2.27     -1.07     -0.18      2.24      6.53      4.29     -0.22     -8.38     -2.43      2.72     -0.59      2.48
     -45.030048    -110.856789     251.3      3.61      5.54     107.2         1         2      1000      2297    726.37   -11.388      15.2      36.3   296.042     0.652     259.3   0.11625      74.0         H               194.4  0.059528  0.050073  0.001912  4.104935  0.793922  5.170452  1.146152     93.55   13.5659  207.2898   0.17294   7.16059   0.10998   0.00155 342.88171  13.14986     832.5  0.536373  0.004001  0.000499  0.000212  0.224851  7.407611  0.666645     96.25  1.000349  1.000041     2.934    18.893     190.7      96.8     568.1     958.9     14.87     -1.31     11.87      2.04     -0.31      4.91     -1.51      2.14     -3.66     -2.07     -0.07      3.10      6.31      3.82     -0.92     -7.50     -1.14      2.15     -0.65      2.30
     -45.012905    -110.928940     239.1      3.29      5.54     106.4         1         3      1000      3594    612.03   -12.132      14.0      36.7   295.732     0.650     232.3   0.11413      57.3         H               194.4  0.060327  0.049639  0.001840  4.044192  0.805980  5.017730  1.144367     87.83   11.5148  161.4106   0.17231   6.89190   0.12557   0.00214 267.19510  11.39294     700.3  0.534992  0.002938  0.000546  0.000203  0.225251  7.392166  0.664687     93.73  1.000362  1.000040     2.954    20.413     190.7      95.4     397.2     878.3     14.85     -1.08     11.85      2.06     -0.34      4.53     -1.57      2.40     -3.44     -1.92      0.48      3.04      5.93      3.59     -0.67     -7.24     -1.84      1.22     -0.26      2.08
     -45.098682    -110.807747     220.6      3.61      5.54     102.0         2         1      2449      1000    846.90   -10.722      16.1      35.9   292.426     0.640     454.4   0.11261      42.4         H               194.4  0.057327  0.045538  0.001480  4.034217  0.784629  5.141560  1.137064     53.08   15.6517  253.9021   0.16850   7.37088   0.09795   0.00117 422.24103  14.88066     963.0  0.529289  0.005449  0.001215  0.000194  0.218755  7.346210  0.653575     88.56  1.000360  1.000040     2.811    17.095     181.9      97.9     774.0    1065.5     14.26     -0.85     10.91      3.14     -0.06      5.73     -0.66      1.84     -2.06     -1.02      0.42      1.96      5.70      4.46     -0.14     -5.95     -1.22      2.15      0.19      2.88
     -45.081413    -110.880661     262.6      3.45      5.54      93.6         2         2      2449      2297    642.31   -11.923      14.2      36.3   298.434     0.655     135.3   0.11591     124.0         H               194.4  0.060322  0.051439  0.001823  3.983746  0.786186  5.067181  1.148239     71.96   12.0610  173.3770   0.16990   6.97037   0.12070   0.00195 287.84161  11.88510     737.5  0.539889  0.001963  0.000147  0.000217  0.223951  7.403011  0.669444     89.75  1.000429  1.000050     3.071    23.079     190.7      95.8     440.4     977.1     14.83     -0.39     12.57      2.49     -0.56      5.30     -1.08      1.59     -3.30     -0.82     -0.19      2.07      7.66      4.33     -1.31     -7.05     -1.83      1.75     -0.91      2.48
     -45.064251    -110.952866     255.3      3.05      5.54     103.9         2         3      2449      3594    555.03   -12.557      13.3      36.7   294.511     0.641     122.5   0.10822      83.2         H               194.4  0.057578  0.047406  0.001568  4.112595  0.758716  5.420469  1.135609     67.82   10.4615  136.8231   0.16280   6.72922   0.13466   0.00255 229.09567  10.47533     630.2  0.532848  0.001657  0.000142  0.000197  0.222235  7.388489  0.654020     92.03  1.000382  1.000041     2.921    19.524     174.0      94.7     320.4     780.5     14.75     -1.21     11.26      2.11      0.11      4.90     -1.28      2.10     -2.91     -1.65      0.55      2.80      5.87      3.90     -0.42     -6.85     -0.73      2.10     -0.06      2.37
     -45.150059    -110.831596     248.8      3.49      5.54      93.4         3         1      3898      1000    660.42   -11.802      14.1      35.9   300.489     0.668     442.0   0.12145      69.7         H               194.4  0.061198  0.052600  0.001735  4.093593  0.807396  5.070120  1.160989     86.91   12.3678  182.8716   0.18073   7.00469   0.11964   0.00189 299.64368  12.12588     766.7  0.546270  0.004950  0.001164  0.000209  0.228190  7.428617  0.683863     89.72  1.000476  1.000052     3.012    19.910     200.3      96.0     473.5     918.9     15.02     -1.04     12.47      2.42      0.25      5.07     -2.04      1.49     -4.34     -1.29      0.34      2.24      7.49      3.79     -2.09     -6.59     -0.24      2.09     -0.48      2.26
     -45.132771    -110.904564     262.6      3.51      5.54      93.6         3         2      3898      2297    677.85   -11.689      14.6      36.3   301.779     0.671     251.3   0.12281     124.0         H               194.4  0.064495  0.052649  0.001889  3.953951  0.828951  4.769824  1.162673     76.23   12.6803  189.3088   0.17820   7.04713   0.11684   0.00179 311.14825  12.40429     788.1  0.548454  0.003359  0.000523  0.000220  0.224001  7.376284  0.687232     89.58  1.000455  1.000053     3.163    24.070     200.3      96.2     500.1    1010.5     14.86     -0.88     12.45      2.39     -0.21      5.37     -1.14      1.50     -3.36     -1.61      0.13      2.25      7.75      4.17     -1.26     -7.00     -0.54      2.34      0.34      2.06
     -45.115597    -110.976837     239.1      3.19      5.54     106.4         3         3      3898      3594    543.23   -12.650      13.1      36.7   297.755     0.652     100.3   0.11323      57.3         H               194.4  0.060567  0.051298  0.001622  3.841325  0.777411  4.941180  1.145430     62.11   10.2287  133.3102   0.16893   6.68476   0.13777   0.00269 221.58151  10.25697     622.3  0.537689  0.001309  0.000071  0.000206  0.227229  7.415086  0.666288     92.84  1.000453  1.000049     2.965    19.483     190.7      94.4     309.5     770.8     15.00     -1.29     12.42      2.27     -0.49      4.71     -2.01      1.72     -3.86     -1.95     -0.33      2.39      7.40      3.34     -1.10     -6.62     -0.98      1.34     -0.57      0.43
