corner points
-124.1219482    -63.3067894
-124.310318    -63.46258926
-124.4876328    -63.21635056
-124.677475    -63.3716774
========== RESULTS WAVE VERSION 16.10.2018 ====================
IMAGE SIZE  X: 4460     Y:4767    col:row     POLARIZATION:VV
COVERAGE    X: 20.83128465km       Y: 19.65980769km 
RESOLUTION dX: 4.670691626m       dY:4.124146777m  
resolution of original product 4.670691626m x 4.124146777m;   raster step x:5997.168047m  
===============================================================
FLAGS: H=HIGH PROBABILITY SEA STATE, I=LAND(ISLAND), O=OUTLIER NO SEA STATE, N=NO WIND AVAILABLE, SEA STATE NOT VISIBLE, M=MEAN PROBABILITY SEA STATE, L= LOW PROBABILITY SEA STATE
Filtering wave length
 integration  Lmin=1m
 integration  Lmax=2200m
  peak        Lmin=100m
               FFT=1024pixels, 4782.788225m 
   mean-Hs (SWH_c)=2.244836121m
         mean-wind=15.81152344m/s
--------------0--------------1---------2---------3---------4---------5---------6---------7---------8---------9--------10--------11--------12--------13--------14--------15--------16--------17--------18--------19------------------20--------21--------22--------23--------24--------25--------26--------27--------28--------29--------30--------31--------32--------33--------34--------35--------36--------37--------38--------39--------40--------41--------42--------43--------44--------45--------46--------47--------48--------49--------50--------51--------52--------53--------54--------55--------56--------57--------58--------59--------60--------61--------62--------63--------64--------65--------66--------67--------68--------69--------70--------71--------72--------73
            LAT            LON  P-LENGHT     SWH_o     SWH_c     P-DIR      LINE     POINT     ROW-Y     COL-X  M-INTENC        dB      WIND INC-ANGLE  ENERGY-M  ENERGY-N  ENERGY-R ENERGY-NN  FG-DEPTH      FLAG         HEADING-DEG    E30-75   E75-390  E390-600 meanincut   meanout   cut/out  STD-NORM  SPEC-MAX   GL-MEAN    GL-VAR      CORR   ENTROPY   HOMOGEN    ENERGY  CONTRAST  DISSIMIL     STD-O    E 1-30 E600-2000   E2000 >      GODA  LONG-HIG     Tmean  CONVOLUT  MEAN-DIR  relation     Sy/Sx  SKEWNESS  KURTOSIS  cutoff-A >50/10000     INT*V   INT-LOG  S-1_g1f1  S-2_g1f2  S-3_g1f3  S-4_g2f1  S-5_g2f2  S-6_g2f3  S-7_g3f1  S-8_g3f2  S-9_g3f3 S-10_g1f4 S-11_g2f4 S-12_g3f4 S-13_g1f5 S-14_g2f5 S-15_g3f5 S-16_g4f1 S-17_g4f2 S-18_g4f3 S-19_g4f4 S-20_g4f5
--------------1--------------2---------3---------4---------5---------6---------7---------8---------9--------10--------11--------12--------13--------14--------15--------16--------17--------18--------19--------20------------------21--------22--------23--------24--------25--------26--------27--------28--------29--------30--------31--------32--------33--------34--------35--------36--------37--------38--------39--------40--------41--------42--------43--------44--------45--------46--------47--------48--------49--------50--------51--------52--------53--------54--------55--------56--------57--------58--------59--------60--------61--------62--------63--------64--------65--------66--------67--------68--------69--------70--------71--------72--------73--------74
     -63.319027    -124.244606     143.8      2.27      4.40     105.8         1         1      1000      1000    865.64   -10.627      16.0      35.5   309.809     0.592      60.4   0.09207      14.0         H               201.2  0.054996  0.025120  0.001155  2.494729  0.759000  3.286862  1.091090     18.31   16.0972  253.9876   0.13202   7.44029   0.09149   0.00103 440.91052  15.38109     944.4  0.509703  0.001017  0.000048  0.000131  0.181098  6.979678  0.595728     96.50  1.000217  1.000020     2.590    14.862     117.4      98.4     771.3    1051.5     11.95     -0.24      2.82      2.26     -1.93      4.96      3.97      0.21      1.98     -0.69     -2.03     -1.12     -0.05      2.90      2.33     -8.31     -3.89      5.74     -1.63      4.34
     -63.292881    -124.350510     149.5      2.15      4.40     104.3         1         2      1000      2284    792.68   -11.009      15.5      35.9   311.465     0.594      80.9   0.09210      15.3         H               201.2  0.055170  0.025353  0.001042  2.552548  0.737176  3.462601  1.093508     19.29   14.8419  226.5474   0.13314   7.32589   0.09785   0.00120 392.77429  14.35722     866.8  0.511739  0.001173  0.000118  0.000135  0.183751  6.986706  0.598195     95.61  1.000237  1.000022     2.620    15.241     121.0      97.8     644.6     950.6     11.92      0.17      3.81      3.36     -2.21      6.11      3.86     -0.20      1.97     -0.74     -1.55     -1.11      1.36      3.35      2.62     -6.53     -4.22      6.83     -1.40      3.69
     -63.266895    -124.455276     168.6      2.17      4.40     113.5         1         3      1000      3568    767.06   -11.152      15.6      36.2   310.738     0.595      63.6   0.09268      20.3         H               201.2  0.056399  0.026217  0.001223  2.614739  0.756995  3.454104  1.094090     17.94   14.3910  217.1926   0.13572   7.27879   0.10071   0.00129 375.43121  13.98448     839.2  0.510619  0.000879  0.000070  0.000137  0.184308  6.980606  0.599727     94.49  1.000245  1.000022     2.583    14.521     124.8      97.5     602.0     900.3     12.23     -0.47      3.34      2.37     -1.94      5.76      3.82     -0.18      1.78     -1.11     -2.25     -0.22      0.83      2.91      2.53     -8.44     -2.48      6.53     -2.71      3.22
     -63.366535    -124.302094     137.1      2.37      4.40     108.9         2         1      2454      1000    876.28   -10.574      16.1      35.5   309.305     0.593      68.7   0.09331      12.6         H               201.2  0.055459  0.026258  0.000980  2.610599  0.758168  3.443299  1.092239     16.16   16.2757  258.6621   0.13398   7.45298   0.09111   0.00101 448.01453  15.51924     957.1  0.509439  0.001073  0.000080  0.000137  0.184701  7.001730  0.597330     90.02  1.000251  1.000024     2.587    14.898     121.0      98.4     791.6    1074.5     11.88      0.29      3.32      2.95     -2.06      5.53      3.45      0.11      2.21     -0.77     -1.36     -0.70      0.48      3.43      2.80     -6.23     -4.23      6.03     -1.27      4.71
     -63.340347    -124.408134     148.6      2.28      4.40      83.9         2         2      2454      2284    820.28   -10.860      15.8      35.9   311.106     0.597      63.0   0.09453      15.1         H               201.2  0.056982  0.026724  0.000959  2.677358  0.759386  3.525687  1.096142     16.07   15.3143  237.6428   0.13534   7.36977   0.09577   0.00114 410.95880  14.73971     899.1  0.511935  0.000913  0.000065  0.000141  0.182935  6.993867  0.601902     88.99  1.000258  1.000024     2.640    15.676     124.8      98.0     693.0    1009.9     12.09      0.09      3.72      2.73     -1.36      5.03      3.10      0.00      1.87     -0.41     -1.16     -0.41      0.32      3.46      2.84     -6.49     -2.41      5.06     -0.96      4.56
     -63.314327    -124.513016     153.6      2.32      4.40     111.3         2         3      2454      3568    783.34   -11.060      15.7      36.2   310.328     0.595      59.7   0.09307      16.3         H               201.2  0.055890  0.027667  0.001063  2.795070  0.764465  3.656243  1.093982     21.17   14.6757  223.1487   0.13604   7.30806   0.09877   0.00123 385.58243  14.21052     856.9  0.509672  0.001001  0.000041  0.000143  0.186785  7.039330  0.599890     92.25  1.000282  1.000025     2.610    15.115     128.8      97.6     629.0     969.6     12.04      0.08      4.24      3.29     -1.48      6.05      3.70      0.14      2.39     -0.08     -1.48     -0.51      0.88      3.96      2.58     -6.49     -2.84      5.66     -1.51      5.24
     -63.414021    -124.359764     157.4      2.21      4.40     107.4         3         1      3908      1000    856.93   -10.671      15.9      35.5   310.489     0.596      74.9   0.09391      17.2         H               201.2  0.056895  0.024955  0.001090  2.514705  0.751485  3.346315  1.094773     18.18   15.9400  251.1975   0.13458   7.42432   0.09258   0.00105 434.78546  15.24192     938.2  0.511785  0.001263  0.000090  0.000135  0.181131  6.950696  0.600269     92.92  1.000243  1.000021     2.630    15.604     121.0      98.4     757.5    1056.6     12.02      0.65      3.37      2.51     -2.50      4.92      3.63      0.11      2.06     -0.47     -1.46     -0.93      0.21      3.05      2.18     -7.63     -5.24      4.94     -1.29      4.62
     -63.387794    -124.465935     143.8      2.28      4.40     105.8         3         2      3908      2284    822.72   -10.847      15.8      35.9   310.941     0.596      56.3   0.09341      14.0         H               201.2  0.055601  0.026351  0.001123  2.622688  0.753517  3.480597  1.094895     16.03   15.3532  238.1451   0.13410   7.37331   0.09572   0.00113 412.41824  14.76418     900.8  0.512297  0.000887  0.000039  0.000139  0.183429  6.993616  0.600281     88.88  1.000234  1.000022     2.625    15.651     124.8      98.0     696.7    1015.3     12.01      0.13      3.48      2.76     -1.32      5.88      3.87      0.17      1.72     -0.62     -0.88     -0.69      0.68      3.62      2.25     -7.55     -2.88      6.89     -0.35      4.78
     -63.361729    -124.570946     151.0      2.16      4.40     108.8         3         3      3908      3568    797.17   -10.984      15.9      36.2   308.781     0.586      79.0   0.08933      15.6         H               201.2  0.053932  0.024380  0.001061  2.412868  0.744883  3.239257  1.086395     19.26   14.9359  227.7683   0.13048   7.33822   0.09714   0.00118 396.09982  14.43991     866.0  0.506167  0.001180  0.000119  0.000131  0.182043  6.971525  0.590212     92.64  1.000207  1.000018     2.548    14.286     114.0      97.8     647.0     928.6     11.93     -0.15      3.10      2.92     -1.68      5.53      3.86      0.18      1.98     -0.83     -0.93     -0.59      0.74      2.98      2.24     -7.54     -2.65      5.75      0.03      3.62
