corner points
-115.5733337    -58.30046844
-115.6985779    -58.47039795
-115.915184    -58.22882843
-116.0420303    -58.39842987
========== RESULTS WAVE VERSION 16.10.2018 ====================
IMAGE SIZE  X: 5601     Y:4905    col:row     POLARIZATION:VV
COVERAGE    X: 21.48003192km       Y: 20.21389826km 
RESOLUTION dX: 3.835035159m       dY:4.121080176m  
resolution of original product 3.835035159m x 4.121080176m;   raster step x:5997.994988m  
===============================================================
FLAGS: H=HIGH PROBABILITY SEA STATE, I=LAND(ISLAND), O=OUTLIER NO SEA STATE, N=NO WIND AVAILABLE, SEA STATE NOT VISIBLE, M=MEAN PROBABILITY SEA STATE, L= LOW PROBABILITY SEA STATE
Filtering wave length
 integration  Lmin=1m
 integration  Lmax=2200m
  peak        Lmin=100m
               FFT=1024pixels, 3927.076003m 
   mean-Hs (SWH_c)=1.072443695m
         mean-wind=9.775309563m/s
--------------0--------------1---------2---------3---------4---------5---------6---------7---------8---------9--------10--------11--------12--------13--------14--------15--------16--------17--------18--------19------------------20--------21--------22--------23--------24--------25--------26--------27--------28--------29--------30--------31--------32--------33--------34--------35--------36--------37--------38--------39--------40--------41--------42--------43--------44--------45--------46--------47--------48--------49--------50--------51--------52--------53--------54--------55--------56--------57--------58--------59--------60--------61--------62--------63--------64--------65--------66--------67--------68--------69--------70--------71--------72--------73
            LAT            LON  P-LENGHT     SWH_o     SWH_c     P-DIR      LINE     POINT     ROW-Y     COL-X  M-INTENC        dB      WIND INC-ANGLE  ENERGY-M  ENERGY-N  ENERGY-R ENERGY-NN  FG-DEPTH      FLAG         HEADING-DEG    E30-75   E75-390  E390-600 meanincut   meanout   cut/out  STD-NORM  SPEC-MAX   GL-MEAN    GL-VAR      CORR   ENTROPY   HOMOGEN    ENERGY  CONTRAST  DISSIMIL     STD-O    E 1-30 E600-2000   E2000 >      GODA  LONG-HIG     Tmean  CONVOLUT  MEAN-DIR  relation     Sy/Sx  SKEWNESS  KURTOSIS  cutoff-A >50/10000     INT*V   INT-LOG  S-1_g1f1  S-2_g1f2  S-3_g1f3  S-4_g2f1  S-5_g2f2  S-6_g2f3  S-7_g3f1  S-8_g3f2  S-9_g3f3 S-10_g1f4 S-11_g2f4 S-12_g3f4 S-13_g1f5 S-14_g2f5 S-15_g3f5 S-16_g4f1 S-17_g4f2 S-18_g4f3 S-19_g4f4 S-20_g4f5
--------------1--------------2---------3---------4---------5---------6---------7---------8---------9--------10--------11--------12--------13--------14--------15--------16--------17--------18--------19--------20------------------21--------22--------23--------24--------25--------26--------27--------28--------29--------30--------31--------32--------33--------34--------35--------36--------37--------38--------39--------40--------41--------42--------43--------44--------45--------46--------47--------48--------49--------50--------51--------52--------53--------54--------55--------56--------57--------58--------59--------60--------61--------62--------63--------64--------65--------66--------67--------68--------69--------70--------71--------72--------73--------74
     -58.322025    -115.661751     159.2      1.01      3.16     116.9         1         1      1000      1000   3895.06    -4.095       9.3      22.4   233.472     0.804     105.5   0.20324      17.7         H               197.9  0.107069  0.052106  0.001364  5.137244  1.040748  4.936110  1.272068     57.43    7.2280   86.4065   0.28493   5.99423   0.20167   0.00654 123.57406   7.17000    4954.4  0.642944  0.001395  0.000052  0.000228  0.180048  6.947592  0.842557     96.21  1.000293  1.000042     3.744    31.135     117.4      89.2     177.6     721.0     12.29     -1.87      3.35      4.25     -2.55      5.17      1.23      0.19      1.62     -2.13     -2.63      0.09     -0.93      0.42      1.80     -4.15     -1.51      4.13     -1.40      1.23
     -58.301800    -115.758537     174.8      0.99      3.16     117.1         1         2      1000      2564   3665.56    -4.359       9.8      22.9   229.475     0.783     100.5   0.19395      22.2         H               197.9  0.100724  0.049257  0.001429  5.026502  1.011183  4.970911  1.253695     38.65    6.7910   76.3133   0.27870   5.88739   0.20913   0.00720 110.09053   6.76994    4595.1  0.630217  0.001443  0.000046  0.000215  0.179097  6.936893  0.818135     92.70  1.000298  1.000041     3.644    29.366     114.0      88.5     153.5     651.6     12.21     -1.24      3.24      3.77     -2.10      4.44      1.33      0.42      1.38     -1.35     -1.98     -0.06     -0.94      0.68      2.02     -4.66     -1.74      3.94     -1.05      1.28
     -58.281891    -115.853371     182.0      0.96      3.16     118.3         1         3      1000      4128   3547.64    -4.501      10.5      23.3   228.518     0.775     125.4   0.19034      24.5         H               197.9  0.100042  0.046608  0.001295  4.678336  0.997292  4.691039  1.248586     46.84    6.5623   71.5494   0.27640   5.82700   0.21328   0.00757 103.54692   6.56025    4429.6  0.625861  0.001809  0.000080  0.000214  0.179248  6.928230  0.809675     94.07  1.000272  1.000033     3.584    27.376     110.8      88.1     142.4     591.0     12.20     -1.67      3.25      3.88     -2.16      4.41      1.10      0.56      1.10     -1.57     -2.20      0.25     -1.24      0.26      1.75     -4.33     -1.79      3.78     -1.58      1.25
     -58.372429    -115.698944     154.5      1.17      3.16     109.2         2         1      2455      1000   4148.73    -3.821      10.1      22.4   230.185     0.786      97.7   0.19570      16.5         H               197.9  0.102038  0.051892  0.001294  5.023164  1.010561  4.970668  1.256197     52.48    7.7178   94.7775   0.27959   6.12017   0.19024   0.00566 136.55713   7.61276    5211.3  0.630068  0.001248  0.000053  0.000221  0.182065  6.972562  0.822315     97.18  1.000268  1.000036     3.616    28.762     114.0      90.1     199.2     722.6     11.99     -2.55      4.20      5.00     -2.92      5.63      1.75     -0.04      1.63     -3.25     -3.41     -0.40     -0.44      0.72      1.93     -2.93     -1.54      4.84     -1.63      0.94
     -58.352177    -115.795868     171.0      1.05      3.16     113.9         2         2      2455      2564   3562.90    -4.482       9.4      22.9   234.773     0.816      75.1   0.21078      21.0         H               197.9  0.109551  0.054421  0.001542  5.522780  1.035382  5.334052  1.278755     40.55    6.5861   74.5735   0.28914   5.82108   0.21638   0.00787 106.02312   6.57775    4555.9  0.650341  0.000828  0.000013  0.000220  0.180010  6.957082  0.854959     92.87  1.000306  1.000046     3.754    30.022     117.4      87.8     149.2     678.1     12.31     -1.58      3.87      4.00     -2.47      5.10      1.62      0.13      1.79     -2.09     -2.26      0.21     -0.70      1.10      1.95     -4.56     -1.82      3.58     -1.38      1.99
     -58.332245    -115.890831     182.0      0.96      3.16     118.3         2         3      2455      4128   3319.00    -4.790       9.7      23.3   235.071     0.813      92.7   0.20771      24.5         H               197.9  0.107522  0.051348  0.001469  5.417370  1.030180  5.258664  1.278137     34.59    6.1129   65.3398   0.28665   5.68700   0.22745   0.00897  93.21965   6.15033    4241.7  0.652052  0.001206  0.000035  0.000217  0.177272  6.956046  0.850550     93.34  1.000290  1.000042     3.870    33.450     114.0      86.7     128.5     614.9     12.24     -1.30      3.17      3.60     -1.94      4.26      1.26      0.51      1.42     -1.05     -1.64     -0.00     -1.56      0.92      1.91     -4.69     -1.91      3.62     -1.52      2.71
     -58.422821    -115.736244     166.8      1.06      3.16     110.8         3         1      3910      1000   3940.65    -4.044       9.4      22.4   235.605     0.822     136.2   0.21212      19.8         H               197.9  0.111196  0.054034  0.001375  5.370727  1.056178  5.085056  1.285535     47.61    7.3036   89.0713   0.29066   6.00791   0.20114   0.00653 126.36390   7.23656    5065.2  0.653915  0.001725  0.000097  0.000240  0.178397  6.931461  0.861551     93.54  1.000287  1.000041     3.812    31.658     121.0      89.1     184.5     732.2     12.17     -2.15      3.89      4.43     -2.49      5.23      1.56     -0.03      1.87     -2.30     -3.26     -0.60     -0.42      1.09      1.89     -3.79     -1.55      3.62     -2.07      1.66
     -58.402542    -115.833298     158.3      1.22      3.16     112.0         3         2      3910      2564   3722.11    -4.292       9.9      22.9   239.233     0.836      89.7   0.21720      17.5         H               197.9  0.111771  0.057588  0.002083  5.667022  1.067153  5.310415  1.296307     55.16    6.8830   81.0300   0.29241   5.89811   0.21037   0.00730 114.67123   6.85030    4824.3  0.663733  0.001140  0.000019  0.000232  0.183351  6.972778  0.876557     95.03  1.000291  1.000043     4.059    38.887     121.0      88.3     166.1     750.9     12.69     -1.54      3.97      2.94     -2.69      4.85      1.65      0.08      1.64     -2.39     -2.99     -0.15     -0.89      1.21      1.92     -6.70     -2.56      3.36     -1.93      2.42
     -58.382580    -115.928398     166.8      1.24      3.16     110.8         3         3      3910      4128   3393.88    -4.693       9.9      23.3   236.338     0.820     113.6   0.21088      19.8         H               197.9  0.107449  0.057580  0.001757  5.632893  1.034901  5.442931  1.284340     64.40    6.2626   68.6889   0.29027   5.72794   0.22453   0.00869  97.49991   6.28917    4358.5  0.652419  0.001586  0.000057  0.000225  0.181692  6.989423  0.859855     96.18  1.000293  1.000043     3.856    32.790     117.4      86.9     135.4     624.7     12.33     -1.92      4.23      3.95     -2.56      5.32      1.93      0.21      1.74     -2.42     -2.82     -0.31     -0.12      0.93      1.90     -5.01     -1.71      3.80     -1.15      1.23
