corner points
-102.8822937    -22.4273262
-102.9284821    -22.60112953
-103.0747299    -22.38225365
-103.1211777    -22.5559845
========== RESULTS WAVE VERSION 16.10.2018 ====================
IMAGE SIZE  X: 4460     Y:4782    col:row     POLARIZATION:VV
COVERAGE    X: 20.36390118km       Y: 19.85486108km 
RESOLUTION dX: 4.565897124m       dY:4.151999389m  
resolution of original product 4.565897124m x 4.151999389m;   raster step x:5999.588822m  
===============================================================
FLAGS: H=HIGH PROBABILITY SEA STATE, I=LAND(ISLAND), O=OUTLIER NO SEA STATE, N=NO WIND AVAILABLE, SEA STATE NOT VISIBLE, M=MEAN PROBABILITY SEA STATE, L= LOW PROBABILITY SEA STATE
Filtering wave length
 integration  Lmin=1m
 integration  Lmax=2200m
  peak        Lmin=100m
               FFT=1024pixels, 4675.478655m 
   mean-Hs (SWH_c)=0.2m
         mean-wind=7.465433121m/s
--------------0--------------1---------2---------3---------4---------5---------6---------7---------8---------9--------10--------11--------12--------13--------14--------15--------16--------17--------18--------19------------------20--------21--------22--------23--------24--------25--------26--------27--------28--------29--------30--------31--------32--------33--------34--------35--------36--------37--------38--------39--------40--------41--------42--------43--------44--------45--------46--------47--------48--------49--------50--------51--------52--------53--------54--------55--------56--------57--------58--------59--------60--------61--------62--------63--------64--------65--------66--------67--------68--------69--------70--------71--------72--------73
            LAT            LON  P-LENGHT     SWH_o     SWH_c     P-DIR      LINE     POINT     ROW-Y     COL-X  M-INTENC        dB      WIND INC-ANGLE  ENERGY-M  ENERGY-N  ENERGY-R ENERGY-NN  FG-DEPTH      FLAG         HEADING-DEG    E30-75   E75-390  E390-600 meanincut   meanout   cut/out  STD-NORM  SPEC-MAX   GL-MEAN    GL-VAR      CORR   ENTROPY   HOMOGEN    ENERGY  CONTRAST  DISSIMIL     STD-O    E 1-30 E600-2000   E2000 >      GODA  LONG-HIG     Tmean  CONVOLUT  MEAN-DIR  relation     Sy/Sx  SKEWNESS  KURTOSIS  cutoff-A >50/10000     INT*V   INT-LOG  S-1_g1f1  S-2_g1f2  S-3_g1f3  S-4_g2f1  S-5_g2f2  S-6_g2f3  S-7_g3f1  S-8_g3f2  S-9_g3f3 S-10_g1f4 S-11_g2f4 S-12_g3f4 S-13_g1f5 S-14_g2f5 S-15_g3f5 S-16_g4f1 S-17_g4f2 S-18_g4f3 S-19_g4f4 S-20_g4f5
--------------1--------------2---------3---------4---------5---------6---------7---------8---------9--------10--------11--------12--------13--------14--------15--------16--------17--------18--------19--------20------------------21--------22--------23--------24--------25--------26--------27--------28--------29--------30--------31--------32--------33--------34--------35--------36--------37--------38--------39--------40--------41--------42--------43--------44--------45--------46--------47--------48--------49--------50--------51--------52--------53--------54--------55--------56--------57--------58--------59--------60--------61--------62--------63--------64--------65--------66--------67--------68--------69--------70--------71--------72--------73--------74
     -22.453472    -102.935623     101.2      0.50      1.32      60.0         1         1      1000      1000    289.39   -15.385       8.4      36.5   231.547     0.524      36.7   0.05777       6.5         H               192.4  0.038806  0.011996  0.000524  1.103216  0.646727  1.705844  1.027034      7.14    5.3047   35.1870   0.07981   5.50868   0.21423   0.00796  64.75740   5.60149     297.2  0.472002  0.000547  0.000056  0.000103  0.163115  6.777364  0.525768     66.01  1.000001  0.999999     2.152    10.250      63.2      87.7      72.1     263.2     11.06      1.69     -1.96      0.87     -0.94     -0.67      2.38      1.42     -0.14     -0.32      0.29      0.12     -1.17      0.53     -0.26     -8.92     -3.96      1.43      1.60      1.81
     -22.440145    -102.992561     104.4      0.47      1.32      60.6         1         2      1000      2314    250.86   -16.006       7.8      36.9   233.681     0.528     125.3   0.05786       7.0         H               192.4  0.038305  0.011881  0.000464  1.089550  0.637418  1.709317  1.031314      6.91    4.5329   26.6799   0.07892   5.22270   0.24004   0.01066  49.14803   4.86302     258.7  0.475285  0.001645  0.000331  0.000099  0.165457  6.796360  0.529806     62.69  1.000039  1.000002     2.170    10.444      68.7      85.2      54.3     249.8     10.88      1.58     -1.38      1.43     -0.37     -1.39      2.20      1.30      0.80      0.06     -0.11      0.81     -1.48      0.16      0.17     -7.66     -2.69     -1.69      0.12      0.78
     -22.426912    -103.048996     100.5      0.44      1.32      61.8         1         3      1000      3628    216.87   -16.638       7.2      37.2   234.003     0.525      51.9   0.05430       6.4         H               192.4  0.037266  0.011311  0.000441  1.043221  0.622260  1.676503  1.028011      5.85    3.8590   19.7891   0.06855   4.93552   0.26648   0.01403  36.86515   4.21395     222.9  0.475221  0.000737  0.000098  0.000097  0.164653  6.788568  0.526456     63.65  1.000019  1.000001     2.150    10.210      71.1      82.6      40.8     200.3     10.93      1.75     -1.32      1.46     -0.52     -1.50      2.08      1.31      0.39     -0.13      0.01      0.86     -1.36      0.23      0.06     -7.50     -2.98     -0.86      0.31      1.03
     -22.505999    -102.949593     103.8      0.46      1.32      65.5         2         1      2445      1000    259.62   -15.857       7.7      36.5   231.532     0.521      31.6   0.05554       6.9         H               192.4  0.038052  0.011729  0.000371  1.073921  0.632391  1.698192  1.024758      8.36    4.7129   28.2099   0.07401   5.29403   0.23296   0.00982  52.24420   5.03287     266.0  0.470879  0.000432  0.000042  0.000101  0.164154  6.794906  0.523261     63.72  1.000013  1.000000     2.118     9.871      67.5      86.1      57.8     235.8     10.81      2.36     -1.80      1.73     -0.90     -1.14      1.80      0.95      0.50     -0.01     -0.07      0.19     -1.27      0.71     -0.36     -6.32     -3.57     -0.53      0.50      2.21
     -22.492664    -103.006561     102.7      0.46      1.32      67.3         2         2      2445      2314    245.63   -16.097       7.6      36.9   234.048     0.529      95.6   0.05812       6.7         H               192.4  0.038758  0.012506  0.000513  1.156796  0.637844  1.813605  1.032463      8.04    4.4295   25.6414   0.07947   5.18104   0.24412   0.01112  47.20760   4.76040     253.6  0.476066  0.001257  0.000252  0.000104  0.164954  6.814465  0.531432     65.16  1.000016  1.000000     2.174    10.357      66.4      84.8      52.2     228.3     10.97      1.83     -1.85      1.16     -0.23     -0.98      2.37      0.83      0.53      0.25     -0.07      0.47     -1.01      0.16      0.10     -8.37     -2.20      0.30      0.03      0.51
     -22.479425    -103.063011     110.4      0.44      1.32      67.1         2         3      2445      3628    218.06   -16.614       7.2      37.2   233.191     0.524      32.4   0.05463       7.8         H               192.4  0.037568  0.011889  0.000443  1.108201  0.630433  1.757839  1.026528      7.41    3.8828   19.9569   0.06933   4.94654   0.26572   0.01389  37.14665   4.23096     223.9  0.473336  0.000544  0.000033  0.000107  0.161997  6.805752  0.525331     65.58  1.000031  1.000002     2.126     9.930      72.4      82.7      41.1     195.6     10.69      1.79     -1.39      1.62     -0.51     -1.11      2.68      1.38      0.67      0.50     -0.27      0.99     -1.17      0.56     -0.26     -7.33     -2.64     -0.78     -0.87      1.71
     -22.558523    -102.963577     101.5      0.45      1.32      69.0         3         1      3890      1000    252.10   -15.984       7.5      36.5   234.129     0.528      37.5   0.05779       6.6         H               192.4  0.039425  0.012912  0.000438  1.229501  0.642114  1.914769  1.031707      9.91    4.5632   26.9504   0.07827   5.23489   0.23873   0.01051  49.68180   4.89181     260.1  0.475142  0.000455  0.000060  0.000113  0.163890  6.816053  0.530394     66.33  1.000017  1.000001     2.152    10.132      66.4      85.4      54.9     225.4     10.96      1.88     -1.57      1.42     -0.88     -1.09      1.93      1.74      0.48      0.05     -0.23      0.97     -1.61      0.28     -0.31     -7.09     -4.00     -0.15     -0.51      1.85
     -22.545181    -103.020561     101.6      0.41      1.32      63.0         3         2      3890      2314    211.14   -16.754       6.7      36.9   234.631     0.527      57.1   0.05481       6.6         H               192.4  0.037984  0.012214  0.000481  1.150245  0.634148  1.813843  1.029794      7.22    3.7424   18.8326   0.07009   4.88092   0.27279   0.01488  35.02518   4.09887     217.5  0.475114  0.000991  0.000095  0.000107  0.161729  6.797641  0.528819     65.42  1.000027  1.000001     2.164    10.376      72.4      82.1      38.8     197.3     10.73      1.76     -1.36      1.57     -0.09     -1.74      2.56      1.25      0.96      0.24     -0.43      1.00     -1.10      0.01     -0.52     -7.99     -2.21     -2.15     -0.71      1.24
     -22.531939    -103.077042     101.5      0.43      1.32      69.0         3         3      3890      3628    212.52   -16.726       7.1      37.2   234.046     0.525      44.6   0.05432       6.6         H               192.4  0.037874  0.012128  0.000398  1.154176  0.628044  1.837731  1.028087      6.43    3.7725   19.0091   0.06902   4.89530   0.27102   0.01463  35.39425   4.12330     218.5  0.474326  0.000657  0.000076  0.000107  0.160118  6.797081  0.527161     66.49  1.000034  1.000001     2.154    10.260      73.8      82.2      39.2     195.9     10.64      1.81     -1.45      1.92     -0.18     -1.28      2.43      1.38      0.73      0.32     -0.14      0.70     -1.37      0.38     -0.56     -6.54     -2.06     -1.09     -0.21      1.99
