corner points
-108.0770111    -44.66841507
-108.1482468    -44.84427261
-108.3343811    -44.6133728
-108.4065094    -44.7890625
========== RESULTS WAVE VERSION 16.10.2018 ====================
IMAGE SIZE  X: 5601     Y:4911    col:row     POLARIZATION:VV
COVERAGE    X: 21.22175212km       Y: 20.30345954km 
RESOLUTION dX: 3.788921999m       dY:4.13428213m  
resolution of original product 3.788921999m x 4.13428213m;   raster step x:5997.863524m  
===============================================================
FLAGS: H=HIGH PROBABILITY SEA STATE, I=LAND(ISLAND), O=OUTLIER NO SEA STATE, N=NO WIND AVAILABLE, SEA STATE NOT VISIBLE, M=MEAN PROBABILITY SEA STATE, L= LOW PROBABILITY SEA STATE
Filtering wave length
 integration  Lmin=1m
 integration  Lmax=2200m
  peak        Lmin=100m
               FFT=1024pixels, 3879.856127m 
   mean-Hs (SWH_c)=4.413519897m
         mean-wind=12.14712048m/s
--------------0--------------1---------2---------3---------4---------5---------6---------7---------8---------9--------10--------11--------12--------13--------14--------15--------16--------17--------18--------19------------------20--------21--------22--------23--------24--------25--------26--------27--------28--------29--------30--------31--------32--------33--------34--------35--------36--------37--------38--------39--------40--------41--------42--------43--------44--------45--------46--------47--------48--------49--------50--------51--------52--------53--------54--------55--------56--------57--------58--------59--------60--------61--------62--------63--------64--------65--------66--------67--------68--------69--------70--------71--------72--------73
            LAT            LON  P-LENGHT     SWH_o     SWH_c     P-DIR      LINE     POINT     ROW-Y     COL-X  M-INTENC        dB      WIND INC-ANGLE  ENERGY-M  ENERGY-N  ENERGY-R ENERGY-NN  FG-DEPTH      FLAG         HEADING-DEG    E30-75   E75-390  E390-600 meanincut   meanout   cut/out  STD-NORM  SPEC-MAX   GL-MEAN    GL-VAR      CORR   ENTROPY   HOMOGEN    ENERGY  CONTRAST  DISSIMIL     STD-O    E 1-30 E600-2000   E2000 >      GODA  LONG-HIG     Tmean  CONVOLUT  MEAN-DIR  relation     Sy/Sx  SKEWNESS  KURTOSIS  cutoff-A >50/10000     INT*V   INT-LOG  S-1_g1f1  S-2_g1f2  S-3_g1f3  S-4_g2f1  S-5_g2f2  S-6_g2f3  S-7_g3f1  S-8_g3f2  S-9_g3f3 S-10_g1f4 S-11_g2f4 S-12_g3f4 S-13_g1f5 S-14_g2f5 S-15_g3f5 S-16_g4f1 S-17_g4f2 S-18_g4f3 S-19_g4f4 S-20_g4f5
--------------1--------------2---------3---------4---------5---------6---------7---------8---------9--------10--------11--------12--------13--------14--------15--------16--------17--------18--------19--------20------------------21--------22--------23--------24--------25--------26--------27--------28--------29--------30--------31--------32--------33--------34--------35--------36--------37--------38--------39--------40--------41--------42--------43--------44--------45--------46--------47--------48--------49--------50--------51--------52--------53--------54--------55--------56--------57--------58--------59--------60--------61--------62--------63--------64--------65--------66--------67--------68--------69--------70--------71--------72--------73--------74
     -44.694168    -108.138809     236.4      4.50      4.86     102.9         1         1      1000      1000   4585.17    -3.386      12.3      22.7   327.227     0.986     299.8   0.28520      54.5         H               194.3  0.117989  0.139699  0.003651  7.330224  1.133913  6.464539  1.407436    285.50    8.4343  126.0051   0.34326   6.20303   0.19684   0.00613 165.50549   8.15584    6453.1  0.722172  0.003433  0.000139  0.000370  0.235942  7.607624  1.056192     96.22  1.000499  1.000087     4.379    40.937     181.9      89.4     287.8     965.8     15.34     -1.75     14.48      3.18     -0.35      5.82     -2.93      1.57     -4.48     -2.95     -0.36      2.44      9.40      4.30     -2.79     -4.68     -0.40      1.56      0.01      1.94
     -44.678444    -108.212486     251.3      4.68      4.86     103.7         1         2      1000      2583   4758.52    -3.225      14.2      23.2   321.565     0.955     308.4   0.26958      74.0         H               194.3  0.110034  0.132497  0.003761  7.241647  1.118562  6.474070  1.385087    295.43    8.7653  130.1953   0.33417   6.28755   0.18699   0.00537 173.37529   8.44487    6590.0  0.705824  0.003956  0.000168  0.000361  0.238748  7.651552  1.021931     97.70  1.000485  1.000079     4.480    47.825     174.0      90.3     303.0    1008.6     15.65     -2.29     14.28      2.48     -0.30      5.38     -3.58      1.87     -5.64     -4.15      0.12      2.55      8.91      3.46     -2.64     -5.43     -0.58      2.70      1.09      0.79
     -44.662971    -108.284737     254.4      4.27      4.86     100.4         1         3      1000      4166   4109.10    -3.863      13.3      23.6   320.381     0.963     259.0   0.27503      80.9         H               194.3  0.115808  0.128632  0.003564  7.337076  1.148553  6.388105  1.391526    231.46    7.5821  103.8903   0.33441   6.02819   0.20840   0.00711 138.29677   7.41402    5717.9  0.712717  0.002706  0.000128  0.000327  0.235938  7.570609  1.029555     94.71  1.000483  1.000077     4.592    49.102     174.0      88.4     226.2     922.6     15.55     -1.64     14.14      2.38     -0.09      4.87     -3.00      1.55     -4.57     -2.86      0.35      2.09      8.56      3.25     -2.23     -5.47     -0.44      1.49      0.93      0.96
     -44.746128    -108.159889     236.4      4.23      4.86     102.9         2         1      2451      1000   3784.70    -4.220       9.7      22.7   345.762     1.074     238.5   0.32447      54.5         H               194.3  0.135525  0.153475  0.003776  8.680639  1.254447  6.919896  1.467326    250.19    6.9207   95.7189   0.35570   5.82827   0.23033   0.00925 123.34382   6.81428    5553.1  0.779174  0.002680  0.000049  0.000359  0.228249  7.549365  1.153435     96.44  1.000451  1.000086     5.051    57.819     181.9      86.3     205.8     932.8     14.83     -1.26     13.64      3.92     -0.72      6.75     -1.71      0.70     -2.87     -2.46     -1.03      1.25      8.38      5.06     -1.19     -4.11     -0.37      2.77     -0.19      2.84
     -44.730392    -108.233643     223.1      4.38      4.86     102.2         2         2      2451      2583   4230.18    -3.736      12.4      23.2   328.099     0.987     261.2   0.28416      44.0         H               194.3  0.118506  0.136479  0.003312  7.510059  1.148046  6.541600  1.408419    231.49    7.7859  110.4615   0.34053   6.06374   0.20814   0.00706 145.69211   7.58798    5956.9  0.725999  0.003280  0.000087  0.000348  0.236526  7.620050  1.055756     93.42  1.000482  1.000082     4.546    45.566     174.0      88.4     243.7     932.6     15.37     -1.21     14.25      3.33      0.09      5.99     -3.21      1.46     -4.69     -2.35      0.53      1.91      8.94      4.46     -2.36     -4.31     -0.53      2.26      0.89      1.96
     -44.714909    -108.305969     251.3      4.35      4.86     103.7         2         3      2451      4166   4169.23    -3.799      13.5      23.6   322.466     0.958     246.7   0.27030      74.0         H               194.3  0.113322  0.128687  0.003509  7.322438  1.122573  6.522904  1.386687    250.91    7.6821  105.7580   0.33108   6.05359   0.20583   0.00686 141.48679   7.51222    5781.0  0.710549  0.002675  0.000096  0.000344  0.235909  7.576743  1.022463     94.62  1.000516  1.000082     4.487    44.692     174.0      88.7     231.5     887.0     15.65     -1.58     14.37      2.31      0.34      5.02     -3.08      1.27     -4.67     -2.87      0.80      2.18      9.35      3.62     -2.24     -5.74      0.23      1.26      0.90      0.51
     -44.798088    -108.181007     239.0      4.41      4.86      99.8         3         1      3902      1000   3793.05    -4.210       9.7      22.7   342.599     1.060     242.3   0.32038      57.1         H               194.3  0.131106  0.156254  0.004180  8.254175  1.222360  6.752657  1.459293    349.23    6.9456   95.9362   0.35601   5.83500   0.22986   0.00924 123.56248   6.82988    5534.9  0.767300  0.002540  0.000037  0.000365  0.231617  7.590357  1.138174     96.99  1.000482  1.000089     4.894    52.138     181.9      86.3     205.0     885.0     15.18     -1.75     13.98      3.50     -0.12      6.40     -2.29      1.24     -3.73     -2.91     -0.33      2.01      9.19      4.37     -2.04     -4.68      0.07      2.38      0.29      1.50
     -44.782337    -108.254837     271.9      4.60      4.86     101.1         3         2      3902      2583   3859.74    -4.134      11.2      23.2   336.416     1.029     393.6   0.30472     100.0         H               194.3  0.125360  0.151826  0.004325  7.524863  1.193053  6.307230  1.439169    319.10    7.0983   98.0404   0.35137   5.88131   0.22591   0.00879 127.18405   6.96946    5554.7  0.743088  0.004750  0.000265  0.000373  0.234829  7.632233  1.104616     97.67  1.000485  1.000088     4.929    61.522     190.7      86.7     208.3     948.3     15.40     -1.95     14.25      2.56     -0.45      5.24     -2.22      1.95     -3.35     -3.72      0.02      2.75      8.76      4.04     -1.70     -5.71     -1.01      0.70      0.62      1.94
     -44.766838    -108.327232     236.4      4.30      4.86     102.9         3         3      3902      4166   4024.69    -3.953      13.0      23.6   323.521     0.965     226.9   0.27509      54.5         H               194.3  0.116057  0.130947  0.003326  7.353700  1.121359  6.557849  1.392686    246.26    7.4110   99.8848   0.33353   5.98804   0.21154   0.00739 133.14064   7.26093    5604.7  0.713680  0.002345  0.000071  0.000336  0.232522  7.574887  1.031934     96.02  1.000447  1.000074     4.773    56.750     174.0      88.1     215.8     914.7     15.25     -1.10     14.13      2.87      0.29      5.05     -2.51      1.21     -3.69     -2.11      0.60      1.95      8.64      3.46     -1.53     -4.63      0.15      1.21      0.74      0.93
