corner points
-122.3100128    -61.71547318
-122.4796371    -61.87345886
-122.661377    -61.62950134
-122.8324127    -61.7870636
========== RESULTS WAVE VERSION 16.10.2018 ====================
IMAGE SIZE  X: 4460     Y:4765    col:row     POLARIZATION:VV
COVERAGE    X: 20.81362766km       Y: 19.65721806km 
RESOLUTION dX: 4.666732658m       dY:4.125334324m  
resolution of original product 4.666732658m x 4.125334324m;   raster step x:5996.751466m  
===============================================================
FLAGS: H=HIGH PROBABILITY SEA STATE, I=LAND(ISLAND), O=OUTLIER NO SEA STATE, N=NO WIND AVAILABLE, SEA STATE NOT VISIBLE, M=MEAN PROBABILITY SEA STATE, L= LOW PROBABILITY SEA STATE
Filtering wave length
 integration  Lmin=1m
 integration  Lmax=2200m
  peak        Lmin=100m
               FFT=1024pixels, 4778.734242m 
   mean-Hs (SWH_c)=2.445270386m
         mean-wind=16.85926056m/s
--------------0--------------1---------2---------3---------4---------5---------6---------7---------8---------9--------10--------11--------12--------13--------14--------15--------16--------17--------18--------19------------------20--------21--------22--------23--------24--------25--------26--------27--------28--------29--------30--------31--------32--------33--------34--------35--------36--------37--------38--------39--------40--------41--------42--------43--------44--------45--------46--------47--------48--------49--------50--------51--------52--------53--------54--------55--------56--------57--------58--------59--------60--------61--------62--------63--------64--------65--------66--------67--------68--------69--------70--------71--------72--------73
            LAT            LON  P-LENGHT     SWH_o     SWH_c     P-DIR      LINE     POINT     ROW-Y     COL-X  M-INTENC        dB      WIND INC-ANGLE  ENERGY-M  ENERGY-N  ENERGY-R ENERGY-NN  FG-DEPTH      FLAG         HEADING-DEG    E30-75   E75-390  E390-600 meanincut   meanout   cut/out  STD-NORM  SPEC-MAX   GL-MEAN    GL-VAR      CORR   ENTROPY   HOMOGEN    ENERGY  CONTRAST  DISSIMIL     STD-O    E 1-30 E600-2000   E2000 >      GODA  LONG-HIG     Tmean  CONVOLUT  MEAN-DIR  relation     Sy/Sx  SKEWNESS  KURTOSIS  cutoff-A >50/10000     INT*V   INT-LOG  S-1_g1f1  S-2_g1f2  S-3_g1f3  S-4_g2f1  S-5_g2f2  S-6_g2f3  S-7_g3f1  S-8_g3f2  S-9_g3f3 S-10_g1f4 S-11_g2f4 S-12_g3f4 S-13_g1f5 S-14_g2f5 S-15_g3f5 S-16_g4f1 S-17_g4f2 S-18_g4f3 S-19_g4f4 S-20_g4f5
--------------1--------------2---------3---------4---------5---------6---------7---------8---------9--------10--------11--------12--------13--------14--------15--------16--------17--------18--------19--------20------------------21--------22--------23--------24--------25--------26--------27--------28--------29--------30--------31--------32--------33--------34--------35--------36--------37--------38--------39--------40--------41--------42--------43--------44--------45--------46--------47--------48--------49--------50--------51--------52--------53--------54--------55--------56--------57--------58--------59--------60--------61--------62--------63--------64--------65--------66--------67--------68--------69--------70--------71--------72--------73--------74
     -61.729195    -122.425484     152.5      2.42      4.43     106.8         1         1      1000      1000    913.33   -10.394      16.4      35.5   308.106     0.595     112.1   0.09420      16.0         H               200.1  0.056397  0.025994  0.001201  2.614216  0.746242  3.503174  1.094508     12.88   16.8830  272.3611   0.13515   7.49875   0.08873   0.00095 471.10419  15.98752     999.6  0.509795  0.001926  0.000183  0.000141  0.183243  6.978037  0.599944     86.96  1.000244  1.000022     2.614    15.573     124.8      98.7     864.1    1093.4     12.09      1.07      3.86      2.55     -1.58      5.28      3.94      0.92      1.90      0.22     -0.36      0.05      0.12      3.41      2.11     -8.15     -4.76      5.64     -0.63      5.53
     -61.704323    -122.527313     142.3      2.43      4.43     107.6         1         2      1000      2285    905.76   -10.430      16.7      35.9   308.056     0.597      92.7   0.09449      13.7         H               200.1  0.057096  0.025984  0.001238  2.588766  0.760331  3.404787  1.096010     16.24   16.7470  269.4764   0.13641   7.48745   0.08956   0.00096 465.43314  15.86719     992.7  0.511378  0.001398  0.000153  0.000143  0.183532  6.973826  0.602161     88.93  1.000229  1.000019     2.608    15.301     128.8      98.6     850.9    1056.3     12.13      1.30      3.66      2.48     -1.62      5.43      3.95      0.58      1.86      0.26     -0.15     -0.71      0.36      3.26      2.29     -8.29     -4.76      6.06      0.02      4.71
     -61.679607    -122.628059     149.0      2.46      4.43     110.7         1         3      1000      3570    882.17   -10.544      16.8      36.3   308.550     0.598     110.1   0.09499      15.2         H               200.1  0.056454  0.026320  0.001451  2.651715  0.754222  3.515828  1.096647     15.38   16.3525  261.0232   0.13709   7.45650   0.09109   0.00101 450.47998  15.56663     967.4  0.511498  0.002146  0.000144  0.000145  0.182893  6.992465  0.602992     87.01  1.000266  1.000023     2.591    14.487     133.1      98.4     806.4    1002.5     12.46      1.43      3.93      1.51     -1.71      4.89      4.01      0.87      1.14      0.85     -0.71     -0.43     -0.17      3.59      1.85    -10.64     -5.76      5.63     -1.41      5.86
     -61.777390    -122.477287     143.7      2.42      4.43     105.8         2         1      2454      1000    945.56   -10.243      16.7      35.5   306.987     0.593      89.8   0.09335      14.0         H               200.1  0.056167  0.024943  0.001370  2.471454  0.748845  3.300354  1.092745     12.49   17.4099  283.7546   0.13341   7.53527   0.08695   0.00090 491.79611  16.40271    1033.3  0.509513  0.001614  0.000107  0.000135  0.183123  6.961170  0.598233     86.34  1.000223  1.000019     2.563    14.263     121.0      98.9     927.0    1075.4     12.53      1.68      3.35      1.30     -2.25      4.74      3.62      0.76      0.98      0.23     -0.66     -0.18      0.11      2.60      2.14    -10.54     -6.26      5.57     -1.16      3.77
     -61.752483    -122.579239     140.8      2.47      4.43     103.5         2         2      2454      2285    936.29   -10.286      17.0      35.9   308.987     0.596      85.3   0.09407      13.3         H               200.1  0.056589  0.025435  0.001138  2.524398  0.758463  3.328306  1.095119     17.22   17.2513  280.0327   0.13233   7.52462   0.08727   0.00091 485.94812  16.27977    1025.4  0.511618  0.001397  0.000118  0.000138  0.183593  6.963463  0.600499     88.09  1.000220  1.000020     2.634    15.880     124.8      98.9     910.0    1124.6     12.21      1.18      3.35      2.09     -1.42      5.18      3.75      0.45      1.80      0.58     -0.53     -0.16     -0.13      3.13      2.60     -8.33     -3.75      6.01     -1.08      4.59
     -61.727730    -122.680107     143.7      2.45      4.43     105.8         2         3      2454      3570    915.76   -10.382      17.1      36.3   306.946     0.591      98.1   0.09281      14.0         H               200.1  0.055325  0.024895  0.001247  2.480052  0.752484  3.295820  1.090866     22.41   16.9282  272.4871   0.13237   7.50502   0.08824   0.00094 472.83344  16.03347     999.0  0.508329  0.001764  0.000133  0.000140  0.182989  6.968340  0.595819     92.72  1.000205  1.000019     2.577    14.755     124.8      98.7     866.1    1103.2     12.15      1.02      3.50      2.22     -1.65      5.18      4.15      0.04      1.99      0.01     -0.87     -0.77      0.43      3.01      2.36     -9.12     -4.11      5.41     -1.12      4.09
     -61.825565    -122.529236     150.8      2.47      4.43     108.7         3         1      3908      1000    958.54   -10.184      16.8      35.5   306.693     0.591      88.7   0.09263      15.6         H               200.1  0.055512  0.025066  0.001163  2.506948  0.741494  3.380944  1.090215     15.65   17.6318  288.0817   0.13091   7.55071   0.08591   0.00088 500.73706  16.58253    1045.0  0.507428  0.001661  0.000108  0.000132  0.183162  6.969612  0.594777     90.41  1.000202  1.000017     2.571    14.973     117.4      99.0     950.0    1123.7     12.11      1.06      3.54      2.31     -2.12      4.99      3.87      0.44      1.92      0.27     -1.24     -0.36      0.21      2.92      2.01     -8.53     -5.06      5.25     -1.88      4.89
     -61.800625    -122.631317     134.0      2.44      4.43     101.0         3         2      3908      2285    944.38   -10.249      17.0      35.9   307.070     0.593      74.7   0.09317      11.9         H               200.1  0.056086  0.024607  0.001215  2.441004  0.753801  3.238260  1.092163     14.70   17.3919  282.4900   0.13110   7.53651   0.08666   0.00090 490.90997  16.39253    1031.4  0.509927  0.001331  0.000072  0.000133  0.182465  6.959829  0.597277     89.22  1.000222  1.000020     2.603    15.272     124.8      98.9     923.5    1138.3     12.45      1.40      3.02      1.59     -1.51      5.10      3.50      0.45      1.25      0.66     -0.64     -0.60      0.33      2.57      2.13     -9.68     -4.52      6.31     -1.20      3.39
     -61.775833    -122.732307     165.6      2.46      4.43      69.3         3         3      3908      3570    926.62   -10.331      17.2      36.3   304.833     0.586      76.8   0.09089      19.4         H               200.1  0.054426  0.024394  0.001141  2.449827  0.746408  3.282154  1.086262     14.91   17.1224  276.0844   0.13019   7.52105   0.08724   0.00092 480.28503  16.18745    1006.6  0.505375  0.001279  0.000103  0.000133  0.182562  6.966226  0.590436     86.80  1.000237  1.000020     2.521    13.693     121.0      98.8     883.1    1021.0     12.13      1.35      3.66      2.44     -1.03      5.06      3.74      0.45      1.35      0.86     -0.19      0.13      0.39      3.21      1.80     -8.56     -3.37      5.56     -1.16      5.03
