corner points
103.9263916    -11.78794003
103.8866501    -11.60847092
104.1071396    -11.74796867
104.0672226    -11.5685482
========== RESULTS WAVE VERSION 16.10.2018 ====================
IMAGE SIZE  X: 5471     Y:4901    col:row     POLARIZATION:VV
COVERAGE    X: 20.12277473km       Y: 20.37361589km 
RESOLUTION dX: 3.678079826m       dY:4.15703242m  
resolution of original product 3.678079826m x 4.15703242m;   raster step x:5998.948197m  
===============================================================
FLAGS: H=HIGH PROBABILITY SEA STATE, I=LAND(ISLAND), O=OUTLIER NO SEA STATE, N=NO WIND AVAILABLE, SEA STATE NOT VISIBLE, M=MEAN PROBABILITY SEA STATE, L= LOW PROBABILITY SEA STATE
Filtering wave length
 integration  Lmin=1m
 integration  Lmax=2200m
  peak        Lmin=100m
               FFT=1024pixels, 3766.353742m 
   mean-Hs (SWH_c)=-nanm
         mean-wind=-nanm/s
--------------0--------------1---------2---------3---------4---------5---------6---------7---------8---------9--------10--------11--------12--------13--------14--------15--------16--------17--------18--------19------------------20--------21--------22--------23--------24--------25--------26--------27--------28--------29--------30--------31--------32--------33--------34--------35--------36--------37--------38--------39--------40--------41--------42--------43--------44--------45--------46--------47--------48--------49--------50--------51--------52--------53--------54--------55--------56--------57--------58--------59--------60--------61--------62--------63--------64--------65--------66--------67--------68--------69--------70--------71--------72--------73
            LAT            LON  P-LENGHT     SWH_o     SWH_c     P-DIR      LINE     POINT     ROW-Y     COL-X  M-INTENC        dB      WIND INC-ANGLE  ENERGY-M  ENERGY-N  ENERGY-R ENERGY-NN  FG-DEPTH      FLAG         HEADING-DEG    E30-75   E75-390  E390-600 meanincut   meanout   cut/out  STD-NORM  SPEC-MAX   GL-MEAN    GL-VAR      CORR   ENTROPY   HOMOGEN    ENERGY  CONTRAST  DISSIMIL     STD-O    E 1-30 E600-2000   E2000 >      GODA  LONG-HIG     Tmean  CONVOLUT  MEAN-DIR  relation     Sy/Sx  SKEWNESS  KURTOSIS  cutoff-A >50/10000     INT*V   INT-LOG  S-1_g1f1  S-2_g1f2  S-3_g1f3  S-4_g2f1  S-5_g2f2  S-6_g2f3  S-7_g3f1  S-8_g3f2  S-9_g3f3 S-10_g1f4 S-11_g2f4 S-12_g3f4 S-13_g1f5 S-14_g2f5 S-15_g3f5 S-16_g4f1 S-17_g4f2 S-18_g4f3 S-19_g4f4 S-20_g4f5
--------------1--------------2---------3---------4---------5---------6---------7---------8---------9--------10--------11--------12--------13--------14--------15--------16--------17--------18--------19--------20------------------21--------22--------23--------24--------25--------26--------27--------28--------29--------30--------31--------32--------33--------34--------35--------36--------37--------38--------39--------40--------41--------42--------43--------44--------45--------46--------47--------48--------49--------50--------51--------52--------53--------54--------55--------56--------57--------58--------59--------60--------61--------62--------63--------64--------65--------66--------67--------68--------69--------70--------71--------72--------73--------74
     -11.743831     103.952164       0.0      0.00      0.00       0.0         1         1      1000      1000      0.00     0.000       0.0      23.5     0.000     0.000       0.0   0.00000       0.0         O               347.9  0.000000  0.000000  0.000000  0.000000  0.000000  0.000000  0.000000      0.00    0.0000    0.0000   0.00000   0.00000   0.00000   0.00000   0.00000   0.00000       0.0  0.000000  0.000000  0.000000  0.000000  0.000000  0.000000  0.000000      0.00  0.000000  0.000000     0.000     0.000       0.0       0.0       0.0       0.0      0.00      0.00      0.00      0.00      0.00      0.00      0.00      0.00      0.00      0.00      0.00      0.00      0.00      0.00      0.00      0.00      0.00      0.00      0.00      0.00
     -11.731801     104.006592       0.0      0.00      0.00       0.0         1         2      1000      2631      0.00     0.000       0.0      23.9     0.000     0.000       0.0   0.00000       0.0         O               347.9  0.000000  0.000000  0.000000  0.000000  0.000000  0.000000  0.000000      0.00    0.0000    0.0000   0.00000   0.00000   0.00000   0.00000   0.00000   0.00000       0.0  0.000000  0.000000  0.000000  0.000000  0.000000  0.000000  0.000000      0.00  0.000000  0.000000     0.000     0.000       0.0       0.0       0.0       0.0      0.00      0.00      0.00      0.00      0.00      0.00      0.00      0.00      0.00      0.00      0.00      0.00      0.00      0.00      0.00      0.00      0.00      0.00      0.00      0.00
     -11.719980     104.060020       0.0      0.00      0.00       0.0         1         3      1000      4262      0.00     0.000       0.0      24.4     0.000     0.000       0.0   0.00000       0.0         O               347.9  0.000000  0.000000  0.000000  0.000000  0.000000  0.000000  0.000000      0.00    0.0000    0.0000   0.00000   0.00000   0.00000   0.00000   0.00000   0.00000       0.0  0.000000  0.000000  0.000000  0.000000  0.000000  0.000000  0.000000      0.00  0.000000  0.000000     0.000     0.000       0.0       0.0       0.0       0.0      0.00      0.00      0.00      0.00      0.00      0.00      0.00      0.00      0.00      0.00      0.00      0.00      0.00      0.00      0.00      0.00      0.00      0.00      0.00      0.00
     -11.690982     103.940445       0.0      0.00      0.00       0.0         2         1      2443      1000      0.00     0.000       0.0      23.5     0.000     0.000       0.0   0.00000       0.0         O               347.9  0.000000  0.000000  0.000000  0.000000  0.000000  0.000000  0.000000      0.00    0.0000    0.0000   0.00000   0.00000   0.00000   0.00000   0.00000   0.00000       0.0  0.000000  0.000000  0.000000  0.000000  0.000000  0.000000  0.000000      0.00  0.000000  0.000000     0.000     0.000       0.0       0.0       0.0       0.0      0.00      0.00      0.00      0.00      0.00      0.00      0.00      0.00      0.00      0.00      0.00      0.00      0.00      0.00      0.00      0.00      0.00      0.00      0.00      0.00
     -11.678956     103.994858     375.2      0.12      0.22      84.9         2         2      2443      2631    287.45   -15.414       1.6      23.9   517.273     1.107    2533.1   0.35207     100.0         N               347.9  0.120399  0.160887  0.032372 11.576211  1.749710  6.616072  1.488251    154.21    0.2402    0.6157   0.35161   1.08637   0.87676   0.61164   0.79848   0.32017     427.7  0.732518  0.059078  0.002067  0.000150  0.216547  7.468877  1.217932     80.15  1.000444  1.000025     5.108    51.945     110.8      14.7       1.1      61.8     15.53     -1.78      2.57     -9.18      1.59     -3.49      6.32     -0.49      2.24      0.31      1.11     -0.84     -0.43      0.86     -0.76    -37.91      5.84    -10.80      3.24      2.02
     -11.667141     104.048271       0.0      0.00      0.00       0.0         2         3      2443      4262      0.00     0.000       0.0      24.4     0.000     0.000       0.0   0.00000       0.0         O               347.9  0.000000  0.000000  0.000000  0.000000  0.000000  0.000000  0.000000      0.00    0.0000    0.0000   0.00000   0.00000   0.00000   0.00000   0.00000   0.00000       0.0  0.000000  0.000000  0.000000  0.000000  0.000000  0.000000  0.000000      0.00  0.000000  0.000000     0.000     0.000       0.0       0.0       0.0       0.0      0.00      0.00      0.00      0.00      0.00      0.00      0.00      0.00      0.00      0.00      0.00      0.00      0.00      0.00      0.00      0.00      0.00      0.00      0.00      0.00
     -11.638132     103.928734       0.0      0.00      0.00       0.0         3         1      3886      1000      0.00     0.000       0.0      23.5     0.000     0.000       0.0   0.00000       0.0         O               347.9  0.000000  0.000000  0.000000  0.000000  0.000000  0.000000  0.000000      0.00    0.0000    0.0000   0.00000   0.00000   0.00000   0.00000   0.00000   0.00000       0.0  0.000000  0.000000  0.000000  0.000000  0.000000  0.000000  0.000000      0.00  0.000000  0.000000     0.000     0.000       0.0       0.0       0.0       0.0      0.00      0.00      0.00      0.00      0.00      0.00      0.00      0.00      0.00      0.00      0.00      0.00      0.00      0.00      0.00      0.00      0.00      0.00      0.00      0.00
     -11.626111     103.983131       0.0      0.00      0.00       0.0         3         2      3886      2631      0.00     0.000       0.0      23.9     0.000     0.000       0.0   0.00000       0.0         O               347.9  0.000000  0.000000  0.000000  0.000000  0.000000  0.000000  0.000000      0.00    0.0000    0.0000   0.00000   0.00000   0.00000   0.00000   0.00000   0.00000       0.0  0.000000  0.000000  0.000000  0.000000  0.000000  0.000000  0.000000      0.00  0.000000  0.000000     0.000     0.000       0.0       0.0       0.0       0.0      0.00      0.00      0.00      0.00      0.00      0.00      0.00      0.00      0.00      0.00      0.00      0.00      0.00      0.00      0.00      0.00      0.00      0.00      0.00      0.00
     -11.614300     104.036522       0.0      0.00      0.00       0.0         3         3      3886      4262      0.00     0.000       0.0      24.4     0.000     0.000       0.0   0.00000       0.0         O               347.9  0.000000  0.000000  0.000000  0.000000  0.000000  0.000000  0.000000      0.00    0.0000    0.0000   0.00000   0.00000   0.00000   0.00000   0.00000   0.00000       0.0  0.000000  0.000000  0.000000  0.000000  0.000000  0.000000  0.000000      0.00  0.000000  0.000000     0.000     0.000       0.0       0.0       0.0       0.0      0.00      0.00      0.00      0.00      0.00      0.00      0.00      0.00      0.00      0.00      0.00      0.00      0.00      0.00      0.00      0.00      0.00      0.00      0.00      0.00
