corner points
111.0676651    -38.15631485
111.008522    -37.97894287
111.2957153    -38.1068306
111.2359085    -37.92958069
========== RESULTS WAVE VERSION 16.10.2018 ====================
IMAGE SIZE  X: 5471     Y:4914    col:row     POLARIZATION:VV
COVERAGE    X: 20.63871221km       Y: 20.34682634km 
RESOLUTION dX: 3.77238388m       dY:4.140583301m  
resolution of original product 3.77238388m x 4.140583301m;   raster step x:5998.09037m  
===============================================================
FLAGS: H=HIGH PROBABILITY SEA STATE, I=LAND(ISLAND), O=OUTLIER NO SEA STATE, N=NO WIND AVAILABLE, SEA STATE NOT VISIBLE, M=MEAN PROBABILITY SEA STATE, L= LOW PROBABILITY SEA STATE
Filtering wave length
 integration  Lmin=1m
 integration  Lmax=2200m
  peak        Lmin=100m
               FFT=1024pixels, 3862.921094m 
   mean-Hs (SWH_c)=1.809371643m
         mean-wind=7.586420059m/s
--------------0--------------1---------2---------3---------4---------5---------6---------7---------8---------9--------10--------11--------12--------13--------14--------15--------16--------17--------18--------19------------------20--------21--------22--------23--------24--------25--------26--------27--------28--------29--------30--------31--------32--------33--------34--------35--------36--------37--------38--------39--------40--------41--------42--------43--------44--------45--------46--------47--------48--------49--------50--------51--------52--------53--------54--------55--------56--------57--------58--------59--------60--------61--------62--------63--------64--------65--------66--------67--------68--------69--------70--------71--------72--------73
            LAT            LON  P-LENGHT     SWH_o     SWH_c     P-DIR      LINE     POINT     ROW-Y     COL-X  M-INTENC        dB      WIND INC-ANGLE  ENERGY-M  ENERGY-N  ENERGY-R ENERGY-NN  FG-DEPTH      FLAG         HEADING-DEG    E30-75   E75-390  E390-600 meanincut   meanout   cut/out  STD-NORM  SPEC-MAX   GL-MEAN    GL-VAR      CORR   ENTROPY   HOMOGEN    ENERGY  CONTRAST  DISSIMIL     STD-O    E 1-30 E600-2000   E2000 >      GODA  LONG-HIG     Tmean  CONVOLUT  MEAN-DIR  relation     Sy/Sx  SKEWNESS  KURTOSIS  cutoff-A >50/10000     INT*V   INT-LOG  S-1_g1f1  S-2_g1f2  S-3_g1f3  S-4_g2f1  S-5_g2f2  S-6_g2f3  S-7_g3f1  S-8_g3f2  S-9_g3f3 S-10_g1f4 S-11_g2f4 S-12_g3f4 S-13_g1f5 S-14_g2f5 S-15_g3f5 S-16_g4f1 S-17_g4f2 S-18_g4f3 S-19_g4f4 S-20_g4f5
--------------1--------------2---------3---------4---------5---------6---------7---------8---------9--------10--------11--------12--------13--------14--------15--------16--------17--------18--------19--------20------------------21--------22--------23--------24--------25--------26--------27--------28--------29--------30--------31--------32--------33--------34--------35--------36--------37--------38--------39--------40--------41--------42--------43--------44--------45--------46--------47--------48--------49--------50--------51--------52--------53--------54--------55--------56--------57--------58--------59--------60--------61--------62--------63--------64--------65--------66--------67--------68--------69--------70--------71--------72--------73--------74
     -38.110962     111.098427     214.9      1.65      2.72     117.1         1         1      1000      1000   2983.50    -5.253       7.3      22.8   322.769     0.862     122.5   0.22911      38.9         H               346.6  0.115581  0.080951  0.001375  7.906060  1.061851  7.445545  1.315776     64.24    5.4563   56.8768   0.30997   5.45731   0.25522   0.01216  78.49403   5.51442    3925.0  0.663405  0.001335  0.000050  0.000242  0.185273  7.101091  0.914330     90.71  1.000273  1.000039     3.943    33.934     110.8      84.0     107.3     579.3     12.42     -4.33      4.93      4.19     -1.03      5.16      0.11      2.73      1.98     -3.25     -0.98      1.44     -1.03      2.35      3.85     -1.47     -0.09      4.83      0.46      3.27
     -38.096451     111.165405     244.7      1.76      2.72     117.5         1         2      1000      2590   2776.35    -5.565       7.6      23.3   324.790     0.869     111.9   0.23206      63.8         H               346.6  0.114768  0.082878  0.001126  8.313903  1.071688  7.757767  1.320934     48.93    5.0479   50.1602   0.31044   5.31316   0.27012   0.01413  69.17873   5.13394    3667.0  0.669466  0.001002  0.000053  0.000253  0.184781  7.107370  0.920792     89.31  1.000285  1.000044     3.981    35.615     114.0      82.6      92.8     557.9     12.63     -4.37      5.71      4.33     -0.30      5.44      0.03      2.37      1.96     -2.90     -0.84      1.32      0.08      2.76      3.19     -1.20      1.12      4.17      0.28      3.08
     -38.082176     111.231094     231.6      1.72      2.72     115.9         1         3      1000      4180   2545.92    -5.942       7.7      23.8   327.000     0.880     110.8   0.23773      50.3         H               346.6  0.119355  0.083567  0.001264  8.598616  1.117301  7.695885  1.328435     55.07    4.5989   43.0475   0.31325   5.14359   0.28747   0.01671  59.12566   4.71096    3381.9  0.675528  0.001148  0.000041  0.000246  0.182285  7.086903  0.934220     89.32  1.000272  1.000041     4.119    38.513     110.8      80.9      78.6     519.3     12.35     -4.01      5.15      4.42     -0.09      5.66      0.43      2.35      1.83     -2.10     -0.56      1.36     -0.22      2.75      3.35     -1.19      1.03      5.15      0.19      2.96
     -38.058659     111.080933     204.6      1.71      2.72     122.1         2         1      2449      1000   2941.86    -5.314       7.2      22.8   329.569     0.890     101.9   0.24223      33.7         H               346.6  0.122479  0.085676  0.001621  8.595455  1.123462  7.650865  1.336928     54.79    5.3699   56.5510   0.31707   5.42066   0.25962   0.01273  77.24133   5.43134    3932.8  0.679982  0.001008  0.000016  0.000245  0.185587  7.103596  0.945619     91.34  1.000262  1.000039     4.087    35.264     114.0      83.5     106.7     571.0     12.61     -4.25      5.70      4.42     -1.18      5.56      0.23      2.29      1.57     -3.40     -1.45      1.29     -0.02      2.25      2.73     -2.14      0.09      4.18      0.02      3.01
     -38.044159     111.147850     214.9      1.82      2.72     117.1         2         2      2449      2590   2831.43    -5.480       7.8      23.3   331.916     0.896     125.6   0.24312      38.9         H               346.6  0.122959  0.086584  0.001684  8.629248  1.127563  7.653007  1.341937     60.93    5.1592   53.0599   0.31708   5.34656   0.26781   0.01379  72.47055   5.23442    3799.2  0.684013  0.001364  0.000046  0.000250  0.186020  7.122431  0.951587     90.63  1.000277  1.000043     4.158    37.121     117.4      82.8      99.3     559.2     12.53     -4.49      4.83      4.16     -0.97      5.72      0.33      2.11      1.77     -2.89     -1.83      0.62     -0.87      2.23      3.36     -2.24      0.19      5.23     -0.84      2.75
     -38.029896     111.213493     226.0      1.71      2.72     118.7         2         3      2449      4180   2432.81    -6.139       7.3      23.8   330.861     0.890     120.5   0.23924      46.0         H               346.6  0.121251  0.085622  0.001584  8.580734  1.066137  8.048436  1.337240     57.58    4.3719   39.7955   0.31471   5.05033   0.29742   0.01840  54.54279   4.50382    3252.8  0.680768  0.001183  0.000047  0.000255  0.184676  7.086437  0.944878     90.09  1.000286  1.000043     4.315    47.819     114.0      79.9      72.1     543.5     12.71     -4.64      4.85      3.78     -0.09      5.50      0.17      1.96      2.04     -2.00     -1.46      0.69     -0.71      2.51      3.39     -2.35      1.80      4.65     -0.59      2.69
     -38.006351     111.063461     216.3      2.06      2.72     107.8         3         1      3898      1000   3221.12    -4.920       8.1      22.8   332.051     0.896     141.8   0.24346      39.8         H               346.6  0.121888  0.091262  0.001258  8.566581  1.101058  7.780319  1.341298     73.60    5.9180   66.9320   0.31829   5.59450   0.24429   0.01081  91.25787   5.93492    4320.4  0.680263  0.001492  0.000063  0.000254  0.190077  7.155427  0.952726     91.93  1.000288  1.000043     4.118    37.537     117.4      85.0     129.4     669.8     12.56     -4.27      6.62      5.30     -1.44      6.40     -0.08      2.20      1.37     -3.80     -1.87      1.19      1.14      3.00      2.76     -0.45     -0.23      4.60     -0.08      2.66
     -37.991863     111.130333     204.7      2.03      2.72     115.7         3         2      3898      2590   2883.56    -5.401       8.0      23.3   332.751     0.902     130.3   0.24692      33.7         H               346.6  0.124247  0.092228  0.001424  8.848333  1.099342  8.048755  1.346293     57.05    5.2577   55.4416   0.32158   5.37530   0.26656   0.01363  75.22594   5.32307    3882.1  0.683480  0.001287  0.000063  0.000252  0.188727  7.144413  0.959450     90.11  1.000299  1.000046     4.072    35.097     117.4      82.9     103.4     563.4     12.72     -4.19      6.27      4.83     -0.61      6.35     -0.20      2.29      1.44     -2.73     -1.14      1.14      0.88      3.52      2.76     -1.23      0.38      4.61     -0.18      3.25
     -37.977608     111.195908     224.3      1.82      2.72     111.7         3         3      3898      4180   2392.86    -6.211       7.2      23.8   335.919     0.912     118.9   0.25040      44.8         H               346.6  0.125620  0.090877  0.001391  8.757190  1.126669  7.772637  1.353325     68.17    4.2993   39.5200   0.32076   5.01227   0.30350   0.01947  53.68721   4.43294    3237.8  0.693740  0.001197  0.000031  0.000250  0.187758  7.107740  0.969618     91.04  1.000303  1.000046     4.237    39.178     114.0      79.3      71.2     492.0     13.06     -4.27      5.86      4.14     -0.53      5.22     -1.27      2.52      0.38     -3.06     -0.89      1.39     -0.28      2.55      2.37     -1.96      0.53      3.60      0.36      2.65
