corner points
122.3104706    -55.5784874
122.1910095    -55.41434097
122.6094589    -55.50697327
122.4888992    -55.34310913
========== RESULTS WAVE VERSION 16.10.2018 ====================
IMAGE SIZE  X: 4376     Y:4770    col:row     POLARIZATION:VV
COVERAGE    X: 20.37443875km       Y: 19.69965424km 
RESOLUTION dX: 4.655950355m       dY:4.12990655m  
resolution of original product 4.655950355m x 4.12990655m;   raster step x:5996.864057m  
===============================================================
FLAGS: H=HIGH PROBABILITY SEA STATE, I=LAND(ISLAND), O=OUTLIER NO SEA STATE, N=NO WIND AVAILABLE, SEA STATE NOT VISIBLE, M=MEAN PROBABILITY SEA STATE, L= LOW PROBABILITY SEA STATE
Filtering wave length
 integration  Lmin=1m
 integration  Lmax=2200m
  peak        Lmin=100m
               FFT=1024pixels, 4767.693163m 
   mean-Hs (SWH_c)=3.061808472m
         mean-wind=9.731275558m/s
--------------0--------------1---------2---------3---------4---------5---------6---------7---------8---------9--------10--------11--------12--------13--------14--------15--------16--------17--------18--------19------------------20--------21--------22--------23--------24--------25--------26--------27--------28--------29--------30--------31--------32--------33--------34--------35--------36--------37--------38--------39--------40--------41--------42--------43--------44--------45--------46--------47--------48--------49--------50--------51--------52--------53--------54--------55--------56--------57--------58--------59--------60--------61--------62--------63--------64--------65--------66--------67--------68--------69--------70--------71--------72--------73
            LAT            LON  P-LENGHT     SWH_o     SWH_c     P-DIR      LINE     POINT     ROW-Y     COL-X  M-INTENC        dB      WIND INC-ANGLE  ENERGY-M  ENERGY-N  ENERGY-R ENERGY-NN  FG-DEPTH      FLAG         HEADING-DEG    E30-75   E75-390  E390-600 meanincut   meanout   cut/out  STD-NORM  SPEC-MAX   GL-MEAN    GL-VAR      CORR   ENTROPY   HOMOGEN    ENERGY  CONTRAST  DISSIMIL     STD-O    E 1-30 E600-2000   E2000 >      GODA  LONG-HIG     Tmean  CONVOLUT  MEAN-DIR  relation     Sy/Sx  SKEWNESS  KURTOSIS  cutoff-A >50/10000     INT*V   INT-LOG  S-1_g1f1  S-2_g1f2  S-3_g1f3  S-4_g2f1  S-5_g2f2  S-6_g2f3  S-7_g3f1  S-8_g3f2  S-9_g3f3 S-10_g1f4 S-11_g2f4 S-12_g3f4 S-13_g1f5 S-14_g2f5 S-15_g3f5 S-16_g4f1 S-17_g4f2 S-18_g4f3 S-19_g4f4 S-20_g4f5
--------------1--------------2---------3---------4---------5---------6---------7---------8---------9--------10--------11--------12--------13--------14--------15--------16--------17--------18--------19--------20------------------21--------22--------23--------24--------25--------26--------27--------28--------29--------30--------31--------32--------33--------34--------35--------36--------37--------38--------39--------40--------41--------42--------43--------44--------45--------46--------47--------48--------49--------50--------51--------52--------53--------54--------55--------56--------57--------58--------59--------60--------61--------62--------63--------64--------65--------66--------67--------68--------69--------70--------71--------72--------73--------74
     -55.527611     122.354546     291.5      3.29      5.52     101.9         1         1      1000      1000    397.87   -14.003       9.9      35.6   330.294     0.691     133.4   0.12569     100.0         H               342.9  0.063423  0.064127  0.002450  3.900561  0.812861  4.798558  1.179536    129.44    7.4248   80.4649   0.18228   6.09333   0.17949   0.00512 131.59546   7.65028     469.3  0.560256  0.001522  0.000055  0.000233  0.247538  7.567520  0.708814     85.47  1.000395  1.000044     3.321    25.530     210.9      90.7     167.6     650.5     16.63      2.16     13.90     -0.82      0.15      2.21     -3.85     -0.90     -6.73      2.01      0.98     -0.89      7.14      1.43     -1.72     -9.75     -0.72      0.97      0.49     -1.55
     -55.506523     122.442863     266.2      3.00      5.52      71.7         1         2      1000      2288    376.19   -14.246       9.8      36.0   326.531     0.676     129.7   0.11912     100.0         H               342.9  0.060916  0.058692  0.002131  3.878503  0.800675  4.844039  1.166483    142.91    7.0035   71.2876   0.17359   5.99083   0.18614   0.00561 117.82553   7.25034     438.8  0.553348  0.001359  0.000095  0.000228  0.244049  7.546112  0.691293     77.52  1.000432  1.000046     3.336    26.987     200.3      90.0     146.8     625.0     16.41      3.39     14.24     -0.65     -0.19      1.31     -3.56     -1.70     -5.68      4.09      0.76     -2.72      7.59      1.35     -2.16     -9.05     -1.18     -1.43      1.11     -0.36
     -55.485561     122.530296     317.0      2.94      5.52      94.3         1         3      1000      3576    358.85   -14.451       9.8      36.4   322.535     0.661     114.2   0.11225     100.0         H               342.9  0.057843  0.056417  0.002385  3.615100  0.781197  4.627640  1.153595    122.27    6.6653   64.5004   0.16796   5.90279   0.19230   0.00609 107.33408   6.93077     413.9  0.543740  0.001265  0.000028  0.000225  0.247253  7.540999  0.676018     81.12  1.000400  1.000040     3.208    25.274     210.9      89.5     131.1     587.6     16.77      3.18     14.37     -1.92     -0.33      0.43     -3.34     -1.85     -6.29      3.39      0.46     -2.39      7.55      0.39     -1.51    -11.07     -1.06     -0.92      0.53     -2.49
     -55.477661     122.318054     266.2      3.13      5.52      71.7         2         1      2452      1000    387.42   -14.118       9.7      35.6   328.975     0.684     128.9   0.12264     100.0         H               342.9  0.062873  0.062029  0.002287  4.225665  0.806920  5.236780  1.173231    118.08    7.2228   76.1265   0.17911   6.04465   0.18284   0.00535 124.98297   7.45876     454.5  0.555846  0.001212  0.000078  0.000218  0.243243  7.524068  0.700250     83.54  1.000424  1.000047     3.282    24.928     210.9      90.4     157.5     616.9     16.51      0.97     14.39     -0.77     -0.06      1.04     -3.52     -0.84     -5.30      0.63      0.29     -0.82      7.05      1.17     -1.52     -9.27      0.10     -2.34      0.88     -0.81
     -55.456596     122.406273     275.1      3.35      5.52     101.3         2         2      2452      2288    360.07   -14.436       9.5      36.0   328.751     0.684     128.3   0.12286     100.0         H               342.9  0.061423  0.065126  0.002027  4.145611  0.805826  5.144546  1.172952    135.48    6.6890   66.9340   0.18081   5.90265   0.19385   0.00621 109.66254   6.95059     422.4  0.554260  0.001229  0.000058  0.000237  0.249353  7.611196  0.700562     91.99  1.000351  1.000039     3.259    25.036     210.9      89.3     135.1     596.8     16.62      1.10     14.47     -0.75     -0.07      1.37     -3.84     -0.18     -5.66      0.60      0.36      0.23      6.79      1.71     -2.04     -8.71     -0.43     -1.46      0.27      0.45
     -55.435661     122.493607     310.1      3.06      5.52     102.7         2         3      2452      3576    361.43   -14.420       9.8      36.4   321.651     0.660     129.7   0.11277     100.0         H               342.9  0.057581  0.057899  0.002186  3.725037  0.783502  4.754344  1.152307    133.70    6.7172   65.5582   0.17123   5.91642   0.19104   0.00600 108.66532   6.97204     416.5  0.541092  0.001443  0.000070  0.000220  0.249785  7.567873  0.675075     95.06  1.000413  1.000044     3.117    22.238     200.3      89.6     132.8     555.0     16.80      0.63     14.61     -1.45      0.07      0.68     -3.77     -0.37     -6.12     -0.21      0.48     -0.10      7.71      0.97     -2.64    -10.13     -0.06     -2.16      0.85     -0.81
     -55.427696     122.281647     260.3      2.83      5.52     100.6         3         1      3904      1000    390.36   -14.085       9.7      35.6   324.697     0.673     113.5   0.11834     102.8         H               342.9  0.062556  0.056929  0.001707  4.060299  0.795221  5.105876  1.163526     93.87    7.2834   76.2410   0.17449   6.06321   0.18045   0.00521 125.87649   7.51875     454.1  0.550641  0.001129  0.000077  0.000208  0.237299  7.458649  0.687673     89.82  1.000404  1.000042     3.244    25.294     200.3      90.6     158.1     626.2     15.92      0.78     13.76      0.68     -0.08      2.50     -3.48     -0.41     -5.28      0.93      0.06     -0.38      7.23      1.91     -1.81     -7.01     -0.07     -0.22      0.10      0.15
     -55.406658     122.369774     291.5      3.05      5.52     101.9         3         2      3904      2288    359.05   -14.448       9.5      36.0   329.148     0.683     141.1   0.12133     100.0         H               342.9  0.061767  0.060897  0.002198  4.139180  0.816930  5.066752  1.172356    116.03    6.6683   66.3099   0.17830   5.89796   0.19393   0.00621 108.97589   6.93492     420.9  0.556705  0.001442  0.000123  0.000216  0.243044  7.551421  0.698825     91.68  1.000428  1.000047     3.283    25.268     210.9      89.2     134.2     591.2     16.39     -0.11     14.51     -0.76      0.13      1.07     -3.11      0.16     -5.15     -0.19      0.40      0.23      7.61      1.56     -2.25     -9.23      0.51     -2.20      0.97     -0.08
     -55.385746     122.457008     310.1      2.92      5.52     102.7         3         3      3904      3576    360.14   -14.435       9.8      36.4   326.240     0.673     131.4   0.11732     100.0         H               342.9  0.060518  0.057326  0.002355  3.922090  0.793547  4.942483  1.164123    117.77    6.6874   65.7694   0.17258   5.90607   0.19274   0.00611 108.83633   6.95176     419.2  0.552083  0.001419  0.000100  0.000208  0.241995  7.521422  0.688457     95.87  1.000438  1.000044     3.265    24.936     200.3      89.5     133.5     576.9     16.30     -0.73     14.23     -0.58      0.38      1.44     -2.69      0.21     -5.06     -1.82      1.26      0.16      7.91      1.22     -2.04    -10.05      0.74     -1.93      3.11     -1.31
