corner points
112.3284607    -41.63161087
112.2636871    -41.45498276
112.5679779    -41.58002472
112.5024414    -41.40353775
========== RESULTS WAVE VERSION 16.10.2018 ====================
IMAGE SIZE  X: 5471     Y:4912    col:row     POLARIZATION:VV
COVERAGE    X: 20.67110557km       Y: 20.32244877km 
RESOLUTION dX: 3.778304801m       dY:4.137306346m  
resolution of original product 3.778304801m x 4.137306346m;   raster step x:5999.948024m  
===============================================================
FLAGS: H=HIGH PROBABILITY SEA STATE, I=LAND(ISLAND), O=OUTLIER NO SEA STATE, N=NO WIND AVAILABLE, SEA STATE NOT VISIBLE, M=MEAN PROBABILITY SEA STATE, L= LOW PROBABILITY SEA STATE
Filtering wave length
 integration  Lmin=1m
 integration  Lmax=2200m
  peak        Lmin=100m
               FFT=1024pixels, 3868.984116m 
   mean-Hs (SWH_c)=3.092170105m
         mean-wind=4.326543331m/s
--------------0--------------1---------2---------3---------4---------5---------6---------7---------8---------9--------10--------11--------12--------13--------14--------15--------16--------17--------18--------19------------------20--------21--------22--------23--------24--------25--------26--------27--------28--------29--------30--------31--------32--------33--------34--------35--------36--------37--------38--------39--------40--------41--------42--------43--------44--------45--------46--------47--------48--------49--------50--------51--------52--------53--------54--------55--------56--------57--------58--------59--------60--------61--------62--------63--------64--------65--------66--------67--------68--------69--------70--------71--------72--------73
            LAT            LON  P-LENGHT     SWH_o     SWH_c     P-DIR      LINE     POINT     ROW-Y     COL-X  M-INTENC        dB      WIND INC-ANGLE  ENERGY-M  ENERGY-N  ENERGY-R ENERGY-NN  FG-DEPTH      FLAG         HEADING-DEG    E30-75   E75-390  E390-600 meanincut   meanout   cut/out  STD-NORM  SPEC-MAX   GL-MEAN    GL-VAR      CORR   ENTROPY   HOMOGEN    ENERGY  CONTRAST  DISSIMIL     STD-O    E 1-30 E600-2000   E2000 >      GODA  LONG-HIG     Tmean  CONVOLUT  MEAN-DIR  relation     Sy/Sx  SKEWNESS  KURTOSIS  cutoff-A >50/10000     INT*V   INT-LOG  S-1_g1f1  S-2_g1f2  S-3_g1f3  S-4_g2f1  S-5_g2f2  S-6_g2f3  S-7_g3f1  S-8_g3f2  S-9_g3f3 S-10_g1f4 S-11_g2f4 S-12_g3f4 S-13_g1f5 S-14_g2f5 S-15_g3f5 S-16_g4f1 S-17_g4f2 S-18_g4f3 S-19_g4f4 S-20_g4f5
--------------1--------------2---------3---------4---------5---------6---------7---------8---------9--------10--------11--------12--------13--------14--------15--------16--------17--------18--------19--------20------------------21--------22--------23--------24--------25--------26--------27--------28--------29--------30--------31--------32--------33--------34--------35--------36--------37--------38--------39--------40--------41--------42--------43--------44--------45--------46--------47--------48--------49--------50--------51--------52--------53--------54--------55--------56--------57--------58--------59--------60--------61--------62--------63--------64--------65--------66--------67--------68--------69--------70--------71--------72--------73--------74
     -41.586002     112.360222     237.3      3.17      2.34     113.1         1         1      1000      1000   1815.61    -7.410       4.0      22.8   338.115     0.940     263.2   0.26041      55.4         H               346.2  0.114298  0.136931  0.002662  8.213946  1.086942  7.556931  1.374371    184.55    3.1536   24.0726   0.33536   4.44733   0.37503   0.03584  31.99919   3.32168    2494.9  0.683402  0.003355  0.000159  0.000290  0.211358  7.493670  1.008016    109.58  1.000256  1.000035     4.197    38.390     105.0      71.9      41.2     380.0     13.31     -8.28      7.45      4.02     -2.16      5.20     -0.67      1.55      0.53     -7.16     -3.83      0.58     -0.22      1.94      1.42     -2.06      0.50      3.26     -2.08      2.09
     -41.570896     112.430481     231.9      2.88      2.34     116.0         1         2      1000      2588   1787.05    -7.479       4.4      23.3   328.605     0.903     339.3   0.24343      50.5         H               346.2  0.108930  0.123721  0.002027  8.257339  1.070487  7.713630  1.348421    164.53    3.1095   22.7791   0.32695   4.43300   0.37479   0.03564  30.66313   3.27985    2409.6  0.663816  0.004427  0.000293  0.000255  0.213346  7.459890  0.965310    110.61  1.000292  1.000036     3.886    30.759     105.0      72.1      38.9     325.1     13.62     -8.51      7.38      3.85     -1.87      4.81     -1.72      2.62     -0.37     -7.07     -2.91      1.68     -0.82      1.75      1.83     -2.14      0.58      3.10     -1.19      1.62
     -41.556038     112.499390     226.2      3.14      2.34     118.7         1         3      1000      4176   1554.18    -8.085       4.2      23.7   329.215     0.905     256.5   0.24534      46.2         H               346.2  0.106009  0.128758  0.001862  8.133497  1.052289  7.729335  1.347950    191.89    2.6507   17.2937   0.32684   4.16333   0.40751   0.04552  23.28243   2.84064    2094.8  0.665697  0.002960  0.000170  0.000304  0.215350  7.520434  0.967666    110.81  1.000257  1.000033     4.000    33.628     107.8      68.7      29.5     290.2     13.57     -8.93      7.72      3.62     -1.88      4.54     -1.65      2.37     -0.50     -7.96     -3.29      1.28     -1.07      1.57      1.57     -1.16     -0.01      3.71     -2.16      1.87
     -41.533863     112.341042     231.9      3.08      2.34     116.0         2         1      2450      1000   1846.37    -7.337       4.0      22.8   329.771     0.913     268.4   0.24868      50.5         H               346.2  0.109071  0.131110  0.001962  7.757010  1.091766  7.105011  1.353574    242.92    3.2254   24.3723   0.33089   4.49358   0.36819   0.03389  32.61526   3.38501    2498.7  0.667927  0.002796  0.000196  0.000289  0.217228  7.499793  0.977428    112.41  1.000255  1.000032     4.029    35.910     105.0      72.7      41.9     383.7     13.77     -9.00      7.85      3.80     -2.40      4.57     -2.32      3.08     -1.14     -8.31     -3.52      2.22     -0.67      1.27      1.25     -1.66     -0.42      2.95     -1.80      1.55
     -41.518768     112.411232     231.9      2.98      2.34     116.0         2         2      2450      2588   1743.45    -7.586       4.3      23.3   330.033     0.909     291.4   0.24653      50.5         H               346.2  0.108951  0.126893  0.001877  7.777385  1.086487  7.158288  1.350398    189.04    3.0281   21.8154   0.32865   4.38811   0.38004   0.03707  29.29128   3.20159    2354.1  0.668366  0.003189  0.000212  0.000282  0.217614  7.493107  0.972537    109.95  1.000298  1.000037     4.018    34.479     107.8      71.5      37.4     347.9     14.04     -9.39      8.22      3.36     -1.63      4.26     -2.87      3.40     -1.50     -7.73     -2.96      2.10     -0.72      1.84      1.59     -1.93      0.58      2.45     -1.55      1.87
     -41.503922     112.480072     242.3      3.17      2.34     110.1         2         3      2450      4176   1660.53    -7.798       4.5      23.7   325.019     0.891     234.1   0.23874      60.7         H               346.2  0.103656  0.126801  0.001979  7.512861  1.052484  7.138222  1.337955    186.28    2.8564   19.4044   0.32437   4.29070   0.39173   0.04055  26.22066   3.03501    2221.4  0.655839  0.002690  0.000130  0.000321  0.212400  7.518579  0.952400    107.94  1.000211  1.000027     3.838    30.586     107.8      70.3      33.0     299.8     13.30     -8.71      7.59      3.85     -2.26      4.84     -1.09      1.95      0.33     -7.96     -3.83      0.81     -0.75      1.86      1.82     -1.10     -0.12      3.80     -2.55      2.78
     -41.481720     112.321884     210.0      3.00      2.34     119.7         3         1      3900      1000   1916.17    -7.176       4.2      22.8   328.319     0.904     186.3   0.24376      36.3         H               346.2  0.109214  0.128174  0.001884  8.562543  1.048772  8.164355  1.346987    144.89    3.3611   25.9875   0.32761   4.56789   0.35890   0.03139  34.94731   3.51753    2581.0  0.663007  0.002017  0.000077  0.000271  0.205759  7.451995  0.967084    108.30  1.000239  1.000031     3.904    31.559     102.3      73.7      44.7     347.2     13.11     -8.23      6.14      4.09     -2.17      5.06     -1.19      2.03      0.63     -6.48     -3.60      0.56     -1.22      1.51      2.03     -1.20     -0.01      4.16     -2.32      1.94
     -41.466637     112.392014     251.4      3.29      2.34     114.5         3         2      3900      2588   1905.14    -7.201       4.7      23.3   333.199     0.921     201.8   0.25160      74.3         H               346.2  0.110932  0.134283  0.001994  8.633112  1.100355  7.845754  1.359376    199.20    3.3378   26.0293   0.33160   4.55227   0.36091   0.03196  34.79594   3.49763    2589.8  0.671981  0.001970  0.000094  0.000291  0.212096  7.500801  0.985673    109.75  1.000251  1.000033     4.131    39.357     110.8      73.5      44.8     412.5     13.60     -8.74      7.75      3.90     -2.21      4.84     -1.94      2.91     -0.44     -7.97     -3.59      2.10     -0.90      1.65      1.90     -1.42     -0.05      3.21     -2.10      2.21
     -41.451801     112.460785     237.3      3.12      2.34     113.1         3         3      3900      4176   1685.17    -7.734       4.6      23.7   332.161     0.920     281.6   0.25205      55.4         H               346.2  0.111731  0.129932  0.001870  8.150773  1.103335  7.387393  1.359929    235.44    2.9010   20.4223   0.33080   4.31308   0.38930   0.03975  27.33334   3.07859    2291.3  0.673984  0.003362  0.000192  0.000281  0.212790  7.472553  0.985519    111.26  1.000258  1.000033     4.241    42.905     110.8      70.6      35.0     376.5     13.57     -8.72      7.84      3.94     -2.05      4.74     -1.92      2.66     -0.63     -8.10     -3.23      2.12     -0.94      1.59      2.04     -1.09      0.10      3.70     -2.05      1.87
