corner points
109.4249115    -26.36531639
109.3757629    -26.19193649
109.6198807    -26.31938744
109.5704269    -26.14608765
========== RESULTS WAVE VERSION 16.10.2018 ====================
IMAGE SIZE  X: 4376     Y:4782    col:row     POLARIZATION:VV
COVERAGE    X: 20.04162336km       Y: 19.84718553km 
RESOLUTION dX: 4.579895649m       dY:4.150394296m  
resolution of original product 4.579895649m x 4.150394296m;   raster step x:5999.6633m  
===============================================================
FLAGS: H=HIGH PROBABILITY SEA STATE, I=LAND(ISLAND), O=OUTLIER NO SEA STATE, N=NO WIND AVAILABLE, SEA STATE NOT VISIBLE, M=MEAN PROBABILITY SEA STATE, L= LOW PROBABILITY SEA STATE
Filtering wave length
 integration  Lmin=1m
 integration  Lmax=2200m
  peak        Lmin=100m
               FFT=1024pixels, 4689.813145m 
   mean-Hs (SWH_c)=0.2m
         mean-wind=6.891975403m/s
--------------0--------------1---------2---------3---------4---------5---------6---------7---------8---------9--------10--------11--------12--------13--------14--------15--------16--------17--------18--------19------------------20--------21--------22--------23--------24--------25--------26--------27--------28--------29--------30--------31--------32--------33--------34--------35--------36--------37--------38--------39--------40--------41--------42--------43--------44--------45--------46--------47--------48--------49--------50--------51--------52--------53--------54--------55--------56--------57--------58--------59--------60--------61--------62--------63--------64--------65--------66--------67--------68--------69--------70--------71--------72--------73
            LAT            LON  P-LENGHT     SWH_o     SWH_c     P-DIR      LINE     POINT     ROW-Y     COL-X  M-INTENC        dB      WIND INC-ANGLE  ENERGY-M  ENERGY-N  ENERGY-R ENERGY-NN  FG-DEPTH      FLAG         HEADING-DEG    E30-75   E75-390  E390-600 meanincut   meanout   cut/out  STD-NORM  SPEC-MAX   GL-MEAN    GL-VAR      CORR   ENTROPY   HOMOGEN    ENERGY  CONTRAST  DISSIMIL     STD-O    E 1-30 E600-2000   E2000 >      GODA  LONG-HIG     Tmean  CONVOLUT  MEAN-DIR  relation     Sy/Sx  SKEWNESS  KURTOSIS  cutoff-A >50/10000     INT*V   INT-LOG  S-1_g1f1  S-2_g1f2  S-3_g1f3  S-4_g2f1  S-5_g2f2  S-6_g2f3  S-7_g3f1  S-8_g3f2  S-9_g3f3 S-10_g1f4 S-11_g2f4 S-12_g3f4 S-13_g1f5 S-14_g2f5 S-15_g3f5 S-16_g4f1 S-17_g4f2 S-18_g4f3 S-19_g4f4 S-20_g4f5
--------------1--------------2---------3---------4---------5---------6---------7---------8---------9--------10--------11--------12--------13--------14--------15--------16--------17--------18--------19--------20------------------21--------22--------23--------24--------25--------26--------27--------28--------29--------30--------31--------32--------33--------34--------35--------36--------37--------38--------39--------40--------41--------42--------43--------44--------45--------46--------47--------48--------49--------50--------51--------52--------53--------54--------55--------56--------57--------58--------59--------60--------61--------62--------63--------64--------65--------66--------67--------68--------69--------70--------71--------72--------73--------74
     -26.318464     109.459686     287.7      0.43      1.93     132.6         1         1      1000      1000    238.17   -16.231       7.1      36.4   244.061     0.539      51.9   0.06151     100.0         H               347.4  0.040369  0.016509  0.000325  1.495470  0.654178  2.286030  1.042386     20.61    4.2825   24.5616   0.08525   5.11927   0.25027   0.01192  44.93553   4.62509     248.3  0.481778  0.000600  0.000083  0.000098  0.198432  6.981565  0.542434    128.12  1.000106  1.000005     2.249    11.112      83.0      84.2      49.7     233.3     13.24     -5.83      2.16      0.94      1.05      0.66     -2.45      3.04     -1.06     -1.05     -1.40      0.35     -3.01      1.37      1.94     -4.69      1.99      0.29     -1.23      1.94
     -26.304678     109.518257     263.7      0.42      1.93     133.0         1         2      1000      2310    217.35   -16.628       6.8      36.7   243.936     0.536      42.6   0.05866     155.9         H               347.4  0.039298  0.015974  0.000384  1.423150  0.629231  2.261727  1.039113     21.31    3.8673   20.3045   0.07940   4.93787   0.26799   0.01420  37.38472   4.21807     225.8  0.480509  0.000471  0.000058  0.000097  0.198561  6.985543  0.539386    129.64  1.000082  1.000004     2.233    11.013      84.8      82.5      41.4     207.5     13.26     -6.13      1.67      0.57      1.15      0.32     -2.09      2.94     -0.44     -1.35     -1.00      0.42     -2.82      0.80      1.98     -5.79      2.30     -0.42     -0.82      1.04
     -26.290989     109.576302     286.7      0.42      1.93     127.4         1         3      1000      3620    206.56   -16.850       6.8      37.1   243.903     0.536      38.5   0.05752     100.0         H               347.4  0.038113  0.016183  0.000295  1.385376  0.621365  2.229569  1.038796     30.88    3.6526   18.3259   0.07672   4.83689   0.27816   0.01573  33.83981   4.01309     214.6  0.480778  0.000390  0.000044  0.000102  0.203035  7.012593  0.538648    128.61  1.000064  1.000002     2.213    10.812      83.0      81.3      37.4     196.0     13.50     -7.22      1.61      0.19      1.92      0.09     -3.02      3.93     -1.11     -1.92     -0.55      1.12     -3.76      1.59      2.40     -4.99      2.87      0.15     -0.59      2.15
     -26.266068     109.444809     249.0      0.43      1.93     121.8         2         1      2445      1000    235.95   -16.272       7.0      36.4   243.792     0.538      38.2   0.06094      70.1         H               347.4  0.040189  0.016508  0.000282  1.473346  0.654660  2.250552  1.041105     17.74    4.2385   24.0366   0.08420   5.10092   0.25237   0.01212  44.02568   4.58088     245.6  0.480896  0.000403  0.000043  0.000096  0.198455  6.980627  0.541073    125.44  1.000084  1.000005     2.230    10.939      81.3      84.1      48.6     229.4     13.09     -5.60      1.69      1.27      0.84      0.87     -2.58      3.13     -0.96     -1.31     -1.21      0.45     -2.70      0.71      1.87     -3.93      1.81      0.77     -0.83      1.12
     -26.252289     109.503342     252.7      0.42      1.93     135.5         2         2      2445      2310    219.96   -16.577       6.9      36.7   243.635     0.537      33.3   0.05899      77.0         H               347.4  0.039332  0.016118  0.000336  1.434669  0.642546  2.232790  1.039094     22.61    3.9194   20.7961   0.08062   4.96163   0.26563   0.01389  38.23917   4.26794     228.6  0.480697  0.000346  0.000028  0.000098  0.199136  6.989971  0.539637    131.87  1.000082  1.000005     2.217    10.844      83.0      82.7      42.3     208.0     13.17     -6.41      1.56      0.89      1.17      0.39     -2.52      3.81     -0.73     -1.31     -0.76      0.50     -3.44      1.23      2.41     -4.88      1.86     -0.31     -0.52      1.78
     -26.238607     109.561356     287.7      0.41      1.93     132.6         2         3      2445      3620    205.74   -16.867       6.8      37.1   244.542     0.536      33.7   0.05773     100.0         H               347.4  0.038091  0.016113  0.000318  1.408131  0.621542  2.265543  1.039204     24.75    3.6366   18.2033   0.07627   4.82908   0.27899   0.01585  33.62984   3.99811     213.8  0.481545  0.000369  0.000027  0.000099  0.200434  7.002070  0.538973    132.76  1.000090  1.000005     2.210    10.667      84.8      81.2      37.2     191.3     13.35     -6.82      1.29      0.33      1.52      0.16     -2.69      3.70     -0.54     -0.45     -1.44      0.22     -3.46      1.14      2.47     -5.24      2.79     -0.55     -1.51      1.45
     -26.213671     109.429939     272.4      0.42      1.93     140.3         3         1      3890      1000    230.29   -16.377       6.9      36.4   244.639     0.541      38.4   0.06114     100.0         H               347.4  0.041206  0.016188  0.000302  1.443905  0.653255  2.210325  1.043426     20.88    4.1255   22.9952   0.08400   5.05245   0.25714   0.01274  42.12734   4.47014     240.3  0.482708  0.000423  0.000044  0.000100  0.194778  6.948693  0.543778    124.94  1.000114  1.000006     2.267    11.333      86.6      83.6      46.5     225.7     13.10     -5.93      1.54      1.17      1.07      0.86     -2.44      3.39     -0.67     -1.35     -1.11      0.36     -2.56      1.08      1.59     -4.41      1.83      0.35     -0.24      1.82
     -26.199900     109.488449     301.0      0.42      1.93     135.1         3         2      3890      2310    217.14   -16.633       6.8      36.7   242.999     0.535      37.0   0.05839     100.0         H               347.4  0.039960  0.015075  0.000309  1.354111  0.633374  2.137934  1.038099     13.31    3.8634   20.2233   0.07980   4.93618   0.26819   0.01422  37.21917   4.21146     225.4  0.479887  0.000390  0.000047  0.000095  0.190386  6.932603  0.538528    122.31  1.000101  1.000005     2.212    10.789      84.8      82.5      41.3     213.4     12.75     -5.72      1.29      1.35      0.91      0.52     -1.74      2.59     -0.44     -1.54     -0.93      0.53     -2.26      0.69      1.59     -4.57      2.39     -0.02     -0.67      1.14
     -26.186226     109.546440     283.4      0.43      1.93     122.2         3         3      3890      3620    213.59   -16.704       7.0      37.1   245.504     0.540      33.2   0.05947     100.0         H               347.4  0.040067  0.015760  0.000272  1.402198  0.634548  2.209760  1.042940     19.23    3.7926   19.7553   0.07990   4.90281   0.27191   0.01481  36.35364   4.15348     222.7  0.483685  0.000346  0.000028  0.000097  0.196570  6.958837  0.542740    125.54  1.000101  1.000006     2.233    10.940      83.0      81.9      40.2     210.8     13.17     -6.32      1.88      0.76      1.23      0.13     -2.36      3.13     -0.57     -1.81     -0.90      0.80     -2.40      1.18      1.83     -4.48      2.55     -0.38     -0.79      1.56
