corner points
108.8596878    -31.16554451
108.8087234    -30.9869976
109.0681152    -31.11968422
109.016655    -30.94122887
========== RESULTS WAVE VERSION 16.10.2018 ====================
IMAGE SIZE  X: 5471     Y:4918    col:row     POLARIZATION:VV
COVERAGE    X: 20.42907192km       Y: 20.39346133km 
RESOLUTION dX: 3.73406542m       dY:4.146698115m  
resolution of original product 3.73406542m x 4.146698115m;   raster step x:5996.909065m  
===============================================================
FLAGS: H=HIGH PROBABILITY SEA STATE, I=LAND(ISLAND), O=OUTLIER NO SEA STATE, N=NO WIND AVAILABLE, SEA STATE NOT VISIBLE, M=MEAN PROBABILITY SEA STATE, L= LOW PROBABILITY SEA STATE
Filtering wave length
 integration  Lmin=1m
 integration  Lmax=2200m
  peak        Lmin=100m
               FFT=1024pixels, 3823.682991m 
   mean-Hs (SWH_c)=0.7237467194m
         mean-wind=8.574485779m/s
--------------0--------------1---------2---------3---------4---------5---------6---------7---------8---------9--------10--------11--------12--------13--------14--------15--------16--------17--------18--------19------------------20--------21--------22--------23--------24--------25--------26--------27--------28--------29--------30--------31--------32--------33--------34--------35--------36--------37--------38--------39--------40--------41--------42--------43--------44--------45--------46--------47--------48--------49--------50--------51--------52--------53--------54--------55--------56--------57--------58--------59--------60--------61--------62--------63--------64--------65--------66--------67--------68--------69--------70--------71--------72--------73
            LAT            LON  P-LENGHT     SWH_o     SWH_c     P-DIR      LINE     POINT     ROW-Y     COL-X  M-INTENC        dB      WIND INC-ANGLE  ENERGY-M  ENERGY-N  ENERGY-R ENERGY-NN  FG-DEPTH      FLAG         HEADING-DEG    E30-75   E75-390  E390-600 meanincut   meanout   cut/out  STD-NORM  SPEC-MAX   GL-MEAN    GL-VAR      CORR   ENTROPY   HOMOGEN    ENERGY  CONTRAST  DISSIMIL     STD-O    E 1-30 E600-2000   E2000 >      GODA  LONG-HIG     Tmean  CONVOLUT  MEAN-DIR  relation     Sy/Sx  SKEWNESS  KURTOSIS  cutoff-A >50/10000     INT*V   INT-LOG  S-1_g1f1  S-2_g1f2  S-3_g1f3  S-4_g2f1  S-5_g2f2  S-6_g2f3  S-7_g3f1  S-8_g3f2  S-9_g3f3 S-10_g1f4 S-11_g2f4 S-12_g3f4 S-13_g1f5 S-14_g2f5 S-15_g3f5 S-16_g4f1 S-17_g4f2 S-18_g4f3 S-19_g4f4 S-20_g4f5
--------------1--------------2---------3---------4---------5---------6---------7---------8---------9--------10--------11--------12--------13--------14--------15--------16--------17--------18--------19--------20------------------21--------22--------23--------24--------25--------26--------27--------28--------29--------30--------31--------32--------33--------34--------35--------36--------37--------38--------39--------40--------41--------42--------43--------44--------45--------46--------47--------48--------49--------50--------51--------52--------53--------54--------55--------56--------57--------58--------59--------60--------61--------62--------63--------64--------65--------66--------67--------68--------69--------70--------71--------72--------73--------74
     -31.120657     108.888412     245.7      0.73      2.90     129.5         1         1      1000      1000   3146.02    -5.022       8.4      23.1   333.582     0.740      88.4   0.17518      65.1         H               347.2  0.083190  0.043655  0.001187  4.345824  0.979386  4.437295  1.218861     33.70    5.7823   55.4736   0.26185   5.60663   0.23052   0.00921  81.89440   5.84255    3834.3  0.611196  0.001169  0.000037  0.000156  0.191098  7.037479  0.774437     85.63  1.000202  1.000021     3.438    25.934      86.6      86.6     107.5     527.5     12.90     -1.78      2.96      2.38      1.01      3.10     -0.67      2.07      0.09     -0.71      0.33      1.33     -1.80      0.64      1.53     -4.71      1.17      3.02      0.64      1.00
     -31.107073     108.950233     248.0      0.73      2.90     134.5         1         2      1000      2606   2931.64    -5.329       8.8      23.6   326.263     0.720      86.1   0.16856      68.4         H               347.2  0.079950  0.042620  0.001024  4.242603  0.950942  4.461476  1.202026     26.51    5.3645   47.8128   0.25961   5.47319   0.24224   0.01046  70.79892   5.43759    3523.7  0.595604  0.001140  0.000042  0.000157  0.191657  7.051597  0.752975     84.36  1.000222  1.000023     3.277    23.650      86.6      85.5      91.1     474.4     12.62     -1.38      2.95      2.99      1.17      3.18     -0.43      1.63      0.54     -0.33      0.47      0.83     -1.82      0.72      1.54     -3.86      1.02      2.58      0.83      1.44
     -31.093712     109.010880     258.3      0.71      2.90     132.0         1         3      1000      4212   2709.50    -5.671       8.9      24.0   329.967     0.731     109.2   0.17203      93.0         H               347.2  0.081852  0.042808  0.001317  4.191623  0.951694  4.404378  1.212878     29.68    4.9282   41.7132   0.26240   5.31679   0.25720   0.01227  61.53579   5.03778    3286.4  0.604101  0.001630  0.000052  0.000161  0.190598  7.025409  0.765708     85.54  1.000206  1.000020     3.388    26.009      88.6      84.1      78.4     455.9     13.00     -1.78      2.51      1.80      1.83      3.30     -0.06      1.73      0.30     -0.08      0.18      1.26     -1.94      0.74      1.40     -6.13      2.58      3.41     -0.25      1.44
     -31.068155     108.873390     248.0      0.72      2.90     134.5         2         1      2446      1000   3117.53    -5.062       8.4      23.1   329.859     0.728      83.9   0.17056      68.4         H               347.2  0.081181  0.043224  0.001258  4.258740  0.970810  4.386791  1.209192     25.08    5.7341   54.2470   0.25939   5.59322   0.23127   0.00933  80.35240   5.80097    3769.5  0.601692  0.001175  0.000031  0.000151  0.191906  7.048128  0.761576     87.27  1.000208  1.000022     3.304    23.607      84.8      86.5     104.4     487.0     12.93     -2.19      2.71      1.99      0.86      2.81     -0.47      1.85      0.26     -0.97     -0.03      1.04     -1.20      0.53      1.07     -5.62      1.22      2.30      0.31      0.87
     -31.054581     108.935165     269.0      0.71      2.90     129.3         2         2      2446      2606   2830.39    -5.482       8.4      23.6   330.215     0.730      95.8   0.17077     100.0         H               347.2  0.080893  0.043710  0.001292  4.359874  0.970573  4.492061  1.211107     22.52    5.1624   45.1926   0.26053   5.40139   0.24888   0.01128  66.83732   5.25845    3427.6  0.602965  0.001268  0.000055  0.000155  0.190713  7.048538  0.763737     84.18  1.000229  1.000024     3.360    24.867      86.6      84.8      85.5     460.7     12.82     -0.95      3.21      2.54      0.64      3.53      0.05      1.71      0.20     -0.68      0.30      0.81     -1.15      0.54      1.16     -5.39      0.40      3.09      1.22      0.66
     -31.041229     108.995773     242.9      0.71      2.90     117.2         2         3      2446      4212   2628.38    -5.803       8.6      24.0   333.376     0.739      94.3   0.17461      61.4         H               347.2  0.082608  0.043938  0.001212  4.416629  0.961493  4.593510  1.219067     26.10    4.7651   39.7194   0.26117   5.25394   0.26392   0.01317  58.69180   4.89546    3203.8  0.611111  0.001227  0.000043  0.000156  0.191451  7.042190  0.773879     86.50  1.000221  1.000024     3.400    25.110      88.6      83.4      74.2     425.7     13.00     -1.62      3.36      2.32      0.90      3.24     -0.66      2.08     -0.13     -0.70      0.18      1.41     -1.21      0.78      1.19     -5.00      0.76      2.89      0.49      1.44
     -31.015654     108.858391     249.6      0.72      2.90     121.9         3         1      3892      1000   3156.53    -5.008       8.5      23.1   332.038     0.738      78.6   0.17543      71.0         H               347.2  0.084135  0.043557  0.001238  4.335470  0.994332  4.360182  1.217318     27.70    5.8170   56.0779   0.26240   5.61786   0.22960   0.00911  82.72548   5.87330    3842.1  0.608982  0.000990  0.000026  0.000156  0.189790  7.014904  0.773078     87.03  1.000210  1.000023     3.457    27.960      86.6      86.7     108.5     561.9     12.95     -1.39      3.06      2.32      1.17      3.12     -0.73      1.52     -0.36     -0.98      0.50      1.49     -1.04      0.52      1.11     -5.12      1.87      3.15      0.71      1.03
     -31.002085     108.920113     230.0      0.80      2.90     105.7         3         2      3892      2606   2900.11    -5.376       8.7      23.6   336.607     0.755     117.3   0.18333      49.0         H               347.2  0.086454  0.046305  0.001530  4.566232  1.003752  4.549163  1.232984     32.04    5.2890   48.2081   0.26893   5.43939   0.24668   0.01103  70.48672   5.37787    3575.8  0.619253  0.001771  0.000067  0.000157  0.194393  7.051252  0.791230     89.50  1.000229  1.000026     3.610    30.182      88.6      85.0      91.8     528.0     13.35     -2.44      3.54      1.64      0.97      2.84     -0.94      1.96     -0.52     -1.38     -0.12      0.97     -1.48      0.76      1.26     -6.49      1.31      2.38      0.48      1.28
     -30.988741     108.980682     239.8      0.68      2.90     109.8         3         3      3892      4212   2578.40    -5.886       8.4      24.0   331.950     0.738     107.8   0.17530      58.0         H               347.2  0.082289  0.043726  0.001488  4.317303  0.977809  4.415284  1.217191     21.79    4.6745   38.3456   0.26301   5.21883   0.26737   0.01367  56.52027   4.80379    3138.2  0.609569  0.001511  0.000056  0.000154  0.192479  7.047384  0.772434     85.31  1.000221  1.000024     3.381    25.410      88.6      83.1      71.4     436.5     13.00     -1.37      2.72      1.98      1.00      3.52      0.01      1.57      0.00     -0.29      0.05      1.04     -0.99      0.48      1.03     -6.41      1.00      3.79      0.04      1.03
