corner points
106.9150391    -24.14091492
106.8695374    -23.96144104
107.1099091    -24.09767723
107.0640488    -23.91827583
========== RESULTS WAVE VERSION 16.10.2018 ====================
IMAGE SIZE  X: 5471     Y:4923    col:row     POLARIZATION:VV
COVERAGE    X: 20.30208836km       Y: 20.43900705km 
RESOLUTION dX: 3.71085512m       dY:4.151738179m  
resolution of original product 3.71085512m x 4.151738179m;   raster step x:5996.741874m  
===============================================================
FLAGS: H=HIGH PROBABILITY SEA STATE, I=LAND(ISLAND), O=OUTLIER NO SEA STATE, N=NO WIND AVAILABLE, SEA STATE NOT VISIBLE, M=MEAN PROBABILITY SEA STATE, L= LOW PROBABILITY SEA STATE
Filtering wave length
 integration  Lmin=1m
 integration  Lmax=2200m
  peak        Lmin=100m
               FFT=1024pixels, 3799.915643m 
   mean-Hs (SWH_c)=0.2358517647m
         mean-wind=5.224279881m/s
--------------0--------------1---------2---------3---------4---------5---------6---------7---------8---------9--------10--------11--------12--------13--------14--------15--------16--------17--------18--------19------------------20--------21--------22--------23--------24--------25--------26--------27--------28--------29--------30--------31--------32--------33--------34--------35--------36--------37--------38--------39--------40--------41--------42--------43--------44--------45--------46--------47--------48--------49--------50--------51--------52--------53--------54--------55--------56--------57--------58--------59--------60--------61--------62--------63--------64--------65--------66--------67--------68--------69--------70--------71--------72--------73
            LAT            LON  P-LENGHT     SWH_o     SWH_c     P-DIR      LINE     POINT     ROW-Y     COL-X  M-INTENC        dB      WIND INC-ANGLE  ENERGY-M  ENERGY-N  ENERGY-R ENERGY-NN  FG-DEPTH      FLAG         HEADING-DEG    E30-75   E75-390  E390-600 meanincut   meanout   cut/out  STD-NORM  SPEC-MAX   GL-MEAN    GL-VAR      CORR   ENTROPY   HOMOGEN    ENERGY  CONTRAST  DISSIMIL     STD-O    E 1-30 E600-2000   E2000 >      GODA  LONG-HIG     Tmean  CONVOLUT  MEAN-DIR  relation     Sy/Sx  SKEWNESS  KURTOSIS  cutoff-A >50/10000     INT*V   INT-LOG  S-1_g1f1  S-2_g1f2  S-3_g1f3  S-4_g2f1  S-5_g2f2  S-6_g2f3  S-7_g3f1  S-8_g3f2  S-9_g3f3 S-10_g1f4 S-11_g2f4 S-12_g3f4 S-13_g1f5 S-14_g2f5 S-15_g3f5 S-16_g4f1 S-17_g4f2 S-18_g4f3 S-19_g4f4 S-20_g4f5
--------------1--------------2---------3---------4---------5---------6---------7---------8---------9--------10--------11--------12--------13--------14--------15--------16--------17--------18--------19--------20------------------21--------22--------23--------24--------25--------26--------27--------28--------29--------30--------31--------32--------33--------34--------35--------36--------37--------38--------39--------40--------41--------42--------43--------44--------45--------46--------47--------48--------49--------50--------51--------52--------53--------54--------55--------56--------57--------58--------59--------60--------61--------62--------63--------64--------65--------66--------67--------68--------69--------70--------71--------72--------73--------74
     -24.096363     106.942337     283.3      0.39      1.91     131.8         1         1      1000      1000   2263.98    -6.451       5.7      23.2   339.136     0.665      88.5   0.14171     100.0         H               347.6  0.065030  0.040678  0.000808  3.470095  0.877647  3.953860  1.156611     48.61    4.0455   27.0831   0.23791   4.97823   0.28812   0.01644  41.27915   4.18799    2618.5  0.558161  0.001066  0.000046  0.000138  0.215671  7.232194  0.694866    114.70  1.000160  1.000011     2.950    18.779      65.3      81.3      51.0     302.7     13.49     -4.08      1.99      1.51      2.40      0.83     -3.03      2.79     -0.33     -1.08     -0.03      1.30     -3.82     -0.32      1.46     -4.44      3.09      0.43     -0.13      0.82
     -24.083475     107.000481     248.6      0.33      1.91     121.7         1         2      1000      2616   1923.14    -7.160       5.3      23.7   336.486     0.656      82.0   0.13778      69.3         H               347.6  0.064258  0.038896  0.000824  3.291130  0.896933  3.669315  1.148706     40.93    3.3710   19.3393   0.23389   4.65844   0.32224   0.02234  29.63176   3.54877    2209.1  0.551125  0.001018  0.000041  0.000133  0.213338  7.200941  0.684156    110.14  1.000159  1.000010     2.896    18.429      61.3      78.1      36.5     260.6     13.30     -3.52      1.02      1.67      1.70      0.66     -3.13      2.23     -0.04     -1.05     -0.49      0.92     -3.20     -0.65      1.39     -4.63      2.02      0.51     -0.43      0.17
     -24.070801     107.057549     236.1      0.32      1.91     131.8         1         3      1000      4232   1670.54    -7.771       5.1      24.2   334.169     0.645      74.8   0.13152      54.3         H               347.6  0.061621  0.035674  0.000800  3.044604  0.858436  3.546689  1.138755     31.91    2.8704   14.3511   0.22512   4.38386   0.35313   0.02888  22.24076   3.07468    1902.2  0.545927  0.001016  0.000028  0.000126  0.211367  7.180031  0.671427    122.07  1.000127  1.000009     2.842    17.518      58.5      74.9      27.5     216.3     13.03     -4.33     -0.02      1.54      1.35      0.30     -2.82      2.24      0.57     -0.33     -0.64      0.53     -2.65     -0.64      0.93     -4.79      2.65      0.35     -0.60      0.46
     -24.043678     106.928955     244.9      0.34      1.91     129.3         2         1      2445      1000   2148.43    -6.679       5.3      23.2   338.015     0.660      78.4   0.13850      64.1         H               347.6  0.064549  0.038507  0.000801  3.310164  0.874129  3.786814  1.151583     37.09    3.8194   24.1905   0.23317   4.87833   0.29762   0.01799  37.09999   3.97810    2474.0  0.555123  0.001002  0.000034  0.000135  0.212308  7.201892  0.688216    109.30  1.000169  1.000011     3.003    22.364      62.2      80.4      45.7     331.2     13.13     -3.64      1.19      2.14      1.74      0.57     -3.02      2.50      0.33     -0.74     -0.69      0.49     -3.16     -1.04      1.16     -4.04      2.13     -0.03     -0.38     -0.44
     -24.030796     106.987068     278.8      0.33      1.91     126.2         2         2      2445      2616   1889.82    -7.236       5.2      23.7   336.269     0.653      90.4   0.13606     100.0         H               347.6  0.062459  0.038743  0.000676  3.160053  0.880089  3.590607  1.145774     42.31    3.3048   18.6081   0.23147   4.62482   0.32548   0.02300  28.60189   3.48659    2165.3  0.550576  0.001066  0.000053  0.000135  0.216597  7.224359  0.681163    124.48  1.000148  1.000010     2.890    18.187      61.3      77.7      35.2     250.4     13.35     -4.91      0.48      1.49      1.01      0.33     -3.67      2.66      0.37     -1.35     -0.40      0.68     -3.27     -0.47      1.44     -4.13      1.98      0.08     -0.05      0.26
     -24.018129     107.044106     278.8      0.31      1.91     126.2         2         3      2445      4232   1619.11    -7.907       4.9      24.2   333.723     0.646     115.2   0.13301     100.0         H               347.6  0.061932  0.038713  0.000905  3.019394  0.868293  3.477393  1.139155     46.94    2.7623   13.4447   0.22977   4.31684   0.36267   0.03101  20.71082   2.95973    1844.4  0.543038  0.001593  0.000084  0.000137  0.218578  7.228773  0.673786    126.00  1.000151  1.000010     2.842    17.680      61.3      74.1      25.8     209.0     13.77     -6.08      0.74      0.28      2.12     -0.16     -3.61      3.45      0.09     -1.34     -0.22      0.93     -3.23     -0.16      1.40     -5.94      3.49     -0.57     -0.05      0.55
     -23.990992     106.915581     247.3      0.33      1.91     134.3         3         1      3890      1000   2098.03    -6.782       5.2      23.2   333.371     0.650      90.3   0.13637      67.4         H               347.6  0.063664  0.037814  0.000707  3.143109  0.870848  3.609250  1.144337     38.54    3.7141   22.7864   0.23444   4.82964   0.30279   0.01881  34.88854   3.86577    2400.7  0.547409  0.001063  0.000062  0.000133  0.213975  7.209682  0.678966    122.15  1.000156  1.000011     2.855    17.495      61.3      79.9      43.0     273.8     13.29     -4.73      0.97      1.68      1.01      0.14     -3.65      3.02      0.30     -1.68     -0.53      1.15     -3.16     -0.26      1.25     -3.80      1.39     -0.20     -0.21      0.61
     -23.978115     106.973663     271.0      0.34      1.91     134.5         3         2      3890      2616   1950.60    -7.098       5.4      23.7   333.547     0.646      82.8   0.13315     100.0         H               347.6  0.061505  0.036129  0.000747  3.024362  0.861481  3.510655  1.138901     35.44    3.4233   19.6053   0.22790   4.68800   0.31796   0.02150  30.27491   3.60067    2221.5  0.546833  0.000944  0.000055  0.000129  0.213890  7.193201  0.672669    120.33  1.000155  1.000011     2.806    16.660      61.3      78.4      37.3     240.1     13.29     -4.85      0.74      1.36      1.41     -0.04     -3.31      2.41      0.32     -1.67     -0.27      0.81     -2.66     -0.48      1.09     -4.67      2.67     -0.39      0.39      0.11
     -23.965456     107.030663     283.3      0.31      1.91     131.8         3         3      3890      4232   1593.75    -7.976       4.8      24.2   336.567     0.655     100.8   0.13661     100.0         H               347.6  0.063523  0.039852  0.000777  3.069362  0.878047  3.495669  1.147729     49.75    2.7181   13.2674   0.23261   4.28729   0.36685   0.03214  20.36279   2.92319    1829.1  0.550066  0.001291  0.000064  0.000137  0.219923  7.233450  0.683915    122.69  1.000165  1.000011     2.863    17.508      63.2      73.6      25.3     203.0     13.71     -5.98      0.97      0.59      2.10     -0.04     -3.62      2.91      0.10     -1.98     -0.34      1.37     -3.05      0.09      1.14     -5.16      3.58     -0.19     -0.15      0.85
