corner points
111.5837936    -33.35035324
111.5273056    -33.17805862
111.7926254    -33.30089569
111.7357178    -33.12870026
========== RESULTS WAVE VERSION 16.10.2018 ====================
IMAGE SIZE  X: 4376     Y:4780    col:row     POLARIZATION:VV
COVERAGE    X: 20.11993983km       Y: 19.82096695km 
RESOLUTION dX: 4.597792466m       dY:4.146645806m  
resolution of original product 4.597792466m x 4.146645806m;   raster step x:5995.521376m  
===============================================================
FLAGS: H=HIGH PROBABILITY SEA STATE, I=LAND(ISLAND), O=OUTLIER NO SEA STATE, N=NO WIND AVAILABLE, SEA STATE NOT VISIBLE, M=MEAN PROBABILITY SEA STATE, L= LOW PROBABILITY SEA STATE
Filtering wave length
 integration  Lmin=1m
 integration  Lmax=2200m
  peak        Lmin=100m
               FFT=1024pixels, 4708.139485m 
   mean-Hs (SWH_c)=1.043251801m
         mean-wind=11.94773674m/s
--------------0--------------1---------2---------3---------4---------5---------6---------7---------8---------9--------10--------11--------12--------13--------14--------15--------16--------17--------18--------19------------------20--------21--------22--------23--------24--------25--------26--------27--------28--------29--------30--------31--------32--------33--------34--------35--------36--------37--------38--------39--------40--------41--------42--------43--------44--------45--------46--------47--------48--------49--------50--------51--------52--------53--------54--------55--------56--------57--------58--------59--------60--------61--------62--------63--------64--------65--------66--------67--------68--------69--------70--------71--------72--------73
            LAT            LON  P-LENGHT     SWH_o     SWH_c     P-DIR      LINE     POINT     ROW-Y     COL-X  M-INTENC        dB      WIND INC-ANGLE  ENERGY-M  ENERGY-N  ENERGY-R ENERGY-NN  FG-DEPTH      FLAG         HEADING-DEG    E30-75   E75-390  E390-600 meanincut   meanout   cut/out  STD-NORM  SPEC-MAX   GL-MEAN    GL-VAR      CORR   ENTROPY   HOMOGEN    ENERGY  CONTRAST  DISSIMIL     STD-O    E 1-30 E600-2000   E2000 >      GODA  LONG-HIG     Tmean  CONVOLUT  MEAN-DIR  relation     Sy/Sx  SKEWNESS  KURTOSIS  cutoff-A >50/10000     INT*V   INT-LOG  S-1_g1f1  S-2_g1f2  S-3_g1f3  S-4_g2f1  S-5_g2f2  S-6_g2f3  S-7_g3f1  S-8_g3f2  S-9_g3f3 S-10_g1f4 S-11_g2f4 S-12_g3f4 S-13_g1f5 S-14_g2f5 S-15_g3f5 S-16_g4f1 S-17_g4f2 S-18_g4f3 S-19_g4f4 S-20_g4f5
--------------1--------------2---------3---------4---------5---------6---------7---------8---------9--------10--------11--------12--------13--------14--------15--------16--------17--------18--------19--------20------------------21--------22--------23--------24--------25--------26--------27--------28--------29--------30--------31--------32--------33--------34--------35--------36--------37--------38--------39--------40--------41--------42--------43--------44--------45--------46--------47--------48--------49--------50--------51--------52--------53--------54--------55--------56--------57--------58--------59--------60--------61--------62--------63--------64--------65--------66--------67--------68--------69--------70--------71--------72--------73--------74
     -33.302902     111.620239     229.4      1.05      3.06     112.2         1         1      1000      1000    503.81   -12.977      12.1      36.2   257.564     0.565      92.4   0.07640      48.5         H               347.0  0.047295  0.019488  0.000924  1.907493  0.703683  2.710728  1.066150     10.88    9.5337  108.5496   0.11509   6.58439   0.13940   0.00280 192.11371   9.67550     537.1  0.495497  0.001592  0.000150  0.000110  0.183534  6.937036  0.569803     84.40  1.000164  1.000012     2.394    12.432      97.3      94.1     241.6     536.9     12.73     -2.96      3.61      0.90      1.43      1.06      1.53      1.33      0.79     -2.55      1.47      1.18     -0.74      0.73      1.42     -9.77      4.98     -2.55      4.95      0.99
     -33.288132     111.682686     234.6      1.01      3.06     116.2         1         2      1000      2304    484.83   -13.144      12.1      36.6   259.198     0.567     122.6   0.07709      52.9         H               347.0  0.047206  0.019228  0.001071  1.857136  0.700556  2.650946  1.068781      9.99    9.1654  101.4740   0.11468   6.51182   0.14404   0.00303 179.67349   9.32853     518.2  0.497622  0.002150  0.000233  0.000109  0.181492  6.932745  0.572217     80.58  1.000180  1.000012     2.441    13.343      97.3      93.8     223.6     577.7     12.52     -2.54      3.04      0.59      2.40      0.99      2.40      0.74      1.44     -1.41      1.88      0.48     -0.59      0.72      1.62    -11.01      6.54     -2.71      5.76      0.31
     -33.273457     111.744553     275.5      1.08      3.06     130.5         1         3      1000      3608    495.10   -13.053      12.6      36.9   257.889     0.563      94.9   0.07563     100.0         H               347.0  0.046545  0.018975  0.001111  1.816445  0.698644  2.599958  1.064507     12.51    9.3673  105.1329   0.11326   6.55261   0.14123   0.00290 186.45084   9.52705     527.0  0.494490  0.001775  0.000146  0.000108  0.183498  6.927018  0.567447     81.34  1.000174  1.000013     2.376    12.303      94.9      94.0     232.2     538.1     12.67     -2.36      3.29      0.22      2.87      0.74      2.39      0.81      1.39     -1.23      2.39      0.74     -1.14      1.21      1.64    -11.60      6.89     -3.00      5.50      1.59
     -33.250778     111.603104     238.8      1.02      3.06     120.4         2         1      2446      1000    477.32   -13.212      11.7      36.2   258.628     0.567      85.6   0.07711      57.0         H               347.0  0.047749  0.020297  0.000955  1.990999  0.712962  2.792572  1.068532     13.30    9.0171   98.7855   0.11544   6.48165   0.14589   0.00313 174.76289   9.19448     510.0  0.496922  0.001490  0.000134  0.000114  0.184169  6.947074  0.572581     82.63  1.000187  1.000013     2.431    13.243      99.7      93.6     216.2     566.6     12.70     -3.01      3.71      1.03      1.97      0.94      1.45      1.37      1.20     -2.18      1.80      0.77     -0.71      0.85      2.10     -9.59      5.14     -3.20      5.14      0.23
     -33.236015     111.665520     245.5      1.03      3.06     117.6         2         2      2446      2304    450.76   -13.461      11.6      36.6   258.622     0.567      88.4   0.07661      64.9         H               347.0  0.047195  0.021044  0.001016  2.061509  0.702232  2.935654  1.068478     13.14    8.4992   88.7732   0.11541   6.37284   0.15313   0.00349 157.05432   8.68799     481.6  0.496351  0.001573  0.000139  0.000114  0.185532  6.992169  0.572455     81.41  1.000188  1.000014     2.453    13.783     105.0      93.1     191.5     558.8     12.70     -2.51      3.52      1.19      2.09      1.97      1.67      1.01      0.93     -1.45      1.47      1.02     -0.38      1.25      1.81     -9.85      5.75     -1.21      4.19      1.17
     -33.221348     111.727348     382.2      1.02      3.06     116.7         2         3      2446      3608    461.03   -13.363      12.1      36.9   260.021     0.568      95.5   0.07629     100.0         H               347.0  0.047054  0.019911  0.001095  1.927497  0.698812  2.758247  1.069470     13.54    8.6975   92.7212   0.11314   6.41555   0.15035   0.00335 164.46063   8.89441     493.0  0.498120  0.001967  0.000137  0.000113  0.185997  6.958287  0.572834     80.64  1.000191  1.000015     2.441    13.048     102.3      93.3     201.1     508.1     12.86     -2.93      3.99      0.19      2.83      0.99      2.37      0.68      1.22     -2.00      2.31      0.68     -0.43      1.15      1.14    -11.47      7.37     -2.89      6.09      1.81
     -33.198654     111.585999     234.6      1.07      3.06     116.2         3         1      3892      1000    471.89   -13.262      11.7      36.2   260.067     0.571      73.4   0.07759      52.9         H               347.0  0.048532  0.021448  0.000829  2.154226  0.700418  3.075627  1.072107     18.66    8.9074   96.8945   0.11537   6.45878   0.14737   0.00320 171.43140   9.09107     505.9  0.499239  0.001299  0.000098  0.000117  0.185621  6.971562  0.576749     87.09  1.000222  1.000016     2.489    14.078     107.8      93.5     211.8     582.3     12.83     -2.81      4.40      1.44      1.48      1.71      0.75      1.98      0.22     -1.86      1.21      1.54     -0.52      1.18      1.77     -7.53      3.72     -0.33      3.32      1.29
     -33.183899     111.648369     228.8      1.09      3.06     119.0         3         2      3892      2304    467.90   -13.298      11.9      36.6   258.308     0.566      78.8   0.07680      48.0         H               347.0  0.047487  0.021079  0.001002  2.040426  0.695134  2.935301  1.067814     17.24    8.8367   95.1513   0.11578   6.44464   0.14863   0.00325 168.26895   9.00788     499.6  0.495616  0.001393  0.000097  0.000115  0.188784  6.975869  0.571773     87.10  1.000219  1.000016     2.410    12.741     105.0      93.5     207.1     529.5     13.08     -3.20      4.07      0.95      2.07      1.93      0.94      1.82      0.10     -1.99      1.35      1.78     -0.24      1.26      1.29     -9.64      5.15     -0.54      3.34      1.58
     -33.169243     111.710167     261.3      1.02      3.06     123.6         3         3      3892      3608    443.46   -13.531      11.8      37.0   258.663     0.567     109.4   0.07706     109.9         H               347.0  0.047471  0.020811  0.001117  2.037759  0.707119  2.881778  1.068949     12.80    8.3527   86.1730   0.11591   6.34069   0.15517   0.00362 152.36783   8.55205     474.1  0.496170  0.001969  0.000183  0.000112  0.185261  6.958786  0.573021     81.72  1.000194  1.000014     2.455    13.580     102.3      92.8     185.1     532.1     12.98     -2.80      4.14      0.51      2.41      1.34      1.85      0.59      0.51     -1.55      2.13      0.60     -0.40      1.35      1.24    -11.04      6.86     -1.73      5.48      1.90
