corner points
118.9941025    -55.35341263
118.8871384    -55.18172073
119.3053284    -55.28810883
119.1970062    -55.11668777
========== RESULTS WAVE VERSION 16.10.2018 ====================
IMAGE SIZE  X: 5471     Y:4902    col:row     POLARIZATION:VV
COVERAGE    X: 20.93416906km       Y: 20.21515155km 
RESOLUTION dX: 3.826388058m       dY:4.123857925m  
resolution of original product 3.826388058m x 4.123857925m;   raster step x:5999.776475m  
===============================================================
FLAGS: H=HIGH PROBABILITY SEA STATE, I=LAND(ISLAND), O=OUTLIER NO SEA STATE, N=NO WIND AVAILABLE, SEA STATE NOT VISIBLE, M=MEAN PROBABILITY SEA STATE, L= LOW PROBABILITY SEA STATE
Filtering wave length
 integration  Lmin=1m
 integration  Lmax=2200m
  peak        Lmin=100m
               FFT=1024pixels, 3918.221371m 
   mean-Hs (SWH_c)=4.255646057m
         mean-wind=7.937036991m/s
--------------0--------------1---------2---------3---------4---------5---------6---------7---------8---------9--------10--------11--------12--------13--------14--------15--------16--------17--------18--------19------------------20--------21--------22--------23--------24--------25--------26--------27--------28--------29--------30--------31--------32--------33--------34--------35--------36--------37--------38--------39--------40--------41--------42--------43--------44--------45--------46--------47--------48--------49--------50--------51--------52--------53--------54--------55--------56--------57--------58--------59--------60--------61--------62--------63--------64--------65--------66--------67--------68--------69--------70--------71--------72--------73
            LAT            LON  P-LENGHT     SWH_o     SWH_c     P-DIR      LINE     POINT     ROW-Y     COL-X  M-INTENC        dB      WIND INC-ANGLE  ENERGY-M  ENERGY-N  ENERGY-R ENERGY-NN  FG-DEPTH      FLAG         HEADING-DEG    E30-75   E75-390  E390-600 meanincut   meanout   cut/out  STD-NORM  SPEC-MAX   GL-MEAN    GL-VAR      CORR   ENTROPY   HOMOGEN    ENERGY  CONTRAST  DISSIMIL     STD-O    E 1-30 E600-2000   E2000 >      GODA  LONG-HIG     Tmean  CONVOLUT  MEAN-DIR  relation     Sy/Sx  SKEWNESS  KURTOSIS  cutoff-A >50/10000     INT*V   INT-LOG  S-1_g1f1  S-2_g1f2  S-3_g1f3  S-4_g2f1  S-5_g2f2  S-6_g2f3  S-7_g3f1  S-8_g3f2  S-9_g3f3 S-10_g1f4 S-11_g2f4 S-12_g3f4 S-13_g1f5 S-14_g2f5 S-15_g3f5 S-16_g4f1 S-17_g4f2 S-18_g4f3 S-19_g4f4 S-20_g4f5
--------------1--------------2---------3---------4---------5---------6---------7---------8---------9--------10--------11--------12--------13--------14--------15--------16--------17--------18--------19--------20------------------21--------22--------23--------24--------25--------26--------27--------28--------29--------30--------31--------32--------33--------34--------35--------36--------37--------38--------39--------40--------41--------42--------43--------44--------45--------46--------47--------48--------49--------50--------51--------52--------53--------54--------55--------56--------57--------58--------59--------60--------61--------62--------63--------64--------65--------66--------67--------68--------69--------70--------71--------72--------73--------74
     -55.306187     119.030716     261.2      4.17      4.68      90.0         1         1      1000      1000   3453.02    -4.618       8.0      22.5   286.659     1.031     229.3   0.30518     109.0         H               343.2  0.125679  0.153221  0.004203  8.516109  1.205350  7.065257  1.438683    180.81    6.3389   82.4247   0.35334   5.67305   0.24509   0.01094 106.60169   6.28859    4967.0  0.746715  0.001937  0.000036  0.000292  0.231743  7.583722  1.103621     84.51  1.000471  1.000076     4.621    45.292     153.8      84.9     166.4     759.2     15.27      3.35     11.98      1.56     -0.21      4.27     -2.29     -1.96     -2.59      3.61     -0.10     -1.69      5.03      3.22      0.34     -5.51     -0.60      1.96     -1.18      2.25
     -55.287312     119.120903     244.9      4.26      4.68      69.6         1         2      1000      2568   2992.61    -5.239       7.6      22.9   292.376     1.057     250.8   0.31748      64.0         H               343.2  0.131484  0.161286  0.004213  9.086583  1.253634  7.248195  1.456033    211.09    5.4469   65.1143   0.35763   5.39228   0.27271   0.01466  83.65359   5.47212    4356.6  0.758454  0.002140  0.000037  0.000292  0.239021  7.599872  1.132928     83.56  1.000466  1.000076     4.884    51.674     153.8      82.2     125.7     718.5     15.88      3.41     13.21      1.12     -0.48      3.46     -3.50     -1.61     -4.09      3.15      0.31     -1.91      5.76      2.68     -0.74     -6.04     -1.72      0.54     -0.00      1.20
     -55.268730     119.209282     279.3      3.98      4.68      93.8         1         3      1000      4136   2721.07    -5.653       7.6      23.4   283.099     1.009     228.5   0.29551     100.0         H               343.2  0.122554  0.147524  0.003915  8.764361  1.229381  7.129086  1.423816    166.55    4.9236   53.3297   0.34709   5.22658   0.28624   0.01667  69.63745   4.99564    3874.2  0.733985  0.002021  0.000038  0.000280  0.231776  7.571352  1.079491     85.82  1.000467  1.000073     4.729    48.681     148.0      80.9      99.7     630.7     15.29      3.04     12.06      1.59     -0.38      4.24     -2.21     -1.58     -2.56      2.90     -0.24     -1.20      5.11      3.44      0.29     -5.55     -0.81      1.69     -0.92      2.13
     -55.255268     118.998871     244.5      4.17      4.68      93.3         2         1      2454      1000   3525.55    -4.528       8.3      22.5   287.199     1.030     241.7   0.30460      63.5         H               343.2  0.125343  0.152066  0.003838  8.778140  1.240954  7.073701  1.438792    237.25    6.4729   84.6031   0.35058   5.71521   0.24020   0.01037 109.88593   6.41022    5072.4  0.746770  0.002401  0.000046  0.000296  0.232970  7.590051  1.101334     85.66  1.000471  1.000077     4.757    49.469     160.0      85.3     173.5     820.8     15.40      3.10     12.82      2.15     -0.31      4.64     -3.13     -1.23     -4.01      3.10      0.39     -1.51      6.28      2.93     -0.82     -4.61     -1.54      2.62      0.03      1.24
     -55.236416     119.088936     261.2      4.48      4.68      90.0         2         2      2454      2568   3052.38    -5.154       7.8      22.9   292.427     1.056     259.4   0.31686     109.0         H               343.2  0.128173  0.164602  0.004275  8.828067  1.205074  7.325744  1.454763    277.17    5.5600   67.5830   0.35759   5.42876   0.26932   0.01411  86.83276   5.57516    4439.8  0.757813  0.002132  0.000049  0.000313  0.239963  7.662438  1.132450     85.42  1.000521  1.000085     4.903    55.467     160.0      82.5     130.6     756.4     15.82      3.28     13.14      1.05     -0.76      3.88     -2.97     -1.60     -3.68      3.64     -0.59     -1.71      6.27      3.41     -0.96     -5.92     -1.13      1.72     -1.10      2.50
     -55.217861     119.177200     277.4      4.15      4.68      82.4         2         3      2454      4136   2787.78    -5.547       7.9      23.4   285.745     1.021     247.2   0.29906     100.0         H               343.2  0.123186  0.151447  0.004559  8.462891  1.207467  7.008795  1.432490    253.57    5.0630   56.4297   0.34982   5.27233   0.28235   0.01610  73.37889   5.12314    3992.9  0.739918  0.002438  0.000033  0.000300  0.238100  7.626431  1.092482     84.30  1.000497  1.000077     4.789    50.243     153.8      81.2     106.2     648.6     15.91      3.27     13.29      0.58     -1.20      3.32     -3.14     -1.45     -4.34      3.78     -1.30     -1.84      6.40      2.67     -1.14     -6.86     -2.00      1.30     -1.70      1.29
     -55.204342     118.967094     283.9      4.48      4.68      70.4         3         1      3908      1000   3440.50    -4.634       8.0      22.5   288.864     1.036     268.5   0.30543     100.0         H               343.2  0.121604  0.159587  0.004547  8.777651  1.234969  7.107588  1.441275    225.28    6.2960   80.9081   0.35123   5.66510   0.24470   0.01086 104.98254   6.24996    4957.9  0.747813  0.002703  0.000058  0.000311  0.239824  7.696950  1.109017     87.28  1.000460  1.000075     4.820    50.802     160.0      84.9     165.0     792.3     15.77      2.86     13.27      1.33     -0.96      4.04     -3.00     -1.55     -3.90      3.08     -1.19     -1.70      6.31      3.27     -0.96     -6.29     -1.38      1.03     -1.36      1.40
     -55.185516     119.057045     261.2      4.34      4.68      90.0         3         2      3908      2568   3140.71    -5.030       8.1      22.9   285.335     1.025     242.6   0.30324     109.0         H               343.2  0.123501  0.156375  0.003916  8.562192  1.196556  7.155695  1.435097    284.31    5.7345   69.6535   0.35273   5.49479   0.26101   0.01295  90.16859   5.73591    4506.6  0.739988  0.002119  0.000031  0.000308  0.239432  7.625990  1.097951     86.13  1.000511  1.000082     4.683    46.860     160.0      83.4     135.9     710.5     15.89      2.52     13.90      1.09     -0.64      3.43     -3.42     -1.34     -4.46      2.70     -0.36     -1.74      7.52      2.65     -1.60     -5.50     -1.38      1.35     -0.61      1.29
     -55.166981     119.145195     279.3      4.28      4.68      86.2         3         3      3908      4136   2825.35    -5.489       8.0      23.4   289.695     1.043     261.2   0.31088     100.0         H               343.2  0.124942  0.155483  0.004101  8.612267  1.259504  6.837825  1.448619    274.75    5.1235   58.0193   0.35277   5.29030   0.28116   0.01587  75.10342   5.17921    4092.4  0.756792  0.002655  0.000049  0.000300  0.236659  7.628396  1.116398     87.84  1.000476  1.000076     5.206    70.826     160.0      81.4     110.4     755.0     15.71      2.40     13.45      0.92     -0.67      3.32     -2.60     -1.18     -3.59      2.37     -0.64     -1.39      6.79      2.43     -0.77     -5.95     -1.39      1.37     -0.89      1.31
