corner points
116.3579788    -45.44329071
116.2790146    -45.27410889
116.604393    -45.38483429
116.5247116    -45.21582031
========== RESULTS WAVE VERSION 16.10.2018 ====================
IMAGE SIZE  X: 4376     Y:4774    col:row     POLARIZATION:VV
COVERAGE    X: 20.25509908km       Y: 19.75468411km 
RESOLUTION dX: 4.62867895m       dY:4.137973212m  
resolution of original product 4.62867895m x 4.137973212m;   raster step x:5998.767919m  
===============================================================
FLAGS: H=HIGH PROBABILITY SEA STATE, I=LAND(ISLAND), O=OUTLIER NO SEA STATE, N=NO WIND AVAILABLE, SEA STATE NOT VISIBLE, M=MEAN PROBABILITY SEA STATE, L= LOW PROBABILITY SEA STATE
Filtering wave length
 integration  Lmin=1m
 integration  Lmax=2200m
  peak        Lmin=100m
               FFT=1024pixels, 4739.767245m 
   mean-Hs (SWH_c)=2.87319458m
         mean-wind=10.35185146m/s
--------------0--------------1---------2---------3---------4---------5---------6---------7---------8---------9--------10--------11--------12--------13--------14--------15--------16--------17--------18--------19------------------20--------21--------22--------23--------24--------25--------26--------27--------28--------29--------30--------31--------32--------33--------34--------35--------36--------37--------38--------39--------40--------41--------42--------43--------44--------45--------46--------47--------48--------49--------50--------51--------52--------53--------54--------55--------56--------57--------58--------59--------60--------61--------62--------63--------64--------65--------66--------67--------68--------69--------70--------71--------72--------73
            LAT            LON  P-LENGHT     SWH_o     SWH_c     P-DIR      LINE     POINT     ROW-Y     COL-X  M-INTENC        dB      WIND INC-ANGLE  ENERGY-M  ENERGY-N  ENERGY-R ENERGY-NN  FG-DEPTH      FLAG         HEADING-DEG    E30-75   E75-390  E390-600 meanincut   meanout   cut/out  STD-NORM  SPEC-MAX   GL-MEAN    GL-VAR      CORR   ENTROPY   HOMOGEN    ENERGY  CONTRAST  DISSIMIL     STD-O    E 1-30 E600-2000   E2000 >      GODA  LONG-HIG     Tmean  CONVOLUT  MEAN-DIR  relation     Sy/Sx  SKEWNESS  KURTOSIS  cutoff-A >50/10000     INT*V   INT-LOG  S-1_g1f1  S-2_g1f2  S-3_g1f3  S-4_g2f1  S-5_g2f2  S-6_g2f3  S-7_g3f1  S-8_g3f2  S-9_g3f3 S-10_g1f4 S-11_g2f4 S-12_g3f4 S-13_g1f5 S-14_g2f5 S-15_g3f5 S-16_g4f1 S-17_g4f2 S-18_g4f3 S-19_g4f4 S-20_g4f5
--------------1--------------2---------3---------4---------5---------6---------7---------8---------9--------10--------11--------12--------13--------14--------15--------16--------17--------18--------19--------20------------------21--------22--------23--------24--------25--------26--------27--------28--------29--------30--------31--------32--------33--------34--------35--------36--------37--------38--------39--------40--------41--------42--------43--------44--------45--------46--------47--------48--------49--------50--------51--------52--------53--------54--------55--------56--------57--------58--------59--------60--------61--------62--------63--------64--------65--------66--------67--------68--------69--------70--------71--------72--------73--------74
     -45.394386     116.398392     259.3      3.12      3.74     111.5         1         1      1000      1000    402.33   -13.954      10.2      35.9   301.542     0.647     129.0   0.10577      97.5         H               345.5  0.055433  0.056653  0.001090  3.767842  0.767725  4.907803  1.140855    186.50    7.5278   79.6033   0.16494   6.12807   0.17642   0.00491 132.94756   7.75656     458.9  0.532341  0.001282  0.000168  0.000297  0.238091  7.580926  0.661766    110.46  1.000141  1.000014     2.852    17.802     181.9      90.9     164.1     562.5     15.50     -8.80     11.45      1.66      0.15      3.60     -4.58      4.65     -5.18    -10.94     -0.90      5.83      2.09      2.48      0.07     -4.41      2.12      2.29      1.12      2.21
     -45.377037     116.471626     259.3      2.72      3.74     111.5         1         2      1000      2296    366.24   -14.362       9.8      36.3   297.294     0.629     114.9   0.09789      97.5         H               345.5  0.052772  0.050609  0.001185  3.389881  0.733622  4.620747  1.125228    132.38    6.8220   65.6725   0.15421   5.95090   0.18862   0.00581 111.08951   7.08728     412.1  0.523511  0.001097  0.000150  0.000262  0.233509  7.507041  0.642245    110.45  1.000102  1.000010     2.724    15.916     174.0      89.7     132.4     464.0     15.03     -8.89     10.15      1.81     -0.22      4.31     -3.10      3.61     -3.79    -10.25     -2.09      4.26      0.94      2.93      0.69     -5.19      2.48      2.94      0.53      2.89
     -45.359795     116.544159     241.5      3.28      3.74     113.5         1         3      1000      3592    391.18   -14.076      10.6      36.6   300.818     0.642     174.1   0.10417      59.8         H               345.5  0.054092  0.057083  0.001238  3.385376  0.762985  4.437016  1.136751    155.59    7.3132   75.5725   0.16500   6.07513   0.18079   0.00519 126.20544   7.54403     444.6  0.527474  0.001767  0.000354  0.000303  0.243035  7.619524  0.656999    109.47  1.000061  1.000006     2.761    16.058     174.0      90.6     154.0     493.8     15.32     -9.46     10.82      1.76     -0.09      4.10     -3.52      3.67     -3.88    -11.11     -1.83      4.41      1.07      3.06      0.54     -5.08      3.12      2.24      1.40      3.00
     -45.343040     116.374352     259.3      2.75      3.74     111.5         2         1      2449      1000    404.40   -13.932      10.2      35.9   296.605     0.628      96.9   0.09834      97.5         H               345.5  0.053778  0.050346  0.001108  3.529882  0.756762  4.664456  1.124516    119.18    7.5742   78.8941   0.15569   6.14391   0.17419   0.00476 133.22244   7.80219     454.7  0.522435  0.000889  0.000102  0.000243  0.231974  7.481114  0.641710    109.37  1.000109  1.000010     2.715    15.686     160.0      91.1     162.7     506.3     15.18     -9.21      9.98      1.51      0.24      3.97     -3.53      4.16     -4.23    -10.35     -1.49      4.80      0.49      3.11      0.55     -5.37      2.69      2.90      0.88      3.29
     -45.325703     116.447517     224.7      2.84      3.74     108.6         2         2      2449      2296    398.10   -14.000      10.5      36.3   296.960     0.631     170.0   0.10045      45.1         H               345.5  0.054126  0.051342  0.001241  3.526508  0.755179  4.669761  1.127902    132.04    7.4499   77.2102   0.15999   6.11185   0.17693   0.00496 129.71466   7.68205     449.0  0.522863  0.001973  0.000304  0.000265  0.232001  7.484484  0.645497    107.71  1.000096  1.000010     2.705    15.404     166.7      90.8     158.2     491.5     15.21     -8.52     10.62      1.96     -0.58      4.33     -3.68      3.76     -4.80    -10.62     -2.13      4.78      2.15      2.35     -0.08     -5.31      2.17      3.16      0.91      1.77
     -45.308479     116.519989     259.3      2.66      3.74     111.5         2         3      2449      3592    374.01   -14.271      10.3      36.6   295.350     0.624     189.2   0.09667      97.5         H               345.5  0.052113  0.048476  0.001107  3.417853  0.731494  4.672425  1.121064    113.20    6.9775   67.7641   0.15335   5.99408   0.18479   0.00550 114.74539   7.22317     419.3  0.520009  0.002166  0.000372  0.000249  0.232428  7.489702  0.636902    110.01  1.000093  1.000009     2.733    16.277     160.0      90.2     137.6     483.5     15.08     -9.46      9.95      1.55      0.37      3.70     -3.24      3.81     -3.44    -10.54     -1.55      4.41      0.40      3.14      0.96     -5.56      3.62      1.58      1.70      3.13
     -45.291687     116.350349     230.6      2.91      3.74     112.4         3         1      3898      1000    420.70   -13.760      10.5      35.9   297.211     0.632     121.7   0.10011      49.5         H               345.5  0.053199  0.051588  0.001192  3.453141  0.746706  4.624500  1.127904    113.25    7.8934   85.4159   0.15850   6.21864   0.16952   0.00444 143.75348   8.10642     474.5  0.525090  0.001263  0.000151  0.000274  0.234289  7.524063  0.645938    108.50  1.000145  1.000013     2.703    15.361     166.7      91.5     177.7     524.5     15.27     -8.96     10.78      1.85     -0.23      4.02     -3.59      3.77     -4.15    -10.45     -2.01      4.62      1.67      3.10      0.38     -5.49      2.76      1.76      0.74      2.64
     -45.274368     116.423454     241.5      2.60      3.74     113.5         3         2      3898      2296    378.35   -14.221      10.1      36.3   296.698     0.627      85.8   0.09767      59.8         H               345.5  0.053742  0.048819  0.001038  3.385917  0.737603  4.590434  1.123083    108.71    7.0614   69.6455   0.15290   6.01524   0.18347   0.00542 117.99173   7.31744     424.9  0.522614  0.000798  0.000062  0.000248  0.229479  7.468135  0.639098    109.10  1.000111  1.000010     2.712    15.722     160.0      90.2     141.4     483.8     14.95     -8.69      9.87      1.79     -0.17      3.97     -3.15      3.66     -3.74    -10.34     -1.55      4.43      1.21      2.47      0.66     -4.86      2.62      3.00      1.22      2.43
     -45.257156     116.495865     224.7      2.97      3.74     108.6         3         3      3898      3592    410.77   -13.864      11.0      36.7   298.074     0.636     170.5   0.10281      45.1         H               345.5  0.054887  0.052098  0.001191  3.606751  0.762697  4.728946  1.131675    108.62    7.6979   81.9556   0.16286   6.17125   0.17293   0.00467 137.21649   7.90617     464.9  0.525901  0.001982  0.000323  0.000254  0.232409  7.492423  0.650389    109.33  1.000103  1.000010     2.754    16.163     166.7      91.3     169.6     528.8     14.98     -8.98      9.99      1.89     -0.21      4.50     -2.95      3.63     -3.74    -10.34     -2.02      4.12      1.04      3.12      0.77     -5.45      2.77      3.38      1.20      2.84
