corner points
106.6411285    -15.82167149
106.5990067    -15.64722061
106.8226852    -15.77978134
106.7803955    -15.6053896
========== RESULTS WAVE VERSION 16.10.2018 ====================
IMAGE SIZE  X: 4376     Y:4784    col:row     POLARIZATION:VV
COVERAGE    X: 19.92993906km       Y: 19.86944164km 
RESOLUTION dX: 4.554373643m       dY:4.153311379m  
resolution of original product 4.554373643m x 4.153311379m;   raster step x:5998.110088m  
===============================================================
FLAGS: H=HIGH PROBABILITY SEA STATE, I=LAND(ISLAND), O=OUTLIER NO SEA STATE, N=NO WIND AVAILABLE, SEA STATE NOT VISIBLE, M=MEAN PROBABILITY SEA STATE, L= LOW PROBABILITY SEA STATE
Filtering wave length
 integration  Lmin=1m
 integration  Lmax=2200m
  peak        Lmin=100m
               FFT=1024pixels, 4663.678611m 
   mean-Hs (SWH_c)=0.2m
         mean-wind=7.367489338m/s
--------------0--------------1---------2---------3---------4---------5---------6---------7---------8---------9--------10--------11--------12--------13--------14--------15--------16--------17--------18--------19------------------20--------21--------22--------23--------24--------25--------26--------27--------28--------29--------30--------31--------32--------33--------34--------35--------36--------37--------38--------39--------40--------41--------42--------43--------44--------45--------46--------47--------48--------49--------50--------51--------52--------53--------54--------55--------56--------57--------58--------59--------60--------61--------62--------63--------64--------65--------66--------67--------68--------69--------70--------71--------72--------73
            LAT            LON  P-LENGHT     SWH_o     SWH_c     P-DIR      LINE     POINT     ROW-Y     COL-X  M-INTENC        dB      WIND INC-ANGLE  ENERGY-M  ENERGY-N  ENERGY-R ENERGY-NN  FG-DEPTH      FLAG         HEADING-DEG    E30-75   E75-390  E390-600 meanincut   meanout   cut/out  STD-NORM  SPEC-MAX   GL-MEAN    GL-VAR      CORR   ENTROPY   HOMOGEN    ENERGY  CONTRAST  DISSIMIL     STD-O    E 1-30 E600-2000   E2000 >      GODA  LONG-HIG     Tmean  CONVOLUT  MEAN-DIR  relation     Sy/Sx  SKEWNESS  KURTOSIS  cutoff-A >50/10000     INT*V   INT-LOG  S-1_g1f1  S-2_g1f2  S-3_g1f3  S-4_g2f1  S-5_g2f2  S-6_g2f3  S-7_g3f1  S-8_g3f2  S-9_g3f3 S-10_g1f4 S-11_g2f4 S-12_g3f4 S-13_g1f5 S-14_g2f5 S-15_g3f5 S-16_g4f1 S-17_g4f2 S-18_g4f3 S-19_g4f4 S-20_g4f5
--------------1--------------2---------3---------4---------5---------6---------7---------8---------9--------10--------11--------12--------13--------14--------15--------16--------17--------18--------19--------20------------------21--------22--------23--------24--------25--------26--------27--------28--------29--------30--------31--------32--------33--------34--------35--------36--------37--------38--------39--------40--------41--------42--------43--------44--------45--------46--------47--------48--------49--------50--------51--------52--------53--------54--------55--------56--------57--------58--------59--------60--------61--------62--------63--------64--------65--------66--------67--------68--------69--------70--------71--------72--------73--------74
     -15.775534     106.674278     308.9      0.43      1.65     120.6         1         1      1000      1000    230.96   -16.365       7.1      36.6   229.246     0.534      68.2   0.05834     100.0         H               347.8  0.037902  0.016373  0.000605  1.318600  0.644205  2.046864  1.037143     31.92    4.1396   22.8452   0.07995   5.05939   0.25579   0.01256  42.03731   4.48378     239.5  0.478677  0.001077  0.000095  0.000103  0.204382  7.022650  0.537971    121.80  1.000048  1.000002     2.197    10.554      76.6      83.7      46.5     212.2     13.99     -7.98      0.13     -2.52      4.75     -1.30     -1.71      2.61     -0.41     -2.59      0.80      1.94     -3.80      1.52      1.23    -10.80      8.93     -0.49      0.70      3.23
     -15.762890     106.729111     285.7      0.44      1.65     127.2         1         2      1000      2317    228.92   -16.403       7.3      37.0   228.861     0.533      54.6   0.05753     100.0         H               347.8  0.037835  0.014227  0.000557  1.193753  0.642145  1.859009  1.035852     22.16    4.0982   22.4138   0.07711   5.04155   0.25709   0.01279  41.37072   4.44867     237.2  0.479634  0.000783  0.000077  0.000095  0.192140  6.917815  0.535669    129.01  1.000038  1.000002     2.209    10.801      75.2      83.4      45.6     221.7     13.27     -6.78     -0.61     -1.75      4.41     -1.00     -0.72      1.92     -0.27     -1.30      0.13      0.93     -3.53      1.53      1.28    -10.26      8.62     -0.39      0.26      3.01
     -15.750341     106.783455     285.7      0.45      1.65     127.2         1         3      1000      3634    224.26   -16.492       7.5      37.4   228.143     0.532      54.2   0.05790     100.0         H               347.8  0.037707  0.014487  0.000692  1.216670  0.638851  1.904466  1.034891     18.54    4.0073   21.4403   0.07733   5.00165   0.26149   0.01327  39.56457   4.35265     232.1  0.478284  0.000888  0.000063  0.000095  0.197558  6.948298  0.534792    127.42  1.000071  1.000005     2.193    10.693      76.6      83.3      43.8     218.9     13.68     -7.15      0.07     -2.26      4.00     -1.10     -0.84      2.30     -0.31     -1.29      0.17      1.04     -3.06      1.01      1.06    -11.73      8.51     -1.23      0.52      2.52
     -15.722871     106.661545     315.6      0.44      1.65     131.9         2         1      2444      1000    240.20   -16.194       7.3      36.6   228.111     0.532      64.7   0.05837     100.0         H               347.8  0.038052  0.014553  0.000584  1.233800  0.645770  1.910586  1.035138     19.11    4.3236   24.6199   0.07910   5.13750   0.24830   0.01160  45.34479   4.65855     248.6  0.478365  0.000857  0.000127  0.000094  0.191830  6.930964  0.535168    126.01  1.000053  1.000002     2.196    10.605      75.2      84.5      50.1     228.5     13.27     -6.64     -0.28     -1.61      4.04     -0.86     -0.57      1.76     -0.39     -1.37     -0.02      1.43     -2.98      1.57      0.84    -10.47      8.59     -0.20     -0.66      3.27
     -15.710233     106.716362     300.2      0.46      1.65     129.4         2         2      2444      2317    238.83   -16.219       7.6      37.0   228.411     0.535      57.9   0.05973     100.0         H               347.8  0.038966  0.014998  0.000714  1.270370  0.650903  1.951706  1.037966     21.81    4.2952   24.5019   0.08243   5.12496   0.25019   0.01184  44.96446   4.63515     247.9  0.479592  0.000804  0.000096  0.000095  0.194441  6.940800  0.538107    127.82  1.000049  1.000003     2.210    10.745      75.2      84.2      49.8     222.9     13.42     -6.97     -0.63     -2.00      4.08     -0.55     -0.38      2.06     -0.19     -1.51      0.14      1.05     -3.50      1.38      1.62    -11.63      8.43      0.33      0.20      2.44
     -15.697690     106.770691     251.0      0.45      1.65     126.2         2         3      2444      3634    226.25   -16.454       7.5      37.4   228.818     0.534      55.8   0.05805      73.5         H               347.8  0.038529  0.014821  0.000722  1.243432  0.649779  1.913621  1.036497     22.20    4.0465   21.8947   0.07897   5.01887   0.26007   0.01307  40.33131   4.38922     234.5  0.478849  0.000890  0.000070  0.000099  0.196926  6.942901  0.536820    128.64  1.000044  1.000003     2.202    10.644      76.6      83.4      44.7     210.9     13.68     -7.71     -0.44     -2.62      4.61     -0.84     -0.67      2.59     -0.35     -1.35      0.09      1.44     -3.78      1.74      1.38    -12.17      8.89     -0.30     -0.53      3.51
     -15.670207     106.648819     282.3      0.44      1.65     122.1         3         1      3888      1000    240.72   -16.185       7.3      36.6   229.629     0.537      79.3   0.05965     100.0         H               347.8  0.038509  0.015489  0.000585  1.297159  0.638785  2.030665  1.039901     28.26    4.3339   24.9553   0.08225   5.14121   0.24853   0.01164  45.80548   4.67333     250.3  0.481573  0.001187  0.000134  0.000102  0.200645  6.978338  0.540713    127.42  1.000067  1.000003     2.220    10.804      78.1      84.4      50.6     229.7     13.77     -8.00     -0.22     -2.11      4.26     -1.02     -1.61      3.38      0.02     -1.63      0.25      1.21     -3.89      1.43      1.68    -10.23      7.32     -1.31      0.35      2.24
     -15.657574     106.703621     274.2      0.44      1.65     130.1         3         2      3888      2317    229.03   -16.401       7.3      37.0   228.484     0.533      72.6   0.05882     100.0         H               347.8  0.038453  0.014225  0.000668  1.234832  0.628079  1.966045  1.036569     19.54    4.1001   22.4742   0.07973   5.04215   0.25733   0.01283  41.36440   4.44826     237.4  0.479166  0.001191  0.000119  0.000097  0.192887  6.912968  0.536622    126.31  1.000057  1.000003     2.190    10.492      76.6      83.4      45.7     217.0     13.53     -7.19      0.29     -2.20      4.26     -1.21     -0.35      2.38     -0.23     -2.10      0.56      1.63     -3.51      1.28      1.52    -11.79      8.46     -1.48      0.51      2.37
     -15.645038     106.757942     286.9      0.46      1.65     132.4         3         3      3888      3634    227.80   -16.424       7.6      37.4   228.839     0.535      76.5   0.05850     100.0         H               347.8  0.037980  0.014723  0.000803  1.245971  0.637503  1.954455  1.037552     23.86    4.0778   22.2579   0.07970   5.03241   0.25889   0.01293  40.96770   4.42093     236.4  0.480071  0.001239  0.000124  0.000098  0.196334  6.939716  0.537978    129.61  1.000080  1.000004     2.204    10.671      81.3      83.5      45.3     212.1     13.73     -7.89     -0.01     -2.70      4.73     -0.94     -0.18      2.07      0.23     -1.69      0.62      0.69     -3.71      1.49      1.69    -13.26     10.49     -1.72      1.66      2.66
