corner points
107.9806671    -21.10041046
107.9354935    -20.92639351
108.1678696    -21.05666542
108.1224594    -20.88271904
========== RESULTS WAVE VERSION 16.10.2018 ====================
IMAGE SIZE  X: 4376     Y:4784    col:row     POLARIZATION:VV
COVERAGE    X: 19.97629427km       Y: 19.86456794km 
RESOLUTION dX: 4.564966699m       dY:4.15229263m  
resolution of original product 4.564966699m x 4.15229263m;   raster step x:5998.366242m  
===============================================================
FLAGS: H=HIGH PROBABILITY SEA STATE, I=LAND(ISLAND), O=OUTLIER NO SEA STATE, N=NO WIND AVAILABLE, SEA STATE NOT VISIBLE, M=MEAN PROBABILITY SEA STATE, L= LOW PROBABILITY SEA STATE
Filtering wave length
 integration  Lmin=1m
 integration  Lmax=2200m
  peak        Lmin=100m
               FFT=1024pixels, 4674.5259m 
   mean-Hs (SWH_c)=0.2m
         mean-wind=7.345473289m/s
--------------0--------------1---------2---------3---------4---------5---------6---------7---------8---------9--------10--------11--------12--------13--------14--------15--------16--------17--------18--------19------------------20--------21--------22--------23--------24--------25--------26--------27--------28--------29--------30--------31--------32--------33--------34--------35--------36--------37--------38--------39--------40--------41--------42--------43--------44--------45--------46--------47--------48--------49--------50--------51--------52--------53--------54--------55--------56--------57--------58--------59--------60--------61--------62--------63--------64--------65--------66--------67--------68--------69--------70--------71--------72--------73
            LAT            LON  P-LENGHT     SWH_o     SWH_c     P-DIR      LINE     POINT     ROW-Y     COL-X  M-INTENC        dB      WIND INC-ANGLE  ENERGY-M  ENERGY-N  ENERGY-R ENERGY-NN  FG-DEPTH      FLAG         HEADING-DEG    E30-75   E75-390  E390-600 meanincut   meanout   cut/out  STD-NORM  SPEC-MAX   GL-MEAN    GL-VAR      CORR   ENTROPY   HOMOGEN    ENERGY  CONTRAST  DISSIMIL     STD-O    E 1-30 E600-2000   E2000 >      GODA  LONG-HIG     Tmean  CONVOLUT  MEAN-DIR  relation     Sy/Sx  SKEWNESS  KURTOSIS  cutoff-A >50/10000     INT*V   INT-LOG  S-1_g1f1  S-2_g1f2  S-3_g1f3  S-4_g2f1  S-5_g2f2  S-6_g2f3  S-7_g3f1  S-8_g3f2  S-9_g3f3 S-10_g1f4 S-11_g2f4 S-12_g3f4 S-13_g1f5 S-14_g2f5 S-15_g3f5 S-16_g4f1 S-17_g4f2 S-18_g4f3 S-19_g4f4 S-20_g4f5
--------------1--------------2---------3---------4---------5---------6---------7---------8---------9--------10--------11--------12--------13--------14--------15--------16--------17--------18--------19--------20------------------21--------22--------23--------24--------25--------26--------27--------28--------29--------30--------31--------32--------33--------34--------35--------36--------37--------38--------39--------40--------41--------42--------43--------44--------45--------46--------47--------48--------49--------50--------51--------52--------53--------54--------55--------56--------57--------58--------59--------60--------61--------62--------63--------64--------65--------66--------67--------68--------69--------70--------71--------72--------73--------74
     -21.053938     108.014481     274.6      0.45      1.96     130.2         1         1      1000      1000    246.44   -16.083       7.4      36.5   234.444     0.537      58.7   0.06099     100.0         H               347.7  0.040134  0.014552  0.000571  1.318563  0.645522  2.042631  1.040374     16.71    4.4503   26.1749   0.08424   5.18861   0.24429   0.01111  47.93959   4.78179     256.4  0.481245  0.000901  0.000088  0.000094  0.190274  6.901810  0.540377    124.78  1.000102  1.000004     2.228    10.952      79.7      84.9      53.1     243.7     13.08     -5.46      1.23     -0.15      1.49     -0.11     -0.79      2.63     -0.49     -2.25     -0.00      1.35     -2.09      0.49      1.73     -8.55      3.18     -0.65      0.48      0.59
     -21.040768     108.070885     292.6      0.44      1.96     118.8         1         2      1000      2314    233.72   -16.313       7.3      36.9   234.647     0.537      53.9   0.06045     100.0         H               347.7  0.040154  0.014594  0.000462  1.309621  0.662252  1.977528  1.039658     22.67    4.1918   23.5238   0.08293   5.08121   0.25415   0.01237  43.14596   4.53454     243.0  0.481158  0.000749  0.000078  0.000095  0.191517  6.907986  0.540041    124.38  1.000100  1.000005     2.230    11.000      81.3      83.9      47.7     226.5     13.21     -6.25      1.17     -0.36      1.94     -0.27     -1.32      3.23     -0.96     -2.20      0.28      0.96     -2.87      1.08      1.78     -7.80      3.25     -0.13      0.67      1.82
     -21.027693     108.126793     263.3      0.45      1.96     115.7         1         3      1000      3628    227.07   -16.438       7.5      37.3   235.178     0.537      90.6   0.05969     138.6         H               347.7  0.039495  0.014286  0.000488  1.273815  0.645781  1.972518  1.039635     18.05    4.0622   22.1854   0.08120   5.02528   0.25912   0.01302  40.76791   4.40801     236.1  0.481424  0.001112  0.000208  0.000093  0.191109  6.905044  0.539740    118.73  1.000103  1.000006     2.246    11.250      83.0      83.3      45.1     229.2     13.21     -5.61      1.61     -0.40      1.71     -0.57     -1.05      2.54     -0.73     -2.16      0.02      1.54     -1.74      0.68      0.94     -8.15      3.33     -1.40      0.06      1.22
     -21.001410     108.000824     268.8      0.44      1.96     120.4         2         1      2444      1000    241.43   -16.172       7.2      36.5   236.043     0.540      67.5   0.06110     100.0         H               347.7  0.039791  0.014870  0.000499  1.344926  0.647757  2.076281  1.043501     23.87    4.3508   25.2753   0.08409   5.14779   0.24785   0.01157  46.29961   4.69196     252.0  0.484519  0.000936  0.000119  0.000097  0.195607  6.929495  0.543558    125.25  1.000097  1.000005     2.252    11.200      81.3      84.5      51.1     238.1     13.48     -6.06      1.78     -0.47      1.90     -0.50     -1.63      3.19     -0.52     -2.63      0.17      1.85     -2.85      1.23      1.91     -8.11      3.16     -1.92      0.04      1.52
     -20.988243     108.057205     282.7      0.45      1.96     122.1         2         2      2444      2314    234.35   -16.301       7.4      36.9   234.603     0.538      50.0   0.06113     100.0         H               347.7  0.039693  0.015368  0.000521  1.336484  0.650751  2.053756  1.040544     26.33    4.2041   23.6850   0.08547   5.08607   0.25399   0.01232  43.32104   4.54300     243.8  0.481574  0.000740  0.000063  0.000098  0.198808  6.955316  0.541007    127.74  1.000096  1.000005     2.231    10.965      81.3      83.9      48.0     226.9     13.69     -6.47      1.40     -1.17      2.33     -0.76     -1.90      3.39     -0.80     -2.28      0.43      1.43     -3.09      1.36      1.98     -8.83      3.47     -1.35      0.51      1.67
     -20.975174     108.113091     274.4      0.44      1.96     135.2         2         3      2444      3628    220.22   -16.571       7.3      37.3   235.333     0.535      46.0   0.05798     100.0         H               347.7  0.039172  0.013959  0.000532  1.222303  0.634090  1.927649  1.037930     17.38    3.9254   20.7906   0.07712   4.96461   0.26500   0.01380  38.37456   4.27609     228.6  0.481087  0.000586  0.000065  0.000093  0.191802  6.915174  0.538030    130.58  1.000095  1.000005     2.218    10.889      79.7      82.7      42.5     215.6     13.17     -5.25      0.48     -0.72      1.77     -0.59     -1.16      2.74     -0.25     -0.84     -0.62      0.79     -2.43      0.78      1.81     -8.72      2.90     -1.46     -1.04      0.84
     -20.948875     107.987175     262.6      0.44      1.96     128.1         3         1      3888      1000    242.29   -16.157       7.3      36.5   234.651     0.539      68.8   0.06176     124.1         H               347.7  0.039751  0.015193  0.000477  1.372299  0.639684  2.145275  1.042057     24.14    4.3679   25.3656   0.08607   5.15484   0.24749   0.01147  46.36439   4.69918     252.5  0.482609  0.000941  0.000122  0.000096  0.194489  6.942356  0.542075    127.38  1.000116  1.000007     2.261    11.439      81.3      84.7      51.4     252.7     13.38     -6.04      1.82     -0.35      1.80     -0.67     -1.78      3.28     -1.13     -2.21      0.11      1.57     -2.67      1.19      1.60     -7.56      2.72     -1.40     -0.10      1.89
     -20.935717     108.043533     263.3      0.45      1.96     132.9         3         2      3888      2314    233.77   -16.312       7.4      36.9   235.928     0.541      58.3   0.06082     138.3         H               347.7  0.039926  0.015151  0.000498  1.355913  0.659276  2.056669  1.043509     19.53    4.1925   23.7114   0.08425   5.08109   0.25464   0.01241  43.42742   4.53904     243.9  0.484611  0.000811  0.000097  0.000096  0.195891  6.931981  0.544176    128.92  1.000101  1.000006     2.267    11.375      81.3      83.8      48.0     229.4     13.54     -6.10      1.68     -0.77      2.33     -0.83     -1.98      2.79     -0.83     -1.44     -0.33      1.20     -2.57      1.02      1.75     -8.07      4.35     -1.62     -0.98      1.54
     -20.922655     108.099403     300.6      0.45      1.96     129.5         3         3      3888      3628    226.76   -16.444       7.4      37.3   235.795     0.538      54.4   0.05953     100.0         H               347.7  0.039137  0.014471  0.000510  1.267592  0.647071  1.958968  1.040143     19.93    4.0558   22.1488   0.08021   5.02244   0.25954   0.01306  40.74448   4.40492     235.9  0.482818  0.000785  0.000075  0.000094  0.194114  6.931234  0.540300    129.51  1.000112  1.000006     2.243    11.202      81.3      83.3      45.0     231.4     13.50     -5.43      1.32     -1.01      2.38     -0.47     -1.47      2.64     -1.09     -1.58      0.07      0.99     -2.50      1.40      1.20     -8.91      3.86     -1.06      0.30      2.09
