corner points
179.5533142    -10.97454357
179.5133057    -10.79966831
179.7286072    -10.93473053
179.6884918    -10.75990772
========== RESULTS WAVE VERSION 16.10.2018 ====================
IMAGE SIZE  X: 4316     Y:4787    col:row     POLARIZATION:VV
COVERAGE    X: 19.59710275km       Y: 19.8838781km 
RESOLUTION dX: 4.540570609m       dY:4.153724274m  
resolution of original product 4.540570609m x 4.153724274m;   raster step x:5998.093775m  
===============================================================
FLAGS: H=HIGH PROBABILITY SEA STATE, I=LAND(ISLAND), O=OUTLIER NO SEA STATE, N=NO WIND AVAILABLE, SEA STATE NOT VISIBLE, M=MEAN PROBABILITY SEA STATE, L= LOW PROBABILITY SEA STATE
Filtering wave length
 integration  Lmin=1m
 integration  Lmax=2200m
  peak        Lmin=100m
               FFT=1024pixels, 4649.544304m 
   mean-Hs (SWH_c)=0.2273715019m
         mean-wind=7.100822926m/s
--------------0--------------1---------2---------3---------4---------5---------6---------7---------8---------9--------10--------11--------12--------13--------14--------15--------16--------17--------18--------19------------------20--------21--------22--------23--------24--------25--------26--------27--------28--------29--------30--------31--------32--------33--------34--------35--------36--------37--------38--------39--------40--------41--------42--------43--------44--------45--------46--------47--------48--------49--------50--------51--------52--------53--------54--------55--------56--------57--------58--------59--------60--------61--------62--------63--------64--------65--------66--------67--------68--------69--------70--------71--------72--------73
            LAT            LON  P-LENGHT     SWH_o     SWH_c     P-DIR      LINE     POINT     ROW-Y     COL-X  M-INTENC        dB      WIND INC-ANGLE  ENERGY-M  ENERGY-N  ENERGY-R ENERGY-NN  FG-DEPTH      FLAG         HEADING-DEG    E30-75   E75-390  E390-600 meanincut   meanout   cut/out  STD-NORM  SPEC-MAX   GL-MEAN    GL-VAR      CORR   ENTROPY   HOMOGEN    ENERGY  CONTRAST  DISSIMIL     STD-O    E 1-30 E600-2000   E2000 >      GODA  LONG-HIG     Tmean  CONVOLUT  MEAN-DIR  relation     Sy/Sx  SKEWNESS  KURTOSIS  cutoff-A >50/10000     INT*V   INT-LOG  S-1_g1f1  S-2_g1f2  S-3_g1f3  S-4_g2f1  S-5_g2f2  S-6_g2f3  S-7_g3f1  S-8_g3f2  S-9_g3f3 S-10_g1f4 S-11_g2f4 S-12_g3f4 S-13_g1f5 S-14_g2f5 S-15_g3f5 S-16_g4f1 S-17_g4f2 S-18_g4f3 S-19_g4f4 S-20_g4f5
--------------1--------------2---------3---------4---------5---------6---------7---------8---------9--------10--------11--------12--------13--------14--------15--------16--------17--------18--------19--------20------------------21--------22--------23--------24--------25--------26--------27--------28--------29--------30--------31--------32--------33--------34--------35--------36--------37--------38--------39--------40--------41--------42--------43--------44--------45--------46--------47--------48--------49--------50--------51--------52--------53--------54--------55--------56--------57--------58--------59--------60--------61--------62--------63--------64--------65--------66--------67--------68--------69--------70--------71--------72--------73--------74
     -10.928689     179.586014     101.9      0.42      1.63     109.6         1         1      1000      1000    218.28   -16.610       6.8      36.7   231.474     0.571      59.3   0.06954       6.6         H               347.9  0.047585  0.021474  0.000429  2.217246  0.647156  3.426136  1.071657      8.98    3.8860   21.7602   0.10096   4.94169   0.27126   0.01472  39.12634   4.25113     233.9  0.500428  0.000949  0.000095  0.000137  0.158676  6.907532  0.577376    103.50  1.000148  1.000009     2.438    13.208      92.7      82.0      43.3     249.6     10.39     -0.86     -1.27      3.61     -1.39      0.87      2.29     -0.64      1.94     -0.15     -0.53     -0.78     -1.50     -1.08      0.24     -3.36     -1.63      1.67     -0.81     -0.25
     -10.916470     179.639847     101.3      0.43      1.63     106.6         1         2      1000      2321    213.02   -16.716       7.0      37.1   228.980     0.565      62.6   0.06867       6.5         H               347.9  0.047466  0.021039  0.000460  2.173943  0.648857  3.350422  1.066843     10.74    3.7821   20.5601   0.10045   4.89406   0.27557   0.01537  36.98940   4.14197     227.3  0.495288  0.000984  0.000104  0.000136  0.158463  6.894520  0.571793    102.79  1.000155  1.000009     2.383    12.270      97.3      81.5      41.0     213.2     10.62     -0.38     -1.19      3.19     -1.79      1.07      2.19     -0.03      1.86     -0.61     -0.32     -1.05     -1.28     -0.57      0.32     -4.17     -3.04      1.91      0.28      0.76
     -10.904346     179.693207     100.6      0.42      1.63     107.9         1         3      1000      3642    198.84   -17.015       6.9      37.5   229.922     0.563      70.4   0.06617       6.4         H               347.9  0.045949  0.020605  0.000478  2.088983  0.635989  3.284621  1.065138      9.58    3.4997   17.8384   0.09427   4.75801   0.28956   0.01749  32.31374   3.86986     211.8  0.495133  0.001074  0.000136  0.000129  0.162214  6.918497  0.569414    101.86  1.000112  1.000006     2.380    12.340      94.9      80.3      35.8     202.9     10.57     -1.05     -1.47      3.27     -1.47      1.15      2.26     -0.39      1.91     -0.25     -0.40     -0.61     -1.42     -1.07      0.24     -4.20     -1.57      2.48     -0.75     -0.24
     -10.875932     179.573929     100.6      0.43      1.63     107.9         2         1      2444      1000    226.49   -16.449       7.0      36.7   231.677     0.573      63.8   0.07018       6.4         H               347.9  0.048245  0.022176  0.000480  2.302191  0.666000  3.456746  1.073844      9.74    4.0501   23.5344   0.10354   5.01487   0.26440   0.01372  42.19530   4.40980     243.2  0.501175  0.000949  0.000119  0.000135  0.158512  6.913493  0.580013    104.12  1.000131  1.000008     2.436    12.950      90.6      82.8      46.6     249.1     10.39     -1.21     -1.57      3.42     -1.19      1.19      2.43     -0.41      1.81     -0.37     -0.42     -0.85     -1.69     -1.33      0.23     -3.58     -1.16      2.91     -0.41     -0.68
     -10.863716     179.627747     101.9      0.43      1.63      99.7         2         2      2444      2321    216.57   -16.644       7.1      37.1   229.179     0.565      60.5   0.06832       6.6         H               347.9  0.047301  0.021117  0.000434  2.179504  0.665321  3.275869  1.067071      8.78    3.8530   21.2545   0.10010   4.92706   0.27248   0.01490  38.25395   4.21148     231.1  0.495528  0.000963  0.000099  0.000131  0.159285  6.893095  0.571952    101.18  1.000136  1.000008     2.390    12.444      92.7      81.8      42.4     228.5     10.44     -0.10     -0.80      3.52     -1.63      1.26      2.39     -1.13      1.76     -0.48     -0.81     -1.21     -1.70     -0.82      0.38     -3.14     -2.32      2.46     -0.71      0.41
     -10.851597     179.681107     104.3      0.43      1.63     113.1         2         3      2444      3642    207.67   -16.826       7.1      37.5   229.430     0.564      80.6   0.06731       6.9         H               347.9  0.046866  0.020432  0.000494  2.117920  0.654914  3.233891  1.065532      7.59    3.6758   19.4890   0.09762   4.84414   0.28094   0.01608  35.17278   4.03515     221.3  0.494611  0.001307  0.000161  0.000130  0.158160  6.889826  0.570212    102.71  1.000120  1.000007     2.393    12.443      92.7      81.3      39.0     210.9     10.49     -0.09     -1.02      3.15     -1.07      1.04      2.63     -0.19      1.40      0.39     -0.55     -0.91     -1.38     -1.53      0.53     -4.52     -2.03      2.44     -0.45     -1.49
     -10.823173     179.561859     101.9      0.43      1.63     105.3         3         1      3888      1000    225.39   -16.471       7.0      36.7   231.040     0.573      86.2   0.07141       6.6         H               347.9  0.048515  0.024114  0.000529  2.458227  0.674980  3.641928  1.074313     12.70    4.0282   23.3199   0.10747   5.00483   0.26547   0.01391  41.62745   4.38349     242.1  0.498777  0.001245  0.000166  0.000133  0.161703  6.947011  0.580995    104.02  1.000113  1.000008     2.424    12.782      88.6      82.6      46.1     249.3     10.62     -0.13     -1.45      3.12     -2.11      0.83      2.27     -0.18      1.97     -0.81     -0.18     -0.84     -1.84     -1.01     -0.48     -4.08     -3.76      1.83      0.32      0.67
     -10.810962     179.615662     100.4      0.46      1.63     103.7         3         2      3888      2321    234.13   -16.305       7.5      37.1   229.959     0.571     119.0   0.07152       6.4         H               347.9  0.048462  0.021684  0.000530  2.216636  0.671751  3.299791  1.072473      8.22    4.2027   25.0990   0.10758   5.08070   0.25803   0.01289  44.79765   4.55077     251.1  0.498279  0.001768  0.000267  0.000132  0.160542  6.904018  0.578096    100.88  1.000130  1.000008     2.417    12.694      92.7      83.3      49.8     256.0     10.74     -0.32     -0.95      3.01     -1.82      0.92      2.43     -0.60      1.70      0.11     -0.89     -0.76     -1.67     -1.45      0.28     -4.80     -2.36      1.48     -1.42     -0.79
     -10.798848     179.669006     105.7      0.45      1.63     107.3         3         3      3888      3642    220.87   -16.559       7.5      37.5   228.391     0.560      50.8   0.06672       7.1         H               347.9  0.045738  0.020861  0.000484  2.153133  0.653112  3.296727  1.061921      8.64    3.9386   21.8903   0.09620   4.96704   0.26822   0.01420  39.56866   4.29399     234.5  0.492199  0.000922  0.000062  0.000133  0.160225  6.926162  0.565781    101.15  1.000142  1.000008     2.356    12.144      92.7      82.6      43.7     224.9     10.68     -0.70     -1.10      3.03     -1.56      1.08      2.39     -0.39      1.90     -0.30     -0.80     -0.43     -1.47     -0.95      0.19     -4.75     -2.02      1.80     -1.38      0.34
