corner points
-171.64328    -40.72157288
-171.7114258    -40.55097961
-171.4174194    -40.66798401
-171.486145    -40.49752808
========== RESULTS WAVE VERSION 16.10.2018 ====================
IMAGE SIZE  X: 4316     Y:4775    col:row     POLARIZATION:VV
COVERAGE    X: 19.90521463km       Y: 19.77767731km 
RESOLUTION dX: 4.611958904m       dY:4.14192195m  
resolution of original product 4.611958904m x 4.14192195m;   raster step x:5995.546575m  
===============================================================
FLAGS: H=HIGH PROBABILITY SEA STATE, I=LAND(ISLAND), O=OUTLIER NO SEA STATE, N=NO WIND AVAILABLE, SEA STATE NOT VISIBLE, M=MEAN PROBABILITY SEA STATE, L= LOW PROBABILITY SEA STATE
Filtering wave length
 integration  Lmin=1m
 integration  Lmax=2200m
  peak        Lmin=100m
               FFT=1024pixels, 4722.645917m 
   mean-Hs (SWH_c)=1.746100769m
         mean-wind=7.793620586m/s
--------------0--------------1---------2---------3---------4---------5---------6---------7---------8---------9--------10--------11--------12--------13--------14--------15--------16--------17--------18--------19------------------20--------21--------22--------23--------24--------25--------26--------27--------28--------29--------30--------31--------32--------33--------34--------35--------36--------37--------38--------39--------40--------41--------42--------43--------44--------45--------46--------47--------48--------49--------50--------51--------52--------53--------54--------55--------56--------57--------58--------59--------60--------61--------62--------63--------64--------65--------66--------67--------68--------69--------70--------71--------72--------73
            LAT            LON  P-LENGHT     SWH_o     SWH_c     P-DIR      LINE     POINT     ROW-Y     COL-X  M-INTENC        dB      WIND INC-ANGLE  ENERGY-M  ENERGY-N  ENERGY-R ENERGY-NN  FG-DEPTH      FLAG         HEADING-DEG    E30-75   E75-390  E390-600 meanincut   meanout   cut/out  STD-NORM  SPEC-MAX   GL-MEAN    GL-VAR      CORR   ENTROPY   HOMOGEN    ENERGY  CONTRAST  DISSIMIL     STD-O    E 1-30 E600-2000   E2000 >      GODA  LONG-HIG     Tmean  CONVOLUT  MEAN-DIR  relation     Sy/Sx  SKEWNESS  KURTOSIS  cutoff-A >50/10000     INT*V   INT-LOG  S-1_g1f1  S-2_g1f2  S-3_g1f3  S-4_g2f1  S-5_g2f2  S-6_g2f3  S-7_g3f1  S-8_g3f2  S-9_g3f3 S-10_g1f4 S-11_g2f4 S-12_g3f4 S-13_g1f5 S-14_g2f5 S-15_g3f5 S-16_g4f1 S-17_g4f2 S-18_g4f3 S-19_g4f4 S-20_g4f5
--------------1--------------2---------3---------4---------5---------6---------7---------8---------9--------10--------11--------12--------13--------14--------15--------16--------17--------18--------19--------20------------------21--------22--------23--------24--------25--------26--------27--------28--------29--------30--------31--------32--------33--------34--------35--------36--------37--------38--------39--------40--------41--------42--------43--------44--------45--------46--------47--------48--------49--------50--------51--------52--------53--------54--------55--------56--------57--------58--------59--------60--------61--------62--------63--------64--------65--------66--------67--------68--------69--------70--------71--------72--------73--------74
     -40.673328    -171.604645     136.3      1.59      2.09      78.9         1         1      1000      1000    279.64   -15.534       7.8      36.1   281.731     0.612      85.4   0.09088      12.4         H               346.2  0.053398  0.040443  0.000638  3.121829  0.714045  4.372033  1.110148     90.06    5.1086   38.1308   0.14275   5.42414   0.23062   0.00962  65.37507   5.42484     310.4  0.516873  0.001140  0.000141  0.000328  0.182284  7.235194  0.623272     77.84  1.000195  1.000020     2.654    15.301     142.7      85.9      74.3     348.5      9.66      1.76      4.24      6.70      3.07      8.57      6.80      3.65      7.78      2.87      5.14      5.52      2.29      4.65      5.52      2.89      3.46     10.28      6.33      5.58
     -40.657154    -171.536377     143.4      1.75      2.09      76.3         1         2      1000      2300    265.06   -15.767       7.8      36.4   282.716     0.617      68.0   0.09342      13.9         H               346.2  0.055053  0.043521  0.000621  3.407434  0.721624  4.721899  1.114542     77.14    4.8197   34.5825   0.14728   5.31730   0.24128   0.01074  58.97875   5.13231     295.4  0.516931  0.000946  0.000072  0.000304  0.185530  7.269363  0.628615     77.28  1.000214  1.000023     2.679    15.464     137.8      85.0      66.9     331.3      9.75      2.06      4.41      6.98      3.88      8.96      6.57      3.63      7.61      3.68      5.59      5.60      1.80      4.40      5.08      3.38      4.20     10.64      6.05      5.65
     -40.641079    -171.468765     129.7      1.66      2.09      74.0         1         3      1000      3600    256.17   -15.915       7.8      36.8   283.930     0.615      59.7   0.09141      11.1         H               346.2  0.054385  0.041897  0.000514  3.518047  0.719130  4.892089  1.112524     69.15    4.6409   32.2428   0.14258   5.24954   0.24660   0.01146  55.29084   4.97079     285.0  0.518055  0.000755  0.000065  0.000274  0.181988  7.239512  0.626232     75.25  1.000202  1.000021     2.660    15.034     128.8      84.4      62.4     297.4      9.66      2.39      4.21      7.10      3.70      7.92      6.17      3.72      7.37      3.45      5.53      5.30      1.38      3.67      4.23      3.90      3.82      8.92      6.47      4.99
     -40.621597    -171.625366     136.3      1.55      2.09      78.9         2         1      2448      1000    284.34   -15.462       7.9      36.1   281.588     0.611      67.5   0.09116      12.4         H               346.2  0.054393  0.039964  0.000597  3.495322  0.708449  4.933769  1.108766     79.22    5.2015   39.2987   0.14209   5.45724   0.22759   0.00928  67.42968   5.51109     315.3  0.515396  0.000870  0.000093  0.000270  0.179473  7.189535  0.621269     76.51  1.000218  1.000023     2.660    15.449     133.1      86.2      76.8     356.9      9.82      1.54      4.09      6.50      3.01      8.08      6.21      3.51      7.21      2.66      4.65      5.24      1.78      4.24      5.12      2.75      3.81      9.75      5.97      4.99
     -40.605434    -171.557159     135.4      1.83      2.09      77.1         2         2      2448      2300    260.66   -15.839       7.7      36.4   286.246     0.627      57.8   0.09655      12.2         H               346.2  0.056682  0.045519  0.000653  3.414492  0.744135  4.588537  1.123947     72.37    4.7327   33.9660   0.15155   5.28212   0.24479   0.01122  57.63638   5.05585     293.0  0.524285  0.000756  0.000042  0.000305  0.184022  7.267777  0.640281     76.50  1.000199  1.000020     2.748    16.222     137.8      84.6      65.5     318.6      9.74      1.84      4.36      6.86      3.53      8.45      6.30      3.65      7.45      2.89      5.38      5.78      1.82      4.34      4.98      3.33      4.17      9.99      6.24      5.53
     -40.589375    -171.489609     133.3      1.70      2.09      81.0         2         3      2448      3600    259.49   -15.859       7.9      36.8   283.966     0.617      57.4   0.09188      11.8         H               346.2  0.054334  0.042159  0.000613  3.535369  0.730406  4.840276  1.113912     59.51    4.7070   33.1306   0.14292   5.27472   0.24488   0.01121  56.79082   5.03697     289.0  0.519315  0.000675  0.000059  0.000259  0.183492  7.232201  0.627877     78.31  1.000219  1.000022     2.666    15.269     133.1      84.6      64.1     303.8      9.86      1.79      4.43      6.96      3.54      8.31      6.13      3.33      7.08      2.85      4.66      5.17      1.70      3.97      4.63      2.96      3.87      9.37      4.81      4.98
     -40.569862    -171.646057     132.5      1.94      2.09      79.2         3         1      3896      1000    276.51   -15.583       7.8      36.1   286.600     0.628      60.0   0.09706      11.7         H               346.2  0.055899  0.046509  0.000661  3.567958  0.725950  4.914883  1.124436    116.83    5.0451   38.0742   0.15041   5.39839   0.23385   0.00997  64.69437   5.36288     310.9  0.524909  0.000716  0.000057  0.000331  0.183658  7.277200  0.640925     78.41  1.000198  1.000020     2.816    18.104     142.7      85.6      73.9     394.8      9.51      1.49      4.46      6.98      3.27      8.84      6.96      3.53      8.22      2.69      5.14      5.55      2.44      4.90      5.39      3.94      4.25     10.69      6.57      6.48
     -40.553711    -171.577911     128.2      1.93      2.09      77.8         3         2      3896      2300    260.23   -15.846       7.7      36.4   286.485     0.628      54.7   0.09706      10.8         H               346.2  0.057057  0.047177  0.000669  3.823861  0.739680  5.169618  1.124436    119.86    4.7233   33.8799   0.15237   5.27825   0.24551   0.01129  57.43471   5.04551     292.6  0.522903  0.000665  0.000035  0.000337  0.182292  7.264726  0.641182     77.61  1.000189  1.000021     2.737    16.079     142.7      84.5      65.3     317.3      9.39      1.97      4.30      6.83      3.13      8.42      6.69      3.69      7.71      2.70      4.98      5.64      1.72      4.17      4.87      3.84      3.66     10.68      6.35      6.21
     -40.537666    -171.510406     130.8      1.76      2.09      75.7         3         3      3896      3600    245.84   -16.094       7.6      36.8   286.428     0.626      83.3   0.09506      11.3         H               346.2  0.056607  0.044672  0.000730  3.617837  0.733492  4.932343  1.122274     73.07    4.4353   30.1740   0.14821   5.16575   0.25522   0.01253  51.40387   4.77271     275.9  0.523034  0.001006  0.000133  0.000289  0.183354  7.254288  0.638341     76.29  1.000202  1.000020     2.765    16.634     142.7      83.5      58.1     312.5      9.91      2.02      3.97      6.41      3.64      8.01      6.11      3.67      6.83      3.23      5.12      5.33      1.40      3.52      4.10      2.24      3.74      9.45      5.59      4.63
