corner points
-162.8938599    -60.79265213
-163.0366669    -60.62466431
-162.5457916    -60.71955109
-162.6902924    -60.55192947
========== RESULTS WAVE VERSION 16.10.2018 ====================
IMAGE SIZE  X: 5345     Y:4901    col:row     POLARIZATION:VV
COVERAGE    X: 20.52974933km       Y: 20.18782986km 
RESOLUTION dX: 3.840925974m       dY:4.119124639m  
resolution of original product 3.840925974m x 4.119124639m;   raster step x:5999.526371m  
===============================================================
FLAGS: H=HIGH PROBABILITY SEA STATE, I=LAND(ISLAND), O=OUTLIER NO SEA STATE, N=NO WIND AVAILABLE, SEA STATE NOT VISIBLE, M=MEAN PROBABILITY SEA STATE, L= LOW PROBABILITY SEA STATE
Filtering wave length
 integration  Lmin=1m
 integration  Lmax=2200m
  peak        Lmin=100m
               FFT=1024pixels, 3933.108197m 
   mean-Hs (SWH_c)=1.456958466m
         mean-wind=7.317284584m/s
--------------0--------------1---------2---------3---------4---------5---------6---------7---------8---------9--------10--------11--------12--------13--------14--------15--------16--------17--------18--------19------------------20--------21--------22--------23--------24--------25--------26--------27--------28--------29--------30--------31--------32--------33--------34--------35--------36--------37--------38--------39--------40--------41--------42--------43--------44--------45--------46--------47--------48--------49--------50--------51--------52--------53--------54--------55--------56--------57--------58--------59--------60--------61--------62--------63--------64--------65--------66--------67--------68--------69--------70--------71--------72--------73
            LAT            LON  P-LENGHT     SWH_o     SWH_c     P-DIR      LINE     POINT     ROW-Y     COL-X  M-INTENC        dB      WIND INC-ANGLE  ENERGY-M  ENERGY-N  ENERGY-R ENERGY-NN  FG-DEPTH      FLAG         HEADING-DEG    E30-75   E75-390  E390-600 meanincut   meanout   cut/out  STD-NORM  SPEC-MAX   GL-MEAN    GL-VAR      CORR   ENTROPY   HOMOGEN    ENERGY  CONTRAST  DISSIMIL     STD-O    E 1-30 E600-2000   E2000 >      GODA  LONG-HIG     Tmean  CONVOLUT  MEAN-DIR  relation     Sy/Sx  SKEWNESS  KURTOSIS  cutoff-A >50/10000     INT*V   INT-LOG  S-1_g1f1  S-2_g1f2  S-3_g1f3  S-4_g2f1  S-5_g2f2  S-6_g2f3  S-7_g3f1  S-8_g3f2  S-9_g3f3 S-10_g1f4 S-11_g2f4 S-12_g3f4 S-13_g1f5 S-14_g2f5 S-15_g3f5 S-16_g4f1 S-17_g4f2 S-18_g4f3 S-19_g4f4 S-20_g4f5
--------------1--------------2---------3---------4---------5---------6---------7---------8---------9--------10--------11--------12--------13--------14--------15--------16--------17--------18--------19--------20------------------21--------22--------23--------24--------25--------26--------27--------28--------29--------30--------31--------32--------33--------34--------35--------36--------37--------38--------39--------40--------41--------42--------43--------44--------45--------46--------47--------48--------49--------50--------51--------52--------53--------54--------55--------56--------57--------58--------59--------60--------61--------62--------63--------64--------65--------66--------67--------68--------69--------70--------71--------72--------73--------74
     -60.744411    -162.856140     178.2      1.40      2.56      65.0         1         1      1000      1000   3173.98    -4.984       7.0      22.4   228.395     0.807      68.1   0.20311      23.3         H               340.9  0.101113  0.070272  0.001049  6.989829  1.033189  6.765295  1.272811     55.63    5.8332   60.3749   0.29240   5.59907   0.23707   0.00994  85.44197   5.86124    4039.5  0.634561  0.000512  0.000008  0.000215  0.186216  7.142415  0.847571     82.35  1.000233  1.000031     3.726    30.257     105.0      85.9     116.3     563.7     11.56      2.77      5.14      6.40      2.26      7.23      2.31      0.15      2.85      3.12      2.63      0.24      0.90      1.94      2.07      0.15      0.72      6.07      1.06      2.06
     -60.722881    -162.753357     181.0      1.44      2.56      75.1         1         2      1000      2562   2943.19    -5.312       7.3      22.9   225.446     0.793      83.8   0.19802      24.2         H               340.9  0.096728  0.069171  0.000988  6.745239  1.023088  6.593018  1.262370     49.98    5.3880   52.2496   0.28819   5.45709   0.25078   0.01144  74.38445   5.45261    3715.2  0.625646  0.000829  0.000024  0.000207  0.189632  7.179302  0.831699     80.36  1.000237  1.000030     3.605    28.492     105.0      84.7      98.4     532.1     11.72      3.17      4.93      6.40      2.50      6.82      1.32     -0.10      2.44      3.00      2.75      0.40      0.48      1.50      2.23      0.30      0.94      5.78      1.54      1.52
     -60.701691    -162.652679     176.5      1.42      2.56      70.4         1         3      1000      4124   2683.30    -5.713       7.3      23.3   224.804     0.784     160.9   0.19361      22.7         H               340.9  0.094194  0.067862  0.001037  6.664992  1.000130  6.664128  1.256090     51.00    4.8746   43.4290   0.28552   5.27862   0.26665   0.01354  62.05849   4.97060    3370.3  0.619785  0.002101  0.000137  0.000206  0.191977  7.187719  0.822319     83.21  1.000221  1.000026     3.625    29.009     105.0      83.0      80.8     482.4     11.93      2.79      5.29      5.97      2.09      6.71      1.14     -0.09      1.98      2.78      2.30      0.21      0.85      1.85      1.92     -0.32      0.48      5.42      0.86      1.78
     -60.694523    -162.898743     167.0      1.39      2.56      69.1         2         1      2456      1000   3196.47    -4.953       7.0      22.4   224.681     0.786      74.5   0.19435      19.8         H               340.9  0.096578  0.067971  0.000788  6.657045  1.030451  6.460324  1.257038     56.31    5.8842   60.3786   0.28636   5.61999   0.23498   0.00968  86.17649   5.91256    4018.0  0.620713  0.000632  0.000020  0.000213  0.189262  7.168883  0.824397     81.04  1.000219  1.000028     3.561    27.683     105.0      86.1     116.1     555.2     11.59      3.06      4.96      6.41      2.56      6.61      1.26     -0.08      2.40      3.19      2.62      0.14      0.65      1.32      1.71      0.98      1.37      5.36      1.29      1.39
     -60.673027    -162.796097     182.2      1.45      2.56      61.6         2         2      2456      2562   3042.58    -5.168       7.6      22.9   223.729     0.779     112.0   0.19170      24.6         H               340.9  0.093517  0.066897  0.000860  6.444776  1.024325  6.291728  1.251737     53.12    5.5838   54.7355   0.28409   5.52682   0.24246   0.01053  78.37167   5.63122    3808.4  0.617169  0.001266  0.000056  0.000197  0.190497  7.198255  0.816349     80.89  1.000236  1.000028     3.540    26.634      99.7      85.4     104.1     502.1     11.77      2.71      5.53      6.62      2.15      6.80      1.24     -0.74      2.08      2.89      2.06     -0.52      0.58      1.84      1.83      0.52      0.43      4.82      0.05      2.11
     -60.651867    -162.695572     195.8      1.40      2.56      71.0         2         3      2456      4124   2659.69    -5.752       7.2      23.3   224.197     0.781     172.3   0.19265      29.7         H               340.9  0.094917  0.067953  0.001092  6.680842  1.010565  6.610997  1.252970     51.49    4.8255   42.7017   0.28585   5.25975   0.26887   0.01385  60.99084   4.92428    3332.2  0.615404  0.002166  0.000163  0.000202  0.190591  7.181345  0.819177     81.64  1.000207  1.000025     3.536    27.488     102.3      82.9      78.9     460.3     11.83      3.05      4.52      5.90      2.49      6.91      1.46     -0.27      2.38      3.05      2.55      0.13      0.55      1.34      1.86     -0.47      1.02      6.19      0.97      1.45
     -60.644623    -162.941208     169.3      1.54      2.56      71.3         3         1      3912      1000   3274.46    -4.849       7.3      22.4   225.968     0.792      87.2   0.19667      20.5         H               340.9  0.096474  0.070687  0.000996  6.923735  1.007846  6.869834  1.260408     51.79    6.0398   63.1168   0.28677   5.66811   0.22998   0.00916  90.03338   6.05601    4127.2  0.623427  0.000878  0.000025  0.000210  0.190370  7.188204  0.830733     82.94  1.000240  1.000030     3.659    29.329     107.8      86.6     122.8     586.1     11.78      2.94      5.61      6.44      1.94      7.06      1.45     -0.28      1.87      2.76      2.53     -0.08      0.79      1.68      2.03      0.10     -0.03      5.85      1.17      1.28
     -60.623154    -162.838730     185.8      1.58      2.56      63.9         3         2      3912      2562   3211.25    -4.933       8.2      22.9   221.583     0.767     108.6   0.18630      25.9         H               340.9  0.089928  0.066557  0.000907  6.384815  0.966123  6.608696  1.241483     42.33    5.9114   59.6746   0.28007   5.63444   0.23212   0.00940  85.92267   5.93970    3986.7  0.608492  0.001308  0.000061  0.000203  0.192442  7.198144  0.802910     80.14  1.000213  1.000025     3.475    26.545     102.3      86.3     114.9     545.3     11.70      2.78      4.97      6.28      1.96      7.13      1.41     -0.33      2.31      2.21      2.15      0.49      1.03      1.69      1.82      0.43      0.89      6.05      1.03      1.26
     -60.602028    -162.738327     182.2      1.49      2.56      61.6         3         3      3912      4124   2559.24    -5.919       6.9      23.3   223.645     0.776     186.6   0.18955      24.6         H               340.9  0.091185  0.070240  0.001038  6.622598  0.992109  6.675274  1.248971     45.55    4.6221   39.3858   0.28510   5.18270   0.27673   0.01498  56.31268   4.72894    3196.1  0.611875  0.002310  0.000156  0.000208  0.194729  7.247325  0.814259     77.30  1.000228  1.000027     3.488    25.954     105.0      82.1      72.3     420.2     11.71      3.24      5.26      6.35      2.28      7.07      1.67     -0.36      2.55      3.25      2.40      0.40      0.64      1.73      2.33      0.42      1.17      6.28      0.98      1.68
