corner points
168.2559357    42.05402374
168.2132721    42.22772217
168.4895172    42.08513641
168.447525    42.25883484
========== RESULTS WAVE VERSION 16.10.2018 ====================
IMAGE SIZE  X: 4316     Y:4775    col:row     POLARIZATION:VV
COVERAGE    X: 19.54593766km       Y: 19.58313195km 
RESOLUTION dX: 4.528715862m       dY:4.101179466m  
resolution of original product 4.528715862m x 4.101179466m;   raster step x:5996.019801m  
===============================================================
FLAGS: H=HIGH PROBABILITY SEA STATE, I=LAND(ISLAND), O=OUTLIER NO SEA STATE, N=NO WIND AVAILABLE, SEA STATE NOT VISIBLE, M=MEAN PROBABILITY SEA STATE, L= LOW PROBABILITY SEA STATE
Filtering wave length
 integration  Lmin=1m
 integration  Lmax=2200m
  peak        Lmin=100m
               FFT=1024pixels, 4637.405043m 
   mean-Hs (SWH_c)=5.984856567m
         mean-wind=23.18724251m/s
--------------0--------------1---------2---------3---------4---------5---------6---------7---------8---------9--------10--------11--------12--------13--------14--------15--------16--------17--------18--------19------------------20--------21--------22--------23--------24--------25--------26--------27--------28--------29--------30--------31--------32--------33--------34--------35--------36--------37--------38--------39--------40--------41--------42--------43--------44--------45--------46--------47--------48--------49--------50--------51--------52--------53--------54--------55--------56--------57--------58--------59--------60--------61--------62--------63--------64--------65--------66--------67--------68--------69--------70--------71--------72--------73
            LAT            LON  P-LENGHT     SWH_o     SWH_c     P-DIR      LINE     POINT     ROW-Y     COL-X  M-INTENC        dB      WIND INC-ANGLE  ENERGY-M  ENERGY-N  ENERGY-R ENERGY-NN  FG-DEPTH      FLAG         HEADING-DEG    E30-75   E75-390  E390-600 meanincut   meanout   cut/out  STD-NORM  SPEC-MAX   GL-MEAN    GL-VAR      CORR   ENTROPY   HOMOGEN    ENERGY  CONTRAST  DISSIMIL     STD-O    E 1-30 E600-2000   E2000 >      GODA  LONG-HIG     Tmean  CONVOLUT  MEAN-DIR  relation     Sy/Sx  SKEWNESS  KURTOSIS  cutoff-A >50/10000     INT*V   INT-LOG  S-1_g1f1  S-2_g1f2  S-3_g1f3  S-4_g2f1  S-5_g2f2  S-6_g2f3  S-7_g3f1  S-8_g3f2  S-9_g3f3 S-10_g1f4 S-11_g2f4 S-12_g3f4 S-13_g1f5 S-14_g2f5 S-15_g3f5 S-16_g4f1 S-17_g4f2 S-18_g4f3 S-19_g4f4 S-20_g4f5
--------------1--------------2---------3---------4---------5---------6---------7---------8---------9--------10--------11--------12--------13--------14--------15--------16--------17--------18--------19--------20------------------21--------22--------23--------24--------25--------26--------27--------28--------29--------30--------31--------32--------33--------34--------35--------36--------37--------38--------39--------40--------41--------42--------43--------44--------45--------46--------47--------48--------49--------50--------51--------52--------53--------54--------55--------56--------57--------58--------59--------60--------61--------62--------63--------64--------65--------66--------67--------68--------69--------70--------71--------72--------73--------74
      42.097736     168.301743     296.6      5.88      6.86     106.4         1         1      1000      1000   1673.98    -7.763      23.1      36.7   271.173     0.673     166.5   0.12800     100.0         H               346.3  0.063885  0.061446  0.002175  4.429691  0.800728  5.532082  1.164114    161.72   26.5266  464.0536   0.16982   7.61619   0.08960   0.00196 770.49597  21.43168    1948.7  0.544060  0.001723  0.000268  0.000299  0.231897  7.462761  0.685244    103.16  1.000334  1.000041     2.896    17.479     210.9     101.1    3155.1    1690.3     16.27     -5.88     13.37     -0.76      1.69      2.13     -3.28      2.14     -5.46     -7.90      0.99      3.64      5.21      3.61     -1.50     -8.93      3.84      0.59      2.42      3.73
      42.107330     168.373672     290.1      5.94      6.86     110.2         1         2      1000      2324   1659.51    -7.800      23.3      37.1   270.482     0.671     160.1   0.12740     100.0         H               346.3  0.063475  0.061546  0.002378  4.363563  0.800148  5.453445  1.162213    165.98   26.3648  462.7834   0.17222   7.61604   0.08971   0.00192 766.17072  21.34904    1928.6  0.542171  0.001708  0.000216  0.000301  0.233580  7.463523  0.683724    102.51  1.000321  1.000042     2.857    17.094     222.8     101.0    3094.6    1675.9     16.28     -5.57     13.41     -0.64      1.60      2.64     -3.13      2.40     -5.59     -7.06      0.67      3.77      5.65      3.68     -1.28     -9.17      3.27      1.37      1.21      2.84
      42.116798     168.445007     279.4      5.97      6.86     105.4         1         3      1000      3648   1552.30    -8.090      22.9      37.5   271.628     0.674     170.9   0.12741     100.0         H               346.3  0.063379  0.062802  0.002177  4.121794  0.798794  5.160021  1.164674    129.60   25.1897  445.3473   0.17466   7.64491   0.08681   0.00152 735.12402  20.82950    1807.8  0.544047  0.001891  0.000222  0.000299  0.238465  7.499271  0.686848    102.46  1.000339  1.000044     2.910    18.119     222.8     100.8    2717.9    1637.2     16.35     -5.99     13.22     -0.53      1.73      2.73     -3.36      2.33     -5.00     -7.01      0.62      3.05      4.36      4.58     -0.59     -8.86      3.58      0.35      2.16      4.04
      42.150932     168.288727     274.0      6.04      6.86     109.0         2         1      2462      1000   1654.83    -7.812      23.0      36.7   272.426     0.678     161.4   0.12964     100.0         H               346.3  0.063716  0.064215  0.002725  4.132688  0.792779  5.212914  1.167746    156.94   26.2523  462.0424   0.17567   7.61315   0.08999   0.00191 761.75568  21.26600    1932.3  0.545509  0.002117  0.000119  0.000308  0.239629  7.518486  0.691498    104.01  1.000321  1.000040     2.855    16.902     222.8     101.0    3099.4    1677.5     16.45     -6.14     13.06     -1.42      1.70      2.37     -2.99      2.63     -5.53     -7.91      1.45      2.98      5.04      3.37     -0.51    -10.20      2.92      2.07      3.45      2.34
      42.160526     168.360733     279.4      5.96      6.86     105.4         2         2      2462      2324   1691.40    -7.718      23.5      37.1   270.909     0.673     176.9   0.12833     100.0         H               346.3  0.063737  0.061397  0.002223  4.292267  0.791490  5.423024  1.163434    145.23   26.6933  466.5936   0.17156   7.60892   0.09037   0.00205 773.08667  21.47569    1967.9  0.543493  0.002087  0.000251  0.000281  0.235373  7.479931  0.685204    103.19  1.000304  1.000038     2.868    17.073     210.9     101.1    3220.5    1695.2     16.18     -5.43     12.75     -0.68      1.16      2.68     -3.10      2.85     -4.99     -6.62      0.82      2.84      4.31      4.14     -0.66     -8.83      1.13      1.49      2.03      4.03
      42.169991     168.432114     279.4      6.07      6.86     105.4         2         3      2462      3648   1598.23    -7.964      23.2      37.5   271.097     0.673     149.7   0.12802     100.0         H               346.3  0.062442  0.063167  0.002218  4.314574  0.789595  5.464285  1.163504    112.16   25.6952  452.9357   0.17492   7.63185   0.08837   0.00170 747.41687  21.03327    1859.5  0.543594  0.001684  0.000147  0.000287  0.234513  7.516301  0.685311    101.20  1.000324  1.000042     2.881    17.595     210.9     100.9    2876.1    1654.0     15.83     -5.56     12.64      0.14      1.02      3.45     -2.52      1.88     -4.27     -6.78     -0.01      2.43      4.56      4.36     -0.10     -8.07      2.77      1.79      1.65      3.84
      42.204124     168.275711     279.4      5.99      6.86     105.4         3         1      3924      1000   1787.17    -7.478      23.7      36.7   270.483     0.672     139.3   0.12805     100.0         H               346.3  0.064264  0.061465  0.002824  4.218143  0.798933  5.279721  1.162950    155.73   27.6708  479.4263   0.16730   7.57635   0.09322   0.00249 798.43878  21.89362    2078.4  0.542554  0.001400  0.000134  0.000285  0.236418  7.477945  0.684542    101.71  1.000373  1.000045     2.878    17.392     222.8     101.3    3583.1    1733.1     16.32     -5.36     13.21     -1.03      1.34      2.65     -2.51      1.82     -5.18     -6.70      0.48      2.61      5.37      4.02     -1.51    -10.76      3.39      0.94      2.29      4.01
      42.213718     168.347763     274.0      6.05      6.86     109.0         3         2      3924      2324   1641.38    -7.848      23.2      37.1   271.730     0.674     156.1   0.12901     100.0         H               346.3  0.063657  0.063629  0.002503  4.367779  0.800194  5.458402  1.164835    191.70   26.1447  459.7492   0.17450   7.61974   0.08943   0.00186 759.04871  21.22749    1911.9  0.543041  0.001883  0.000155  0.000304  0.237345  7.499023  0.687285    104.35  1.000311  1.000040     2.855    16.818     222.8     101.0    3039.2    1673.9     16.15     -5.73     13.19     -0.66      1.20      2.42     -3.13      2.44     -5.38     -7.65      0.80      3.40      5.18      3.25     -0.74     -8.84      2.66      1.78      2.37      2.97
      42.223183     168.419220     279.4      5.95      6.86     105.4         3         3      3924      3648   1526.16    -8.164      22.8      37.5   269.628     0.667     148.5   0.12406     100.0         H               346.3  0.061098  0.061831  0.002408  4.187608  0.792830  5.281847  1.158244    188.25   24.9243  441.2493   0.17286   7.65013   0.08632   0.00144 729.95520  20.73260    1767.7  0.540162  0.001596  0.000125  0.000301  0.242705  7.534901  0.679036    104.51  1.000330  1.000040     2.817    16.497     210.9     100.7    2616.7    1612.9     16.73     -6.56     13.78     -1.54      1.89      1.51     -3.88      2.79     -6.01     -8.03      1.14      3.67      4.89      3.34     -1.72     -9.85      3.47     -0.27      2.56      3.63
