corner points
170.9213257    21.43468094
170.8819885    21.61518669
171.1056519    21.46946335
171.0665588    21.64996529
========== RESULTS WAVE VERSION 16.10.2018 ====================
IMAGE SIZE  X: 5345     Y:4931    col:row     POLARIZATION:VV
COVERAGE    X: 19.42153893km       Y: 20.43102767km 
RESOLUTION dX: 3.633590071m       dY:4.143384236m  
resolution of original product 3.633590071m x 4.143384236m;   raster step x:5999.057207m  
===============================================================
FLAGS: H=HIGH PROBABILITY SEA STATE, I=LAND(ISLAND), O=OUTLIER NO SEA STATE, N=NO WIND AVAILABLE, SEA STATE NOT VISIBLE, M=MEAN PROBABILITY SEA STATE, L= LOW PROBABILITY SEA STATE
Filtering wave length
 integration  Lmin=1m
 integration  Lmax=2200m
  peak        Lmin=100m
               FFT=1024pixels, 3720.796232m 
   mean-Hs (SWH_c)=1.252266312m
         mean-wind=5.774691582m/s
--------------0--------------1---------2---------3---------4---------5---------6---------7---------8---------9--------10--------11--------12--------13--------14--------15--------16--------17--------18--------19------------------20--------21--------22--------23--------24--------25--------26--------27--------28--------29--------30--------31--------32--------33--------34--------35--------36--------37--------38--------39--------40--------41--------42--------43--------44--------45--------46--------47--------48--------49--------50--------51--------52--------53--------54--------55--------56--------57--------58--------59--------60--------61--------62--------63--------64--------65--------66--------67--------68--------69--------70--------71--------72--------73
            LAT            LON  P-LENGHT     SWH_o     SWH_c     P-DIR      LINE     POINT     ROW-Y     COL-X  M-INTENC        dB      WIND INC-ANGLE  ENERGY-M  ENERGY-N  ENERGY-R ENERGY-NN  FG-DEPTH      FLAG         HEADING-DEG    E30-75   E75-390  E390-600 meanincut   meanout   cut/out  STD-NORM  SPEC-MAX   GL-MEAN    GL-VAR      CORR   ENTROPY   HOMOGEN    ENERGY  CONTRAST  DISSIMIL     STD-O    E 1-30 E600-2000   E2000 >      GODA  LONG-HIG     Tmean  CONVOLUT  MEAN-DIR  relation     Sy/Sx  SKEWNESS  KURTOSIS  cutoff-A >50/10000     INT*V   INT-LOG  S-1_g1f1  S-2_g1f2  S-3_g1f3  S-4_g2f1  S-5_g2f2  S-6_g2f3  S-7_g3f1  S-8_g3f2  S-9_g3f3 S-10_g1f4 S-11_g2f4 S-12_g3f4 S-13_g1f5 S-14_g2f5 S-15_g3f5 S-16_g4f1 S-17_g4f2 S-18_g4f3 S-19_g4f4 S-20_g4f5
--------------1--------------2---------3---------4---------5---------6---------7---------8---------9--------10--------11--------12--------13--------14--------15--------16--------17--------18--------19--------20------------------21--------22--------23--------24--------25--------26--------27--------28--------29--------30--------31--------32--------33--------34--------35--------36--------37--------38--------39--------40--------41--------42--------43--------44--------45--------46--------47--------48--------49--------50--------51--------52--------53--------54--------55--------56--------57--------58--------59--------60--------61--------62--------63--------64--------65--------66--------67--------68--------69--------70--------71--------72--------73--------74
      21.477978     170.948685     270.6      1.25      2.23     163.1         1         1      1000      1000   2090.66    -6.797       6.0      23.7   425.966     0.731      97.1   0.16907     100.0         H               347.7  0.077081  0.062515  0.000834  5.944021  0.915016  6.496081  1.212233     43.04    3.6951   25.2223   0.26675   4.79687   0.31466   0.02117  36.98862   3.85589    2534.2  0.589824  0.001146  0.000052  0.000198  0.187668  7.228283  0.768643     85.52  1.000155  1.000014     3.232    22.154      81.3      78.4      46.0     311.2     11.70     -0.17     -0.97      3.49      2.72      6.15      1.41      1.26      4.80      2.97      0.35      0.04      0.10     -0.52      1.12     -1.53      2.58      6.92     -0.50     -0.34
      21.488831     171.006149     259.3      1.27      2.23     167.9         1         2      1000      2651   1810.64    -7.422       5.6      24.2   421.788     0.715      94.1   0.16092      97.4         H               347.7  0.072005  0.061900  0.000869  5.883936  0.885494  6.644803  1.198108     29.21    3.1490   18.6343   0.25928   4.52211   0.34516   0.02730  27.60567   3.33418    2169.2  0.579315  0.001003  0.000051  0.000191  0.191589  7.273944  0.750734     84.73  1.000133  1.000013     3.163    21.391      78.1      75.5      34.2     254.7     11.70      0.33     -0.80      3.73      2.17      5.93      1.19      1.16      4.41      2.35      0.82      0.40     -0.37     -0.50      1.37     -1.40      1.74      7.32     -0.15     -0.24
      21.499468     171.062607     280.7      1.38      2.23     157.8         1         3      1000      4302   1611.78    -7.927       5.6      24.7   422.035     0.713      76.8   0.16007     100.0         H               347.7  0.070757  0.063956  0.000852  6.035728  0.875152  6.896779  1.196313     29.74    2.7439   14.6367   0.25870   4.28574   0.37393   0.03442  21.70049   2.94663    1928.2  0.577466  0.000672  0.000030  0.000192  0.193101  7.315411  0.749108     84.93  1.000116  1.000010     3.125    20.901      79.7      72.5      26.9     227.6     11.73      0.75     -0.65      3.88      1.86      6.34      1.25      0.31      4.55      1.96      0.29     -0.08     -0.25     -0.54      1.43     -1.25      1.27      7.56     -0.83     -0.16
      21.530994     170.937149     270.6      1.13      2.23     163.1         2         1      2448      1000   2124.16    -6.728       6.1      23.7   426.618     0.726      84.9   0.16548     100.0         H               347.7  0.076083  0.059136  0.000754  5.727707  0.900537  6.360326  1.209636     30.10    3.7611   25.8271   0.26191   4.83112   0.30961   0.02021  38.12498   3.92621    2569.3  0.589503  0.000990  0.000036  0.000199  0.185086  7.206869  0.762264     84.19  1.000142  1.000014     3.245    22.490      81.3      79.0      47.3     316.6     11.72     -0.00     -0.85      3.64      2.43      5.77      1.25      1.41      4.37      2.59      0.61      0.88     -0.35     -0.18      1.11     -1.73      2.40      6.72     -0.53      0.53
      21.541845     170.994629     259.3      1.20      2.23     167.9         2         2      2448      2651   1824.97    -7.387       5.7      24.2   423.048     0.718     100.2   0.16241      97.4         H               347.7  0.074105  0.061123  0.000959  5.711545  0.924349  6.178992  1.200015     47.85    3.1721   18.9535   0.26183   4.53340   0.34395   0.02711  27.98180   3.35567    2189.9  0.580947  0.001008  0.000071  0.000191  0.190266  7.239365  0.754005     89.84  1.000101  1.000008     3.160    21.671      79.7      75.6      34.6     274.1     12.03      0.11     -1.96      2.72      2.05      6.36      0.87      0.45      4.59      2.07      0.06     -0.05      0.74     -0.76      1.07     -2.68      2.38      7.80     -0.93     -0.62
      21.552485     171.051102     164.6      1.27      2.23      62.2         2         3      2448      4302   1565.54    -8.053       5.4      24.7   421.828     0.715      93.4   0.16179      19.2         H               347.7  0.073540  0.063496  0.000969  5.850283  0.897090  6.521397  1.198938     36.26    2.6636   13.9476   0.26238   4.23382   0.38134   0.03640  20.57591   2.86512    1876.8  0.576882  0.001018  0.000040  0.000187  0.193600  7.281872  0.752357     85.64  1.000084  1.000010     3.112    20.335      78.1      71.8      25.6     217.1     11.93      0.96     -1.48      3.39      2.47      6.13      0.86      0.45      4.26      2.45      0.89      0.64      0.21     -1.54      0.71     -2.25      2.25      7.35     -0.72     -1.32
      21.584011     170.925598     152.6      1.28      2.23      64.4         3         1      3896      1000   2135.53    -6.705       6.1      23.7   427.236     0.731      82.2   0.16824      16.0         H               347.7  0.077922  0.063024  0.000847  6.234224  0.910875  6.844212  1.211883     30.49    3.7843   26.2816   0.26644   4.83930   0.30996   0.02026  38.55853   3.93982    2587.9  0.589054  0.000866  0.000039  0.000209  0.181063  7.209561  0.769152     86.11  1.000183  1.000018     3.265    23.192      83.0      78.9      48.0     327.8     11.47      0.68      0.26      4.39      2.05      5.59      1.70      1.16      4.11      1.71      1.11      0.77     -0.65     -0.34      1.53     -1.10      1.59      6.54      0.19      0.21
      21.594862     170.983109     161.6      1.30      2.23      60.3         3         2      3896      2651   1871.22    -7.279       5.9      24.2   429.065     0.734      88.1   0.16874      18.3         H               347.7  0.077839  0.064278  0.000903  6.212306  0.886366  7.008734  1.214791     32.96    3.2610   20.3072   0.26689   4.57689   0.34062   0.02639  29.77535   3.44413    2273.0  0.590385  0.000916  0.000045  0.000208  0.185030  7.231752  0.772117     85.64  1.000169  1.000018     3.251    22.691      84.8      75.9      36.8     276.9     11.88      0.63     -0.44      3.65      2.10      5.76      0.83      0.44      4.00      2.45      0.57      0.14     -0.65     -0.33      1.45     -1.92      1.48      6.56     -0.95      0.47
      21.605499     171.039612     186.1      1.19      2.23      58.2         3         3      3896      4302   1614.97    -7.918       5.6      24.7   425.318     0.720      95.8   0.16311      26.0         H               347.7  0.074624  0.061636  0.000737  6.014957  0.897295  6.703435  1.202666     30.39    2.7573   14.8997   0.26094   4.29249   0.37352   0.03429  22.02364   2.96151    1942.3  0.582882  0.001049  0.000062  0.000200  0.186126  7.232413  0.756616     85.88  1.000164  1.000016     3.207    22.660      79.7      72.6      27.4     252.6     11.63      1.50     -0.11      4.24      2.17      5.31      0.89      0.28      4.14      2.22      1.20     -0.13     -0.77     -0.96      1.41     -0.77      1.28      5.85      0.03     -0.36
