corner points
-179.1885986    -16.26558876
-179.2303162    -16.09378052
-179.0092316    -16.22414017
-179.0511169    -16.05239105
========== RESULTS WAVE VERSION 16.10.2018 ====================
IMAGE SIZE  X: 4316     Y:4712    col:row     POLARIZATION:VV
COVERAGE    X: 19.64982476km       Y: 19.57185847km 
RESOLUTION dX: 4.552786088m       dY:4.153620219m  
resolution of original product 4.552786088m x 4.153620219m;   raster step x:5996.019279m  
===============================================================
FLAGS: H=HIGH PROBABILITY SEA STATE, I=LAND(ISLAND), O=OUTLIER NO SEA STATE, N=NO WIND AVAILABLE, SEA STATE NOT VISIBLE, M=MEAN PROBABILITY SEA STATE, L= LOW PROBABILITY SEA STATE
Filtering wave length
 integration  Lmin=1m
 integration  Lmax=2200m
  peak        Lmin=100m
               FFT=1024pixels, 4662.052955m 
   mean-Hs (SWH_c)=0.06666666508m
         mean-wind=3.800617218m/s
--------------0--------------1---------2---------3---------4---------5---------6---------7---------8---------9--------10--------11--------12--------13--------14--------15--------16--------17--------18--------19------------------20--------21--------22--------23--------24--------25--------26--------27--------28--------29--------30--------31--------32--------33--------34--------35--------36--------37--------38--------39--------40--------41--------42--------43--------44--------45--------46--------47--------48--------49--------50--------51--------52--------53--------54--------55--------56--------57--------58--------59--------60--------61--------62--------63--------64--------65--------66--------67--------68--------69--------70--------71--------72--------73
            LAT            LON  P-LENGHT     SWH_o     SWH_c     P-DIR      LINE     POINT     ROW-Y     COL-X  M-INTENC        dB      WIND INC-ANGLE  ENERGY-M  ENERGY-N  ENERGY-R ENERGY-NN  FG-DEPTH      FLAG         HEADING-DEG    E30-75   E75-390  E390-600 meanincut   meanout   cut/out  STD-NORM  SPEC-MAX   GL-MEAN    GL-VAR      CORR   ENTROPY   HOMOGEN    ENERGY  CONTRAST  DISSIMIL     STD-O    E 1-30 E600-2000   E2000 >      GODA  LONG-HIG     Tmean  CONVOLUT  MEAN-DIR  relation     Sy/Sx  SKEWNESS  KURTOSIS  cutoff-A >50/10000     INT*V   INT-LOG  S-1_g1f1  S-2_g1f2  S-3_g1f3  S-4_g2f1  S-5_g2f2  S-6_g2f3  S-7_g3f1  S-8_g3f2  S-9_g3f3 S-10_g1f4 S-11_g2f4 S-12_g3f4 S-13_g1f5 S-14_g2f5 S-15_g3f5 S-16_g4f1 S-17_g4f2 S-18_g4f3 S-19_g4f4 S-20_g4f5
--------------1--------------2---------3---------4---------5---------6---------7---------8---------9--------10--------11--------12--------13--------14--------15--------16--------17--------18--------19--------20------------------21--------22--------23--------24--------25--------26--------27--------28--------29--------30--------31--------32--------33--------34--------35--------36--------37--------38--------39--------40--------41--------42--------43--------44--------45--------46--------47--------48--------49--------50--------51--------52--------53--------54--------55--------56--------57--------58--------59--------60--------61--------62--------63--------64--------65--------66--------67--------68--------69--------70--------71--------72--------73--------74
     -16.219425    -179.155441     382.2      0.24      2.46     100.4         1         1      1000      1000    101.52   -19.934       3.6      36.6   252.634     0.610    1077.2   0.07624     100.0         H               347.8  0.040673  0.023186  0.004728  1.985911  0.692620  2.867244  1.113664     24.10    1.5780    5.0095   0.11019   3.42819   0.46147   0.06673   8.91489   1.93646     113.1  0.522372  0.016320  0.002903  0.000093  0.204943  7.132829  0.623809    107.64  1.000326  1.000008     2.743    16.357     450.0      61.8      10.2     120.8     14.82     -0.91      1.25     -7.70     -1.32     -1.66      6.86      0.43      0.27     -0.16      0.54     -0.79      1.86     -3.46      2.00    -35.37     -1.92     -4.01      1.93    -10.52
     -16.206743    -179.100525     386.9      0.25      2.46      95.2         1         2      1000      2317    103.80   -19.838       3.8      37.0   249.572     0.599    1068.4   0.07304     100.0         H               347.8  0.039622  0.020292  0.004741  1.794305  0.670542  2.675903  1.105118     22.74    1.6186    5.1659   0.10588   3.46852   0.45614   0.06456   9.23785   1.97994     114.7  0.516906  0.014798  0.003215  0.000092  0.197240  7.067772  0.611704    104.70  1.000167  1.000005     2.625    14.584     450.0      62.2      10.6     107.8     14.76      0.60      3.62     -8.25     -3.08     -5.49      8.45      1.88      4.12      0.48     -0.43      0.06      0.64     -1.97      0.84    -39.25     -8.94    -18.79     -1.86     -5.62
     -16.194157    -179.046097       0.0      0.00      0.00       0.0         1         3      1000      3634      0.00     0.000       0.0      37.4     0.000     0.000       0.0   0.00000       0.0         O               347.8  0.000000  0.000000  0.000000  0.000000  0.000000  0.000000  0.000000      0.00    0.0000    0.0000   0.00000   0.00000   0.00000   0.00000   0.00000   0.00000       0.0  0.000000  0.000000  0.000000  0.000000  0.000000  0.000000  0.000000      0.00  0.000000  0.000000     0.000     0.000       0.0       0.0       0.0       0.0      0.00      0.00      0.00      0.00      0.00      0.00      0.00      0.00      0.00      0.00      0.00      0.00      0.00      0.00      0.00      0.00      0.00      0.00      0.00      0.00
     -16.166769    -179.168243       0.0      0.00      0.00       0.0         2         1      2444      1000      0.00     0.000       0.0      36.6     0.000     0.000       0.0   0.00000       0.0         O               347.8  0.000000  0.000000  0.000000  0.000000  0.000000  0.000000  0.000000      0.00    0.0000    0.0000   0.00000   0.00000   0.00000   0.00000   0.00000   0.00000       0.0  0.000000  0.000000  0.000000  0.000000  0.000000  0.000000  0.000000      0.00  0.000000  0.000000     0.000     0.000       0.0       0.0       0.0       0.0      0.00      0.00      0.00      0.00      0.00      0.00      0.00      0.00      0.00      0.00      0.00      0.00      0.00      0.00      0.00      0.00      0.00      0.00      0.00      0.00
     -16.154091    -179.113342       0.0      0.00      0.00       0.0         2         2      2444      2317      0.00     0.000       0.0      37.0     0.000     0.000       0.0   0.00000       0.0         O               347.8  0.000000  0.000000  0.000000  0.000000  0.000000  0.000000  0.000000      0.00    0.0000    0.0000   0.00000   0.00000   0.00000   0.00000   0.00000   0.00000       0.0  0.000000  0.000000  0.000000  0.000000  0.000000  0.000000  0.000000      0.00  0.000000  0.000000     0.000     0.000       0.0       0.0       0.0       0.0      0.00      0.00      0.00      0.00      0.00      0.00      0.00      0.00      0.00      0.00      0.00      0.00      0.00      0.00      0.00      0.00      0.00      0.00      0.00      0.00
     -16.141512    -179.058929       0.0      0.00      0.00       0.0         2         3      2444      3634      0.00     0.000       0.0      37.4     0.000     0.000       0.0   0.00000       0.0         O               347.8  0.000000  0.000000  0.000000  0.000000  0.000000  0.000000  0.000000      0.00    0.0000    0.0000   0.00000   0.00000   0.00000   0.00000   0.00000   0.00000       0.0  0.000000  0.000000  0.000000  0.000000  0.000000  0.000000  0.000000      0.00  0.000000  0.000000     0.000     0.000       0.0       0.0       0.0       0.0      0.00      0.00      0.00      0.00      0.00      0.00      0.00      0.00      0.00      0.00      0.00      0.00      0.00      0.00      0.00      0.00      0.00      0.00      0.00      0.00
     -16.114109    -179.181046       0.0      0.00      0.00       0.0         3         1      3888      1000      0.34     0.000       0.0      36.6     0.000     0.000       0.0   0.00000       0.0         O               347.8  0.000000  0.000000  0.000000  0.000000  0.000000  0.000000  0.000000      0.00    0.0000    0.0000   0.00000   0.00000   0.00000   0.00000   0.00000   0.00000       0.0  0.000000  0.000000  0.000000  0.000000  0.000000  0.000000  0.000000      0.00  0.000000  0.000000     0.000     0.000       0.0       0.0       0.0       0.0      0.00      0.00      0.00      0.00      0.00      0.00      0.00      0.00      0.00      0.00      0.00      0.00      0.00      0.00      0.00      0.00      0.00      0.00      0.00      0.00
     -16.101439    -179.126160     386.9      0.26      2.46      95.2         3         2      3888      2317    106.10   -19.743       3.9      37.0   245.839     0.585     653.4   0.06830     100.0         H               347.8  0.039326  0.021348  0.004266  1.832103  0.663702  2.760430  1.089020     21.31    1.6639    5.2455   0.09396   3.51483   0.44757   0.06079   9.50522   2.02789     115.5  0.507024  0.012176  0.001618  0.000091  0.201566  7.104752  0.596639    111.64  1.000272  1.000004     2.527    13.812     222.8      63.2      11.0     109.0     14.45     -1.37      2.07     -7.14      0.17     -3.46      7.12     -0.78      2.57     -0.85      1.29     -1.31      0.57     -1.06      0.01    -35.27      2.27    -11.19      4.78     -2.36
     -16.088863    -179.071762       0.0      0.00      0.00       0.0         3         3      3888      3634      0.00     0.000       0.0      37.4     0.000     0.000       0.0   0.00000       0.0         O               347.8  0.000000  0.000000  0.000000  0.000000  0.000000  0.000000  0.000000      0.00    0.0000    0.0000   0.00000   0.00000   0.00000   0.00000   0.00000   0.00000       0.0  0.000000  0.000000  0.000000  0.000000  0.000000  0.000000  0.000000      0.00  0.000000  0.000000     0.000     0.000       0.0       0.0       0.0       0.0      0.00      0.00      0.00      0.00      0.00      0.00      0.00      0.00      0.00      0.00      0.00      0.00      0.00      0.00      0.00      0.00      0.00      0.00      0.00      0.00
