corner points
175.7679596    -1.607863307
175.7300415    -1.427035093
175.9398499    -1.570741057
175.901886    -1.389946461
========== RESULTS WAVE VERSION 16.10.2018 ====================
IMAGE SIZE  X: 5345     Y:4930    col:row     POLARIZATION:VV
COVERAGE    X: 19.50096952km       Y: 20.49694097km 
RESOLUTION dX: 3.6484508m       dY:4.157594517m  
resolution of original product 3.6484508m x 4.157594517m;   raster step x:5998.053114m  
===============================================================
FLAGS: H=HIGH PROBABILITY SEA STATE, I=LAND(ISLAND), O=OUTLIER NO SEA STATE, N=NO WIND AVAILABLE, SEA STATE NOT VISIBLE, M=MEAN PROBABILITY SEA STATE, L= LOW PROBABILITY SEA STATE
Filtering wave length
 integration  Lmin=1m
 integration  Lmax=2200m
  peak        Lmin=100m
               FFT=1024pixels, 3736.013619m 
   mean-Hs (SWH_c)=0.7982653809m
         mean-wind=9.252057076m/s
--------------0--------------1---------2---------3---------4---------5---------6---------7---------8---------9--------10--------11--------12--------13--------14--------15--------16--------17--------18--------19------------------20--------21--------22--------23--------24--------25--------26--------27--------28--------29--------30--------31--------32--------33--------34--------35--------36--------37--------38--------39--------40--------41--------42--------43--------44--------45--------46--------47--------48--------49--------50--------51--------52--------53--------54--------55--------56--------57--------58--------59--------60--------61--------62--------63--------64--------65--------66--------67--------68--------69--------70--------71--------72--------73
            LAT            LON  P-LENGHT     SWH_o     SWH_c     P-DIR      LINE     POINT     ROW-Y     COL-X  M-INTENC        dB      WIND INC-ANGLE  ENERGY-M  ENERGY-N  ENERGY-R ENERGY-NN  FG-DEPTH      FLAG         HEADING-DEG    E30-75   E75-390  E390-600 meanincut   meanout   cut/out  STD-NORM  SPEC-MAX   GL-MEAN    GL-VAR      CORR   ENTROPY   HOMOGEN    ENERGY  CONTRAST  DISSIMIL     STD-O    E 1-30 E600-2000   E2000 >      GODA  LONG-HIG     Tmean  CONVOLUT  MEAN-DIR  relation     Sy/Sx  SKEWNESS  KURTOSIS  cutoff-A >50/10000     INT*V   INT-LOG  S-1_g1f1  S-2_g1f2  S-3_g1f3  S-4_g2f1  S-5_g2f2  S-6_g2f3  S-7_g3f1  S-8_g3f2  S-9_g3f3 S-10_g1f4 S-11_g2f4 S-12_g3f4 S-13_g1f5 S-14_g2f5 S-15_g3f5 S-16_g4f1 S-17_g4f2 S-18_g4f3 S-19_g4f4 S-20_g4f5
--------------1--------------2---------3---------4---------5---------6---------7---------8---------9--------10--------11--------12--------13--------14--------15--------16--------17--------18--------19--------20------------------21--------22--------23--------24--------25--------26--------27--------28--------29--------30--------31--------32--------33--------34--------35--------36--------37--------38--------39--------40--------41--------42--------43--------44--------45--------46--------47--------48--------49--------50--------51--------52--------53--------54--------55--------56--------57--------58--------59--------60--------61--------62--------63--------64--------65--------66--------67--------68--------69--------70--------71--------72--------73--------74
      -1.564063     175.793213     326.2      0.83      2.44       5.0         1         1      1000      1000   2983.68    -5.252       9.2      23.7   416.233     0.716      87.4   0.16292     100.0         H               348.0  0.076184  0.042455  0.001593  3.682105  0.911939  4.037665  1.200063     76.76    5.4745   49.4532   0.25599   5.51103   0.23959   0.01014  73.58659   5.54859    3580.3  0.594845  0.000955  0.000039  0.000223  0.187220  7.032865  0.751492     73.30  1.000032  1.000003     3.203    22.144      88.6      85.7      94.3     460.4     13.26      1.94     -6.38     -2.22      0.28      9.07      2.09      0.62      1.69     -0.19      2.53      1.81      4.97     -3.87      1.05    -11.92     -0.23     16.49      2.89     -8.08
      -1.552541     175.846573     303.1      0.93      2.44       4.7         1         2      1000      2644   2795.01    -5.536       9.6      24.2   423.047     0.729      89.1   0.16711     100.0         H               348.0  0.078311  0.044703  0.001446  4.146285  0.889395  4.661918  1.211348     56.21    5.0817   43.9751   0.25739   5.37261   0.25268   0.01172  65.31168   5.18949    3385.5  0.604343  0.001032  0.000045  0.000232  0.181302  7.037925  0.765875     76.90  1.000057  1.000007     3.339    24.434      88.6      84.5      82.8     449.0     12.59      0.97     -4.96     -0.86      0.83      7.99      2.55      0.17      2.53      0.68      1.29      1.63      3.98     -2.66      0.99     -9.70      1.34     14.34      0.51     -5.37
      -1.541226     175.898972     353.2      0.82      2.44       5.4         1         3      1000      4288   2440.78    -6.125       9.2      24.6   419.320     0.720      90.6   0.16370     100.0         H               348.0  0.077182  0.043806  0.001525  4.076604  0.904749  4.505785  1.204176     55.88    4.3890   33.5150   0.25563   5.11042   0.27821   0.01507  49.89455   4.52460    2939.1  0.596574  0.001156  0.000045  0.000220  0.182255  7.056057  0.755707     78.72  1.000047  1.000005     3.386    28.352      84.8      82.1      62.3     433.7     12.29      0.87     -3.42      0.44      0.11      8.22      3.21      0.48      1.69     -0.52      0.98      0.57      3.49     -2.95      1.72     -9.13     -0.47     14.89      2.26     -7.08
      -1.511126     175.782120     326.2      0.79      2.44       5.0         2         1      2443      1000   2948.49    -5.304       9.1      23.7   418.658     0.721      80.1   0.16507     100.0         H               348.0  0.079655  0.042885  0.001424  3.900486  0.895163  4.357293  1.201733     49.22    5.3934   48.2346   0.25779   5.48335   0.24119   0.01038  71.60106   5.47024    3543.1  0.596794  0.000940  0.000030  0.000206  0.182037  7.009007  0.757237     86.67  1.000156  1.000018     3.291    24.088      92.7      85.6      92.2     482.7     12.60      1.36     -4.54     -0.57     -0.09      8.13      2.29      0.11      2.73     -0.68      1.59      1.21      3.77     -1.60      1.57     -9.20     -0.25     14.30      1.62     -4.24
      -1.499607     175.835480     326.2      0.85      2.44       5.0         2         2      2443      2644   2751.87    -5.604       9.4      24.2   421.399     0.730      89.1   0.16950     100.0         H               348.0  0.081239  0.044264  0.001271  4.154587  0.909456  4.568210  1.211421     36.90    5.0120   42.9285   0.26154   5.34708   0.25493   0.01200  63.40244   5.11578    3333.5  0.602624  0.001189  0.000042  0.000202  0.180115  7.013281  0.767530     87.46  1.000181  1.000020     3.335    24.210      92.7      84.3      80.8     437.4     12.17      0.98     -3.25      0.59      0.09      7.79      2.41      0.14      3.05      0.01      0.71      0.53      3.79     -0.78      1.99     -7.16     -0.17     13.29      0.91     -3.00
      -1.488295     175.887863     353.2      0.84      2.44       5.4         2         3      2443      4288   2379.32    -6.235       8.9      24.6   413.592     0.705      72.4   0.15931     100.0         H               348.0  0.076427  0.044837  0.001651  4.105638  0.866913  4.735930  1.188568     68.32    4.2821   31.6588   0.25499   5.06825   0.28186   0.01565  47.17186   4.42035    2828.0  0.582313  0.000717  0.000019  0.000199  0.185363  7.061808  0.740673     82.52  1.000087  1.000010     3.129    21.180      90.6      81.7      58.8     352.8     12.65      1.38     -4.00     -0.36      0.35      9.99      3.29      0.32      2.03      0.03      1.57      0.55      5.67     -2.86      2.24     -9.91     -0.29     17.64      2.01     -8.16
      -1.458189     175.771011     326.2      0.85      2.44       5.0         3         1      3886      1000   2946.30    -5.307       9.1      23.7   412.144     0.702      85.5   0.15672     100.0         H               348.0  0.072880  0.042295  0.001788  3.504673  0.875167  4.004574  1.187476     81.14    5.3826   47.3267   0.25110   5.48352   0.24090   0.01033  70.88624   5.46572    3498.5  0.584118  0.000871  0.000030  0.000209  0.195453  7.107726  0.735780     72.74  1.000074  1.000007     3.061    19.469      88.6      85.6      89.8     405.6     13.35      1.61     -6.05     -2.16      0.95     10.04      2.66      0.67      1.36      1.29      2.65      2.05      4.31     -4.00      1.99    -12.68      0.99     18.99      2.00     -8.60
      -1.446673     175.824356     326.2      0.60      2.44       5.0         3         2      3886      2644   2684.46    -5.711       9.1      24.2   411.624     0.699      86.9   0.15597     100.0         H               348.0  0.075493  0.038262  0.001471  3.364228  0.911641  3.690299  1.185306     54.67    4.8690   39.3065   0.25018   5.30310   0.25721   0.01221  58.94549   4.97582    3181.9  0.582826  0.001075  0.000041  0.000196  0.185965  7.015184  0.732105     74.02  1.000100  1.000010     3.148    21.286      84.8      84.2      74.1     385.0     12.86      2.06     -5.02     -0.78      1.47      8.03      1.98      0.76      1.84      1.32      3.09      1.89      3.74     -2.96      0.88    -10.45      1.23     14.49      2.50     -6.34
      -1.435364     175.876740     303.1      0.67      2.44       4.7         3         3      3886      4288   2544.99    -5.943       9.6      24.6   415.386     0.710      69.4   0.16085     100.0         H               348.0  0.077236  0.039311  0.001207  3.488416  0.895038  3.897505  1.195570     47.79    4.6047   36.0889   0.25209   5.19950   0.26807   0.01367  53.98228   4.73242    3042.6  0.592090  0.000870  0.000022  0.000200  0.185370  7.015787  0.744463     75.41  1.000109  1.000012     3.293    25.795      88.6      83.1      67.5     433.6     12.37      2.54     -3.14      0.82      1.99      7.64      2.16      0.79      2.52      2.48      3.33      1.63      3.68     -2.16      0.94     -7.54      1.24     12.08      2.85     -5.11
