corner points
-170.9266205    -42.44493103
-170.9983673    -42.27475739
-170.6949463    -42.38996124
-170.7673035    -42.21993256
========== RESULTS WAVE VERSION 16.10.2018 ====================
IMAGE SIZE  X: 4316     Y:4776    col:row     POLARIZATION:VV
COVERAGE    X: 19.92963143km       Y: 19.77570918km 
RESOLUTION dX: 4.617616178m       dY:4.140642625m  
resolution of original product 4.617616178m x 4.140642625m;   raster step x:5998.283416m  
===============================================================
FLAGS: H=HIGH PROBABILITY SEA STATE, I=LAND(ISLAND), O=OUTLIER NO SEA STATE, N=NO WIND AVAILABLE, SEA STATE NOT VISIBLE, M=MEAN PROBABILITY SEA STATE, L= LOW PROBABILITY SEA STATE
Filtering wave length
 integration  Lmin=1m
 integration  Lmax=2200m
  peak        Lmin=100m
               FFT=1024pixels, 4728.438967m 
   mean-Hs (SWH_c)=1.077715988m
         mean-wind=6.772428036m/s
--------------0--------------1---------2---------3---------4---------5---------6---------7---------8---------9--------10--------11--------12--------13--------14--------15--------16--------17--------18--------19------------------20--------21--------22--------23--------24--------25--------26--------27--------28--------29--------30--------31--------32--------33--------34--------35--------36--------37--------38--------39--------40--------41--------42--------43--------44--------45--------46--------47--------48--------49--------50--------51--------52--------53--------54--------55--------56--------57--------58--------59--------60--------61--------62--------63--------64--------65--------66--------67--------68--------69--------70--------71--------72--------73
            LAT            LON  P-LENGHT     SWH_o     SWH_c     P-DIR      LINE     POINT     ROW-Y     COL-X  M-INTENC        dB      WIND INC-ANGLE  ENERGY-M  ENERGY-N  ENERGY-R ENERGY-NN  FG-DEPTH      FLAG         HEADING-DEG    E30-75   E75-390  E390-600 meanincut   meanout   cut/out  STD-NORM  SPEC-MAX   GL-MEAN    GL-VAR      CORR   ENTROPY   HOMOGEN    ENERGY  CONTRAST  DISSIMIL     STD-O    E 1-30 E600-2000   E2000 >      GODA  LONG-HIG     Tmean  CONVOLUT  MEAN-DIR  relation     Sy/Sx  SKEWNESS  KURTOSIS  cutoff-A >50/10000     INT*V   INT-LOG  S-1_g1f1  S-2_g1f2  S-3_g1f3  S-4_g2f1  S-5_g2f2  S-6_g2f3  S-7_g3f1  S-8_g3f2  S-9_g3f3 S-10_g1f4 S-11_g2f4 S-12_g3f4 S-13_g1f5 S-14_g2f5 S-15_g3f5 S-16_g4f1 S-17_g4f2 S-18_g4f3 S-19_g4f4 S-20_g4f5
--------------1--------------2---------3---------4---------5---------6---------7---------8---------9--------10--------11--------12--------13--------14--------15--------16--------17--------18--------19--------20------------------21--------22--------23--------24--------25--------26--------27--------28--------29--------30--------31--------32--------33--------34--------35--------36--------37--------38--------39--------40--------41--------42--------43--------44--------45--------46--------47--------48--------49--------50--------51--------52--------53--------54--------55--------56--------57--------58--------59--------60--------61--------62--------63--------64--------65--------66--------67--------68--------69--------70--------71--------72--------73--------74
     -42.396458    -170.887360     127.3      1.19      2.52      84.8         1         1      1000      1000    248.10   -16.054       7.1      36.0   286.240     0.611     129.0   0.08901      10.7         H               346.0  0.054222  0.036988  0.000867  3.743488  0.720232  5.197614  1.109420     34.49    4.4804   30.0473   0.13743   5.18749   0.25118   0.01203  51.83519   4.82048     275.3  0.517562  0.001664  0.000271  0.000206  0.176545  7.133505  0.621264     87.78  1.000287  1.000026     2.683    15.501     142.7      83.9      58.3     294.0     10.59     -1.01      2.75      3.88     -0.88      5.79      4.90     -0.43      5.26     -1.37     -1.40     -0.99      1.22      3.32      4.43     -2.37     -0.97      7.38     -0.83      4.24
     -42.379879    -170.817398     124.4      1.07      2.52      88.3         1         2      1000      2299    227.06   -16.439       6.8      36.4   284.915     0.607      90.9   0.08665      10.1         H               346.0  0.054062  0.035950  0.000822  3.672456  0.708758  5.181533  1.105829     34.16    4.0617   25.0272   0.13344   5.01289   0.26795   0.01422  43.37494   4.40762     251.1  0.515259  0.001246  0.000157  0.000209  0.172787  7.116868  0.616697     89.25  1.000294  1.000024     2.708    16.337     142.7      82.4      48.6     286.5     10.31     -1.26      2.78      4.15     -0.90      5.78      5.10     -0.32      5.69     -0.97     -1.60     -1.05      1.42      3.45      4.50     -1.67     -0.65      7.36     -1.31      4.96
     -42.363407    -170.748108     121.0      1.04      2.52      86.7         1         3      1000      3598    219.78   -16.580       6.9      36.8   284.321     0.602     121.6   0.08373       9.5         H               346.0  0.052416  0.034808  0.000707  3.621828  0.705823  5.131354  1.100894     31.03    3.9161   23.2681   0.13027   4.94870   0.27423   0.01509  40.47367   4.26393     242.0  0.512647  0.001658  0.000280  0.000195  0.175722  7.109725  0.611527     85.84  1.000253  1.000022     2.640    15.072     137.8      81.8      45.3     253.6     10.55     -1.43      3.13      4.31     -0.62      5.61      4.59     -0.21      5.27     -1.27     -1.15     -0.59      1.17      2.82      4.21     -1.46      0.18      6.42     -0.65      3.76
     -42.344833    -170.909195     109.4      1.21      2.52      84.1         2         1      2449      1000    239.75   -16.203       6.8      36.0   287.226     0.612      95.7   0.08834       7.7         H               346.0  0.054495  0.037999  0.000790  3.992009  0.709349  5.627707  1.109513     26.80    4.3143   28.0592   0.13616   5.11994   0.25737   0.01285  48.47732   4.65736     266.0  0.517255  0.001316  0.000170  0.000194  0.175864  7.136485  0.621631     87.29  1.000243  1.000023     2.716    16.126     137.8      83.3      54.4     289.9     10.80     -1.73      3.19      4.07     -0.66      5.23      4.15      0.41      5.12     -1.34     -1.20     -0.57      0.27      2.95      4.00     -1.78     -0.33      5.73     -0.49      4.52
     -42.328266    -170.839294     121.0      0.99      2.52      93.3         2         2      2449      2299    216.97   -16.636       6.6      36.4   283.366     0.600      60.1   0.08316       9.5         H               346.0  0.052835  0.035026  0.000607  3.613960  0.694247  5.205579  1.099113     31.80    3.8612   22.5805   0.12824   4.92411   0.27626   0.01545  39.36966   4.21224     238.4  0.511045  0.000876  0.000066  0.000186  0.175671  7.111659  0.609349     88.92  1.000279  1.000022     2.641    15.740     137.8      81.5      44.1     276.3     10.37     -1.47      3.11      4.95     -0.34      6.15      4.53     -0.08      5.45     -1.47     -1.09     -0.36      1.12      3.34      4.34     -0.04      0.67      7.07     -0.18      4.62
     -42.311806    -170.770050     120.5      1.00      2.52      83.5         2         3      2449      3598    206.17   -16.858       6.5      36.8   284.040     0.598      79.5   0.08120       9.4         H               346.0  0.051353  0.034754  0.000642  3.620556  0.692512  5.228149  1.097269     25.67    3.6457   20.3497   0.12489   4.82302   0.28701   0.01705  35.61618   4.00119     226.2  0.510839  0.001137  0.000119  0.000184  0.177558  7.136657  0.607554     86.35  1.000227  1.000018     2.593    14.513     133.1      80.5      39.8     237.7     10.49     -1.95      2.57      4.48     -0.02      5.81      4.30      0.55      5.18     -0.98     -0.99     -0.01      0.54      2.57      4.07     -0.59      1.13      7.37     -0.50      3.59
     -42.293201    -170.930984     127.7      1.05      2.52      88.3         3         1      3898      1000    231.40   -16.356       6.6      36.0   286.630     0.610      80.4   0.08675      10.7         H               346.0  0.054345  0.036153  0.000716  3.578703  0.717468  4.987958  1.107671     44.84    4.1487   26.0872   0.13294   5.05037   0.26414   0.01375  45.23834   4.50043     256.3  0.517415  0.001274  0.000108  0.000205  0.176362  7.122445  0.619449     88.26  1.000316  1.000026     2.678    15.576     137.8      82.6      50.6     279.2     10.41     -1.55      2.85      4.26     -0.01      5.49      4.59      0.43      5.91     -1.04     -0.43     -0.12      1.06      3.46      4.83     -0.93      0.93      6.41      0.73      5.06
     -42.276649    -170.861145     118.2      1.16      2.52      88.4         3         2      3898      2299    228.70   -16.407       6.9      36.4   286.103     0.608      81.6   0.08650       9.1         H               346.0  0.053842  0.037053  0.000732  3.815247  0.704157  5.418179  1.106842     40.70    4.0950   25.4705   0.13342   5.02686   0.26696   0.01410  44.14471   4.44544     253.1  0.515800  0.001173  0.000129  0.000189  0.178710  7.145260  0.618143     89.63  1.000271  1.000024     2.654    15.163     133.1      82.4      49.3     266.6     10.71     -1.59      3.11      4.56     -0.31      5.95      4.28     -0.11      5.41     -1.37     -1.25     -0.41      0.71      3.10      4.03     -1.08      0.83      6.56     -0.55      4.62
     -42.260201    -170.791962     124.2      0.99      2.52      86.6         3         3      3898      3598    212.66   -16.723       6.7      36.8   284.340     0.601      85.5   0.08254      10.1         H               346.0  0.053001  0.034765  0.000653  3.548386  0.686207  5.171015  1.099635     37.20    3.7745   21.7099   0.12782   4.88385   0.28074   0.01610  37.86989   4.12623     233.8  0.511321  0.001350  0.000140  0.000183  0.176710  7.117121  0.610502     87.24  1.000260  1.000021     2.639    15.533     128.8      81.1      42.3     264.0     10.61     -2.04      3.00      4.69     -0.63      5.28      3.93      0.28      5.32     -1.75     -1.25     -0.50      0.49      2.69      4.07     -0.71      0.43      5.45      0.13      4.12
