corner points
172.0555878    16.12111092
172.0173645    16.30170059
172.2340393    16.15620422
172.1959839    16.33678055
========== RESULTS WAVE VERSION 16.10.2018 ====================
IMAGE SIZE  X: 5345     Y:4928    col:row     POLARIZATION:VV
COVERAGE    X: 19.41281837km       Y: 20.44279854km 
RESOLUTION dX: 3.631958535m       dY:4.148295158m  
resolution of original product 3.631958535m x 4.148295158m;   raster step x:5999.9955m  
===============================================================
FLAGS: H=HIGH PROBABILITY SEA STATE, I=LAND(ISLAND), O=OUTLIER NO SEA STATE, N=NO WIND AVAILABLE, SEA STATE NOT VISIBLE, M=MEAN PROBABILITY SEA STATE, L= LOW PROBABILITY SEA STATE
Filtering wave length
 integration  Lmin=1m
 integration  Lmax=2200m
  peak        Lmin=100m
               FFT=1024pixels, 3719.12554m 
   mean-Hs (SWH_c)=1.134085541m
         mean-wind=10.46131706m/s
--------------0--------------1---------2---------3---------4---------5---------6---------7---------8---------9--------10--------11--------12--------13--------14--------15--------16--------17--------18--------19------------------20--------21--------22--------23--------24--------25--------26--------27--------28--------29--------30--------31--------32--------33--------34--------35--------36--------37--------38--------39--------40--------41--------42--------43--------44--------45--------46--------47--------48--------49--------50--------51--------52--------53--------54--------55--------56--------57--------58--------59--------60--------61--------62--------63--------64--------65--------66--------67--------68--------69--------70--------71--------72--------73
            LAT            LON  P-LENGHT     SWH_o     SWH_c     P-DIR      LINE     POINT     ROW-Y     COL-X  M-INTENC        dB      WIND INC-ANGLE  ENERGY-M  ENERGY-N  ENERGY-R ENERGY-NN  FG-DEPTH      FLAG         HEADING-DEG    E30-75   E75-390  E390-600 meanincut   meanout   cut/out  STD-NORM  SPEC-MAX   GL-MEAN    GL-VAR      CORR   ENTROPY   HOMOGEN    ENERGY  CONTRAST  DISSIMIL     STD-O    E 1-30 E600-2000   E2000 >      GODA  LONG-HIG     Tmean  CONVOLUT  MEAN-DIR  relation     Sy/Sx  SKEWNESS  KURTOSIS  cutoff-A >50/10000     INT*V   INT-LOG  S-1_g1f1  S-2_g1f2  S-3_g1f3  S-4_g2f1  S-5_g2f2  S-6_g2f3  S-7_g3f1  S-8_g3f2  S-9_g3f3 S-10_g1f4 S-11_g2f4 S-12_g3f4 S-13_g1f5 S-14_g2f5 S-15_g3f5 S-16_g4f1 S-17_g4f2 S-18_g4f3 S-19_g4f4 S-20_g4f5
--------------1--------------2---------3---------4---------5---------6---------7---------8---------9--------10--------11--------12--------13--------14--------15--------16--------17--------18--------19--------20------------------21--------22--------23--------24--------25--------26--------27--------28--------29--------30--------31--------32--------33--------34--------35--------36--------37--------38--------39--------40--------41--------42--------43--------44--------45--------46--------47--------48--------49--------50--------51--------52--------53--------54--------55--------56--------57--------58--------59--------60--------61--------62--------63--------64--------65--------66--------67--------68--------69--------70--------71--------72--------73--------74
      16.164501     172.082031     325.5      1.20      2.78     175.0         1         1      1000      1000   3292.31    -4.825      10.6      23.8   445.031     0.776      77.7   0.19066     100.0         H               347.9  0.093961  0.051188  0.001334  5.045522  0.935559  5.393055  1.247150     28.20    6.0640   62.3398   0.27699   5.68189   0.22738   0.00888  90.14488   6.08952    4105.8  0.629531  0.000921  0.000022  0.000233  0.177781  7.000930  0.817227     85.88  1.000234  1.000031     3.697    31.889     107.8      86.8     122.0     609.4     12.20      0.62     -0.44      2.18      1.63      7.15      2.46      0.28      3.18      2.02      0.78      0.59      0.90      0.63      2.77     -5.65      1.60     10.12      0.10     -0.20
      16.175455     172.137711     143.0      1.11      2.78      88.1         1         2      1000      2652   3017.27    -5.204      10.7      24.2   442.523     0.768      71.9   0.18568      13.8         H               347.9  0.092312  0.049180  0.001200  5.005165  0.921575  5.431097  1.243172     25.65    5.5405   53.0084   0.27484   5.51946   0.24127   0.01039  76.87847   5.60577    3750.8  0.625065  0.000762  0.000026  0.000230  0.176243  7.004062  0.808229     84.81  1.000258  1.000034     3.657    30.979     107.8      85.5     101.5     540.7     11.89      0.88      1.13      3.26      1.03      7.16      3.08      0.52      3.46      1.96      1.21      0.19      1.50      1.75      3.25     -4.33      0.15      9.16      0.88      0.89
      16.186195     172.192383     145.6      1.21      2.78      78.1         1         3      1000      4304   2732.85    -5.634      10.6      24.7   446.798     0.774      82.4   0.18735      14.4         H               347.9  0.093439  0.052547  0.001192  5.339223  0.938162  5.691152  1.248105     28.23    4.9543   44.1646   0.27520   5.31362   0.26144   0.01283  64.02021   5.06626    3410.8  0.626761  0.001015  0.000031  0.000227  0.178022  7.029227  0.815169     86.34  1.000246  1.000032     3.567    27.232     107.8      83.6      82.5     454.3     12.08      0.22      1.50      3.25      1.96      6.51      2.21      0.73      3.20      2.46      1.26      0.52      0.55      1.81      2.70     -4.13      1.99      7.45      0.59      1.39
      16.217501     172.070831     151.4      1.21      2.78      77.7         2         1      2446      1000   3258.47    -4.870      10.5      23.8   450.934     0.788      90.2   0.19401      15.7         H               347.9  0.097929  0.053025  0.001184  5.143498  0.969341  5.306181  1.260102     35.28    5.9982   62.0034   0.27930   5.65849   0.22997   0.00917  89.37235   6.03857    4106.0  0.635639  0.001066  0.000042  0.000228  0.179183  6.999007  0.830957     86.57  1.000257  1.000033     3.789    34.793     107.8      86.5     120.7     635.5     12.16      0.29      0.28      2.86      1.40      7.11      2.27      0.74      3.82      1.97      0.94      0.40      0.94      1.74      2.34     -4.33      1.21      8.39      0.29      1.33
      16.228453     172.126511     262.8      1.04      2.78     171.9         2         2      2446      2652   2996.12    -5.234      10.6      24.2   444.530     0.773      63.6   0.18827     127.9         H               347.9  0.095375  0.048533  0.001141  4.903279  0.955458  5.131864  1.246201     21.43    5.4839   52.5417   0.27563   5.49897   0.24307   0.01062  76.11862   5.55966    3733.5  0.627468  0.000636  0.000014  0.000224  0.174661  6.979521  0.813260     85.67  1.000239  1.000032     3.616    29.740     107.8      85.3      99.9     535.6     12.04      0.86      0.54      2.99      0.85      6.80      2.34      0.29      3.31      1.29      0.80      0.12      1.73      1.32      2.07     -4.36      0.05      8.61      0.47      0.64
      16.239193     172.181198     151.4      1.16      2.78      77.7         2         3      2446      4304   2704.29    -5.679      10.5      24.7   447.071     0.777      85.8   0.18933      15.7         H               347.9  0.094582  0.052062  0.001203  5.257557  0.951908  5.523176  1.250726     30.65    4.9274   43.8009   0.27763   5.30231   0.26285   0.01304  63.27927   5.03574    3382.3  0.628548  0.001096  0.000036  0.000229  0.178134  7.035195  0.817942     86.07  1.000241  1.000031     3.614    28.458     110.8      83.4      81.8     463.8     12.05      0.79      1.38      3.17      1.18      6.98      2.50      0.87      3.40      2.19      1.25      0.28      0.78      2.12      2.94     -4.05      0.14      8.66      0.90      1.74
      16.270500     172.059616     145.6      1.15      2.78      78.1         3         1      3892      1000   3232.30    -4.905      10.4      23.8   451.928     0.794      92.0   0.19771      14.4         H               347.9  0.098890  0.052083  0.001206  5.209204  0.975041  5.342549  1.263694     32.05    5.9396   61.1979   0.28150   5.63970   0.23171   0.00935  87.94141   5.98124    4084.8  0.641437  0.001273  0.000039  0.000229  0.176759  6.999480  0.837432     87.00  1.000241  1.000034     3.878    38.409     107.8      86.4     119.2     662.6     11.97     -0.10      0.28      2.99      1.37      6.90      2.55      0.95      3.77      1.83      0.88      0.18      0.74      1.32      2.66     -4.33      0.77      8.72      0.83      0.82
      16.281450     172.115326     152.4      1.09      2.78      79.7         3         2      3892      2652   2914.89    -5.354      10.3      24.2   449.911     0.788     102.6   0.19518      16.0         H               347.9  0.097564  0.051392  0.001296  5.154110  0.989695  5.207777  1.257334     27.53    5.3213   50.4257   0.28018   5.44018   0.24956   0.01140  72.59548   5.40800    3665.0  0.636991  0.001337  0.000057  0.000233  0.176560  6.977144  0.830481     86.60  1.000262  1.000035     3.750    32.290     110.8      84.7      95.7     533.4     12.22      0.53      0.45      2.53      1.40      6.83      2.36      0.74      3.00      1.50      1.22      0.64      0.73      1.38      2.71     -5.30      0.96      8.84      1.21      0.82
      16.292189     172.170029     152.4      1.03      2.78      79.7         3         3      3892      4304   2557.55    -5.922       9.9      24.7   444.355     0.770      75.8   0.18508      16.0         H               347.9  0.091735  0.050493  0.001313  5.025135  0.946890  5.306988  1.243203     35.17    4.6261   39.0517   0.27359   5.19073   0.27330   0.01447  56.73448   4.75895    3179.4  0.625844  0.000926  0.000023  0.000234  0.177955  7.019925  0.810293     85.01  1.000257  1.000033     3.529    26.949     110.8      82.5      72.0     421.8     12.01      1.21      1.55      3.35      0.91      6.88      2.83      0.60      3.62      1.67      1.26      0.51      1.86      2.33      2.53     -4.64     -0.43      7.83      0.50      1.98
