corner points
-174.7039337    -38.594841
-174.7638092    -38.41743469
-174.4806519    -38.54639816
-174.5411835    -38.36911392
========== RESULTS WAVE VERSION 16.10.2018 ====================
IMAGE SIZE  X: 5345     Y:4917    col:row     POLARIZATION:VV
COVERAGE    X: 20.0935384km       Y: 20.35869503km 
RESOLUTION dX: 3.759314948m       dY:4.140470822m  
resolution of original product 3.759314948m x 4.140470822m;   raster step x:5999.866656m  
===============================================================
FLAGS: H=HIGH PROBABILITY SEA STATE, I=LAND(ISLAND), O=OUTLIER NO SEA STATE, N=NO WIND AVAILABLE, SEA STATE NOT VISIBLE, M=MEAN PROBABILITY SEA STATE, L= LOW PROBABILITY SEA STATE
Filtering wave length
 integration  Lmin=1m
 integration  Lmax=2200m
  peak        Lmin=100m
               FFT=1024pixels, 3849.538506m 
   mean-Hs (SWH_c)=0.2m
         mean-wind=2.728806496m/s
--------------0--------------1---------2---------3---------4---------5---------6---------7---------8---------9--------10--------11--------12--------13--------14--------15--------16--------17--------18--------19------------------20--------21--------22--------23--------24--------25--------26--------27--------28--------29--------30--------31--------32--------33--------34--------35--------36--------37--------38--------39--------40--------41--------42--------43--------44--------45--------46--------47--------48--------49--------50--------51--------52--------53--------54--------55--------56--------57--------58--------59--------60--------61--------62--------63--------64--------65--------66--------67--------68--------69--------70--------71--------72--------73
            LAT            LON  P-LENGHT     SWH_o     SWH_c     P-DIR      LINE     POINT     ROW-Y     COL-X  M-INTENC        dB      WIND INC-ANGLE  ENERGY-M  ENERGY-N  ENERGY-R ENERGY-NN  FG-DEPTH      FLAG         HEADING-DEG    E30-75   E75-390  E390-600 meanincut   meanout   cut/out  STD-NORM  SPEC-MAX   GL-MEAN    GL-VAR      CORR   ENTROPY   HOMOGEN    ENERGY  CONTRAST  DISSIMIL     STD-O    E 1-30 E600-2000   E2000 >      GODA  LONG-HIG     Tmean  CONVOLUT  MEAN-DIR  relation     Sy/Sx  SKEWNESS  KURTOSIS  cutoff-A >50/10000     INT*V   INT-LOG  S-1_g1f1  S-2_g1f2  S-3_g1f3  S-4_g2f1  S-5_g2f2  S-6_g2f3  S-7_g3f1  S-8_g3f2  S-9_g3f3 S-10_g1f4 S-11_g2f4 S-12_g3f4 S-13_g1f5 S-14_g2f5 S-15_g3f5 S-16_g4f1 S-17_g4f2 S-18_g4f3 S-19_g4f4 S-20_g4f5
--------------1--------------2---------3---------4---------5---------6---------7---------8---------9--------10--------11--------12--------13--------14--------15--------16--------17--------18--------19--------20------------------21--------22--------23--------24--------25--------26--------27--------28--------29--------30--------31--------32--------33--------34--------35--------36--------37--------38--------39--------40--------41--------42--------43--------44--------45--------46--------47--------48--------49--------50--------51--------52--------53--------54--------55--------56--------57--------58--------59--------60--------61--------62--------63--------64--------65--------66--------67--------68--------69--------70--------71--------72--------73--------74
     -38.549492    -174.673264     184.7      0.20      1.45     137.8         1         1      1000      1000   1195.83    -9.223       2.8      22.9   287.447     0.652     179.3   0.13341      25.5         H               346.5  0.063598  0.045600  0.001811  4.211660  0.900602  4.676496  1.144981     26.23    1.9322    7.3844   0.23334   3.72147   0.44347   0.05642  11.32259   2.15510    1369.2  0.537444  0.003679  0.000112  0.000160  0.187175  7.177891  0.680866     67.37  1.000099  1.000006     2.781    16.358      59.4      65.4      14.5     147.0     11.39     -3.10     -1.77      2.32      0.90     -1.59      0.86      3.66      2.82     -0.60     -1.53     -0.04     -2.60     -3.47      0.62     -7.06      2.30     -4.81     -0.42     -4.74
     -38.534908    -174.605942     174.7      0.20      1.45     125.2         1         2      1000      2596   1086.29    -9.641       2.9      23.4   283.601     0.638     205.9   0.12774      22.1         H               346.5  0.062868  0.040753  0.000965  3.832738  0.875246  4.379044  1.133864     23.69    1.7166    5.9537   0.22714   3.53675   0.46861   0.06651   9.20267   1.94172    1231.7  0.530470  0.003323  0.000225  0.000157  0.185777  7.152356  0.665474     63.65  1.000019  1.000000     2.738    16.150      56.9      62.8      11.9     131.3     11.09     -2.83     -1.89      3.42      1.84     -0.30      0.22      3.33      1.50     -1.85     -1.48      0.31     -2.74     -2.29     -0.55     -3.35      3.54     -0.10      0.26     -1.32
     -38.520561    -174.539902     198.9      0.20      1.45     124.3         1         3      1000      4192    956.26   -10.194       2.9      23.9   282.351     0.632     152.8   0.12489      31.1         H               346.5  0.060878  0.042181  0.001146  3.862343  0.842205  4.585987  1.127776     27.75    1.4609    4.5341   0.22257   3.28910   0.50463   0.08371   7.04977   1.68782    1078.5  0.525472  0.002864  0.000105  0.000161  0.188068  7.185315  0.659027     58.69  1.000064  1.000005     2.673    15.080      57.7      58.9       9.2     106.8     11.13     -2.54     -1.91      3.04      1.98     -1.13      0.23      3.73      1.96     -1.49     -1.57      0.70     -3.31     -2.41     -0.15     -4.06      2.82     -2.22     -0.69     -2.47
     -38.497208    -174.690964     196.9      0.20      1.45     142.1         2         1      2449      1000   1118.81    -9.512       2.5      22.9   285.407     0.643     325.6   0.12948      30.2         H               346.5  0.061003  0.043952  0.001690  3.908059  0.895232  4.365415  1.138938     34.08    1.7830    6.3877   0.23102   3.59494   0.46132   0.06334   9.82398   2.00410    1274.2  0.530315  0.006575  0.000286  0.000172  0.187869  7.216795  0.672463     54.26  1.000114  1.000008     2.748    16.024      60.3      63.6      12.7     134.2     11.05     -2.55     -2.29      2.43      2.31     -1.94      0.93      3.64      2.45     -0.34     -1.55     -0.59     -2.57     -2.93      0.00     -6.35      3.97     -4.09     -0.54     -4.03
     -38.482635    -174.623703     164.7      0.20      1.45     125.6         2         2      2449      2596    879.58   -10.557       2.4      23.4   286.525     0.646     554.0   0.12995      19.2         H               346.5  0.060160  0.041869  0.001526  3.817426  0.884216  4.317300  1.142841     26.12    1.3123    3.9201   0.22989   3.12392   0.53170   0.09919   6.03774   1.53692    1005.3  0.532871  0.009528  0.000653  0.000157  0.188121  7.211757  0.675456     57.36  1.000111  1.000006     2.775    16.250      66.4      55.8       7.9     100.6     11.05     -2.31     -2.13      2.74      1.56     -1.16      1.05      3.71      2.20     -0.64     -1.85      0.10     -2.29     -3.34      0.08     -5.90      2.53     -2.76     -1.62     -4.81
     -38.468300    -174.557724     219.2      0.20      1.45     132.2         2         3      2449      4192    931.59   -10.308       2.8      23.9   280.023     0.622     158.6   0.11931      41.5         H               346.5  0.057480  0.039166  0.001192  3.477384  0.858989  4.048231  1.118455     27.75    1.4131    4.2358   0.21476   3.24198   0.50982   0.08627   6.65226   1.64359    1041.9  0.521158  0.003365  0.000091  0.000152  0.192751  7.223292  0.647210     62.19  1.000024  1.000001     2.642    14.993      53.8      58.3       8.7     108.6     11.20     -2.77     -2.41      2.91      2.13     -0.73      0.02      3.91      1.13     -1.56     -1.87      0.39     -2.97     -2.31      0.10     -4.78      3.57     -0.04     -1.01     -2.05
     -38.444923    -174.708649     219.9      0.20      1.45     141.1         3         1      3898      1000   1084.39    -9.648       2.6      22.9   282.297     0.632     131.8   0.12478      41.9         H               346.5  0.059803  0.044713  0.001488  3.974122  0.895600  4.437384  1.127426     24.41    1.7147    5.8750   0.22411   3.53619   0.46821   0.06641   9.11661   1.93984    1222.5  0.523751  0.002846  0.000049  0.000159  0.186226  7.217009  0.659514     52.42  1.000039  1.000001     2.632    14.368      57.7      62.8      11.8     113.2     10.87     -1.65     -2.67      2.77      1.92     -1.78      0.94      3.33      2.30     -0.67     -1.60     -0.29     -2.22     -2.34     -0.84     -5.19      2.60     -2.78     -0.79     -2.19
     -38.430363    -174.641434     197.5      0.20      1.45     138.2         3         2      3898      2596   1160.52    -9.353       3.0      23.4   279.647     0.626     212.3   0.12319      30.5         H               346.5  0.058538  0.039901  0.001281  3.534848  0.855902  4.129970  1.122783     25.40    1.8627    6.6859   0.22307   3.66923   0.44802   0.05775  10.38894   2.08390    1303.0  0.522229  0.004612  0.000110  0.000146  0.189857  7.188859  0.652766     55.29  1.000074  1.000005     2.663    15.078      54.5      65.1      13.4     132.2     11.02     -2.37     -2.90      2.78      1.94     -1.09      0.43      3.38      2.12     -0.79     -1.26     -0.63     -2.70     -2.13     -0.56     -5.02      3.41     -1.59      0.44     -1.41
     -38.416035    -174.575516     212.1      0.20      1.45     138.6         3         3      3898      4192    912.46   -10.398       2.8      23.9   281.900     0.630     223.3   0.12335      37.4         H               346.5  0.058856  0.040177  0.001295  3.597261  0.875341  4.109556  1.126345     27.36    1.3778    4.1215   0.21935   3.20154   0.51668   0.09058   6.43491   1.60795    1027.7  0.525828  0.004055  0.000188  0.000147  0.190908  7.197211  0.656270     65.94  1.000017  1.000001     2.686    15.263      54.5      57.4       8.4      98.4     11.46     -2.76     -2.52      2.21      2.05     -0.59      0.10      3.70      1.63     -0.53     -1.61      0.13     -3.38     -1.83      0.15     -5.75      3.13     -0.43     -0.70     -1.03
