corner points
176.9131775    -6.922791481
176.8744049    -6.742035866
177.0865021    -6.88478899
177.0476074    -6.704074383
========== RESULTS WAVE VERSION 16.10.2018 ====================
IMAGE SIZE  X: 5345     Y:4931    col:row     POLARIZATION:VV
COVERAGE    X: 19.546793km       Y: 20.50315899km 
RESOLUTION dX: 3.657023947m       dY:4.158012369m  
resolution of original product 3.657023947m x 4.158012369m;   raster step x:5997.519274m  
===============================================================
FLAGS: H=HIGH PROBABILITY SEA STATE, I=LAND(ISLAND), O=OUTLIER NO SEA STATE, N=NO WIND AVAILABLE, SEA STATE NOT VISIBLE, M=MEAN PROBABILITY SEA STATE, L= LOW PROBABILITY SEA STATE
Filtering wave length
 integration  Lmin=1m
 integration  Lmax=2200m
  peak        Lmin=100m
               FFT=1024pixels, 3744.792522m 
   mean-Hs (SWH_c)=0.5105532837m
         mean-wind=7.134773254m/s
--------------0--------------1---------2---------3---------4---------5---------6---------7---------8---------9--------10--------11--------12--------13--------14--------15--------16--------17--------18--------19------------------20--------21--------22--------23--------24--------25--------26--------27--------28--------29--------30--------31--------32--------33--------34--------35--------36--------37--------38--------39--------40--------41--------42--------43--------44--------45--------46--------47--------48--------49--------50--------51--------52--------53--------54--------55--------56--------57--------58--------59--------60--------61--------62--------63--------64--------65--------66--------67--------68--------69--------70--------71--------72--------73
            LAT            LON  P-LENGHT     SWH_o     SWH_c     P-DIR      LINE     POINT     ROW-Y     COL-X  M-INTENC        dB      WIND INC-ANGLE  ENERGY-M  ENERGY-N  ENERGY-R ENERGY-NN  FG-DEPTH      FLAG         HEADING-DEG    E30-75   E75-390  E390-600 meanincut   meanout   cut/out  STD-NORM  SPEC-MAX   GL-MEAN    GL-VAR      CORR   ENTROPY   HOMOGEN    ENERGY  CONTRAST  DISSIMIL     STD-O    E 1-30 E600-2000   E2000 >      GODA  LONG-HIG     Tmean  CONVOLUT  MEAN-DIR  relation     Sy/Sx  SKEWNESS  KURTOSIS  cutoff-A >50/10000     INT*V   INT-LOG  S-1_g1f1  S-2_g1f2  S-3_g1f3  S-4_g2f1  S-5_g2f2  S-6_g2f3  S-7_g3f1  S-8_g3f2  S-9_g3f3 S-10_g1f4 S-11_g2f4 S-12_g3f4 S-13_g1f5 S-14_g2f5 S-15_g3f5 S-16_g4f1 S-17_g4f2 S-18_g4f3 S-19_g4f4 S-20_g4f5
--------------1--------------2---------3---------4---------5---------6---------7---------8---------9--------10--------11--------12--------13--------14--------15--------16--------17--------18--------19--------20------------------21--------22--------23--------24--------25--------26--------27--------28--------29--------30--------31--------32--------33--------34--------35--------36--------37--------38--------39--------40--------41--------42--------43--------44--------45--------46--------47--------48--------49--------50--------51--------52--------53--------54--------55--------56--------57--------58--------59--------60--------61--------62--------63--------64--------65--------66--------67--------68--------69--------70--------71--------72--------73--------74
      -6.878848     176.938538     353.2      0.47      2.05       5.4         1         1      1000      1000   2377.03    -6.240       6.8      23.6   428.699     0.766      85.3   0.18354     100.0         H               348.0  0.095023  0.047315  0.001332  4.836307  0.953179  5.073871  1.240725     32.87    4.2713   33.6043   0.27292   5.04940   0.28721   0.01656  48.86595   4.41882    2949.2  0.621924  0.001255  0.000036  0.000202  0.170826  6.972164  0.808543     94.01  1.000194  1.000023     3.717    36.716      90.6      81.1      61.9     471.1     11.33     -1.41     -1.56      2.35     -1.78      5.62      3.46     -0.58      2.19     -0.35     -1.47     -1.04      0.05     -2.41      1.72     -6.00     -1.41     10.33     -2.52     -3.65
      -6.867083     176.992218     107.3      0.49      2.05     103.1         1         2      1000      2640   2253.76    -6.471       7.2      24.1   429.210     0.768      73.3   0.18506       7.4         H               348.0  0.095541  0.046912  0.001173  4.795993  0.969632  4.946199  1.243339     24.48    4.0279   30.3456   0.27302   4.94563   0.29723   0.01816  44.12108   4.18730    2802.0  0.623968  0.001063  0.000021  0.000210  0.168531  6.937023  0.809973     93.59  1.000202  1.000026     3.824    36.766      92.7      80.1      55.8     438.7     11.03     -1.32     -0.97      2.95     -1.46      5.09      3.34     -0.35      2.77     -0.58     -1.78     -0.98     -0.60     -1.20      1.65     -4.65     -1.17      8.94     -2.27     -1.18
      -6.855526     177.044922     385.0      0.50      2.05     174.1         1         3      1000      4280   2060.39    -6.860       7.4      24.6   421.465     0.754      72.8   0.18029     100.0         H               348.0  0.091322  0.046213  0.001348  4.688900  0.940305  4.986573  1.230515     32.08    3.6529   25.4131   0.27087   4.77316   0.31676   0.02158  37.05897   3.82839    2535.3  0.614245  0.000920  0.000026  0.000206  0.169282  6.955724  0.793820     92.26  1.000194  1.000026     3.428    24.751      92.7      78.2      46.1     319.5     11.28     -1.33     -1.45      2.17     -1.39      6.08      3.70     -0.61      2.40     -0.53     -1.97     -1.26      0.93     -1.72      2.58     -6.14     -1.15     11.32     -2.81     -3.73
      -6.825980     176.927185     353.2      0.51      2.05       5.4         2         1      2442      1000   2344.95    -6.299       6.7      23.6   431.663     0.778     103.5   0.18882     100.0         H               348.0  0.097039  0.049154  0.001228  5.012465  0.941921  5.321534  1.251341     28.03    4.2063   33.3412   0.27834   5.01719   0.29199   0.01728  48.12201   4.35452    2934.1  0.629340  0.001335  0.000078  0.000211  0.169157  6.953695  0.821059     92.49  1.000212  1.000028     3.671    31.401      94.9      80.7      60.8     422.9     11.33     -1.85     -1.55      2.12     -1.07      5.05      3.11     -0.41      2.37     -0.38     -1.63     -0.62     -0.22     -1.97      1.35     -5.69     -0.07      9.01     -2.95     -2.17
      -6.814219     176.980850     379.1      0.47      2.05     168.3         2         2      2442      2640   2279.46    -6.422       7.3      24.1   420.495     0.743      84.7   0.17353     100.0         H               348.0  0.089659  0.044722  0.001145  4.585548  0.915198  5.010441  1.221521     21.82    4.0657   30.0899   0.26593   4.96706   0.29454   0.01766  44.17628   4.22070    2784.5  0.607054  0.001186  0.000041  0.000206  0.167890  6.949808  0.782541     93.46  1.000196  1.000024     3.461    27.541      92.7      80.4      55.4     416.4     11.09     -1.92     -1.17      2.83     -1.21      5.03      3.22     -0.39      2.04     -0.15     -1.99     -0.61     -0.39     -1.73      1.77     -5.08     -0.00      9.17     -3.03     -2.28
      -6.802666     177.033539     117.0      0.57      2.05      88.4         2         3      2442      4280   2090.47    -6.798       7.5      24.6   419.275     0.748      67.4   0.17801       8.9         H               348.0  0.089711  0.046815  0.000997  4.809588  0.926497  5.191156  1.228206     21.38    3.6973   25.7338   0.26935   4.79643   0.31369   0.02093  37.60480   3.86845    2567.4  0.610343  0.000871  0.000024  0.000207  0.168597  6.964758  0.787930     91.06  1.000220  1.000028     3.484    26.656      94.9      78.7      46.9     341.9     10.83     -1.26     -0.43      3.46     -1.35      4.93      3.37     -0.46      2.77     -0.72     -1.40     -0.82     -0.41     -1.06      1.48     -3.20     -1.43      8.36     -1.76     -0.84
      -6.773112     176.915833     103.7      0.57      2.05      85.8         3         1      3884      1000   2494.34    -6.030       7.3      23.6   443.454     0.820      74.9   0.20914       6.9         H               348.0  0.107868  0.051179  0.001244  5.324429  1.008875  5.277589  1.283163     23.86    4.4998   39.1008   0.28877   5.12724   0.28230   0.01590  55.61929   4.64737    3200.6  0.658984  0.000983  0.000025  0.000230  0.164521  6.922011  0.866856     89.57  1.000221  1.000035     3.849    32.493     105.0      81.4      71.7     461.9     11.37     -1.00     -0.47      2.71     -0.95      5.37      2.99     -1.01      2.06     -0.10     -1.78     -0.78      0.44     -0.92      1.67     -5.28     -0.20      9.21     -2.84     -1.72
      -6.761355     176.969498     102.9      0.51      2.05      81.7         3         2      3884      2640   2146.84    -6.682       6.8      24.1   420.008     0.744      95.9   0.17400       6.7         H               348.0  0.090479  0.047612  0.001223  4.946735  0.906695  5.455790  1.223560     27.24    3.8142   27.0627   0.26793   4.85171   0.30782   0.01990  39.62318   3.97853    2626.7  0.603334  0.001475  0.000053  0.000215  0.168762  6.989719  0.783698     89.56  1.000202  1.000025     3.377    24.626      94.9      79.2      49.4     346.9     11.15     -1.89     -0.44      2.95     -1.78      5.08      3.39     -0.54      2.56     -0.64     -2.06     -1.08     -0.57     -1.18      1.68     -5.14     -0.96      8.61     -2.72     -0.61
      -6.749805     177.022171     109.2      0.50      2.05      97.4         3         3      3884      4280   2023.18    -6.940       7.2      24.6   418.629     0.741      77.8   0.17338       7.7         H               348.0  0.089127  0.046161  0.000988  4.777739  0.933020  5.120724  1.219551     25.76    3.5759   24.0596   0.26709   4.73929   0.31997   0.02212  35.26682   3.75163    2467.3  0.603586  0.001143  0.000037  0.000210  0.167840  6.970704  0.780152     91.19  1.000195  1.000023     3.405    25.826      92.7      78.0      43.8     327.9     10.90     -1.08     -0.44      3.42     -2.08      4.88      3.07     -0.24      2.74     -0.87     -0.99     -1.16     -0.17     -0.76      1.85     -3.52     -2.64      8.28     -0.68     -0.48
