corner points
167.2252045    37.332901
167.1785126    37.51213074
167.4419708    37.36792755
167.3958435    37.54718399
========== RESULTS WAVE VERSION 16.10.2018 ====================
IMAGE SIZE  X: 5345     Y:4922    col:row     POLARIZATION:VV
COVERAGE    X: 19.51102137km       Y: 20.30224659km 
RESOLUTION dX: 3.650331407m       dY:4.124796137m  
resolution of original product 3.650331407m x 4.124796137m;   raster step x:5997.494502m  
===============================================================
FLAGS: H=HIGH PROBABILITY SEA STATE, I=LAND(ISLAND), O=OUTLIER NO SEA STATE, N=NO WIND AVAILABLE, SEA STATE NOT VISIBLE, M=MEAN PROBABILITY SEA STATE, L= LOW PROBABILITY SEA STATE
Filtering wave length
 integration  Lmin=1m
 integration  Lmax=2200m
  peak        Lmin=100m
               FFT=1024pixels, 3737.939361m 
   mean-Hs (SWH_c)=4.502962341m
         mean-wind=20.6193428m/s
--------------0--------------1---------2---------3---------4---------5---------6---------7---------8---------9--------10--------11--------12--------13--------14--------15--------16--------17--------18--------19------------------20--------21--------22--------23--------24--------25--------26--------27--------28--------29--------30--------31--------32--------33--------34--------35--------36--------37--------38--------39--------40--------41--------42--------43--------44--------45--------46--------47--------48--------49--------50--------51--------52--------53--------54--------55--------56--------57--------58--------59--------60--------61--------62--------63--------64--------65--------66--------67--------68--------69--------70--------71--------72--------73
            LAT            LON  P-LENGHT     SWH_o     SWH_c     P-DIR      LINE     POINT     ROW-Y     COL-X  M-INTENC        dB      WIND INC-ANGLE  ENERGY-M  ENERGY-N  ENERGY-R ENERGY-NN  FG-DEPTH      FLAG         HEADING-DEG    E30-75   E75-390  E390-600 meanincut   meanout   cut/out  STD-NORM  SPEC-MAX   GL-MEAN    GL-VAR      CORR   ENTROPY   HOMOGEN    ENERGY  CONTRAST  DISSIMIL     STD-O    E 1-30 E600-2000   E2000 >      GODA  LONG-HIG     Tmean  CONVOLUT  MEAN-DIR  relation     Sy/Sx  SKEWNESS  KURTOSIS  cutoff-A >50/10000     INT*V   INT-LOG  S-1_g1f1  S-2_g1f2  S-3_g1f3  S-4_g2f1  S-5_g2f2  S-6_g2f3  S-7_g3f1  S-8_g3f2  S-9_g3f3 S-10_g1f4 S-11_g2f4 S-12_g3f4 S-13_g1f5 S-14_g2f5 S-15_g3f5 S-16_g4f1 S-17_g4f2 S-18_g4f3 S-19_g4f4 S-20_g4f5
--------------1--------------2---------3---------4---------5---------6---------7---------8---------9--------10--------11--------12--------13--------14--------15--------16--------17--------18--------19--------20------------------21--------22--------23--------24--------25--------26--------27--------28--------29--------30--------31--------32--------33--------34--------35--------36--------37--------38--------39--------40--------41--------42--------43--------44--------45--------46--------47--------48--------49--------50--------51--------52--------53--------54--------55--------56--------57--------58--------59--------60--------61--------62--------63--------64--------65--------66--------67--------68--------69--------70--------71--------72--------73--------74
      37.376072     167.257294     262.3      5.15      5.87     100.7         1         1      1000      1000   7472.24    -1.265      22.5      23.6   440.685     0.882     204.3   0.23622     120.1         H               346.8  0.100269  0.106253  0.003063  5.805440  0.996170  5.827764  1.332608    214.34   13.4878  233.7632   0.30623   7.03858   0.13111   0.00211 324.35419  12.37716    9956.7  0.670857  0.002239  0.000064  0.000361  0.234431  7.520605  0.936034     96.80  1.000531  1.000078     4.106    38.669     174.0      95.5     721.8    1288.8     15.89     -2.58     14.56      1.21     -0.38      3.71     -3.07      1.37     -4.87     -4.20     -0.40      1.80      8.54      3.18     -2.04     -6.56     -0.41      0.75      0.24      1.37
      37.386959     167.324570     258.8      5.14      5.87     104.2         1         2      1000      2643   7000.26    -1.549      22.5      24.1   435.393     0.863     201.6   0.22713      95.2         H               346.8  0.095797  0.103958  0.002800  6.019516  0.991035  6.073971  1.316869    233.39   12.7804  216.0777   0.30435   6.96062   0.13615   0.00234 300.62708  11.83154    9218.0  0.659241  0.002072  0.000063  0.000360  0.236378  7.543058  0.915241    102.24  1.000466  1.000065     4.130    47.911     166.7      95.0     625.8    1220.7     16.12     -4.15     14.36      0.74      0.47      2.97     -3.96      2.43     -5.41     -5.67     -0.01      3.56      7.25      3.21     -1.93     -6.40      1.08      0.20      0.29      1.81
      37.397614     167.390656     286.9      4.96      5.87      93.9         1         3      1000      4286   6311.24    -1.999      22.0      24.5   434.295     0.862     214.8   0.22735     100.0         H               346.8  0.096152  0.102135  0.003870  5.734729  1.001023  5.728866  1.317616    247.92   11.6136  187.8680   0.30509   6.80975   0.14573   0.00281 261.10132  10.89182    8314.8  0.658441  0.002365  0.000056  0.000345  0.242197  7.540207  0.914255     94.98  1.000567  1.000074     4.072    40.881     166.7      94.1     506.7    1137.5     16.65     -2.38     14.99     -1.21      0.60      1.43     -3.34      0.79     -5.88     -3.40      0.46      1.19      9.08      1.52     -2.78     -9.40      1.35     -0.21      1.23     -0.20
      37.429031     167.243530     267.0      5.52      5.87      90.0         2         1      2454      1000   7121.72    -1.474      21.7      23.6   455.671     0.928     302.4   0.25600     100.0         H               346.8  0.106071  0.122208  0.003712  6.209677  1.035038  5.999469  1.367895    276.06   12.8911  223.8496   0.31947   6.95154   0.13805   0.00240 304.67673  11.86411    9741.6  0.692961  0.003947  0.000138  0.000393  0.240376  7.597522  0.989198     93.67  1.000535  1.000085     4.451    47.831     190.7      94.9     680.6    1292.1     16.31     -2.54     15.13      0.75      0.01      3.49     -3.90      1.26     -6.20     -3.23     -0.51      1.81      9.30      3.03     -3.24     -7.06      0.72      1.06     -0.14      1.20
      37.439922     167.310867     262.3      1.06      5.87     100.7         2         2      2454      2643   5891.16    -2.298      19.7      24.1   465.287     0.956    1048.0   0.26892     120.1         H               346.8  0.107793  0.115443  0.004576  6.342938  1.084650  5.847910  1.390688    222.65   10.6757  175.2389   0.33264   6.62755   0.16331   0.00371 233.89478  10.05655    8192.3  0.712880  0.015495  0.000877  0.000343  0.237627  7.535217  1.020188     97.77  1.000457  1.000066     4.487    47.859     181.9      92.5     464.9    1165.9     16.01     -3.18     13.78      0.22      0.39      3.26     -2.81      1.42     -5.09     -4.54      0.22      1.94      7.68      2.77     -1.98     -8.85      1.31      0.96      1.38      0.89
      37.450577     167.376999     284.9      4.07      5.87      97.8         2         3      2454      4286   4651.01    -3.325      17.3      24.5   469.234     0.964     751.9   0.27252     100.0         H               346.8  0.112813  0.106542  0.004443  6.752173  1.114977  6.055885  1.394773    155.96    8.5329  123.8250   0.32660   6.24559   0.19070   0.00562 166.76915   8.27373    6486.7  0.728990  0.011901  0.000635  0.000297  0.228262  7.428093  1.026024     97.42  1.000423  1.000059     5.183    82.345     160.0      90.0     287.9    1060.3     15.84     -2.39     12.71     -0.13      0.07      2.98     -2.19      0.93     -4.19     -3.36     -0.14      1.14      6.62      2.41     -1.18     -9.76      0.82      0.29      0.98      0.34
      37.481987     167.229767     266.5      5.36      5.87      93.6         3         1      3908      1000   7156.04    -1.453      21.8      23.6   445.144     0.898     253.1   0.24332     100.0         H               346.8  0.100617  0.114710  0.003535  6.033937  1.016881  5.933770  1.342122    233.84   12.9701  224.1587   0.31414   6.96838   0.13685   0.00235 307.48505  11.93981    9603.8  0.676500  0.002952  0.000096  0.000358  0.238396  7.574053  0.954845     97.67  1.000510  1.000074     4.135    39.533     174.0      95.0     671.6    1270.6     16.00     -3.37     14.61      0.70      0.27      2.93     -3.41      1.50     -5.14     -4.45     -0.06      2.07      8.11      2.53     -2.06     -6.82      1.60      0.51      1.25      1.30
      37.492882     167.297150     266.5      5.51      5.87      93.6         3         2      3908      2643   6299.97    -2.007      20.8      24.1   445.666     0.897     476.5   0.24238     100.0         H               346.8  0.094639  0.118691  0.004210  5.619643  1.007874  5.575740  1.345954    238.57   11.5584  191.5352   0.32028   6.78030   0.15040   0.00299 260.38232  10.79559    8478.4  0.673276  0.006624  0.000330  0.000386  0.245081  7.675558  0.954721     94.80  1.000520  1.000075     4.044    36.276     181.9      93.8     520.5    1129.1     16.24     -1.95     14.53      0.20     -0.13      3.38     -3.49      1.08     -5.77     -2.58     -0.30      1.18      8.43      2.56     -2.02     -7.79      0.10      1.97      0.24      0.35
      37.503540     167.363327     264.9      4.82      5.87      97.2         3         3      3908      4286   4618.14    -3.355      17.2      24.5   458.374     0.937     298.9   0.26126     100.0         H               346.8  0.105340  0.121821  0.004611  6.562013  1.073614  6.112081  1.369841    238.01    8.5685  123.8555   0.32663   6.25534   0.19013   0.00558 166.79929   8.29002    6325.9  0.702053  0.003993  0.000117  0.000352  0.240043  7.616847  0.997683     98.20  1.000495  1.000073     4.545    54.430     166.7      90.1     283.6     961.8     16.12     -3.46     13.92     -0.00      0.39      3.02     -2.72      1.76     -4.56     -5.01      0.34      2.12      7.22      3.08     -1.71     -8.65      1.00      0.57      1.86      1.99
