corner points
-172.0352325    -45.52846527
-172.108078    -45.3528595
-171.7862854    -45.47529221
-171.8600006    -45.29985046
========== RESULTS WAVE VERSION 16.10.2018 ====================
IMAGE SIZE  X: 5345     Y:4909    col:row     POLARIZATION:VV
COVERAGE    X: 20.23095575km       Y: 20.29282646km 
RESOLUTION dX: 3.785024462m       dY:4.133800461m  
resolution of original product 3.785024462m x 4.133800461m;   raster step x:5999.263773m  
===============================================================
FLAGS: H=HIGH PROBABILITY SEA STATE, I=LAND(ISLAND), O=OUTLIER NO SEA STATE, N=NO WIND AVAILABLE, SEA STATE NOT VISIBLE, M=MEAN PROBABILITY SEA STATE, L= LOW PROBABILITY SEA STATE
Filtering wave length
 integration  Lmin=1m
 integration  Lmax=2200m
  peak        Lmin=100m
               FFT=1024pixels, 3875.865049m 
   mean-Hs (SWH_c)=0.5827060318m
         mean-wind=4.198148251m/s
--------------0--------------1---------2---------3---------4---------5---------6---------7---------8---------9--------10--------11--------12--------13--------14--------15--------16--------17--------18--------19------------------20--------21--------22--------23--------24--------25--------26--------27--------28--------29--------30--------31--------32--------33--------34--------35--------36--------37--------38--------39--------40--------41--------42--------43--------44--------45--------46--------47--------48--------49--------50--------51--------52--------53--------54--------55--------56--------57--------58--------59--------60--------61--------62--------63--------64--------65--------66--------67--------68--------69--------70--------71--------72--------73
            LAT            LON  P-LENGHT     SWH_o     SWH_c     P-DIR      LINE     POINT     ROW-Y     COL-X  M-INTENC        dB      WIND INC-ANGLE  ENERGY-M  ENERGY-N  ENERGY-R ENERGY-NN  FG-DEPTH      FLAG         HEADING-DEG    E30-75   E75-390  E390-600 meanincut   meanout   cut/out  STD-NORM  SPEC-MAX   GL-MEAN    GL-VAR      CORR   ENTROPY   HOMOGEN    ENERGY  CONTRAST  DISSIMIL     STD-O    E 1-30 E600-2000   E2000 >      GODA  LONG-HIG     Tmean  CONVOLUT  MEAN-DIR  relation     Sy/Sx  SKEWNESS  KURTOSIS  cutoff-A >50/10000     INT*V   INT-LOG  S-1_g1f1  S-2_g1f2  S-3_g1f3  S-4_g2f1  S-5_g2f2  S-6_g2f3  S-7_g3f1  S-8_g3f2  S-9_g3f3 S-10_g1f4 S-11_g2f4 S-12_g3f4 S-13_g1f5 S-14_g2f5 S-15_g3f5 S-16_g4f1 S-17_g4f2 S-18_g4f3 S-19_g4f4 S-20_g4f5
--------------1--------------2---------3---------4---------5---------6---------7---------8---------9--------10--------11--------12--------13--------14--------15--------16--------17--------18--------19--------20------------------21--------22--------23--------24--------25--------26--------27--------28--------29--------30--------31--------32--------33--------34--------35--------36--------37--------38--------39--------40--------41--------42--------43--------44--------45--------46--------47--------48--------49--------50--------51--------52--------53--------54--------55--------56--------57--------58--------59--------60--------61--------62--------63--------64--------65--------66--------67--------68--------69--------70--------71--------72--------73--------74
     -45.482525    -172.002289     107.3      0.56      1.89     113.9         1         1      1000      1000   1730.70    -7.618       3.8      22.8   289.067     0.781      87.8   0.18986       7.4         H               345.6  0.102602  0.063489  0.001072  6.339678  0.978908  6.476276  1.252789     41.64    2.9902   18.5172   0.28446   4.41342   0.36304   0.03185  26.49958   3.18461    2168.0  0.613439  0.001131  0.000033  0.000275  0.157987  6.967303  0.822559     99.84  1.000202  1.000027     3.535    26.875      90.6      73.5      33.0     288.2     11.67     -2.57      0.41      3.12     -0.84      3.06      0.64      0.10      1.77     -1.42     -1.65     -0.74     -1.46     -0.10      0.34     -3.52     -0.41      3.41     -1.26      0.60
     -45.466629    -171.927734     100.2      0.60      1.89     100.9         1         2      1000      2585   1643.29    -7.843       4.0      23.2   283.427     0.759      71.9   0.18090       6.4         H               345.6  0.096095  0.061607  0.000933  5.961031  0.940750  6.336465  1.235619     38.39    2.8210   16.3086   0.27775   4.31918   0.37363   0.03456  23.55805   3.01821    2030.4  0.600793  0.000777  0.000023  0.000265  0.161676  6.994408  0.798988    101.26  1.000198  1.000024     3.423    25.283      88.6      72.4      29.3     254.3     11.80     -2.91      1.00      3.44     -1.49      3.12      0.26     -0.01      1.59     -1.65     -1.91     -0.60     -1.19     -0.27      0.20     -2.85     -0.78      3.29     -1.49      0.39
     -45.450985    -171.854614     100.4      0.65      1.89     106.5         1         3      1000      4170   1613.07    -7.923       4.4      23.7   284.531     0.764      71.3   0.18277       6.4         H               345.6  0.096448  0.061513  0.000776  5.909733  0.951499  6.210974  1.238674     34.18    2.7584   15.7577   0.27856   4.28143   0.37761   0.03558  22.73685   2.96117    1998.1  0.605233  0.000779  0.000025  0.000279  0.161823  6.990666  0.803724     99.76  1.000198  1.000026     3.490    26.675      90.6      72.1      28.4     261.5     11.91     -3.13      1.28      3.41     -1.00      3.23     -0.12      0.32      1.38     -1.94     -1.93      0.01     -0.96     -0.39      0.27     -2.33     -0.17      3.24     -1.34      0.13
     -45.430618    -172.023880     100.4      0.65      1.89     106.5         2         1      2451      1000   1856.64    -7.313       4.0      22.8   285.328     0.773      73.7   0.18834       6.4         H               345.6  0.101453  0.064122  0.001108  6.253333  0.945823  6.611526  1.246620     35.36    3.2422   21.0946   0.28602   4.55505   0.34619   0.02760  30.12222   3.41407    2314.3  0.606310  0.000879  0.000021  0.000284  0.159022  6.978895  0.815196     98.93  1.000217  1.000029     3.511    27.033      92.7      75.4      37.8     323.6     11.89     -2.25      1.48      3.44     -1.42      3.19      0.58     -0.20      1.66     -1.84     -1.64     -0.62     -0.98     -0.32      0.24     -3.71     -0.83      2.88     -0.92      0.27
     -45.414738    -171.949417     111.7      0.64      1.89     116.7         2         2      2451      2585   1724.55    -7.633       4.2      23.2   288.261     0.782      77.5   0.19188       8.0         H               345.6  0.103363  0.064099  0.000952  6.275843  0.996435  6.298297  1.254092     33.06    2.9792   18.4460   0.28693   4.40634   0.36448   0.03209  26.30655   3.16973    2162.5  0.613274  0.000855  0.000023  0.000285  0.158682  6.973415  0.823792     99.63  1.000216  1.000029     3.511    25.980      94.9      73.5      32.8     273.3     11.81     -2.15      0.97      3.27     -1.40      3.20      0.31     -0.20      1.84     -1.05     -1.52     -1.16     -1.24      0.10      0.51     -2.88     -1.26      3.40     -1.18      0.46
     -45.399109    -171.876373     100.4      0.59      1.89     106.5         2         3      2451      4170   1629.29    -7.880       4.4      23.7   284.632     0.765      68.4   0.18334       6.4         H               345.6  0.099032  0.060608  0.000813  6.215876  0.949065  6.549472  1.239805     30.20    2.7883   16.0946   0.27871   4.29833   0.37664   0.03527  23.21757   2.98774    2020.0  0.604268  0.000724  0.000017  0.000263  0.161594  6.977163  0.804312     99.12  1.000221  1.000027     3.461    26.007      94.9      72.2      28.9     264.0     11.77     -2.07      1.64      3.84     -1.12      3.31      0.10     -0.29      1.11     -1.58     -1.71     -0.74     -0.60     -0.12      0.25     -2.16     -0.63      3.23     -0.96     -0.01
     -45.378712    -172.045456     100.2      0.41      1.89     100.9         3         1      3902      1000   1877.55    -7.264       4.1      22.8   283.522     0.761      66.0   0.18251       6.4         H               345.6  0.100183  0.057518  0.000791  6.080998  0.960328  6.332211  1.236919     29.53    3.2820   21.2715   0.27981   4.57979   0.34196   0.02677  30.63894   3.45999    2322.2  0.602879  0.000722  0.000016  0.000262  0.158932  6.934861  0.800734     99.33  1.000191  1.000026     3.410    24.835      90.6      75.7      38.2     294.3     11.91     -3.13      1.20      3.54     -1.13      3.17     -0.19      0.83      1.43     -1.62     -1.89     -0.36     -0.76      0.18      0.60     -2.63     -0.22      2.76     -1.05      0.47
     -45.362846    -171.971054     100.2      0.55      1.89     100.9         3         2      3902      2585   1771.00    -7.518       4.3      23.2   284.026     0.761      76.3   0.18145       6.4         H               345.6  0.097148  0.059168  0.000944  5.939417  0.934074  6.358617  1.236517     32.70    3.0702   18.9514   0.27779   4.46453   0.35538   0.02985  27.37393   3.26109    2189.9  0.603855  0.000846  0.000031  0.000282  0.158330  6.961592  0.800196    100.23  1.000199  1.000025     3.390    24.263      92.7      74.4      34.0     276.9     12.06     -2.59      1.80      3.42     -1.36      3.36     -0.04      0.42      1.11     -2.05     -1.89     -0.00     -0.31      0.50      0.36     -3.48     -0.62      2.94     -1.07      0.56
     -45.347229    -171.898102     101.7      0.59      1.89     103.9         3         3      3902      4170   1684.77    -7.735       4.6      23.7   283.950     0.761      86.0   0.18084       6.6         H               345.6  0.096488  0.059219  0.001009  5.726118  0.932420  6.141134  1.236153     32.69    2.9024   17.1540   0.27705   4.36859   0.36710   0.03268  24.80371   3.09795    2082.6  0.603370  0.001066  0.000037  0.000273  0.162479  6.962693  0.799513     99.90  1.000209  1.000028     3.438    25.389      94.9      73.2      30.8     264.4     12.05     -2.16      1.09      3.03     -0.97      3.68      0.14      0.13      1.67     -1.39     -1.58     -0.53     -0.37      0.36      0.50     -3.67     -0.44      3.67     -0.94      0.63
