corner points
-160.577713    -59.28658295
-160.723114    -59.12551498
-160.2570648    -59.20902634
-160.403717    -59.04830933
========== RESULTS WAVE VERSION 16.10.2018 ====================
IMAGE SIZE  X: 4316     Y:4770    col:row     POLARIZATION:VV
COVERAGE    X: 20.12096988km       Y: 19.68729576km 
RESOLUTION dX: 4.661948536m       dY:4.127315674m  
resolution of original product 4.661948536m x 4.127315674m;   raster step x:5999.927766m  
===============================================================
FLAGS: H=HIGH PROBABILITY SEA STATE, I=LAND(ISLAND), O=OUTLIER NO SEA STATE, N=NO WIND AVAILABLE, SEA STATE NOT VISIBLE, M=MEAN PROBABILITY SEA STATE, L= LOW PROBABILITY SEA STATE
Filtering wave length
 integration  Lmin=1m
 integration  Lmax=2200m
  peak        Lmin=100m
               FFT=1024pixels, 4773.835301m 
   mean-Hs (SWH_c)=0.7446126556m
         mean-wind=6.856584549m/s
--------------0--------------1---------2---------3---------4---------5---------6---------7---------8---------9--------10--------11--------12--------13--------14--------15--------16--------17--------18--------19------------------20--------21--------22--------23--------24--------25--------26--------27--------28--------29--------30--------31--------32--------33--------34--------35--------36--------37--------38--------39--------40--------41--------42--------43--------44--------45--------46--------47--------48--------49--------50--------51--------52--------53--------54--------55--------56--------57--------58--------59--------60--------61--------62--------63--------64--------65--------66--------67--------68--------69--------70--------71--------72--------73
            LAT            LON  P-LENGHT     SWH_o     SWH_c     P-DIR      LINE     POINT     ROW-Y     COL-X  M-INTENC        dB      WIND INC-ANGLE  ENERGY-M  ENERGY-N  ENERGY-R ENERGY-NN  FG-DEPTH      FLAG         HEADING-DEG    E30-75   E75-390  E390-600 meanincut   meanout   cut/out  STD-NORM  SPEC-MAX   GL-MEAN    GL-VAR      CORR   ENTROPY   HOMOGEN    ENERGY  CONTRAST  DISSIMIL     STD-O    E 1-30 E600-2000   E2000 >      GODA  LONG-HIG     Tmean  CONVOLUT  MEAN-DIR  relation     Sy/Sx  SKEWNESS  KURTOSIS  cutoff-A >50/10000     INT*V   INT-LOG  S-1_g1f1  S-2_g1f2  S-3_g1f3  S-4_g2f1  S-5_g2f2  S-6_g2f3  S-7_g3f1  S-8_g3f2  S-9_g3f3 S-10_g1f4 S-11_g2f4 S-12_g3f4 S-13_g1f5 S-14_g2f5 S-15_g3f5 S-16_g4f1 S-17_g4f2 S-18_g4f3 S-19_g4f4 S-20_g4f5
--------------1--------------2---------3---------4---------5---------6---------7---------8---------9--------10--------11--------12--------13--------14--------15--------16--------17--------18--------19--------20------------------21--------22--------23--------24--------25--------26--------27--------28--------29--------30--------31--------32--------33--------34--------35--------36--------37--------38--------39--------40--------41--------42--------43--------44--------45--------46--------47--------48--------49--------50--------51--------52--------53--------54--------55--------56--------57--------58--------59--------60--------61--------62--------63--------64--------65--------66--------67--------68--------69--------70--------71--------72--------73--------74
     -59.234722    -160.533051     176.9      0.76      2.32      67.9         1         1      1000      1000    243.98   -16.127       6.6      35.6   305.953     0.579      34.4   0.07668      22.8         H               341.4  0.048295  0.030168  0.000429  3.089853  0.688642  4.486881  1.079613     30.50    4.4001   27.5859   0.11820   5.16127   0.25149   0.01200  48.65070   4.73014     263.4  0.500326  0.000278  0.000017  0.000157  0.189571  7.152058  0.584243     73.32  1.000127  1.000009     2.484    13.505     114.0      84.1      54.3     264.0     11.51      4.18      4.15      5.84      3.24      5.59      1.16     -0.19      1.78      4.61      3.95      0.88     -0.43      1.10      2.25     -0.09      1.70      4.69      2.03      1.81
     -59.211559    -160.437119     125.4      0.83      2.32      71.0         1         2      1000      2287    242.29   -16.157       6.9      36.0   306.605     0.578      37.6   0.07668      10.3         H               341.4  0.047932  0.030391  0.000435  3.101746  0.694040  4.469120  1.078464     24.88    4.3661   27.1690   0.11696   5.14745   0.25285   0.01215  47.98233   4.69788     261.3  0.499230  0.000273  0.000029  0.000166  0.191214  7.175616  0.582643     73.10  1.000102  1.000008     2.463    13.123     114.0      83.9      53.6     264.5     11.39      3.76      3.95      5.72      3.38      6.21      1.92      0.57      2.62      4.70      4.17      1.60     -0.17      1.32      2.61      0.27      2.10      5.95      2.50      1.52
     -59.188538    -160.342163     197.0      0.74      2.32      65.2         1         3      1000      3574    244.67   -16.114       7.2      36.3   303.854     0.572      35.2   0.07457      30.2         H               341.4  0.047225  0.028257  0.000395  2.870819  0.687643  4.174871  1.072918     24.43    4.4106   27.4118   0.11389   5.16660   0.25044   0.01188  48.57956   4.74199     262.5  0.496138  0.000248  0.000027  0.000150  0.190586  7.132014  0.576086     73.25  1.000092  1.000008     2.430    12.920     110.8      84.1      54.3     270.6     11.46      4.01      3.67      5.63      3.32      5.55      1.31     -0.03      1.88      4.37      3.78      1.17     -0.66      0.93      2.11     -0.18      1.98      4.94      1.85      1.83
     -59.185680    -160.577499     140.7      0.77      2.32      70.6         2         1      2453      1000    243.76   -16.130       6.6      35.6   306.889     0.581      43.3   0.07753      13.3         H               341.4  0.049199  0.030596  0.000424  3.114781  0.705211  4.416805  1.081835     26.49    4.3958   27.6515   0.11957   5.15917   0.25168   0.01203  48.69015   4.72497     263.7  0.501182  0.000374  0.000046  0.000167  0.189179  7.150013  0.586824     74.68  1.000118  1.000009     2.504    13.680     117.4      84.1      54.5     274.6     11.27      4.22      3.86      5.97      3.17      6.19      1.97      0.29      2.76      4.26      4.46      1.50      0.01      1.40      2.59      0.40      1.57      5.68      3.09      1.91
     -59.162548    -160.481674     200.7      0.76      2.32      67.7         2         2      2453      2287    239.36   -16.209       6.8      36.0   305.818     0.577      33.1   0.07612      31.9         H               341.4  0.048223  0.029797  0.000429  2.995011  0.689435  4.344156  1.077591     25.09    4.3077   26.4566   0.11645   5.12339   0.25509   0.01244  46.75126   4.63818     257.9  0.498796  0.000242  0.000014  0.000160  0.190037  7.151934  0.581828     73.77  1.000107  1.000008     2.477    13.672     114.0      83.7      52.3     279.9     11.59      3.76      3.79      5.37      2.85      5.77      1.28      0.38      1.71      4.22      4.12      1.28      0.06      1.40      2.01     -0.39      1.57      5.51      2.90      1.49
     -59.139557    -160.386841     204.2      0.67      2.32      70.2         2         3      2453      3574    233.79   -16.312       7.0      36.3   303.845     0.571      31.2   0.07335      33.5         H               341.4  0.046517  0.027762  0.000474  2.839824  0.680058  4.175858  1.071728     25.49    4.1944   24.9891   0.11138   5.07675   0.25862   0.01296  44.41160   4.53642     250.5  0.496100  0.000227  0.000012  0.000153  0.190033  7.132811  0.574940     74.72  1.000103  1.000007     2.426    12.887     114.0      83.3      49.6     248.5     11.54      3.45      4.03      5.54      2.84      5.94      1.46      0.23      1.75      4.04      3.79      1.07     -0.01      1.55      2.38     -0.60      1.40      5.47      2.38      1.97
     -59.136623    -160.621826     134.5      0.74      2.32      73.4         3         1      3906      1000    241.61   -16.169       6.5      35.6   307.259     0.582      40.7   0.07798      12.0         H               341.4  0.048755  0.030206  0.000417  3.070300  0.695555  4.414171  1.082464     30.47    4.3526   27.1643   0.11855   5.14145   0.25336   0.01222  47.88781   4.68400     261.6  0.502860  0.000326  0.000038  0.000165  0.190350  7.137271  0.587198     74.30  1.000134  1.000010     2.545    14.438     117.4      83.9      53.6     283.8     11.38      3.75      4.16      6.10      3.31      6.45      1.85      0.61      2.56      4.37      4.50      1.73      0.32      1.70      2.71      0.51      1.90      5.78      2.96      1.88
     -59.113525    -160.526108     188.9      0.68      2.32      71.8         3         2      3906      2287    234.15   -16.305       6.7      36.0   306.583     0.578      38.2   0.07618      27.0         H               341.4  0.048308  0.029052  0.000437  2.940801  0.696773  4.220599  1.078930     29.91    4.2034   25.3537   0.11551   5.07952   0.25890   0.01296  44.84999   4.53875     252.6  0.500652  0.000303  0.000035  0.000163  0.189924  7.141979  0.582758     74.41  1.000125  1.000008     2.521    14.684     117.4      83.3      50.1     289.7     11.55      3.63      4.00      5.46      3.14      5.95      1.43      0.33      1.87      4.63      3.96      1.11      0.39      1.72      2.33     -0.49      1.54      5.50      1.90      2.15
     -59.090565    -160.431381     186.2      0.74      2.32      69.4         3         3      3906      3574    251.52   -15.994       7.4      36.3   303.546     0.573      37.6   0.07553      26.0         H               341.4  0.047265  0.027972  0.000425  2.828688  0.677613  4.174487  1.074234     29.11    4.5468   29.0563   0.11629   5.22096   0.24538   0.01129  51.35466   4.87357     270.2  0.497730  0.000283  0.000035  0.000149  0.189224  7.123782  0.577772     74.15  1.000101  1.000007     2.438    12.965     110.8      84.6      57.5     273.1     11.66      3.15      3.53      5.08      2.85      5.58      1.15      0.00      1.67      3.60      3.46      1.28     -0.23      1.34      2.05     -0.85      1.86      5.35      1.71      1.76
