corner points
-177.8407593    -21.54393005
-177.8862457    -21.36990356
-177.6556549    -21.50062943
-177.7013702    -21.32667351
========== RESULTS WAVE VERSION 16.10.2018 ====================
IMAGE SIZE  X: 4316     Y:4785    col:row     POLARIZATION:VV
COVERAGE    X: 19.69809774km       Y: 19.86981371km 
RESOLUTION dX: 4.563970745m       dY:4.152521152m  
resolution of original product 4.563970745m x 4.152521152m;   raster step x:5997.057559m  
===============================================================
FLAGS: H=HIGH PROBABILITY SEA STATE, I=LAND(ISLAND), O=OUTLIER NO SEA STATE, N=NO WIND AVAILABLE, SEA STATE NOT VISIBLE, M=MEAN PROBABILITY SEA STATE, L= LOW PROBABILITY SEA STATE
Filtering wave length
 integration  Lmin=1m
 integration  Lmax=2200m
  peak        Lmin=100m
               FFT=1024pixels, 4673.506043m 
   mean-Hs (SWH_c)=0.2m
         mean-wind=9.961316109m/s
--------------0--------------1---------2---------3---------4---------5---------6---------7---------8---------9--------10--------11--------12--------13--------14--------15--------16--------17--------18--------19------------------20--------21--------22--------23--------24--------25--------26--------27--------28--------29--------30--------31--------32--------33--------34--------35--------36--------37--------38--------39--------40--------41--------42--------43--------44--------45--------46--------47--------48--------49--------50--------51--------52--------53--------54--------55--------56--------57--------58--------59--------60--------61--------62--------63--------64--------65--------66--------67--------68--------69--------70--------71--------72--------73
            LAT            LON  P-LENGHT     SWH_o     SWH_c     P-DIR      LINE     POINT     ROW-Y     COL-X  M-INTENC        dB      WIND INC-ANGLE  ENERGY-M  ENERGY-N  ENERGY-R ENERGY-NN  FG-DEPTH      FLAG         HEADING-DEG    E30-75   E75-390  E390-600 meanincut   meanout   cut/out  STD-NORM  SPEC-MAX   GL-MEAN    GL-VAR      CORR   ENTROPY   HOMOGEN    ENERGY  CONTRAST  DISSIMIL     STD-O    E 1-30 E600-2000   E2000 >      GODA  LONG-HIG     Tmean  CONVOLUT  MEAN-DIR  relation     Sy/Sx  SKEWNESS  KURTOSIS  cutoff-A >50/10000     INT*V   INT-LOG  S-1_g1f1  S-2_g1f2  S-3_g1f3  S-4_g2f1  S-5_g2f2  S-6_g2f3  S-7_g3f1  S-8_g3f2  S-9_g3f3 S-10_g1f4 S-11_g2f4 S-12_g3f4 S-13_g1f5 S-14_g2f5 S-15_g3f5 S-16_g4f1 S-17_g4f2 S-18_g4f3 S-19_g4f4 S-20_g4f5
--------------1--------------2---------3---------4---------5---------6---------7---------8---------9--------10--------11--------12--------13--------14--------15--------16--------17--------18--------19--------20------------------21--------22--------23--------24--------25--------26--------27--------28--------29--------30--------31--------32--------33--------34--------35--------36--------37--------38--------39--------40--------41--------42--------43--------44--------45--------46--------47--------48--------49--------50--------51--------52--------53--------54--------55--------56--------57--------58--------59--------60--------61--------62--------63--------64--------65--------66--------67--------68--------69--------70--------71--------72--------73--------74
     -21.497431    -177.806900     238.2      0.59      1.43     162.2         1         1      1000      1000    374.67   -14.264      10.2      36.5   234.861     0.547     133.1   0.06684      56.3         H               347.7  0.045648  0.011340  0.000454  1.063709  0.673823  1.578619  1.050540      3.61    7.0019   61.0570   0.09632   6.01769   0.17603   0.00491 110.35133   7.27268     393.6  0.487840  0.001842  0.000382  0.000095  0.160494  6.722437  0.550861     86.34  1.000093  1.000005     2.301    11.619      88.6      91.1     126.8     385.2     10.76     -1.07     -1.89      2.10      0.59      0.67      2.18     -0.03     -0.05      0.27     -0.25      0.16     -0.59     -0.44      0.96     -6.86      2.10      3.00     -0.77     -0.49
     -21.484213    -177.750366     269.5      0.57      1.43     152.5         1         2      1000      2314    340.89   -14.674       9.8      36.9   236.303     0.546      45.9   0.06468     100.0         H               347.7  0.045008  0.011212  0.000420  1.039282  0.665266  1.562205  1.048808      3.18    6.3259   50.5909   0.08929   5.83014   0.18971   0.00592  92.14742   6.63674     357.5  0.489100  0.000757  0.000077  0.000097  0.159397  6.700968  0.549105     84.08  1.000111  1.000006     2.307    11.953      83.0      89.8     103.6     374.5     10.59     -1.10     -1.81      2.31      0.88      0.43      2.21     -0.04     -0.29      0.65     -0.39     -0.14     -1.03      0.05      0.74     -6.19      2.51      2.62     -1.13      0.82
     -21.471092    -177.694321     242.6      0.59      1.43     128.9         1         3      1000      3628    339.17   -14.696      10.1      37.3   234.077     0.543      58.8   0.06468      61.1         H               347.7  0.044721  0.011204  0.000401  1.056726  0.663919  1.591650  1.045607      3.71    6.2969   49.8214   0.09132   5.82194   0.19011   0.00594  90.54398   6.58671     354.6  0.485548  0.001007  0.000101  0.000095  0.160612  6.713330  0.545879     85.90  1.000129  1.000008     2.279    11.493      83.0      89.8     102.3     349.7     10.73     -1.23     -1.27      2.36      0.53     -0.05      2.02     -0.21      0.46      0.04     -0.49      0.03     -1.02     -0.26      0.62     -6.00      2.32      0.61     -1.43      0.32
     -21.444908    -177.820663     385.7      0.59      1.43     144.7         2         1      2444      1000    366.99   -14.354      10.0      36.5   234.713     0.544      94.9   0.06517     100.0         H               347.7  0.044221  0.010959  0.000421  1.047427  0.657570  1.592875  1.047174      3.43    6.8504   58.3134   0.09237   5.97788   0.17881   0.00509 105.85369   7.13078     384.2  0.487333  0.001381  0.000219  0.000096  0.158375  6.699963  0.547311     85.80  1.000116  1.000008     2.276    11.375      83.0      90.9     120.9     366.1     10.69     -1.02     -1.14      2.30      0.74     -0.08      2.44     -0.23      0.32      0.56     -0.05     -0.04     -1.19      0.05      0.13     -6.62      2.49      0.60     -0.56      1.49
     -21.431698    -177.764145     373.2      0.55      1.43     151.4         2         2      2444      2314    319.84   -14.951       9.4      36.9   235.531     0.545      55.1   0.06429     100.0         H               347.7  0.044641  0.011400  0.000417  1.066919  0.658181  1.621012  1.047760      3.21    5.9072   44.5991   0.08920   5.70393   0.19942   0.00671  81.24225   6.22601     335.1  0.487922  0.000976  0.000085  0.000097  0.161106  6.722783  0.548102     85.61  1.000124  1.000008     2.292    11.592      83.0      88.9      90.7     325.4     10.73     -1.51     -1.75      2.22      0.33      0.07      2.05      0.27      0.22      0.70     -0.27     -0.07     -1.23     -0.08      0.36     -6.33      1.58      1.63     -1.03      1.04
     -21.418583    -177.708130     387.0      0.60      1.43     155.5         2         3      2444      3628    352.33   -14.531      10.4      37.3   234.595     0.543      51.9   0.06446     100.0         H               347.7  0.044145  0.011072  0.000457  1.024387  0.663838  1.543128  1.046093      3.74    6.5595   53.7346   0.09013   5.89768   0.18430   0.00551  97.78279   6.84949     368.5  0.486793  0.000899  0.000082  0.000095  0.159757  6.708158  0.545999     85.45  1.000110  1.000007     2.274    11.389      79.7      90.3     110.9     355.6     10.79     -1.26     -2.01      1.82      1.33      0.22      2.32     -0.48      0.19      0.75     -0.34      0.16     -1.16      0.31      0.09     -7.32      3.97      1.94     -1.39      2.24
     -21.392384    -177.834396     322.5      0.58      1.43     155.5         3         1      3888      1000    365.81   -14.367      10.0      36.5   236.119     0.550     109.0   0.06732     100.0         H               347.7  0.046186  0.011324  0.000460  1.062436  0.664832  1.598052  1.053057      3.87    6.8268   58.5022   0.09686   5.97045   0.17948   0.00516 105.67081   7.11063     385.2  0.490911  0.001520  0.000270  0.000098  0.159826  6.700152  0.554078     86.11  1.000142  1.000010     2.320    11.877      88.6      90.8     121.0     384.9     10.92     -1.37     -1.31      1.85      0.86      0.12      2.35     -0.02      0.23      0.75     -0.53      0.20     -0.77     -0.26      0.92     -7.54      2.47      0.94     -1.61     -0.22
     -21.379179    -177.777908     222.7      0.57      1.43     160.5         3         2      3888      2314    333.26   -14.772       9.7      36.9   235.177     0.546      85.1   0.06577      43.7         H               347.7  0.045360  0.011566  0.000477  1.072958  0.664042  1.615800  1.048859      4.27    6.1744   48.4426   0.09362   5.78507   0.19312   0.00619  87.81496   6.47634     349.5  0.487496  0.001353  0.000189  0.000098  0.162238  6.731054  0.549625     85.25  1.000112  1.000007     2.296    11.582      86.6      89.5      98.9     343.6     10.92     -1.48     -1.76      1.73      1.27      0.36      2.22     -0.42      0.07      0.62     -0.43     -0.07     -0.75     -0.30      0.14     -7.66      3.95      2.38     -1.38      0.65
     -21.366072    -177.721909     179.3      0.59      1.43     147.5         3         3      3888      3628    341.08   -14.671      10.1      37.3   234.171     0.541      52.8   0.06402      23.6         H               347.7  0.044132  0.011412  0.000441  1.044732  0.648211  1.611717  1.044178      3.68    6.3346   50.3254   0.08976   5.83326   0.18921   0.00586  91.61604   6.62863     356.2  0.484596  0.000972  0.000081  0.000096  0.163400  6.732440  0.544390     87.05  1.000117  1.000007     2.254    11.102      84.8      89.9     103.4     336.3     10.82     -1.81     -1.75      2.14      0.49      0.15      2.12     -0.15      0.78      0.77     -0.33     -0.36     -0.79     -0.27      0.51     -6.70      2.74      0.93     -0.62      0.40
