corner points
167.6713104    35.57079697
167.625885    35.75016403
167.8830261    35.60567093
167.8381195    35.78505707
========== RESULTS WAVE VERSION 16.10.2018 ====================
IMAGE SIZE  X: 5345     Y:4922    col:row     POLARIZATION:VV
COVERAGE    X: 19.49177319km       Y: 20.31318891km 
RESOLUTION dX: 3.64673025m       dY:4.127019283m  
resolution of original product 3.64673025m x 4.127019283m;   raster step x:5998.871262m  
===============================================================
FLAGS: H=HIGH PROBABILITY SEA STATE, I=LAND(ISLAND), O=OUTLIER NO SEA STATE, N=NO WIND AVAILABLE, SEA STATE NOT VISIBLE, M=MEAN PROBABILITY SEA STATE, L= LOW PROBABILITY SEA STATE
Filtering wave length
 integration  Lmin=1m
 integration  Lmax=2200m
  peak        Lmin=100m
               FFT=1024pixels, 3734.251776m 
   mean-Hs (SWH_c)=3.639902344m
         mean-wind=15.71399307m/s
--------------0--------------1---------2---------3---------4---------5---------6---------7---------8---------9--------10--------11--------12--------13--------14--------15--------16--------17--------18--------19------------------20--------21--------22--------23--------24--------25--------26--------27--------28--------29--------30--------31--------32--------33--------34--------35--------36--------37--------38--------39--------40--------41--------42--------43--------44--------45--------46--------47--------48--------49--------50--------51--------52--------53--------54--------55--------56--------57--------58--------59--------60--------61--------62--------63--------64--------65--------66--------67--------68--------69--------70--------71--------72--------73
            LAT            LON  P-LENGHT     SWH_o     SWH_c     P-DIR      LINE     POINT     ROW-Y     COL-X  M-INTENC        dB      WIND INC-ANGLE  ENERGY-M  ENERGY-N  ENERGY-R ENERGY-NN  FG-DEPTH      FLAG         HEADING-DEG    E30-75   E75-390  E390-600 meanincut   meanout   cut/out  STD-NORM  SPEC-MAX   GL-MEAN    GL-VAR      CORR   ENTROPY   HOMOGEN    ENERGY  CONTRAST  DISSIMIL     STD-O    E 1-30 E600-2000   E2000 >      GODA  LONG-HIG     Tmean  CONVOLUT  MEAN-DIR  relation     Sy/Sx  SKEWNESS  KURTOSIS  cutoff-A >50/10000     INT*V   INT-LOG  S-1_g1f1  S-2_g1f2  S-3_g1f3  S-4_g2f1  S-5_g2f2  S-6_g2f3  S-7_g3f1  S-8_g3f2  S-9_g3f3 S-10_g1f4 S-11_g2f4 S-12_g3f4 S-13_g1f5 S-14_g2f5 S-15_g3f5 S-16_g4f1 S-17_g4f2 S-18_g4f3 S-19_g4f4 S-20_g4f5
--------------1--------------2---------3---------4---------5---------6---------7---------8---------9--------10--------11--------12--------13--------14--------15--------16--------17--------18--------19--------20------------------21--------22--------23--------24--------25--------26--------27--------28--------29--------30--------31--------32--------33--------34--------35--------36--------37--------38--------39--------40--------41--------42--------43--------44--------45--------46--------47--------48--------49--------50--------51--------52--------53--------54--------55--------56--------57--------58--------59--------60--------61--------62--------63--------64--------65--------66--------67--------68--------69--------70--------71--------72--------73--------74
      35.613964     167.702682     272.0      3.86      5.08      71.2         1         1      1000      1000   4967.18    -3.039      16.0      23.6   448.778     0.887     277.7   0.23694     100.0         H               346.9  0.099335  0.098739  0.003693  6.497800  1.033658  6.286219  1.330215    146.68    9.1759  132.8280   0.30757   6.40049   0.17540   0.00455 183.94824   8.85920    6607.1  0.681608  0.003774  0.000169  0.000289  0.232878  7.493705  0.940507     86.61  1.000367  1.000050     4.252    42.289     148.0      91.3     313.0    1031.6     15.75      2.57     12.08      0.62     -1.49      4.04     -2.83     -1.34     -4.91      2.32     -1.76     -1.42      5.31      2.68     -1.06     -8.32     -2.43      2.76     -2.25      1.25
      35.624813     167.768478     266.0      3.82      5.08      67.8         1         2      1000      2645   4673.52    -3.304      16.3      24.1   443.460     0.873     236.3   0.23408     100.0         H               346.9  0.098123  0.096565  0.004037  6.298301  1.051284  5.991056  1.324479    155.92    8.6737  120.4453   0.30816   6.30445   0.18180   0.00497 166.65726   8.39785    6189.6  0.672100  0.003058  0.000105  0.000282  0.233021  7.488551  0.925115     82.19  1.000340  1.000044     4.382    52.909     142.7      90.9     275.0     960.0     15.81      2.93     11.69      0.25     -1.44      3.99     -2.62     -1.24     -4.78      3.29     -1.46     -1.63      4.56      2.95     -0.63     -9.32     -2.77      2.95     -2.37      1.67
      35.635433     167.833099     203.6      3.38      5.08     101.1         1         3      1000      4290   4108.59    -3.863      15.6      24.6   437.832     0.856     210.9   0.22550      33.2         H               346.9  0.096790  0.088016  0.003137  5.989923  1.035172  5.786405  1.312587    127.79    7.6054   97.2892   0.30304   6.07012   0.19959   0.00634 135.61359   7.47402    5392.9  0.666143  0.002678  0.000085  0.000283  0.230640  7.422615  0.904269     93.80  1.000390  1.000050     4.092    38.518     142.7      89.3     206.9     797.9     15.77      2.06     12.08      0.59     -2.10      3.85     -2.99     -0.78     -4.97      1.28     -2.05     -1.09      5.31      3.07     -1.16     -8.37     -2.86      2.16     -1.16      1.48
      35.666924     167.689301     215.1      3.73      5.08     101.7         2         1      2453      1000   5094.24    -2.929      16.4      23.6   445.470     0.878     203.7   0.23460      39.1         H               346.9  0.100103  0.094349  0.003143  6.242196  1.067539  5.847278  1.327623    121.80    9.4232  137.8332   0.30690   6.45061   0.17071   0.00424 191.06563   9.06808    6762.8  0.678762  0.002675  0.000078  0.000278  0.229583  7.444685  0.930688     96.42  1.000386  1.000051     4.385    50.709     137.8      91.9     328.0    1052.7     15.14      0.54     11.44      2.15     -1.42      5.29     -2.35     -0.37     -3.84     -0.27     -1.65     -0.22      5.01      3.68     -0.84     -6.85     -1.37      2.84     -0.86      2.55
      35.677780     167.755142     266.0      3.75      5.08      67.8         2         2      2453      2645   4320.71    -3.644      15.1      24.1   460.119     0.923     389.0   0.25594     100.0         H               346.9  0.107901  0.103979  0.003828  6.844405  1.084980  6.308321  1.364260    151.42    7.9454  108.4566   0.31859   6.12875   0.19857   0.00626 147.80502   7.77102    5894.6  0.701880  0.005551  0.000274  0.000284  0.233102  7.463676  0.979724     90.11  1.000377  1.000052     4.531    48.244     148.0      89.2     240.4     941.2     15.87      1.80     11.77      0.46     -1.55      3.92     -3.22     -0.65     -4.80      1.29     -1.60     -0.41      4.35      3.40     -0.72     -8.53     -1.76      1.99     -1.38      1.93
      35.688400     167.819809     215.1      3.68      5.08     101.7         2         3      2453      4290   4126.86    -3.844      15.7      24.6   443.656     0.876     214.1   0.23628      39.1         H               346.9  0.099339  0.096294  0.003201  6.306003  1.045960  6.028916  1.325505    173.92    7.6486   98.9132   0.30820   6.07606   0.19996   0.00638 136.85706   7.50602    5470.1  0.674577  0.002768  0.000083  0.000294  0.231495  7.464217  0.926943     97.88  1.000374  1.000051     4.360    47.184     142.7      89.2     212.8     908.3     15.62      0.43     12.20      1.53     -1.38      4.74     -3.22      0.05     -5.15     -0.61     -1.41      0.30      5.62      3.27     -1.57     -7.26     -1.56      2.56     -0.47      1.42
      35.719887     167.675919     259.4      3.49      5.08      64.6         3         1      3906      1000   4736.37    -3.246      15.3      23.6   447.099     0.883     249.8   0.23654      97.7         H               346.9  0.103222  0.094006  0.003042  6.692766  1.053651  6.351974  1.332148    151.70    8.7524  123.1882   0.30794   6.31754   0.18068   0.00493 170.50919   8.49044    6309.0  0.679874  0.003337  0.000155  0.000276  0.226020  7.415165  0.935489     80.19  1.000356  1.000047     4.305    43.158     142.7      90.9     283.1     977.7     15.26      3.24     10.29      1.29     -1.11      5.09     -2.65     -2.16     -4.00      3.25     -1.31     -2.06      3.03      3.85      0.13     -7.21     -1.09      4.37     -1.39      3.38
      35.730743     167.741806     272.0      3.63      5.08      71.2         3         2      3906      2645   4606.73    -3.366      16.0      24.1   445.933     0.879     261.2   0.23605     100.0         H               346.9  0.101676  0.094448  0.003079  6.508125  1.016479  6.402618  1.324257    124.97    8.5079  117.6033   0.30863   6.26751   0.18507   0.00519 162.61157   8.26725    6100.5  0.677113  0.003414  0.000162  0.000273  0.226047  7.419133  0.930998     89.35  1.000348  1.000047     4.182    39.374     142.7      90.6     266.2     912.9     15.16      2.30     10.87      1.27     -1.61      4.84     -2.11     -1.40     -3.60      1.59     -1.82     -1.04      3.85      3.74      0.31     -7.09     -1.64      3.84     -1.62      2.48
      35.741364     167.806519     205.2      3.40      5.08      98.4         3         3      3906      4290   3938.77    -4.046      15.0      24.6   447.542     0.887     286.2   0.24038      34.0         H               346.9  0.102859  0.093386  0.003086  6.233927  1.089155  5.723639  1.339640    148.96    7.2861   91.6618   0.30966   5.98633   0.20777   0.00702 126.55574   7.17532    5275.9  0.684269  0.003964  0.000204  0.000285  0.229564  7.419089  0.939679     94.34  1.000373  1.000050     4.577    52.382     142.7      88.5     194.6     859.4     15.56      1.31     11.45      1.54     -1.74      5.19     -3.24     -0.70     -5.14      0.58     -2.10     -0.57      4.96      3.75     -1.30     -7.54     -1.79      3.25     -1.59      1.97
