corner points
179.1491241    -9.208436012
179.1097717    -9.033473015
179.3234406    -9.169124603
179.2839966    -8.994211197
========== RESULTS WAVE VERSION 16.10.2018 ====================
IMAGE SIZE  X: 4316     Y:4787    col:row     POLARIZATION:VV
COVERAGE    X: 19.58247602km       Y: 19.88284326km 
RESOLUTION dX: 4.537181655m       dY:4.153508096m  
resolution of original product 4.537181655m x 4.153508096m;   raster step x:5998.154147m  
===============================================================
FLAGS: H=HIGH PROBABILITY SEA STATE, I=LAND(ISLAND), O=OUTLIER NO SEA STATE, N=NO WIND AVAILABLE, SEA STATE NOT VISIBLE, M=MEAN PROBABILITY SEA STATE, L= LOW PROBABILITY SEA STATE
Filtering wave length
 integration  Lmin=1m
 integration  Lmax=2200m
  peak        Lmin=100m
               FFT=1024pixels, 4646.074014m 
   mean-Hs (SWH_c)=0.5502382278m
         mean-wind=9.414402962m/s
--------------0--------------1---------2---------3---------4---------5---------6---------7---------8---------9--------10--------11--------12--------13--------14--------15--------16--------17--------18--------19------------------20--------21--------22--------23--------24--------25--------26--------27--------28--------29--------30--------31--------32--------33--------34--------35--------36--------37--------38--------39--------40--------41--------42--------43--------44--------45--------46--------47--------48--------49--------50--------51--------52--------53--------54--------55--------56--------57--------58--------59--------60--------61--------62--------63--------64--------65--------66--------67--------68--------69--------70--------71--------72--------73
            LAT            LON  P-LENGHT     SWH_o     SWH_c     P-DIR      LINE     POINT     ROW-Y     COL-X  M-INTENC        dB      WIND INC-ANGLE  ENERGY-M  ENERGY-N  ENERGY-R ENERGY-NN  FG-DEPTH      FLAG         HEADING-DEG    E30-75   E75-390  E390-600 meanincut   meanout   cut/out  STD-NORM  SPEC-MAX   GL-MEAN    GL-VAR      CORR   ENTROPY   HOMOGEN    ENERGY  CONTRAST  DISSIMIL     STD-O    E 1-30 E600-2000   E2000 >      GODA  LONG-HIG     Tmean  CONVOLUT  MEAN-DIR  relation     Sy/Sx  SKEWNESS  KURTOSIS  cutoff-A >50/10000     INT*V   INT-LOG  S-1_g1f1  S-2_g1f2  S-3_g1f3  S-4_g2f1  S-5_g2f2  S-6_g2f3  S-7_g3f1  S-8_g3f2  S-9_g3f3 S-10_g1f4 S-11_g2f4 S-12_g3f4 S-13_g1f5 S-14_g2f5 S-15_g3f5 S-16_g4f1 S-17_g4f2 S-18_g4f3 S-19_g4f4 S-20_g4f5
--------------1--------------2---------3---------4---------5---------6---------7---------8---------9--------10--------11--------12--------13--------14--------15--------16--------17--------18--------19--------20------------------21--------22--------23--------24--------25--------26--------27--------28--------29--------30--------31--------32--------33--------34--------35--------36--------37--------38--------39--------40--------41--------42--------43--------44--------45--------46--------47--------48--------49--------50--------51--------52--------53--------54--------55--------56--------57--------58--------59--------60--------61--------62--------63--------64--------65--------66--------67--------68--------69--------70--------71--------72--------73--------74
      -9.162680     179.181732     103.6      0.61      1.88      78.8         1         1      1000      1000    342.01   -14.660       9.7      36.8   227.410     0.575      68.9   0.07587       6.8         H               348.0  0.051164  0.021497  0.000464  2.271332  0.673792  3.370967  1.075796     12.52    6.3481   53.3283   0.11528   5.83119   0.19266   0.00612  94.36135   6.64061     367.9  0.501069  0.000982  0.000132  0.000159  0.154898  6.856458  0.582557     83.02  1.000202  1.000015     2.456    13.104     110.8      89.5     107.9     369.6     10.60     -0.12     -0.68      3.08     -0.34      2.54      2.84     -0.06      1.55      0.06      0.31     -0.23     -0.71      0.02      1.46     -4.27     -0.15      4.56      0.67      0.77
      -9.150604     179.235306     106.4      0.61      1.88      79.9         1         2      1000      2322    318.38   -14.970       9.5      37.2   227.103     0.577     115.4   0.07787       7.2         H               348.0  0.050875  0.022177  0.000463  2.306367  0.686750  3.358378  1.078014     15.77    5.8813   46.6249   0.11983   5.68949   0.20458   0.00709  82.07608   6.17664     343.3  0.501619  0.001460  0.000314  0.000156  0.156562  6.880642  0.584362     82.07  1.000180  1.000015     2.452    12.986     110.8      88.4      93.3     358.7     10.37      0.15     -0.36      3.32     -0.11      2.20      3.25      0.58      2.31      0.21      0.72      0.28     -0.48     -0.06      1.50     -3.58     -0.57      3.42      1.40      0.08
      -9.138624     179.288406     105.1      0.53      1.88      84.3         1         3      1000      3644    278.21   -15.556       8.9      37.5   228.113     0.576      56.0   0.07645       7.0         H               348.0  0.051008  0.022322  0.000512  2.336245  0.678065  3.445460  1.077043     10.92    5.0806   35.6513   0.11585   5.42200   0.22696   0.00923  63.04219   5.40177     299.6  0.501552  0.000837  0.000085  0.000159  0.158226  6.893325  0.583328     82.75  1.000184  1.000015     2.466    13.290     107.8      86.5      70.7     311.2     10.71     -0.10     -0.45      2.88     -0.18      2.19      2.78     -0.09      1.90      0.13     -0.05      0.31     -1.43      0.02      1.62     -4.71      0.08      3.78     -0.38      1.26
      -9.109895     179.169846     100.5      0.60      1.88      84.6         2         1      2444      1000    343.18   -14.645       9.8      36.8   226.759     0.572      54.1   0.07559       6.4         H               348.0  0.050760  0.021138  0.000407  2.205373  0.677142  3.256884  1.072811      9.93    6.3728   53.4882   0.11435   5.83887   0.19180   0.00606  94.74348   6.66311     368.2  0.498948  0.000808  0.000087  0.000154  0.156021  6.855343  0.578873     83.33  1.000182  1.000015     2.425    12.691     107.8      89.6     108.5     361.2     10.38      0.04     -0.62      3.39     -0.20      2.39      3.05      0.14      2.06      0.22      0.05     -0.18     -0.43     -0.17      1.49     -3.07     -0.71      4.42      0.04      0.04
      -9.097823     179.223404     100.9      0.55      1.88      77.7         2         2      2444      2322    310.05   -15.086       9.4      37.2   229.016     0.580      78.1   0.07760       6.5         H               348.0  0.051733  0.021386  0.000454  2.244723  0.692354  3.242163  1.080651      9.67    5.7157   44.3709   0.11649   5.63703   0.20824   0.00746  78.40337   6.02768     335.0  0.505288  0.001111  0.000167  0.000160  0.154032  6.849555  0.587062     82.93  1.000217  1.000016     2.514    13.902     110.8      88.0      88.7     359.9     10.50     -0.63     -0.56      3.02     -0.09      1.80      2.86      0.33      1.91      0.14      0.27      0.06     -0.68     -0.06      1.77     -4.14      0.24      3.13      0.10      0.05
      -9.085849     179.276505     101.4      0.53      1.88      79.0         2         3      2444      3644    284.60   -15.458       9.0      37.5   228.401     0.577      60.4   0.07696       6.5         H               348.0  0.051793  0.022020  0.000403  2.295803  0.689152  3.331346  1.078126     13.93    5.2071   37.3531   0.11624   5.46667   0.22333   0.00884  66.02209   5.52615     306.8  0.502278  0.000902  0.000100  0.000155  0.157154  6.867927  0.584578     82.36  1.000170  1.000012     2.473    13.303     107.8      86.8      74.0     303.7     10.55     -0.46     -0.46      3.40     -0.66      2.06      2.44      0.11      1.93      0.23     -0.55     -0.21     -1.08      0.06      1.61     -3.09     -0.66      3.38     -1.08      0.64
      -9.057110     179.157974     104.4      0.59      1.88      81.5         3         1      3888      1000    340.71   -14.676       9.7      36.8   227.423     0.574      73.7   0.07577       7.0         H               348.0  0.051484  0.021269  0.000461  2.212425  0.685753  3.226272  1.075117     10.21    6.3233   52.8930   0.11464   5.82422   0.19295   0.00616  93.65852   6.62156     366.3  0.500084  0.001149  0.000136  0.000161  0.154085  6.850974  0.581592     82.70  1.000189  1.000013     2.459    13.362     110.8      89.4     107.1     396.9     10.51      0.01     -0.90      3.10     -0.20      2.04      2.86      0.18      1.30      0.16      0.13      0.00     -0.63     -0.65      1.62     -4.51     -0.27      4.37      0.41     -1.10
      -9.045043     179.211533     102.2      0.56      1.88      81.7         3         2      3888      2322    313.72   -15.035       9.5      37.2   227.926     0.575      91.1   0.07685       6.6         H               348.0  0.050953  0.021620  0.000547  2.257593  0.673323  3.352912  1.076715     14.01    5.7894   45.1540   0.11637   5.66111   0.20633   0.00728  79.79890   6.09699     337.8  0.500956  0.001342  0.000220  0.000160  0.156093  6.860882  0.582520     83.73  1.000169  1.000012     2.445    12.988     107.8      88.1      90.4     336.3     10.73     -0.20     -1.06      2.47     -0.55      2.11      2.87      0.18      1.39     -0.08     -0.04      0.41     -0.95     -0.19      1.33     -5.87     -0.46      4.24     -0.55      0.47
      -9.033072     179.264618     113.5      0.54      1.88      77.7         3         3      3888      3644    292.48   -15.339       9.2      37.5   227.360     0.573      65.8   0.07572       8.3         H               348.0  0.050649  0.021425  0.000519  2.252197  0.670714  3.357911  1.074757     12.43    5.3637   39.1934   0.11492   5.52156   0.21801   0.00835  69.37816   5.67862     314.3  0.500169  0.000934  0.000128  0.000165  0.156110  6.873576  0.580747     81.52  1.000199  1.000015     2.450    13.220     107.8      87.3      78.0     331.1     10.57      0.28     -0.17      3.04     -0.75      1.76      3.18      0.38      2.24      0.62     -0.14     -0.47     -1.37      0.18      1.44     -4.75     -2.31      2.57     -0.81      1.42
