corner points
-179.3606415    -22.82395744
-179.4053497    -22.64435577
-179.1725311    -22.78217506
-179.2175751    -22.60264206
========== RESULTS WAVE VERSION 16.10.2018 ====================
IMAGE SIZE  X: 5345     Y:4923    col:row     POLARIZATION:VV
COVERAGE    X: 19.78424262km       Y: 20.44486236km 
RESOLUTION dX: 3.701448573m       dY:4.152927556m  
resolution of original product 3.701448573m x 4.152927556m;   raster step x:5996.346688m  
===============================================================
FLAGS: H=HIGH PROBABILITY SEA STATE, I=LAND(ISLAND), O=OUTLIER NO SEA STATE, N=NO WIND AVAILABLE, SEA STATE NOT VISIBLE, M=MEAN PROBABILITY SEA STATE, L= LOW PROBABILITY SEA STATE
Filtering wave length
 integration  Lmin=1m
 integration  Lmax=2200m
  peak        Lmin=100m
               FFT=1024pixels, 3790.283339m 
   mean-Hs (SWH_c)=0.2m
         mean-wind=6.430864334m/s
--------------0--------------1---------2---------3---------4---------5---------6---------7---------8---------9--------10--------11--------12--------13--------14--------15--------16--------17--------18--------19------------------20--------21--------22--------23--------24--------25--------26--------27--------28--------29--------30--------31--------32--------33--------34--------35--------36--------37--------38--------39--------40--------41--------42--------43--------44--------45--------46--------47--------48--------49--------50--------51--------52--------53--------54--------55--------56--------57--------58--------59--------60--------61--------62--------63--------64--------65--------66--------67--------68--------69--------70--------71--------72--------73
            LAT            LON  P-LENGHT     SWH_o     SWH_c     P-DIR      LINE     POINT     ROW-Y     COL-X  M-INTENC        dB      WIND INC-ANGLE  ENERGY-M  ENERGY-N  ENERGY-R ENERGY-NN  FG-DEPTH      FLAG         HEADING-DEG    E30-75   E75-390  E390-600 meanincut   meanout   cut/out  STD-NORM  SPEC-MAX   GL-MEAN    GL-VAR      CORR   ENTROPY   HOMOGEN    ENERGY  CONTRAST  DISSIMIL     STD-O    E 1-30 E600-2000   E2000 >      GODA  LONG-HIG     Tmean  CONVOLUT  MEAN-DIR  relation     Sy/Sx  SKEWNESS  KURTOSIS  cutoff-A >50/10000     INT*V   INT-LOG  S-1_g1f1  S-2_g1f2  S-3_g1f3  S-4_g2f1  S-5_g2f2  S-6_g2f3  S-7_g3f1  S-8_g3f2  S-9_g3f3 S-10_g1f4 S-11_g2f4 S-12_g3f4 S-13_g1f5 S-14_g2f5 S-15_g3f5 S-16_g4f1 S-17_g4f2 S-18_g4f3 S-19_g4f4 S-20_g4f5
--------------1--------------2---------3---------4---------5---------6---------7---------8---------9--------10--------11--------12--------13--------14--------15--------16--------17--------18--------19--------20------------------21--------22--------23--------24--------25--------26--------27--------28--------29--------30--------31--------32--------33--------34--------35--------36--------37--------38--------39--------40--------41--------42--------43--------44--------45--------46--------47--------48--------49--------50--------51--------52--------53--------54--------55--------56--------57--------58--------59--------60--------61--------62--------63--------64--------65--------66--------67--------68--------69--------70--------71--------72--------73--------74
     -22.779474    -179.333649     123.4      0.37      1.39     125.5         1         1      1000      1000   2289.76    -6.402       5.9      23.3   344.699     0.655      39.2   0.13698      10.0         H               347.6  0.073043  0.023581  0.000466  2.317121  0.860129  2.693922  1.147720      6.56    4.0998   27.2491   0.22907   5.00681   0.28176   0.01558  42.01438   4.25231    2628.0  0.557932  0.000476  0.000013  0.000154  0.161803  6.751597  0.681731     86.22  1.000163  1.000015     3.036    23.975      67.5      81.9      51.8     364.2     10.67     -1.14     -1.69      3.60      0.13      0.53      0.77      0.34      1.28      0.65     -0.26     -0.38     -1.47     -0.86     -0.01     -2.10      0.86      1.80     -0.64     -0.20
     -22.766701    -179.276108     241.9      0.38      1.39     165.2         1         2      1000      2620   2133.52    -6.709       6.2      23.8   344.573     0.656      43.8   0.13844      60.3         H               347.6  0.072344  0.023776  0.000551  2.322865  0.871762  2.664563  1.148340      6.02    3.7836   23.6871   0.22966   4.86379   0.29715   0.01790  36.49430   3.94749    2449.8  0.559000  0.000573  0.000016  0.000150  0.161752  6.765854  0.681871     86.91  1.000173  1.000015     2.997    19.886      68.7      80.5      44.9     289.8     10.77     -0.79     -1.65      3.31      0.03      1.05      1.21      0.13      1.41      0.14     -0.37      0.03     -1.14     -0.73      0.53     -3.20      0.27      2.54     -0.74     -0.23
     -22.754143    -179.219620     119.1      0.39      1.39     118.4         1         3      1000      4240   1967.89    -7.060       6.3      24.3   347.644     0.665      40.8   0.14171       9.2         H               347.6  0.075042  0.024618  0.000521  2.458937  0.873301  2.815681  1.156559      6.38    3.4567   20.4940   0.23307   4.70200   0.31603   0.02123  31.43523   3.64278    2275.8  0.565245  0.000489  0.000017  0.000153  0.162884  6.777788  0.692930     88.51  1.000185  1.000018     3.017    19.831      72.4      78.6      38.6     269.7     10.74     -0.33     -1.27      3.63     -0.04      1.31      1.26      0.14      1.86      0.15     -0.13     -0.08     -1.43     -0.61      0.36     -2.45     -0.09      2.49     -0.38      0.20
     -22.726788    -179.346786     211.3      0.40      1.39     173.6         2         1      2444      1000   2433.47    -6.138       6.4      23.3   346.146     0.660      64.7   0.13840      37.0         H               347.6  0.075073  0.022786  0.000539  2.256494  0.868293  2.598770  1.150665      5.95    4.3832   31.0060   0.23064   5.12504   0.27028   0.01393  47.70961   4.52261    2800.0  0.560917  0.000919  0.000055  0.000155  0.159839  6.734771  0.686955     89.26  1.000187  1.000017     2.943    18.694      71.1      83.0      58.8     332.3     10.66     -0.36     -1.22      3.61      0.10      0.71      1.26      0.04      1.35      0.21      0.10      0.07     -0.79     -0.70      0.37     -2.95      0.38      1.74     -0.25     -0.57
     -22.714020    -179.289261     244.6      0.39      1.39     129.2         2         2      2444      2620   2153.97    -6.668       6.3      23.8   346.014     0.663      54.4   0.14111      63.6         H               347.6  0.075453  0.023003  0.000451  2.272713  0.852613  2.665585  1.153795      6.42    3.8344   24.5095   0.23280   4.88545   0.29521   0.01771  37.60750   4.00390    2485.2  0.563730  0.000744  0.000034  0.000163  0.160580  6.729861  0.690142     90.56  1.000180  1.000018     2.988    19.626      73.8      80.5      46.2     300.7     10.73     -0.62     -1.38      3.49      0.31      0.95      0.83      0.35      1.58      0.08      0.19      0.14     -1.07     -0.32      0.63     -2.32      0.41      1.82     -0.19      0.30
     -22.701469    -179.232803     167.3      0.40      1.39      44.9         2         3      2444      4240   2022.84    -6.940       6.6      24.3   349.862     0.673      40.7   0.14546      19.9         H               347.6  0.077672  0.023767  0.000548  2.369981  0.871836  2.718379  1.163363      5.23    3.5652   21.8742   0.23598   4.75464   0.31016   0.02025  33.42485   3.74985    2353.2  0.570895  0.000517  0.000014  0.000162  0.161442  6.738666  0.700666     88.94  1.000198  1.000020     3.067    20.297      75.2      79.1      41.1     273.0     10.89     -0.07     -0.98      3.36      0.09      1.16      1.07      0.03      1.08      0.00      0.09      0.09     -1.38     -0.54      0.42     -3.08      0.11      2.43     -0.27      0.19
     -22.674099    -179.359924     267.7      0.42      1.39     129.0         3         1      3888      1000   2531.07    -5.967       6.8      23.3   349.501     0.676      50.4   0.14770     100.0         H               347.6  0.080338  0.023529  0.000489  2.302468  0.902827  2.550288  1.166314      6.34    4.5729   34.1737   0.23919   5.19731   0.26427   0.01311  51.99871   4.70250    2952.1  0.572008  0.000653  0.000030  0.000163  0.160538  6.724918  0.705263     89.28  1.000197  1.000020     3.083    20.474      76.6      83.6      64.6     345.5     10.75     -0.99     -1.58      3.41     -0.06      1.04      0.91      0.50      1.16     -0.08      0.14      0.13     -1.35     -0.52      0.66     -2.68      0.30      2.66      0.49     -0.05
     -22.661339    -179.302429     280.0      0.41      1.39     148.9         3         2      3888      2620   2233.11    -6.511       6.6      23.8   352.675     0.684      44.2   0.14934     100.0         H               347.6  0.080454  0.024376  0.000586  2.357523  0.892475  2.641558  1.171768      5.72    3.9865   26.9661   0.23899   4.95002   0.28997   0.01685  41.04266   4.15070    2616.5  0.578561  0.000594  0.000016  0.000167  0.162503  6.740717  0.713139     89.45  1.000194  1.000021     3.191    23.042      79.7      81.0      50.7     336.9     11.09     -0.16     -1.64      2.83      0.53      1.08      0.73      0.29      1.44      0.29      0.12      0.16     -1.14     -0.54      0.61     -3.65      0.70      2.37      0.02      0.23
     -22.648792    -179.246002     221.3      0.41      1.39     159.5         3         3      3888      4240   2064.54    -6.852       6.8      24.3   354.264     0.688      43.8   0.15075      42.8         H               347.6  0.081664  0.023614  0.000618  2.361352  0.899595  2.624906  1.174204      6.64    3.6481   23.1656   0.23971   4.79245   0.30680   0.01963  35.22475   3.83025    2424.1  0.581525  0.000618  0.000014  0.000166  0.160021  6.724448  0.716598     87.84  1.000204  1.000023     3.229    23.801      81.3      79.4      43.4     322.9     10.87     -0.19     -1.11      3.20      0.45      1.48      1.34      0.31      1.47      0.21      0.01     -0.13     -1.28     -0.28      0.69     -3.59      0.59      2.42     -0.10      0.92
