corner points
165.4152985    52.58927536
165.361969    52.76182938
165.7014008    52.62113571
165.649231    52.79372406
========== RESULTS WAVE VERSION 16.10.2018 ====================
IMAGE SIZE  X: 4316     Y:4766    col:row     POLARIZATION:VV
COVERAGE    X: 19.59963163km       Y: 19.47198427km 
RESOLUTION dX: 4.54115654m       dY:4.085603078m  
resolution of original product 4.54115654m x 4.085603078m;   raster step x:5998.86779m  
===============================================================
FLAGS: H=HIGH PROBABILITY SEA STATE, I=LAND(ISLAND), O=OUTLIER NO SEA STATE, N=NO WIND AVAILABLE, SEA STATE NOT VISIBLE, M=MEAN PROBABILITY SEA STATE, L= LOW PROBABILITY SEA STATE
Filtering wave length
 integration  Lmin=1m
 integration  Lmax=2200m
  peak        Lmin=100m
               FFT=1024pixels, 4650.144297m 
   mean-Hs (SWH_c)=4.057906799m
         mean-wind=16.1362133m/s
--------------0--------------1---------2---------3---------4---------5---------6---------7---------8---------9--------10--------11--------12--------13--------14--------15--------16--------17--------18--------19------------------20--------21--------22--------23--------24--------25--------26--------27--------28--------29--------30--------31--------32--------33--------34--------35--------36--------37--------38--------39--------40--------41--------42--------43--------44--------45--------46--------47--------48--------49--------50--------51--------52--------53--------54--------55--------56--------57--------58--------59--------60--------61--------62--------63--------64--------65--------66--------67--------68--------69--------70--------71--------72--------73
            LAT            LON  P-LENGHT     SWH_o     SWH_c     P-DIR      LINE     POINT     ROW-Y     COL-X  M-INTENC        dB      WIND INC-ANGLE  ENERGY-M  ENERGY-N  ENERGY-R ENERGY-NN  FG-DEPTH      FLAG         HEADING-DEG    E30-75   E75-390  E390-600 meanincut   meanout   cut/out  STD-NORM  SPEC-MAX   GL-MEAN    GL-VAR      CORR   ENTROPY   HOMOGEN    ENERGY  CONTRAST  DISSIMIL     STD-O    E 1-30 E600-2000   E2000 >      GODA  LONG-HIG     Tmean  CONVOLUT  MEAN-DIR  relation     Sy/Sx  SKEWNESS  KURTOSIS  cutoff-A >50/10000     INT*V   INT-LOG  S-1_g1f1  S-2_g1f2  S-3_g1f3  S-4_g2f1  S-5_g2f2  S-6_g2f3  S-7_g3f1  S-8_g3f2  S-9_g3f3 S-10_g1f4 S-11_g2f4 S-12_g3f4 S-13_g1f5 S-14_g2f5 S-15_g3f5 S-16_g4f1 S-17_g4f2 S-18_g4f3 S-19_g4f4 S-20_g4f5
--------------1--------------2---------3---------4---------5---------6---------7---------8---------9--------10--------11--------12--------13--------14--------15--------16--------17--------18--------19--------20------------------21--------22--------23--------24--------25--------26--------27--------28--------29--------30--------31--------32--------33--------34--------35--------36--------37--------38--------39--------40--------41--------42--------43--------44--------45--------46--------47--------48--------49--------50--------51--------52--------53--------54--------55--------56--------57--------58--------59--------60--------61--------62--------63--------64--------65--------66--------67--------68--------69--------70--------71--------72--------73--------74
      52.633018     165.471176     264.6      4.31      7.16     104.7         1         1      1000      1000    790.44   -11.021      16.1      36.6   285.467     0.660     225.3   0.11733     100.0         H               344.4  0.055112  0.055303  0.004473  3.567904  0.782276  4.560925  1.152434    130.41   14.6581  233.4148   0.17486   7.27449   0.10408   0.00134 385.20148  14.05551     910.9  0.541515  0.003623  0.000242  0.000226  0.256979  7.630744  0.668184    103.79  1.000410  1.000042     2.961    19.684     190.7      97.4     681.0    1047.9     17.24     -3.25     12.73     -4.05      1.35      0.24     -2.32      2.15     -5.78     -4.13      1.86      2.75      4.93      1.51     -1.27    -17.35      1.17     -2.52      1.78     -0.80
      52.642826     165.559097     268.3      4.14      7.16     112.6         1         2      1000      2321    760.83   -11.187      16.1      37.0   283.919     0.653     259.8   0.11566     100.0         H               344.4  0.054589  0.052838  0.003872  3.484109  0.752673  4.628978  1.146214    127.49   14.1620  221.5951   0.17272   7.22478   0.10662   0.00143 366.64380  13.66435     872.1  0.537378  0.003931  0.000394  0.000225  0.252462  7.588937  0.659684    106.52  1.000392  1.000042     2.870    17.650     190.7      97.1     625.7     969.8     17.02     -4.03     12.73     -3.40      1.37      0.53     -2.32      2.01     -5.17     -4.58      0.78      2.69      5.00      1.46     -0.82    -15.91      1.88     -2.90      0.85     -0.89
      52.652489     165.646301     299.9      4.12      7.16     115.5         1         3      1000      3642    709.41   -11.491      15.8      37.3   284.261     0.654     178.3   0.11555     100.0         H               344.4  0.054731  0.053718  0.004370  3.486314  0.770770  4.523160  1.147291    120.19   13.2672  201.5220   0.17311   7.12409   0.11232   0.00163 333.27228  12.91744     813.8  0.538540  0.003063  0.000099  0.000224  0.256202  7.609952  0.661495    105.17  1.000406  1.000043     2.901    18.437     200.3      96.7     541.7     971.8     17.29     -4.02     13.46     -4.54      2.37     -1.23     -1.96      1.64     -4.73     -4.14      1.91      2.12      4.46      1.61     -0.95    -17.77      3.50     -5.82      2.74      0.04
      52.686180     165.454834     283.3      4.13      7.16     114.0         2         1      2468      1000    793.91   -11.002      16.1      36.6   283.743     0.651     172.3   0.11408     100.0         H               344.4  0.055231  0.052651  0.004377  3.392396  0.765031  4.434326  1.144253    116.13   14.7383  234.3045   0.17005   7.28487   0.10298   0.00132 388.92499  14.15116     908.3  0.535921  0.002927  0.000103  0.000223  0.255513  7.580117  0.658002    108.93  1.000365  1.000040     2.879    18.315     190.7      97.5     681.0    1066.4     17.08     -4.01     12.40     -3.94      1.61      0.17     -1.84      1.80     -4.22     -3.79      0.51      2.52      3.85      1.93      0.16    -17.41      2.87     -4.33      0.40     -0.72
      52.695995     165.542877     290.7      4.13      7.16     110.3         2         2      2468      2321    763.51   -11.172      16.1      37.0   281.966     0.648     164.0   0.11370     100.0         H               344.4  0.054642  0.052599  0.003927  3.579585  0.753256  4.752146  1.141964    126.54   14.2178  221.9397   0.16960   7.23347   0.10569   0.00141 368.60040  13.72186     871.9  0.534425  0.002957  0.000077  0.000220  0.250920  7.569783  0.655219    105.61  1.000378  1.000040     2.865    17.837     190.7      97.1     627.1    1001.8     17.04     -3.66     12.92     -3.42      1.56      0.55     -2.18      2.40     -5.23     -4.15      1.76      2.39      4.72      2.21     -1.10    -16.38      1.03     -2.73      2.09      0.24
      52.705658     165.630188     290.7      3.89      7.16     110.3         2         3      2468      3642    744.75   -11.280      16.2      37.3   281.974     0.644     195.1   0.11146     100.0         H               344.4  0.054861  0.049196  0.003884  3.430931  0.756919  4.532760  1.138998    108.37   13.9072  214.2587   0.16726   7.20279   0.10760   0.00147 356.84344  13.46801     848.2  0.533781  0.002907  0.000235  0.000206  0.247581  7.517818  0.650706    107.06  1.000354  1.000036     2.870    18.149     190.7      97.1     594.2     964.4     16.87     -3.52     11.90     -3.68      1.49      0.68     -1.81      2.08     -5.13     -3.93      1.85      1.96      3.91      1.89     -0.14    -16.83      1.25     -1.19      2.59      0.01
      52.739342     165.438477     275.2      3.86      7.16     117.4         3         1      3936      1000    800.69   -10.965      16.2      36.6   280.315     0.639     181.7   0.10986     100.0         H               344.4  0.054490  0.048126  0.003600  3.377920  0.745678  4.529997  1.133639    112.32   14.8828  235.7498   0.16451   7.30475   0.10128   0.00127 393.93420  14.28304     907.7  0.529678  0.002946  0.000172  0.000203  0.247718  7.514567  0.644531    109.30  1.000346  1.000035     2.844    18.652     181.9      97.5     685.8    1077.2     16.81     -3.26     11.71     -3.41      1.45      0.89     -2.11      2.02     -5.18     -3.50      1.46      2.10      3.56      1.72      0.22    -15.77      1.19     -0.60      1.40     -0.71
      52.749161     165.526627     268.3      4.03      7.16     112.6         3         2      3936      2321    781.48   -11.071      16.3      37.0   280.815     0.642     212.0   0.11120     100.0         H               344.4  0.053815  0.050153  0.003976  3.418343  0.763588  4.476683  1.136792    110.33   14.5402  228.7505   0.16840   7.26883   0.10427   0.00134 380.46060  13.96981     888.3  0.530720  0.003521  0.000229  0.000206  0.253084  7.556449  0.648738    103.00  1.000376  1.000039     2.800    16.637     190.7      97.4     655.1     998.1     16.98     -2.52     11.85     -3.78      1.36      0.72     -1.97      1.50     -4.84     -2.52      1.66      1.19      3.49      2.23     -0.09    -17.00      1.11     -2.29      2.24      0.18
      52.758827     165.614044     290.7      3.92      7.16     110.3         3         3      3936      3642    764.27   -11.168      16.4      37.3   280.155     0.639     188.6   0.11027     100.0         H               344.4  0.053925  0.048513  0.004030  3.347247  0.759120  4.409379  1.134374    109.46   14.2565  221.4384   0.16629   7.24224   0.10498   0.00139 369.23181  13.75878     867.0  0.530020  0.003087  0.000192  0.000202  0.249153  7.519742  0.645279    103.65  1.000370  1.000037     2.833    17.656     181.9      97.3     623.5     972.8     17.14     -2.14     12.31     -4.36      1.23     -0.08     -1.78      1.33     -5.07     -2.34      1.44      1.41      3.98      1.98     -1.01    -18.01      0.83     -2.98      1.37      1.11
