corner points
-177.9607391    -28.10225487
-178.0089722    -27.92351723
-177.7632141    -28.05860519
-177.8118744    -27.87994957
========== RESULTS WAVE VERSION 16.10.2018 ====================
IMAGE SIZE  X: 5345     Y:4913    col:row     POLARIZATION:VV
COVERAGE    X: 19.92641948km       Y: 20.38593454km 
RESOLUTION dX: 3.728048546m       dY:4.149386228m  
resolution of original product 3.728048546m x 4.149386228m;   raster step x:5998.430111m  
===============================================================
FLAGS: H=HIGH PROBABILITY SEA STATE, I=LAND(ISLAND), O=OUTLIER NO SEA STATE, N=NO WIND AVAILABLE, SEA STATE NOT VISIBLE, M=MEAN PROBABILITY SEA STATE, L= LOW PROBABILITY SEA STATE
Filtering wave length
 integration  Lmin=1m
 integration  Lmax=2200m
  peak        Lmin=100m
               FFT=1024pixels, 3817.521711m 
   mean-Hs (SWH_c)=1.076853714m
         mean-wind=1.909027934m/s
--------------0--------------1---------2---------3---------4---------5---------6---------7---------8---------9--------10--------11--------12--------13--------14--------15--------16--------17--------18--------19------------------20--------21--------22--------23--------24--------25--------26--------27--------28--------29--------30--------31--------32--------33--------34--------35--------36--------37--------38--------39--------40--------41--------42--------43--------44--------45--------46--------47--------48--------49--------50--------51--------52--------53--------54--------55--------56--------57--------58--------59--------60--------61--------62--------63--------64--------65--------66--------67--------68--------69--------70--------71--------72--------73
            LAT            LON  P-LENGHT     SWH_o     SWH_c     P-DIR      LINE     POINT     ROW-Y     COL-X  M-INTENC        dB      WIND INC-ANGLE  ENERGY-M  ENERGY-N  ENERGY-R ENERGY-NN  FG-DEPTH      FLAG         HEADING-DEG    E30-75   E75-390  E390-600 meanincut   meanout   cut/out  STD-NORM  SPEC-MAX   GL-MEAN    GL-VAR      CORR   ENTROPY   HOMOGEN    ENERGY  CONTRAST  DISSIMIL     STD-O    E 1-30 E600-2000   E2000 >      GODA  LONG-HIG     Tmean  CONVOLUT  MEAN-DIR  relation     Sy/Sx  SKEWNESS  KURTOSIS  cutoff-A >50/10000     INT*V   INT-LOG  S-1_g1f1  S-2_g1f2  S-3_g1f3  S-4_g2f1  S-5_g2f2  S-6_g2f3  S-7_g3f1  S-8_g3f2  S-9_g3f3 S-10_g1f4 S-11_g2f4 S-12_g3f4 S-13_g1f5 S-14_g2f5 S-15_g3f5 S-16_g4f1 S-17_g4f2 S-18_g4f3 S-19_g4f4 S-20_g4f5
--------------1--------------2---------3---------4---------5---------6---------7---------8---------9--------10--------11--------12--------13--------14--------15--------16--------17--------18--------19--------20------------------21--------22--------23--------24--------25--------26--------27--------28--------29--------30--------31--------32--------33--------34--------35--------36--------37--------38--------39--------40--------41--------42--------43--------44--------45--------46--------47--------48--------49--------50--------51--------52--------53--------54--------55--------56--------57--------58--------59--------60--------61--------62--------63--------64--------65--------66--------67--------68--------69--------70--------71--------72--------73--------74
     -28.057516    -177.932663     151.6      1.01      1.35     148.9         1         1      1000      1000    523.91   -12.807       1.8      23.1   342.774     0.715     360.8   0.15627      15.8         H               347.4  0.071009  0.072793  0.002411  4.298882  1.143130  3.760622  1.200281     63.75    0.6497    1.4807   0.24616   2.16167   0.69232   0.24725   2.23240   0.83520     628.8  0.562481  0.006730  0.000311  0.000185  0.201919  7.413982  0.757723    146.90  0.999823  0.999985     2.983    18.355      66.4      36.9       3.0      62.1     10.96     -3.62     -6.07      2.61     -1.79     -2.83     -1.27      1.32      3.67      3.23      0.97     -1.44      1.18     -1.05     -1.18     -5.36     -0.90     -1.35     -0.55     -2.71
     -28.044264    -177.872635     157.8      1.42      1.35     158.2         1         2      1000      2609    486.08   -13.133       1.9      23.6   355.613     0.757     635.7   0.17382      17.3         H               347.4  0.075400  0.082911  0.003718  4.611083  1.246667  3.698729  1.236048     73.45    0.5828    1.3269   0.25830   2.02343   0.71853   0.28438   1.96830   0.75528     600.8  0.581707  0.013346  0.000562  0.000199  0.202450  7.453286  0.806449    156.05  0.999683  0.999970     3.091    19.470      66.4      33.7       2.6      60.5     10.95     -3.51     -7.02      2.27     -2.14     -2.15     -0.81      1.25      2.97      3.27      1.71     -1.72      2.23     -1.15     -1.02     -7.43     -0.96      2.44      0.21     -4.36
     -28.031233    -177.813721     169.4      1.23      1.35     156.5         1         3      1000      4218    505.73   -12.961       2.0      24.1   339.275     0.705     318.6   0.15307      20.5         H               347.4  0.067927  0.073734  0.001720  4.203561  1.089274  3.859050  1.191323     64.00    0.6085    1.3297   0.24236   2.08661   0.70390   0.26149   2.01492   0.78928     602.5  0.555597  0.005997  0.000262  0.000202  0.203206  7.467268  0.745766    154.68  0.999877  0.999989     2.920    17.481      71.1      35.6       2.7      56.9     10.89     -4.82     -6.22      3.22     -2.38     -2.94     -1.93      1.84      3.99      4.17      1.27     -2.01      0.61     -0.99     -1.12     -3.74     -0.72     -1.18     -0.93     -2.04
     -28.004940    -177.946884     151.6      0.71      1.35       2.3         2         1      2445      1000    521.63   -12.826       1.8      23.1   340.987     0.710     788.8   0.15411      15.8         H               347.4  0.068521  0.065125  0.001936  3.966377  1.106452  3.584772  1.198574     48.57    0.6379    1.4390   0.24547   2.14063   0.69537   0.25078   2.17159   0.82241     625.2  0.560530  0.013349  0.000880  0.000176  0.199701  7.366560  0.751585    148.39  0.999833  0.999986     2.990    18.504      71.1      36.5       2.9      61.4     10.71     -2.96     -6.15      3.05     -1.37     -3.41     -1.31      1.03      3.78      2.35      0.95     -1.06      2.46     -0.23     -1.78     -4.81     -0.13     -2.01     -0.20     -2.10
     -27.991697    -177.886887     181.2      1.18      1.35     148.5         2         2      2445      2609    569.99   -12.441       2.0      23.6   339.602     0.706     279.1   0.15364      24.3         H               347.4  0.068607  0.073869  0.001799  3.852729  1.068984  3.604103  1.191228     77.89    0.7260    1.7202   0.24731   2.29921   0.66945   0.21900   2.58954   0.91858     679.0  0.557118  0.005159  0.000203  0.000215  0.206523  7.474470  0.747406    152.34  0.999893  0.999989     2.950    17.864      73.8      39.6       3.4      62.8     10.86     -4.54     -6.64      3.19     -1.92     -3.49     -2.38      1.97      4.39      3.80      1.63     -2.37      1.15     -0.71     -0.82     -3.75     -0.22     -2.08      0.40     -2.31
     -27.978672    -177.828018     172.3      1.10      1.35     153.2         2         3      2445      4218    561.06   -12.510       2.1      24.1   333.934     0.690     202.6   0.14668      21.4         H               347.4  0.067084  0.070407  0.001137  3.898235  1.063802  3.664436  1.179000     68.74    0.7103    1.6290   0.23958   2.27627   0.67218   0.22119   2.47748   0.90199     661.4  0.548106  0.003470  0.000139  0.000214  0.203929  7.447429  0.729059    158.06  0.999841  0.999985     2.886    17.362      78.1      39.4       3.3      63.3     10.61     -4.51     -7.20      3.75     -2.16     -2.87     -2.54      1.80      4.16      4.23      1.52     -2.28      1.35     -0.54     -1.89     -2.03     -0.75      0.01     -0.52     -1.42
     -27.952364    -177.961090     152.6      0.52      1.35     153.9         3         1      3890      1000    527.73   -12.776       1.8      23.2   336.937     0.699     678.6   0.14964      16.0         H               347.4  0.067389  0.060737  0.002557  3.840148  1.010241  3.801219  1.189260     46.77    0.6485    1.4541   0.24251   2.16293   0.69100   0.24445   2.20290   0.83477     627.5  0.555843  0.011882  0.000686  0.000173  0.202465  7.335020  0.738517    148.60  0.999901  0.999992     2.942    17.766      68.7      37.1       2.9      63.6     11.13     -2.72     -5.40      2.19     -1.95     -3.36     -0.86      1.26      4.25      2.80      0.90     -1.26      2.64     -0.75     -1.58     -7.24     -1.84     -3.45     -0.55     -3.19
     -27.939127    -177.901138     163.1      0.12      1.35     152.0         3         2      3890      2609    379.33   -14.210       1.7      23.6   348.137     0.733     725.7   0.16268      18.7         N               347.4  0.071218  0.073548  0.003126  4.278230  1.110472  3.852624  1.216343     61.11    0.3947    0.7595   0.24236   1.61649   0.78122   0.38336   1.15085   0.54138     461.4  0.571198  0.013793  0.000594  0.000191  0.206729  7.442485  0.778501    158.59  0.999905  0.999992     3.129    20.917      69.9      26.2       1.5      48.9     11.32     -3.43     -5.23      2.06     -1.47     -3.65     -1.36      1.54      4.37      2.90      1.42     -1.64      2.79     -0.38     -1.39     -7.29     -0.29     -3.62      0.05     -2.94
     -27.926109    -177.842316     145.4      1.45      1.35     152.8         3         3      3890      4218    425.70   -13.709       1.8      24.1   341.846     0.711     579.3   0.15409      14.3         H               347.4  0.068068  0.068513  0.002480  4.029655  1.051543  3.832136  1.198378     54.57    0.4662    0.9286   0.23761   1.78989   0.75222   0.33250   1.41599   0.62756     510.2  0.561454  0.010864  0.000562  0.000193  0.205453  7.430024  0.753040    157.58  0.999877  0.999989     3.012    19.050      68.7      29.7       1.9      56.0     11.24     -4.08     -5.90      2.32     -1.78     -3.15     -1.76      1.80      3.96      3.57      1.39     -1.98      2.01     -0.43     -1.40     -6.26     -0.50     -1.98     -0.04     -2.19
