corner points
171.0305634    29.71382332
170.9932709    29.8882618
171.2296143    29.74574471
171.192688    29.92016602
========== RESULTS WAVE VERSION 16.10.2018 ====================
IMAGE SIZE  X: 4316     Y:4777    col:row     POLARIZATION:VV
COVERAGE    X: 19.50211063km       Y: 19.6792657km 
RESOLUTION dX: 4.518561313m       dY:4.119586706m  
resolution of original product 4.518561313m x 4.119586706m;   raster step x:5996.130863m  
===============================================================
FLAGS: H=HIGH PROBABILITY SEA STATE, I=LAND(ISLAND), O=OUTLIER NO SEA STATE, N=NO WIND AVAILABLE, SEA STATE NOT VISIBLE, M=MEAN PROBABILITY SEA STATE, L= LOW PROBABILITY SEA STATE
Filtering wave length
 integration  Lmin=1m
 integration  Lmax=2200m
  peak        Lmin=100m
               FFT=1024pixels, 4627.006785m 
   mean-Hs (SWH_c)=0.3755787277m
         mean-wind=10.50493908m/s
--------------0--------------1---------2---------3---------4---------5---------6---------7---------8---------9--------10--------11--------12--------13--------14--------15--------16--------17--------18--------19------------------20--------21--------22--------23--------24--------25--------26--------27--------28--------29--------30--------31--------32--------33--------34--------35--------36--------37--------38--------39--------40--------41--------42--------43--------44--------45--------46--------47--------48--------49--------50--------51--------52--------53--------54--------55--------56--------57--------58--------59--------60--------61--------62--------63--------64--------65--------66--------67--------68--------69--------70--------71--------72--------73
            LAT            LON  P-LENGHT     SWH_o     SWH_c     P-DIR      LINE     POINT     ROW-Y     COL-X  M-INTENC        dB      WIND INC-ANGLE  ENERGY-M  ENERGY-N  ENERGY-R ENERGY-NN  FG-DEPTH      FLAG         HEADING-DEG    E30-75   E75-390  E390-600 meanincut   meanout   cut/out  STD-NORM  SPEC-MAX   GL-MEAN    GL-VAR      CORR   ENTROPY   HOMOGEN    ENERGY  CONTRAST  DISSIMIL     STD-O    E 1-30 E600-2000   E2000 >      GODA  LONG-HIG     Tmean  CONVOLUT  MEAN-DIR  relation     Sy/Sx  SKEWNESS  KURTOSIS  cutoff-A >50/10000     INT*V   INT-LOG  S-1_g1f1  S-2_g1f2  S-3_g1f3  S-4_g2f1  S-5_g2f2  S-6_g2f3  S-7_g3f1  S-8_g3f2  S-9_g3f3 S-10_g1f4 S-11_g2f4 S-12_g3f4 S-13_g1f5 S-14_g2f5 S-15_g3f5 S-16_g4f1 S-17_g4f2 S-18_g4f3 S-19_g4f4 S-20_g4f5
--------------1--------------2---------3---------4---------5---------6---------7---------8---------9--------10--------11--------12--------13--------14--------15--------16--------17--------18--------19--------20------------------21--------22--------23--------24--------25--------26--------27--------28--------29--------30--------31--------32--------33--------34--------35--------36--------37--------38--------39--------40--------41--------42--------43--------44--------45--------46--------47--------48--------49--------50--------51--------52--------53--------54--------55--------56--------57--------58--------59--------60--------61--------62--------63--------64--------65--------66--------67--------68--------69--------70--------71--------72--------73--------74
      29.757851     171.069397     100.7      0.59      1.94      73.3         1         1      1000      1000    353.86   -14.512      10.1      36.9   232.546     0.554      38.3   0.06834       6.4         H               347.3  0.047061  0.015658  0.000312  1.620387  0.659336  2.457603  1.056391      6.67    6.5845   55.2283   0.10049   5.90265   0.18469   0.00555  99.35588   6.87581     373.8  0.491248  0.000398  0.000066  0.000145  0.153130  6.766840  0.554768     89.89  1.000112  1.000007     2.339    11.922      97.3      90.2     113.3     361.0     10.94      1.12     -0.97      2.79      0.06      1.78      1.42     -0.26      0.78      0.11      0.70      0.21     -1.06      0.42      1.64     -3.43     -0.31      3.19      0.60      0.63
      29.767708     171.130814     109.0      0.58      1.94      70.4         1         2      1000      2327    329.67   -14.819       9.9      37.3   232.063     0.551      28.0   0.06706       7.6         H               347.3  0.046042  0.015500  0.000337  1.603527  0.645635  2.483643  1.053443      6.27    6.1065   47.8442   0.09704   5.76412   0.19562   0.00636  86.40323   6.40890     347.3  0.489335  0.000306  0.000031  0.000143  0.154240  6.787467  0.551319     91.50  1.000115  1.000007     2.315    11.842      94.9      89.3      97.3     357.9     10.77      1.31     -0.59      3.02     -0.35      1.44      1.70     -0.06      1.22      0.08      0.68      0.33     -1.13      0.81      1.52     -3.34     -0.97      2.14      1.30      1.61
      29.777451     171.191727     100.9      0.59      1.94      79.0         1         3      1000      3654    325.14   -14.879      10.0      37.6   231.720     0.550      30.7   0.06697       6.5         H               347.3  0.045867  0.016249  0.000372  1.680115  0.660106  2.545218  1.052158      7.18    6.0169   46.4101   0.09853   5.73674   0.19801   0.00654  83.67465   6.31248     342.1  0.487371  0.000357  0.000033  0.000138  0.155372  6.804603  0.550174     90.54  1.000084  1.000005     2.314    11.883      90.6      89.1      94.5     341.3     10.90      1.62     -0.56      2.91     -0.11      2.01      1.92     -0.06      0.96      0.28      0.70      0.44     -1.25      0.60      1.08     -3.97     -1.31      3.41      0.72      1.77
      29.811029     171.058044     119.5      0.63      1.94      68.4         2         1      2456      1000    398.43   -13.996      10.9      36.9   232.491     0.556      42.8   0.06955       9.3         H               347.3  0.047418  0.016008  0.000425  1.658541  0.643481  2.577452  1.057742      5.90    7.4675   69.4506   0.10322   6.13559   0.16808   0.00441 124.56420   7.72584     421.4  0.491713  0.000493  0.000080  0.000146  0.154345  6.775834  0.556409     88.09  1.000115  1.000007     2.351    12.129      97.3      91.7     145.5     414.2     10.92      0.58     -0.53      2.50     -0.17      1.72      2.26      0.29      1.19     -0.02      0.85      0.37     -0.72      0.26      1.32     -4.70     -0.53      2.77      1.48      0.49
      29.820883     171.119507     100.9      0.62      1.94      79.0         2         2      2456      2327    371.84   -14.296      10.7      37.3   232.153     0.555      60.7   0.07006       6.5         H               347.3  0.047458  0.016190  0.000421  1.660636  0.652764  2.544005  1.057239      5.83    6.9452   60.8784   0.10490   6.00090   0.17778   0.00505 108.98444   7.20886     393.1  0.490502  0.000685  0.000159  0.000147  0.153652  6.769217  0.555812     89.53  1.000097  1.000006     2.331    11.770      94.9      90.9     125.9     373.0     11.02      0.89     -0.78      2.43      0.13      2.28      2.12      0.21      0.36      0.12      0.90      0.62     -0.69      0.27      1.65     -4.87     -0.32      4.63      1.32     -0.03
      29.830626     171.180450     101.4      0.60      1.94      74.7         2         3      2456      3654    337.90   -14.712      10.3      37.6   232.515     0.553      44.4   0.06758       6.5         H               347.3  0.045950  0.016377  0.000363  1.703740  0.656955  2.593390  1.054936      6.28    6.2698   50.2964   0.09950   5.81241   0.19231   0.00608  90.58411   6.55849     356.5  0.489676  0.000475  0.000095  0.000142  0.154603  6.803030  0.552892     88.31  1.000087  1.000005     2.334    11.983      92.7      89.6     102.7     357.2     10.83      0.72     -0.49      3.10      0.28      1.85      1.85      0.52      1.01      0.34      0.62      0.53     -0.95      0.23      1.59     -3.46     -0.27      2.99      0.78      0.61
      29.864206     171.046707     102.9      0.65      1.94      73.0         3         1      3912      1000    419.30   -13.775      11.3      36.9   231.628     0.553      36.0   0.06973       6.7         H               347.3  0.047943  0.015396  0.000392  1.596480  0.671151  2.378720  1.054854      6.96    7.8806   76.2255   0.10325   6.23594   0.16104   0.00397 136.70966   8.11295     442.2  0.488966  0.000389  0.000055  0.000146  0.152353  6.755814  0.553089     87.74  1.000100  1.000006     2.328    11.854      90.6      92.3     161.5     436.3     10.85      0.95     -0.14      2.92     -0.05      1.23      1.94      0.12      0.77     -0.14      0.86      0.87     -1.13      0.34      1.43     -4.16     -0.20      1.56      0.99      0.78
      29.874060     171.108200     100.0      0.63      1.94      72.0         3         2      3912      2327    382.16   -14.178      10.9      37.3   231.597     0.549      34.7   0.06660       6.4         H               347.3  0.045517  0.015138  0.000362  1.541570  0.649704  2.372725  1.050994      5.06    7.1504   63.5522   0.09718   6.05662   0.17368   0.00474 114.75269   7.41954     401.6  0.487480  0.000403  0.000050  0.000137  0.155892  6.785414  0.548386     89.23  1.000063  1.000005     2.285    11.418      88.6      91.3     132.2     396.3     10.99      1.36     -0.89      2.69     -0.42      1.56      1.61      0.40      0.73      0.19      0.98      0.16     -1.21      0.37      1.02     -4.36     -1.76      2.74      1.61      1.45
      29.883801     171.169174     105.9      0.60      1.94      74.0         3         3      3912      3654    341.78   -14.663      10.4      37.6   231.468     0.547      49.0   0.06542       7.2         H               347.3  0.044728  0.015073  0.000343  1.550766  0.637596  2.432210  1.049991      5.43    6.3474   50.9850   0.09462   5.83628   0.18955   0.00591  92.32153   6.64638     358.8  0.486925  0.000547  0.000103  0.000145  0.153342  6.785394  0.547100     86.58  1.000083  1.000004     2.286    11.555      92.7      89.8     104.5     357.1     10.83      1.30     -0.82      2.94      0.05      2.10      1.87      0.03      0.61      0.27      0.96      0.56     -0.49      0.24      0.85     -3.93     -0.53      3.76      1.08      0.71
