corner points
-175.8651123    -28.55679703
-175.9163055    -28.38365173
-175.6692047    -28.51052666
-175.7207336    -28.33746719
========== RESULTS WAVE VERSION 16.10.2018 ====================
IMAGE SIZE  X: 4316     Y:4783    col:row     POLARIZATION:VV
COVERAGE    X: 19.7712306km       Y: 19.84786364km 
RESOLUTION dX: 4.580915338m       dY:4.149668333m  
resolution of original product 4.580915338m x 4.149668333m;   raster step x:5996.418177m  
===============================================================
FLAGS: H=HIGH PROBABILITY SEA STATE, I=LAND(ISLAND), O=OUTLIER NO SEA STATE, N=NO WIND AVAILABLE, SEA STATE NOT VISIBLE, M=MEAN PROBABILITY SEA STATE, L= LOW PROBABILITY SEA STATE
Filtering wave length
 integration  Lmin=1m
 integration  Lmax=2200m
  peak        Lmin=100m
               FFT=1024pixels, 4690.857306m 
   mean-Hs (SWH_c)=0.2m
         mean-wind=5.488066196m/s
--------------0--------------1---------2---------3---------4---------5---------6---------7---------8---------9--------10--------11--------12--------13--------14--------15--------16--------17--------18--------19------------------20--------21--------22--------23--------24--------25--------26--------27--------28--------29--------30--------31--------32--------33--------34--------35--------36--------37--------38--------39--------40--------41--------42--------43--------44--------45--------46--------47--------48--------49--------50--------51--------52--------53--------54--------55--------56--------57--------58--------59--------60--------61--------62--------63--------64--------65--------66--------67--------68--------69--------70--------71--------72--------73
            LAT            LON  P-LENGHT     SWH_o     SWH_c     P-DIR      LINE     POINT     ROW-Y     COL-X  M-INTENC        dB      WIND INC-ANGLE  ENERGY-M  ENERGY-N  ENERGY-R ENERGY-NN  FG-DEPTH      FLAG         HEADING-DEG    E30-75   E75-390  E390-600 meanincut   meanout   cut/out  STD-NORM  SPEC-MAX   GL-MEAN    GL-VAR      CORR   ENTROPY   HOMOGEN    ENERGY  CONTRAST  DISSIMIL     STD-O    E 1-30 E600-2000   E2000 >      GODA  LONG-HIG     Tmean  CONVOLUT  MEAN-DIR  relation     Sy/Sx  SKEWNESS  KURTOSIS  cutoff-A >50/10000     INT*V   INT-LOG  S-1_g1f1  S-2_g1f2  S-3_g1f3  S-4_g2f1  S-5_g2f2  S-6_g2f3  S-7_g3f1  S-8_g3f2  S-9_g3f3 S-10_g1f4 S-11_g2f4 S-12_g3f4 S-13_g1f5 S-14_g2f5 S-15_g3f5 S-16_g4f1 S-17_g4f2 S-18_g4f3 S-19_g4f4 S-20_g4f5
--------------1--------------2---------3---------4---------5---------6---------7---------8---------9--------10--------11--------12--------13--------14--------15--------16--------17--------18--------19--------20------------------21--------22--------23--------24--------25--------26--------27--------28--------29--------30--------31--------32--------33--------34--------35--------36--------37--------38--------39--------40--------41--------42--------43--------44--------45--------46--------47--------48--------49--------50--------51--------52--------53--------54--------55--------56--------57--------58--------59--------60--------61--------62--------63--------64--------65--------66--------67--------68--------69--------70--------71--------72--------73--------74
     -28.509779    -175.829926     197.8      0.34      1.35     167.8         1         1      1000      1000    176.15   -17.541       5.4      36.4   249.472     0.544     137.5   0.05759      30.6         H               347.3  0.038901  0.016972  0.000598  1.449792  0.627751  2.309503  1.047537      7.08    3.0486   13.5233   0.07608   4.52071   0.31348   0.02162  24.98882   3.42261     184.5  0.485210  0.002377  0.000299  0.000096  0.184440  7.006412  0.548365    141.94  1.000062  1.000002     2.270    11.303      86.6      78.0      27.9     173.1     11.09     -3.30     -2.66      2.55     -1.57     -1.25      0.62      0.29      2.76      1.34     -0.03     -1.51      0.32     -1.85     -0.91     -6.07      0.20     -1.95     -0.47     -2.55
     -28.495710    -175.770309     153.2      0.34      1.35     139.2         1         2      1000      2309    166.49   -17.786       5.4      36.7   248.316     0.540      99.5   0.05622      16.2         H               347.3  0.038266  0.016072  0.000593  1.390215  0.623410  2.230018  1.042558      7.16    2.8570   11.9572   0.07180   4.40963   0.32528   0.02400  22.19741   3.22949     173.6  0.483309  0.001738  0.000189  0.000095  0.182371  6.970406  0.543391    137.35  1.000048  1.000002     2.237    10.959      84.8      76.7      25.0     155.7     11.08     -3.35     -2.42      2.55     -1.70     -1.07      0.89      0.39      2.48      1.64     -0.12     -1.57     -0.52     -1.68     -0.44     -6.31     -0.08     -1.98     -0.54     -2.12
     -28.481741    -175.711243     150.0      0.34      1.35     137.8         1         3      1000      3618    159.46   -17.973       5.4      37.1   247.440     0.536      65.5   0.05430      15.4         H               347.3  0.037531  0.015206  0.000596  1.353094  0.613944  2.203938  1.038869      7.00    2.7162   10.8896   0.06552   4.32390   0.33476   0.02605  20.35215   3.09427     165.7  0.481258  0.001260  0.000095  0.000096  0.179297  6.947742  0.538634    134.20  1.000105  1.000004     2.214    10.782      90.6      75.5      23.0     146.7     10.98     -3.69     -2.07      2.61     -1.59     -1.15      1.35      0.33      2.46      1.29     -0.40     -1.26     -0.97     -1.66     -0.57     -6.51      0.41     -2.01     -1.39     -0.96
     -28.457464    -175.845428     158.8      0.34      1.35     166.3         2         1      2445      1000    177.70   -17.503       5.5      36.4   245.758     0.534      81.4   0.05521      17.6         H               347.3  0.038164  0.015312  0.000569  1.336328  0.621344  2.150704  1.037991      6.36    3.0794   13.5182   0.07079   4.53910   0.31053   0.02107  25.12276   3.44815     184.4  0.478991  0.001490  0.000142  0.000095  0.178354  6.939413  0.537817    138.95  1.000071  1.000004     2.204    10.663      84.8      78.2      28.2     162.6     10.89     -2.54     -2.66      2.59     -1.95     -1.28      1.21      0.24      2.85      1.27     -0.08     -1.08      0.36     -1.75     -0.90     -6.32     -1.17     -2.02     -1.41     -2.43
     -28.443405    -175.785843     215.0      0.34      1.35     164.0         2         2      2445      2309    167.81   -17.752       5.4      36.7   246.436     0.535      82.3   0.05493      39.0         H               347.3  0.037594  0.015658  0.000545  1.336695  0.616456  2.168355  1.037935      7.69    2.8836   12.0379   0.06918   4.42603   0.32286   0.02349  22.41031   3.25328     174.1  0.479796  0.001472  0.000153  0.000095  0.181831  6.974782  0.538211    142.67  1.000054  1.000003     2.202    10.626      84.8      76.9      25.2     156.8     11.03     -2.63     -2.48      2.59     -1.67     -1.53      0.68      0.61      3.08      1.43     -0.14     -1.32      0.19     -1.59     -0.71     -5.75     -0.75     -2.73     -1.12     -2.11
     -28.429443    -175.726791     149.1      0.35      1.35     140.5         2         3      2445      3618    165.92   -17.801       5.6      37.1   246.059     0.534      61.4   0.05377      15.2         H               347.3  0.037272  0.015100  0.000589  1.313312  0.607165  2.163024  1.036932      6.11    2.8444   11.7558   0.06658   4.40273   0.32531   0.02407  21.94616   3.21967     172.1  0.479636  0.001113  0.000093  0.000094  0.181081  6.952148  0.536803    136.94  1.000092  1.000003     2.188    10.403      88.6      76.5      24.7     144.6     11.26     -3.38     -1.85      1.95     -1.51     -1.53      1.10      0.49      2.69      1.52     -0.29     -1.54     -0.41     -1.87     -0.27     -7.10      0.22     -3.42     -0.99     -2.01
     -28.405149    -175.860901     163.5      0.35      1.35     157.5         3         1      3890      1000    180.58   -17.433       5.6      36.4   247.396     0.538      63.1   0.05608      18.9         H               347.3  0.038131  0.016422  0.000619  1.411262  0.619844  2.276801  1.041318      7.65    3.1368   14.0499   0.07199   4.57078   0.30700   0.02046  26.07695   3.50894     188.0  0.481803  0.001166  0.000093  0.000095  0.182151  6.986491  0.541351    139.69  1.000053  1.000002     2.224    10.852      83.0      78.6      29.1     173.1     11.04     -2.99     -2.73      2.50     -1.64     -1.01      0.92      0.54      3.17      1.30     -0.63     -1.31      0.01     -1.28     -0.97     -6.31     -0.75     -2.05     -1.58     -1.23
     -28.391096    -175.801361     259.0      0.34      1.35     167.2         3         2      3890      2309    167.70   -17.755       5.4      36.7   247.558     0.535      96.0   0.05443      96.0         H               347.3  0.037338  0.015396  0.000494  1.318954  0.610147  2.161701  1.038605      7.67    2.8804   12.0392   0.06707   4.42416   0.32315   0.02360  22.46351   3.25691     174.1  0.480864  0.001295  0.000236  0.000094  0.179871  6.963025  0.538281    138.03  1.000033  1.000001     2.198    10.590      86.6      76.9      25.2     153.2     10.97     -2.90     -2.95      2.51     -1.16     -0.99      0.71      0.51      2.86      1.76     -0.47     -1.25     -0.07     -1.08     -0.70     -5.43     -0.00     -1.56     -1.77     -1.18
     -28.377142    -175.742340     161.3      0.35      1.35     146.6         3         3      3890      3618    165.41   -17.814       5.6      37.1   245.878     0.533      74.8   0.05374      18.2         H               347.3  0.037282  0.014947  0.000539  1.296081  0.616571  2.102079  1.036231      6.56    2.8345   11.6609   0.06675   4.39683   0.32613   0.02420  21.76516   3.20822     171.4  0.478766  0.001339  0.000127  0.000094  0.181298  6.960696  0.535933    138.79  1.000078  1.000002     2.187    10.508      88.6      76.4      24.5     152.2     11.10     -2.86     -2.10      2.36     -1.67     -1.00      0.93      0.85      2.48      1.83     -0.43     -1.41     -0.40     -1.36     -0.69     -6.12     -1.02     -1.72     -1.58     -0.91
