corner points
-155.7496643    -67.26023102
-155.9728394    -67.10063934
-155.3291931    -67.16946411
-155.5545349    -67.01045227
========== RESULTS WAVE VERSION 16.10.2018 ====================
IMAGE SIZE  X: 5345     Y:4897    col:row     POLARIZATION:VV
COVERAGE    X: 20.67899441km       Y: 20.14535939km 
RESOLUTION dX: 3.868848347m       dY:4.113816498m  
resolution of original product 3.868848347m x 4.113816498m;   raster step x:5996.714938m  
===============================================================
FLAGS: H=HIGH PROBABILITY SEA STATE, I=LAND(ISLAND), O=OUTLIER NO SEA STATE, N=NO WIND AVAILABLE, SEA STATE NOT VISIBLE, M=MEAN PROBABILITY SEA STATE, L= LOW PROBABILITY SEA STATE
Filtering wave length
 integration  Lmin=1m
 integration  Lmax=2200m
  peak        Lmin=100m
               FFT=1024pixels, 3961.700707m 
   mean-Hs (SWH_c)=2.914208374m
         mean-wind=7.907407284m/s
--------------0--------------1---------2---------3---------4---------5---------6---------7---------8---------9--------10--------11--------12--------13--------14--------15--------16--------17--------18--------19------------------20--------21--------22--------23--------24--------25--------26--------27--------28--------29--------30--------31--------32--------33--------34--------35--------36--------37--------38--------39--------40--------41--------42--------43--------44--------45--------46--------47--------48--------49--------50--------51--------52--------53--------54--------55--------56--------57--------58--------59--------60--------61--------62--------63--------64--------65--------66--------67--------68--------69--------70--------71--------72--------73
            LAT            LON  P-LENGHT     SWH_o     SWH_c     P-DIR      LINE     POINT     ROW-Y     COL-X  M-INTENC        dB      WIND INC-ANGLE  ENERGY-M  ENERGY-N  ENERGY-R ENERGY-NN  FG-DEPTH      FLAG         HEADING-DEG    E30-75   E75-390  E390-600 meanincut   meanout   cut/out  STD-NORM  SPEC-MAX   GL-MEAN    GL-VAR      CORR   ENTROPY   HOMOGEN    ENERGY  CONTRAST  DISSIMIL     STD-O    E 1-30 E600-2000   E2000 >      GODA  LONG-HIG     Tmean  CONVOLUT  MEAN-DIR  relation     Sy/Sx  SKEWNESS  KURTOSIS  cutoff-A >50/10000     INT*V   INT-LOG  S-1_g1f1  S-2_g1f2  S-3_g1f3  S-4_g2f1  S-5_g2f2  S-6_g2f3  S-7_g3f1  S-8_g3f2  S-9_g3f3 S-10_g1f4 S-11_g2f4 S-12_g3f4 S-13_g1f5 S-14_g2f5 S-15_g3f5 S-16_g4f1 S-17_g4f2 S-18_g4f3 S-19_g4f4 S-20_g4f5
--------------1--------------2---------3---------4---------5---------6---------7---------8---------9--------10--------11--------12--------13--------14--------15--------16--------17--------18--------19--------20------------------21--------22--------23--------24--------25--------26--------27--------28--------29--------30--------31--------32--------33--------34--------35--------36--------37--------38--------39--------40--------41--------42--------43--------44--------45--------46--------47--------48--------49--------50--------51--------52--------53--------54--------55--------56--------57--------58--------59--------60--------61--------62--------63--------64--------65--------66--------67--------68--------69--------70--------71--------72--------73--------74
     -67.210312    -155.714447     161.9      2.49      2.48      54.8         1         1      1000      1000   3966.16    -4.016       9.0      22.2   194.378     0.764     499.5   0.18232      18.4         H               336.3  0.072353  0.076100  0.001785  5.206232  1.099762  4.733961  1.237776     75.93    7.3268   87.1168   0.28154   6.01964   0.20499   0.00676 125.17856   7.23280    4908.4  0.606880  0.007369  0.000487  0.000223  0.216967  7.560299  0.801420     60.07  1.000086  1.000006     3.270    23.020      78.1      88.7     175.3     642.3     11.77      5.38      0.98      5.36      4.87      4.95      0.64     -0.46      2.62      3.13      3.37      2.10     -3.29     -1.82      1.94     -2.05      2.96      5.55      1.04     -0.15
     -67.183784    -155.591156     158.3      2.92      2.48      53.0         1         2      1000      2550   3585.18    -4.455       9.0      22.7   190.592     0.741     305.1   0.17259      17.5         H               336.3  0.064802  0.081251  0.001365  5.015209  0.984824  5.092494  1.225241    103.59    6.6796   72.5336   0.27355   5.86012   0.21583   0.00769 105.38445   6.63496    4392.6  0.589754  0.004186  0.000235  0.000284  0.221321  7.743432  0.776063     56.67  1.000049  1.000003     3.183    21.172      81.3      87.8     142.3     537.9     11.83      5.91      1.22      6.01      5.52      4.93     -0.02     -0.50      2.96      3.41      3.83      1.94     -3.93     -2.40      2.03     -0.74      2.95      5.02      1.51     -0.23
     -67.157677    -155.470505     157.4      2.40      2.48      60.9         1         3      1000      4100   3072.77    -5.125       8.3      23.1   192.326     0.747     470.2   0.17501      17.2         H               336.3  0.069785  0.075834  0.001763  5.013961  1.120894  4.473180  1.224543     71.41    5.6011   53.8372   0.27648   5.53247   0.24733   0.01101  77.90425   5.63493    3762.7  0.592887  0.006825  0.000528  0.000213  0.219500  7.609852  0.782826     57.68  1.000056  1.000004     3.164    20.883      75.2      84.8     101.4     458.8     11.78      5.09      0.24      5.00      5.16      3.86      0.19     -0.53      2.73      2.44      2.43      1.90     -3.60     -2.00      1.78     -2.39      2.94      4.26      0.52     -0.30
     -67.162827    -155.781158     159.8      3.68      2.48      57.9         2         1      2458      1000   3178.12    -4.978       6.6      22.2   204.179     0.813     583.3   0.20291      17.9         H               336.3  0.078481  0.114969  0.001963  6.839402  1.343069  5.092370  1.284509    117.49    5.9055   63.8018   0.30936   5.59589   0.25033   0.01145  88.12843   5.88231    4082.1  0.608016  0.009215  0.000571  0.000259  0.214393  7.743281  0.862666     54.01  0.999953  0.999995     3.282    21.613      72.4      84.5     119.3     515.3     11.47      6.11     -0.10      5.84      5.15      3.10     -0.32     -0.63      2.81      1.94      2.96      1.90     -4.01     -2.66      1.33     -1.03      1.91      3.28      1.97      0.01
     -67.136353    -155.658051     160.2      3.72      2.48      62.8         2         2      2458      2550   3011.78    -5.212       7.1      22.7   206.375     0.823     794.5   0.20646      18.0         H               336.3  0.079061  0.114694  0.002173  6.662357  1.324738  5.029188  1.287274     99.08    5.5063   57.2323   0.31114   5.46043   0.26566   0.01353  78.84979   5.51670    3876.7  0.614129  0.012521  0.000760  0.000246  0.219683  7.766320  0.873772     55.81  0.999903  0.999995     3.270    21.599      73.8      83.0     105.2     480.9     11.73      5.76     -0.58      5.17      4.63      2.97     -0.76     -0.83      2.84      2.01      2.53      1.81     -4.17     -2.52      1.66     -1.67      1.69      3.43      1.01     -0.71
     -67.110298    -155.537598     163.0      2.44      2.48      59.8         2         3      2458      4100   2963.96    -5.281       7.9      23.1   181.753     0.682     229.8   0.14720      18.7         H               336.3  0.059235  0.071796  0.001489  4.709160  0.917640  5.131814  1.171443     83.63    5.4290   47.0938   0.25498   5.49918   0.24296   0.01041  70.17174   5.45854    3471.8  0.546318  0.003245  0.000188  0.000266  0.227039  7.748774  0.711741     59.56  0.999995  1.000001     2.865    17.095      79.7      85.6      89.3     395.5     12.31      5.39      1.32      5.15      4.73      4.95     -0.54     -0.90      2.42      3.18      3.69      1.28     -3.73     -2.16      1.94     -2.28      2.26      4.49      1.44     -0.10
     -67.115326    -155.847610     180.4      3.42      2.48      46.8         3         1      3916      1000   3391.74    -4.696       7.2      22.2   199.797     0.787     453.1   0.19139      24.0         H               336.3  0.074982  0.104414  0.002003  6.591936  1.211532  5.440991  1.259026    106.89    6.2573   68.7447   0.29886   5.71282   0.23704   0.00990  96.39868   6.21519    4270.3  0.598588  0.007399  0.000357  0.000234  0.217247  7.718090  0.832379     56.74  0.999937  0.999996     3.177    20.561      75.2      85.8     130.5     527.4     11.74      5.36     -0.41      5.25      4.74      3.49     -0.54     -0.73      2.85      2.15      2.76      1.79     -3.91     -2.56      1.45     -1.66      2.54      3.95      1.47     -0.53
     -67.088905    -155.724701     163.0      3.01      2.48      59.8         3         2      3916      2550   3049.71    -5.157       7.2      22.7   188.059     0.722     257.9   0.16496      18.7         H               336.3  0.065766  0.089286  0.001747  5.824784  1.034264  5.631815  1.206829     91.31    5.6270   52.8683   0.27614   5.54666   0.24541   0.01072  76.53806   5.62811    3680.4  0.562066  0.003687  0.000216  0.000240  0.220570  7.727743  0.759404     55.63  0.999976  0.999999     2.991    18.782      76.6      85.1      99.7     449.3     11.87      5.51      0.10      5.34      4.59      3.93     -0.54     -1.22      2.91      2.15      2.67      1.69     -4.08     -2.14      1.47     -1.73      2.39      4.12      0.97      0.56
     -67.062897    -155.604431     167.4      2.14      2.48      53.4         3         3      3916      4100   3173.86    -4.984       8.7      23.1   179.564     0.669     180.5   0.14208      19.9         H               336.3  0.059771  0.064107  0.001512  4.626141  0.894357  5.172590  1.159122     69.14    5.8221   52.3990   0.24842   5.63236   0.22842   0.00889  78.76344   5.82807    3678.7  0.541409  0.002526  0.000137  0.000223  0.222173  7.618812  0.696676     57.10  1.000032  1.000002     2.821    16.602      76.6      86.9     101.1     407.9     12.27      4.70      1.28      4.68      4.37      4.86     -0.29     -1.13      2.27      2.80      2.60      1.40     -3.88     -1.57      2.28     -2.70      2.95      5.14      0.68      0.71
