corner points
-176.8800507    -25.05367279
-176.9281616    -24.88001823
-176.6901093    -25.0089817
-176.7384796    -24.83540344
========== RESULTS WAVE VERSION 16.10.2018 ====================
IMAGE SIZE  X: 4316     Y:4785    col:row     POLARIZATION:VV
COVERAGE    X: 19.7266251km       Y: 19.86400173km 
RESOLUTION dX: 4.570580422m       dY:4.151306527m  
resolution of original product 4.570580422m x 4.151306527m;   raster step x:5996.601513m  
===============================================================
FLAGS: H=HIGH PROBABILITY SEA STATE, I=LAND(ISLAND), O=OUTLIER NO SEA STATE, N=NO WIND AVAILABLE, SEA STATE NOT VISIBLE, M=MEAN PROBABILITY SEA STATE, L= LOW PROBABILITY SEA STATE
Filtering wave length
 integration  Lmin=1m
 integration  Lmax=2200m
  peak        Lmin=100m
               FFT=1024pixels, 4680.274352m 
   mean-Hs (SWH_c)=0.2m
         mean-wind=7.398971558m/s
--------------0--------------1---------2---------3---------4---------5---------6---------7---------8---------9--------10--------11--------12--------13--------14--------15--------16--------17--------18--------19------------------20--------21--------22--------23--------24--------25--------26--------27--------28--------29--------30--------31--------32--------33--------34--------35--------36--------37--------38--------39--------40--------41--------42--------43--------44--------45--------46--------47--------48--------49--------50--------51--------52--------53--------54--------55--------56--------57--------58--------59--------60--------61--------62--------63--------64--------65--------66--------67--------68--------69--------70--------71--------72--------73
            LAT            LON  P-LENGHT     SWH_o     SWH_c     P-DIR      LINE     POINT     ROW-Y     COL-X  M-INTENC        dB      WIND INC-ANGLE  ENERGY-M  ENERGY-N  ENERGY-R ENERGY-NN  FG-DEPTH      FLAG         HEADING-DEG    E30-75   E75-390  E390-600 meanincut   meanout   cut/out  STD-NORM  SPEC-MAX   GL-MEAN    GL-VAR      CORR   ENTROPY   HOMOGEN    ENERGY  CONTRAST  DISSIMIL     STD-O    E 1-30 E600-2000   E2000 >      GODA  LONG-HIG     Tmean  CONVOLUT  MEAN-DIR  relation     Sy/Sx  SKEWNESS  KURTOSIS  cutoff-A >50/10000     INT*V   INT-LOG  S-1_g1f1  S-2_g1f2  S-3_g1f3  S-4_g2f1  S-5_g2f2  S-6_g2f3  S-7_g3f1  S-8_g3f2  S-9_g3f3 S-10_g1f4 S-11_g2f4 S-12_g3f4 S-13_g1f5 S-14_g2f5 S-15_g3f5 S-16_g4f1 S-17_g4f2 S-18_g4f3 S-19_g4f4 S-20_g4f5
--------------1--------------2---------3---------4---------5---------6---------7---------8---------9--------10--------11--------12--------13--------14--------15--------16--------17--------18--------19--------20------------------21--------22--------23--------24--------25--------26--------27--------28--------29--------30--------31--------32--------33--------34--------35--------36--------37--------38--------39--------40--------41--------42--------43--------44--------45--------46--------47--------48--------49--------50--------51--------52--------53--------54--------55--------56--------57--------58--------59--------60--------61--------62--------63--------64--------65--------66--------67--------68--------69--------70--------71--------72--------73--------74
     -25.006927    -176.845612     209.0      0.44      1.47     159.1         1         1      1000      1000    238.56   -16.224       7.2      36.5   239.904     0.543     106.7   0.06220      35.8         H               347.5  0.040738  0.016980  0.000512  1.444663  0.655960  2.202365  1.046754     14.31    4.2927   24.8305   0.08916   5.12313   0.25086   0.01195  45.23289   4.63185     249.7  0.483362  0.001855  0.000210  0.000102  0.183982  6.981613  0.547857    151.23  1.000085  1.000004     2.257    11.109      75.2      84.2      50.0     230.7     11.38     -4.92     -3.68      1.88     -0.22     -0.64     -0.48      1.99      3.06      3.18     -0.20     -3.01     -0.84     -0.90     -0.05     -5.55      1.87     -0.65     -0.60     -0.49
     -24.993309    -176.787689     185.8      0.42      1.47     156.6         1         2      1000      2312    219.61   -16.584       6.9      36.8   239.753     0.541      84.2   0.06032      25.9         H               347.5  0.039480  0.016491  0.000520  1.398666  0.638577  2.190285  1.043600     16.41    3.9123   20.9146   0.08267   4.95789   0.26663   0.01404  38.37113   4.26473     229.2  0.482859  0.001493  0.000150  0.000100  0.185513  6.983841  0.544525    151.25  1.000098  1.000005     2.244    11.137      78.1      82.6      42.5     216.3     11.57     -4.99     -3.38      1.59      0.14     -0.49     -0.43      1.77      2.71      2.56     -0.28     -2.49     -1.80     -0.82      0.28     -6.09      2.54     -0.49     -0.57      0.46
     -24.979786    -176.730270     190.0      0.44      1.47     148.1         1         3      1000      3624    221.03   -16.556       7.3      37.2   240.193     0.543      89.3   0.06051      27.5         H               347.5  0.040140  0.016945  0.000634  1.455151  0.642576  2.264560  1.045642     14.51    3.9432   21.2701   0.08495   4.97157   0.26534   0.01389  38.92641   4.29256     231.1  0.483488  0.001419  0.000190  0.000100  0.186691  6.991620  0.546781    145.28  1.000051  1.000002     2.252    11.115      76.6      82.6      43.1     211.7     11.66     -5.42     -2.96      1.38      0.26     -0.82     -0.18      1.60      2.65      2.84     -0.04     -2.42     -2.00     -0.95      0.65     -7.15      3.89     -1.39     -0.66     -0.08
     -24.954481    -176.860168     181.1      0.45      1.47     159.6         2         1      2445      1000    245.76   -16.095       7.4      36.5   238.793     0.539      77.6   0.06077      24.2         H               347.5  0.039780  0.015126  0.000512  1.272408  0.647434  1.965308  1.042188     16.47    4.4361   26.1236   0.08510   5.18285   0.24551   0.01121  47.80044   4.76935     256.1  0.482245  0.001453  0.000131  0.000100  0.180904  6.929888  0.542579    155.33  1.000080  1.000003     2.227    10.853      72.4      84.8      52.8     237.7     11.44     -4.71     -3.44      1.56      0.28     -0.76     -0.18      1.49      2.93      2.86      0.07     -2.72     -0.61     -0.48      0.05     -6.39      3.42     -0.82     -0.37      0.12
     -24.940870    -176.802261     175.9      0.44      1.47     155.6         2         2      2445      2312    233.10   -16.325       7.3      36.8   239.581     0.540      90.6   0.06091      22.5         H               347.5  0.040053  0.015878  0.000500  1.406758  0.650075  2.163993  1.042831     12.02    4.1805   23.5439   0.08498   5.07610   0.25498   0.01247  43.08620   4.52576     243.1  0.482228  0.001389  0.000181  0.000099  0.182439  6.964222  0.543572    140.58  1.000044  1.000002     2.250    11.197      75.2      83.7      47.6     232.1     11.45     -4.93     -2.82      1.88     -0.18     -0.25     -0.18      2.04      2.19      2.15     -0.24     -2.24     -1.96     -0.71      0.79     -5.83      2.13      0.41     -0.70      0.68
     -24.927355    -176.744873     176.4      0.45      1.47     150.7         2         3      2445      3624    230.49   -16.373       7.5      37.2   239.660     0.540      65.0   0.06047      22.7         H               347.5  0.039884  0.015835  0.000521  1.344726  0.641901  2.094912  1.042891     18.38    4.1319   23.0167   0.08354   5.05528   0.25677   0.01271  42.18759   4.47766     240.4  0.482820  0.001168  0.000094  0.000101  0.185372  6.970283  0.543567    149.72  1.000060  1.000003     2.249    11.134      75.2      83.5      46.7     226.7     11.63     -4.71     -3.50      1.52      0.34     -0.02     -0.40      2.07      2.99      2.99     -0.40     -2.70     -1.30     -0.64      0.50     -6.15      2.66      0.15     -0.97      0.12
     -24.902035    -176.874710     179.7      0.45      1.47     152.6         3         1      3890      1000    252.05   -15.985       7.5      36.5   239.442     0.540      79.8   0.06065      23.8         H               347.5  0.040420  0.014446  0.000495  1.234421  0.667396  1.849609  1.043033     13.48    4.5618   27.5227   0.08414   5.23319   0.24016   0.01065  50.41357   4.89726     262.9  0.483058  0.001533  0.000129  0.000096  0.175735  6.891937  0.543092    149.25  1.000071  1.000005     2.234    10.883      73.8      85.3      55.6     238.7     11.29     -4.12     -3.20      1.52      0.40     -0.06      0.47      1.20      2.29      2.20     -0.35     -2.33     -0.56     -0.08      0.07     -6.57      2.91      0.42     -0.49      0.91
     -24.888430    -176.816833     175.9      0.46      1.47     155.6         3         2      3890      2312    242.43   -16.154       7.5      36.8   238.436     0.538      78.0   0.06054      22.5         H               347.5  0.039994  0.014886  0.000503  1.299859  0.656895  1.978792  1.040708     10.23    4.3658   25.3593   0.08461   5.15403   0.24760   0.01154  46.42676   4.70295     252.3  0.481127  0.001370  0.000149  0.000095  0.178072  6.914851  0.541048    142.24  1.000066  1.000004     2.222    10.840      72.4      84.5      51.3     241.0     11.32     -4.28     -2.84      1.87      0.44     -0.24      0.27      1.28      2.22      1.97     -0.36     -1.61     -1.12     -0.56      0.45     -6.26      3.37      0.09     -1.28      0.32
     -24.874922    -176.759476     176.4      0.48      1.47     150.7         3         3      3890      3624    249.11   -16.036       8.0      37.2   239.080     0.540     100.5   0.06190      22.7         H               347.5  0.040660  0.015182  0.000421  1.324587  0.657681  2.014026  1.043144     12.42    4.5021   26.8996   0.08735   5.20903   0.24242   0.01093  49.10001   4.83276     259.9  0.482110  0.001583  0.000207  0.000097  0.179339  6.905131  0.543357    146.02  1.000035  1.000002     2.250    11.108      72.4      84.9      54.5     243.0     11.32     -4.12     -3.48      2.11     -0.34     -0.07     -0.45      1.80      2.83      2.48     -0.41     -2.44     -0.58     -1.24      0.30     -4.78      1.27     -0.03     -0.94     -1.19
