corner points
-178.2996368    -19.78578186
-178.3440247    -19.61148643
-178.116684    -19.74313736
-178.1612854    -19.56890678
========== RESULTS WAVE VERSION 16.10.2018 ====================
IMAGE SIZE  X: 4316     Y:4788    col:row     POLARIZATION:VV
COVERAGE    X: 19.67778568km       Y: 19.88474698km 
RESOLUTION dX: 4.559264522m       dY:4.153038216m  
resolution of original product 4.559264522m x 4.153038216m;   raster step x:5999.992112m  
===============================================================
FLAGS: H=HIGH PROBABILITY SEA STATE, I=LAND(ISLAND), O=OUTLIER NO SEA STATE, N=NO WIND AVAILABLE, SEA STATE NOT VISIBLE, M=MEAN PROBABILITY SEA STATE, L= LOW PROBABILITY SEA STATE
Filtering wave length
 integration  Lmin=1m
 integration  Lmax=2200m
  peak        Lmin=100m
               FFT=1024pixels, 4668.686871m 
   mean-Hs (SWH_c)=0.2194858551m
         mean-wind=10.6106987m/s
--------------0--------------1---------2---------3---------4---------5---------6---------7---------8---------9--------10--------11--------12--------13--------14--------15--------16--------17--------18--------19------------------20--------21--------22--------23--------24--------25--------26--------27--------28--------29--------30--------31--------32--------33--------34--------35--------36--------37--------38--------39--------40--------41--------42--------43--------44--------45--------46--------47--------48--------49--------50--------51--------52--------53--------54--------55--------56--------57--------58--------59--------60--------61--------62--------63--------64--------65--------66--------67--------68--------69--------70--------71--------72--------73
            LAT            LON  P-LENGHT     SWH_o     SWH_c     P-DIR      LINE     POINT     ROW-Y     COL-X  M-INTENC        dB      WIND INC-ANGLE  ENERGY-M  ENERGY-N  ENERGY-R ENERGY-NN  FG-DEPTH      FLAG         HEADING-DEG    E30-75   E75-390  E390-600 meanincut   meanout   cut/out  STD-NORM  SPEC-MAX   GL-MEAN    GL-VAR      CORR   ENTROPY   HOMOGEN    ENERGY  CONTRAST  DISSIMIL     STD-O    E 1-30 E600-2000   E2000 >      GODA  LONG-HIG     Tmean  CONVOLUT  MEAN-DIR  relation     Sy/Sx  SKEWNESS  KURTOSIS  cutoff-A >50/10000     INT*V   INT-LOG  S-1_g1f1  S-2_g1f2  S-3_g1f3  S-4_g2f1  S-5_g2f2  S-6_g2f3  S-7_g3f1  S-8_g3f2  S-9_g3f3 S-10_g1f4 S-11_g2f4 S-12_g3f4 S-13_g1f5 S-14_g2f5 S-15_g3f5 S-16_g4f1 S-17_g4f2 S-18_g4f3 S-19_g4f4 S-20_g4f5
--------------1--------------2---------3---------4---------5---------6---------7---------8---------9--------10--------11--------12--------13--------14--------15--------16--------17--------18--------19--------20------------------21--------22--------23--------24--------25--------26--------27--------28--------29--------30--------31--------32--------33--------34--------35--------36--------37--------38--------39--------40--------41--------42--------43--------44--------45--------46--------47--------48--------49--------50--------51--------52--------53--------54--------55--------56--------57--------58--------59--------60--------61--------62--------63--------64--------65--------66--------67--------68--------69--------70--------71--------72--------73--------74
     -19.739401    -178.266068     302.9      0.57      1.40     148.7         1         1      1000      1000    348.21   -14.582       9.7      36.6   231.532     0.542      51.9   0.06407     100.0         H               347.7  0.044368  0.011394  0.000462  1.115829  0.653316  1.707946  1.044260      2.91    6.4762   52.3454   0.09046   5.87421   0.18604   0.00562  95.21997   6.76192     363.6  0.484680  0.000827  0.000096  0.000105  0.154636  6.692042  0.544707     82.37  1.000117  1.000008     2.265    11.302      79.7      90.2     107.8     341.8     10.64     -1.46     -0.83      2.14      0.99     -0.18      2.82     -0.05      0.34     -0.16     -0.12      0.10     -1.09      0.09      0.70     -7.19      3.04     -0.04     -0.30      1.02
     -19.726364    -178.210098     385.6      0.59      1.40     144.7         1         2      1000      2316    358.43   -14.456      10.2      37.0   230.607     0.538     104.4   0.06316     100.0         H               347.7  0.043325  0.010980  0.000473  1.062633  0.649227  1.636765  1.041725      2.96    6.6772   55.2346   0.08934   5.93094   0.18129   0.00531 100.60032   6.96143     373.4  0.482234  0.001542  0.000269  0.000105  0.153409  6.672547  0.541505     84.68  1.000095  1.000005     2.244    11.045      84.8      90.5     114.3     345.6     10.67     -1.02     -1.14      2.00      1.10      0.41      2.99     -0.94     -0.19      0.32     -0.29      0.17     -0.51      0.15      0.71     -7.65      3.87      2.35     -1.45      0.44
     -19.713423    -178.154617     322.5      0.63      1.40     155.5         1         3      1000      3632    373.64   -14.276      10.8      37.3   230.722     0.540      73.0   0.06437     100.0         H               347.7  0.044117  0.011316  0.000567  1.074136  0.651836  1.647864  1.043140      4.14    6.9807   59.9901   0.09194   6.01316   0.17595   0.00489 108.94833   7.24522     389.8  0.483135  0.001271  0.000159  0.000108  0.157166  6.687977  0.543410     83.45  1.000103  1.000007     2.253    11.119      83.0      91.1     124.9     364.3     11.08     -1.62     -1.66      0.99      1.32      0.88      2.92     -0.65     -0.42      0.94     -0.71     -0.20     -0.34      0.29      0.72     -9.96      4.52      3.72     -2.23      0.41
     -19.686831    -178.279465     272.5      0.60      1.40     125.2         2         1      2444      1000    376.92   -14.237      10.2      36.6   232.286     0.542      64.4   0.06414     100.0         H               347.7  0.044341  0.011242  0.000397  1.093256  0.658403  1.660466  1.044804      3.01    7.0474   61.2256   0.08961   6.03088   0.17461   0.00481 111.47757   7.32450     393.8  0.485228  0.001065  0.000127  0.000105  0.154561  6.685397  0.544845     82.68  1.000092  1.000005     2.260    11.185      81.3      91.2     127.6     384.8     10.54     -1.19     -1.35      2.50      0.91      0.27      2.53     -0.11     -0.03     -0.15     -0.29      0.37     -1.02      0.24      0.68     -6.13      2.70      1.91     -0.94      1.07
     -19.673800    -178.223511     287.1      0.68      1.40     132.5         2         2      2444      2316    445.90   -13.508      11.8      37.0   231.354     0.545      84.8   0.06794     100.0         H               347.7  0.045916  0.011742  0.000451  1.105672  0.678384  1.629862  1.047845      3.54    8.4090   84.7532   0.09854   6.35768   0.15236   0.00348 152.80417   8.61777     467.3  0.485866  0.001315  0.000186  0.000106  0.155210  6.685589  0.548606     83.28  1.000100  1.000008     2.283    11.411      79.7      93.1     182.6     455.5     10.67     -0.84     -1.26      1.97      0.87      0.12      2.70     -0.59     -0.03      0.26     -0.41      0.23     -0.59      0.32      0.91     -7.06      2.78      1.50     -1.55      0.47
     -19.660864    -178.168060     350.4      0.61      1.40     171.4         2         3      2444      3632    353.33   -14.518      10.4      37.3   232.378     0.548     121.2   0.06730     100.0         H               347.7  0.045245  0.011458  0.000590  1.085016  0.669887  1.619699  1.050417      3.33    6.5770   54.5238   0.09670   5.90154   0.18462   0.00552  98.50172   6.86214     371.2  0.488276  0.002101  0.000274  0.000110  0.154259  6.670569  0.551424     84.30  1.000105  1.000006     2.289    11.403      88.6      90.3     112.2     358.0     10.96     -0.79     -1.41      1.03      0.94      0.27      3.29     -0.90      0.07      0.19     -0.30     -0.15     -0.04      0.07      0.54    -10.19      3.63      1.60     -0.75      0.42
     -19.634256    -178.292877     353.4      0.62      1.40     175.7         3         1      3888      1000    403.70   -13.939      10.7      36.6   236.490     0.563     530.6   0.07327     100.0         H               347.7  0.046339  0.011984  0.000839  1.122851  0.673602  1.666935  1.068061      4.49    7.5745   72.4954   0.11370   6.15972   0.16778   0.00435 128.50574   7.81239     431.1  0.495741  0.006862  0.001581  0.000110  0.157278  6.687280  0.569119     82.86  1.000069  1.000005     2.399    12.442     124.8      91.8     151.7     437.4     11.34     -0.84     -1.31     -0.21      0.80      0.17      4.00     -0.35     -0.57     -0.11     -0.37      0.05      0.34     -1.14      1.85    -14.10      2.27      2.31     -0.98     -4.25
     -19.621231    -178.236938     385.3      0.63      1.40     175.3         3         2      3888      2316    391.43   -14.073      10.9      37.0   237.594     0.566     492.8   0.07312     100.0         H               347.7  0.045431  0.012478  0.001104  1.155043  0.674308  1.712931  1.070544      5.17    7.3301   68.8027   0.11227   6.09830   0.17309   0.00472 122.15656   7.60306     419.0  0.498524  0.007069  0.001423  0.000108  0.159972  6.716759  0.571473     82.75  1.000007  1.000000     2.368    12.197     124.8      91.1     142.4     424.3     11.78     -0.02     -1.03     -1.39     -0.20      0.39      5.08      0.20     -0.31     -0.04     -0.36      0.24      1.03     -1.10      1.30    -18.21     -0.54      2.61     -1.10     -4.08
     -19.608303    -178.181503     385.3      0.62      1.40     175.3         3         3      3888      3632    367.39   -14.349      10.7      37.3   236.126     0.560     451.9   0.07115     100.0         H               347.7  0.045663  0.011704  0.000782  1.094609  0.671497  1.630102  1.065074      4.95    6.8564   60.2779   0.10844   5.97581   0.18135   0.00526 107.48236   7.12823     391.2  0.495117  0.005844  0.001440  0.000111  0.157119  6.682665  0.565581     83.15  0.999975  0.999999     2.361    12.161     117.4      90.6     123.8     400.7     11.26     -0.09     -1.61     -0.00     -0.31      0.40      4.07      0.16     -0.15      0.03     -0.07      0.42      1.56     -2.01      2.02    -13.70     -0.98      2.97     -0.92     -7.43
