corner points
-174.0875244    -40.33405685
-174.1501007    -40.15708542
-173.8583374    -40.28453445
-173.9216156    -40.10769272
========== RESULTS WAVE VERSION 16.10.2018 ====================
IMAGE SIZE  X: 5345     Y:4914    col:row     POLARIZATION:VV
COVERAGE    X: 20.14721811km       Y: 20.33821214km 
RESOLUTION dX: 3.769357925m       dY:4.13883031m  
resolution of original product 3.769357925m x 4.13883031m;   raster step x:5997.048458m  
===============================================================
FLAGS: H=HIGH PROBABILITY SEA STATE, I=LAND(ISLAND), O=OUTLIER NO SEA STATE, N=NO WIND AVAILABLE, SEA STATE NOT VISIBLE, M=MEAN PROBABILITY SEA STATE, L= LOW PROBABILITY SEA STATE
Filtering wave length
 integration  Lmin=1m
 integration  Lmax=2200m
  peak        Lmin=100m
               FFT=1024pixels, 3859.822515m 
   mean-Hs (SWH_c)=0.2m
         mean-wind=5.169753075m/s
--------------0--------------1---------2---------3---------4---------5---------6---------7---------8---------9--------10--------11--------12--------13--------14--------15--------16--------17--------18--------19------------------20--------21--------22--------23--------24--------25--------26--------27--------28--------29--------30--------31--------32--------33--------34--------35--------36--------37--------38--------39--------40--------41--------42--------43--------44--------45--------46--------47--------48--------49--------50--------51--------52--------53--------54--------55--------56--------57--------58--------59--------60--------61--------62--------63--------64--------65--------66--------67--------68--------69--------70--------71--------72--------73
            LAT            LON  P-LENGHT     SWH_o     SWH_c     P-DIR      LINE     POINT     ROW-Y     COL-X  M-INTENC        dB      WIND INC-ANGLE  ENERGY-M  ENERGY-N  ENERGY-R ENERGY-NN  FG-DEPTH      FLAG         HEADING-DEG    E30-75   E75-390  E390-600 meanincut   meanout   cut/out  STD-NORM  SPEC-MAX   GL-MEAN    GL-VAR      CORR   ENTROPY   HOMOGEN    ENERGY  CONTRAST  DISSIMIL     STD-O    E 1-30 E600-2000   E2000 >      GODA  LONG-HIG     Tmean  CONVOLUT  MEAN-DIR  relation     Sy/Sx  SKEWNESS  KURTOSIS  cutoff-A >50/10000     INT*V   INT-LOG  S-1_g1f1  S-2_g1f2  S-3_g1f3  S-4_g2f1  S-5_g2f2  S-6_g2f3  S-7_g3f1  S-8_g3f2  S-9_g3f3 S-10_g1f4 S-11_g2f4 S-12_g3f4 S-13_g1f5 S-14_g2f5 S-15_g3f5 S-16_g4f1 S-17_g4f2 S-18_g4f3 S-19_g4f4 S-20_g4f5
--------------1--------------2---------3---------4---------5---------6---------7---------8---------9--------10--------11--------12--------13--------14--------15--------16--------17--------18--------19--------20------------------21--------22--------23--------24--------25--------26--------27--------28--------29--------30--------31--------32--------33--------34--------35--------36--------37--------38--------39--------40--------41--------42--------43--------44--------45--------46--------47--------48--------49--------50--------51--------52--------53--------54--------55--------56--------57--------58--------59--------60--------61--------62--------63--------64--------65--------66--------67--------68--------69--------70--------71--------72--------73--------74
     -40.288570    -174.056274     119.7      0.34      1.86      68.5         1         1      1000      1000   2361.89    -6.267       5.4      22.9   290.204     0.718      78.1   0.16404       9.3         H               346.3  0.085813  0.041929  0.000786  4.161392  0.922514  4.510928  1.201585     33.97    4.2378   31.5775   0.25971   5.04658   0.28502   0.01608  46.75338   4.37680    2837.9  0.589321  0.001076  0.000043  0.000196  0.173382  6.941926  0.751859     72.61  1.000192  1.000021     3.220    22.008      78.1      81.5      58.3     351.4     10.95      0.45      0.16      4.04      2.02      2.88      1.77      3.04      2.73      0.71      1.51      2.45     -1.99     -1.43     -0.10     -1.46      2.38      3.38      2.43     -0.76
     -40.273705    -173.987381     111.4      0.32      1.86      63.5         1         2      1000      2591   1996.72    -6.997       5.0      23.3   290.034     0.712      96.4   0.16067       8.0         H               346.3  0.082443  0.043842  0.000849  4.125583  0.929333  4.439294  1.196496     42.94    3.5131   22.4785   0.25607   4.71526   0.32069   0.02228  33.44475   3.69004    2388.8  0.584090  0.001398  0.000069  0.000206  0.174350  6.990638  0.744617     65.80  1.000181  1.000017     3.212    22.731      76.6      77.9      41.3     305.5     10.49      1.18     -0.23      4.44      3.26      2.90      2.63      3.22      2.77      0.83      1.97      2.79     -2.20     -2.42     -0.83     -0.91      4.06      3.86      3.09     -2.18
     -40.259083    -173.919815     117.1      0.31      1.86      65.5         1         3      1000      4182   1768.47    -7.524       4.9      23.8   289.102     0.708      70.9   0.15898       8.9         H               346.3  0.082512  0.043573  0.000806  4.088322  0.928270  4.404239  1.193230     41.87    3.0651   17.5748   0.25484   4.47927   0.34792   0.02793  26.19231   3.26057    2110.2  0.580957  0.000823  0.000039  0.000200  0.178434  7.023598  0.740294     66.54  1.000160  1.000015     3.249    24.428      78.1      75.2      32.5     280.9     10.96      0.19      0.32      4.08      2.95      3.16      2.02      3.34      2.56      0.75      1.40      2.78     -2.29     -1.71     -0.48     -1.29      3.91      4.02      1.99     -1.38
     -40.236382    -174.074783     107.4      0.35      1.86      62.9         2         1      2449      1000   2434.81    -6.135       5.6      22.9   286.774     0.708      92.6   0.16160       7.4         H               346.3  0.083762  0.039682  0.000814  3.956598  0.943250  4.194645  1.193430     23.62    4.3828   33.0835   0.25741   5.10972   0.27726   0.01495  49.13436   4.51208    2905.8  0.582837  0.001289  0.000050  0.000188  0.175245  6.940360  0.739886     72.02  1.000178  1.000018     3.185    21.756      79.7      82.2      61.5     362.4     11.40     -1.12      0.06      3.51      1.56      2.56      0.96      2.90      1.82     -0.42      0.42      1.92     -2.21     -1.68      0.14     -2.59      2.16      3.01      1.45     -1.30
     -40.221531    -174.005951     108.7      0.32      1.86      60.8         2         2      2449      2591   2035.51    -6.913       5.1      23.3   287.266     0.704     135.5   0.15786       7.6         H               346.3  0.080943  0.041296  0.000819  3.901049  0.919072  4.244554  1.189553     39.36    3.5918   23.0773   0.25480   4.75643   0.31618   0.02124  34.39457   3.75636    2421.3  0.579131  0.001903  0.000144  0.000197  0.176967  6.985609  0.735723     65.96  1.000178  1.000017     3.213    23.784      76.6      78.5      42.7     331.1     10.85      0.34     -0.14      4.19      2.80      2.92      2.18      2.90      2.57      0.94      0.99      1.91     -2.07     -2.07     -0.89     -1.69      3.57      3.49      1.84     -1.86
     -40.206921    -173.938446     104.8      0.31      1.86      63.6         2         3      2449      4182   1723.99    -7.635       4.8      23.8   288.767     0.707      67.1   0.15801       7.0         H               346.3  0.081753  0.042510  0.000699  4.095214  0.924087  4.431634  1.191409     39.21    2.9755   16.6778   0.25341   4.42847   0.35404   0.02930  24.90310   3.17495    2053.9  0.581514  0.000844  0.000030  0.000190  0.178003  7.001254  0.738621     66.10  1.000169  1.000017     3.191    22.704      75.2      74.7      30.8     264.3     11.01      0.48     -0.32      4.28      2.47      2.82      1.30      3.32      2.43      0.49      1.39      2.25     -2.10     -1.95     -0.62     -1.09      2.23      3.76      2.32     -1.37
     -40.184193    -174.093262     103.6      0.35      1.86      62.3         3         1      3898      1000   2411.90    -6.176       5.5      22.9   291.113     0.721      84.7   0.16516       6.8         H               346.3  0.085294  0.039299  0.000848  3.909416  0.923457  4.233459  1.202793     27.12    4.3412   33.0486   0.25749   5.08958   0.28055   0.01543  49.07822   4.48553    2901.2  0.594593  0.001170  0.000051  0.000184  0.173650  6.920764  0.753006     72.30  1.000178  1.000021     3.217    22.188      81.3      81.9      61.1     361.9     11.34     -0.11      0.21      3.48      1.55      2.49      1.38      2.03      2.03     -0.14      0.82      1.69     -1.87     -1.50     -0.35     -2.79      2.35      2.83      1.71     -1.02
     -40.169353    -174.024490     107.4      0.32      1.86      62.9         3         2      3898      2591   2020.77    -6.945       5.1      23.3   288.832     0.710      72.5   0.16106       7.4         H               346.3  0.083573  0.040713  0.000858  4.023169  0.928777  4.331685  1.195042     25.60    3.5628   23.0425   0.25630   4.74033   0.31764   0.02169  34.27343   3.73851    2414.7  0.584540  0.000978  0.000037  0.000182  0.176291  6.944148  0.742167     72.34  1.000165  1.000016     3.151    20.879      76.6      78.2      42.3     286.2     11.22     -0.47     -0.12      3.74      1.83      2.56      1.47      2.62      2.30     -0.18      0.59      1.64     -2.14     -1.83     -0.09     -2.46      2.36      2.75      1.74     -1.58
     -40.154755    -173.957047     111.5      0.32      1.86      60.0         3         3      3898      4182   1770.66    -7.519       5.0      23.8   289.323     0.709      82.6   0.15902       8.0         H               346.3  0.082143  0.039376  0.000872  3.817007  0.931742  4.096637  1.193186     25.14    3.0701   17.6570   0.25262   4.48252   0.34676   0.02773  26.39345   3.27073    2112.8  0.585652  0.001119  0.000048  0.000173  0.178271  6.963290  0.739935     70.36  1.000155  1.000015     3.220    22.907      76.6      75.3      32.6     273.9     11.18      0.49     -0.50      3.54      2.46      2.64      1.44      2.51      2.06      0.06      1.15      1.67     -2.23     -1.57     -0.30     -2.52      2.89      3.66      2.36     -1.13
