corner points
-165.6234131    -52.65964127
-165.7277527    -52.49368286
-165.3461914    -52.59361267
-165.4514923    -52.42789078
========== RESULTS WAVE VERSION 16.10.2018 ====================
IMAGE SIZE  X: 4316     Y:4770    col:row     POLARIZATION:VV
COVERAGE    X: 20.05316743km       Y: 19.71186946km 
RESOLUTION dX: 4.646238979m       dY:4.132467391m  
resolution of original product 4.646238979m x 4.132467391m;   raster step x:5998.294521m  
===============================================================
FLAGS: H=HIGH PROBABILITY SEA STATE, I=LAND(ISLAND), O=OUTLIER NO SEA STATE, N=NO WIND AVAILABLE, SEA STATE NOT VISIBLE, M=MEAN PROBABILITY SEA STATE, L= LOW PROBABILITY SEA STATE
Filtering wave length
 integration  Lmin=1m
 integration  Lmax=2200m
  peak        Lmin=100m
               FFT=1024pixels, 4757.748714m 
   mean-Hs (SWH_c)=0.6182347107m
         mean-wind=5.417901039m/s
--------------0--------------1---------2---------3---------4---------5---------6---------7---------8---------9--------10--------11--------12--------13--------14--------15--------16--------17--------18--------19------------------20--------21--------22--------23--------24--------25--------26--------27--------28--------29--------30--------31--------32--------33--------34--------35--------36--------37--------38--------39--------40--------41--------42--------43--------44--------45--------46--------47--------48--------49--------50--------51--------52--------53--------54--------55--------56--------57--------58--------59--------60--------61--------62--------63--------64--------65--------66--------67--------68--------69--------70--------71--------72--------73
            LAT            LON  P-LENGHT     SWH_o     SWH_c     P-DIR      LINE     POINT     ROW-Y     COL-X  M-INTENC        dB      WIND INC-ANGLE  ENERGY-M  ENERGY-N  ENERGY-R ENERGY-NN  FG-DEPTH      FLAG         HEADING-DEG    E30-75   E75-390  E390-600 meanincut   meanout   cut/out  STD-NORM  SPEC-MAX   GL-MEAN    GL-VAR      CORR   ENTROPY   HOMOGEN    ENERGY  CONTRAST  DISSIMIL     STD-O    E 1-30 E600-2000   E2000 >      GODA  LONG-HIG     Tmean  CONVOLUT  MEAN-DIR  relation     Sy/Sx  SKEWNESS  KURTOSIS  cutoff-A >50/10000     INT*V   INT-LOG  S-1_g1f1  S-2_g1f2  S-3_g1f3  S-4_g2f1  S-5_g2f2  S-6_g2f3  S-7_g3f1  S-8_g3f2  S-9_g3f3 S-10_g1f4 S-11_g2f4 S-12_g3f4 S-13_g1f5 S-14_g2f5 S-15_g3f5 S-16_g4f1 S-17_g4f2 S-18_g4f3 S-19_g4f4 S-20_g4f5
--------------1--------------2---------3---------4---------5---------6---------7---------8---------9--------10--------11--------12--------13--------14--------15--------16--------17--------18--------19--------20------------------21--------22--------23--------24--------25--------26--------27--------28--------29--------30--------31--------32--------33--------34--------35--------36--------37--------38--------39--------40--------41--------42--------43--------44--------45--------46--------47--------48--------49--------50--------51--------52--------53--------54--------55--------56--------57--------58--------59--------60--------61--------62--------63--------64--------65--------66--------67--------68--------69--------70--------71--------72--------73--------74
     -52.609440    -165.580338     176.2      0.72      1.92     117.3         1         1      1000      1000    209.45   -16.789       5.9      35.7   297.444     0.579      43.5   0.07381      22.6         H               343.9  0.047899  0.031207  0.000363  3.223983  0.685935  4.700130  1.079253     24.36    3.7123   20.3126   0.11238   4.85888   0.28091   0.01611  36.05972   4.06359     226.0  0.498898  0.000427  0.000043  0.000134  0.189467  7.168978  0.584803    110.14  1.000112  1.000008     2.495    13.754     105.0      81.2      40.2     237.3     11.17     -3.29      3.69      6.47     -2.10      5.60      1.47     -0.19      1.86     -2.30     -2.58     -0.66     -0.39      0.36      1.19      0.84     -0.60      4.70     -1.87      0.71
     -52.589653    -165.497131     165.2      0.69      1.92     115.4         1         2      1000      2291    199.13   -17.009       5.9      36.1   299.126     0.582      83.9   0.07503      19.3         H               343.9  0.048347  0.031067  0.000547  3.176663  0.682165  4.656739  1.082626     22.03    3.5060   18.4816   0.11433   4.75719   0.29246   0.01797  32.73735   3.86186     215.6  0.501012  0.001014  0.000151  0.000131  0.190591  7.155680  0.588312    109.72  1.000086  1.000006     2.492    13.486      99.7      79.9      36.6     217.2     11.53     -3.87      2.94      5.39     -1.83      4.87      1.31      0.51      1.94     -1.75     -2.38     -0.35     -0.91     -0.52      1.17     -1.29     -0.35      3.83     -2.17     -0.75
     -52.569984    -165.414764     197.2      0.59      1.92     124.0         1         3      1000      3582    178.81   -17.476       5.6      36.5   300.129     0.580     168.5   0.07265      30.3         H               343.9  0.046612  0.029839  0.000600  3.088141  0.664656  4.646226  1.081888     22.04    3.1044   14.8540   0.10918   4.54598   0.31507   0.02189  26.46428   3.46442     193.5  0.500763  0.002395  0.000392  0.000131  0.187459  7.156737  0.586681    110.89  1.000147  1.000010     2.530    14.126     105.0      77.9      29.7     203.5     11.52     -2.93      3.80      5.28     -1.63      4.24      1.59      0.34      2.22     -2.05     -2.20      0.08      0.14     -0.47      1.02     -1.86     -0.81      1.75     -2.31     -1.52
     -52.558968    -165.612183     174.6      0.66      1.92     122.4         2         1      2451      1000    193.51   -17.133       5.5      35.7   304.093     0.592     221.9   0.07756      22.1         H               343.9  0.049529  0.031971  0.000472  3.265496  0.685624  4.762807  1.093502     26.55    3.3956   17.8021   0.11779   4.69929   0.30019   0.01923  31.41061   3.75860     211.6  0.507799  0.002453  0.000595  0.000126  0.186995  7.136936  0.599687    112.99  1.000072  1.000004     2.538    13.738      97.3      79.2      35.0     213.5     11.20     -3.56      1.81      5.75     -2.51      3.91      1.15      0.31      2.14     -2.22     -2.31     -0.20     -1.80     -1.68      0.75     -0.73     -0.84      2.70     -1.20     -1.11
     -52.539200    -165.529068     175.9      0.64      1.92     125.6         2         2      2451      2291    177.44   -17.510       5.3      36.1   311.063     0.614     631.2   0.08480      22.5         H               343.9  0.051182  0.032619  0.001365  3.324876  0.725864  4.580576  1.116171     24.31    3.0760   15.5785   0.13496   4.52174   0.32273   0.02362  26.95200   3.43942     198.0  0.518519  0.009235  0.001749  0.000122  0.186325  7.138494  0.625120    113.39  1.000066  1.000004     2.679    15.435     117.4      76.7      30.3     214.1     11.62     -3.14      2.35      3.60     -1.77      2.51      2.71      0.34      1.99     -1.53     -1.14      0.25     -1.21     -1.84      0.72     -7.11     -0.71      0.33     -0.81     -2.29
     -52.519554    -165.446777     188.5      0.46      1.92     119.3         2         3      2451      3582    160.08   -17.957       5.1      36.5   298.923     0.573      64.4   0.06825      26.9         H               343.9  0.045368  0.028976  0.000515  2.984080  0.658326  4.532827  1.074364     28.61    2.7327   11.7316   0.09948   4.32871   0.33947   0.02691  21.12919   3.09742     172.0  0.497507  0.000959  0.000088  0.000124  0.188778  7.148584  0.578903    113.11  1.000138  1.000007     2.463    13.286     105.0      75.3      23.9     173.4     11.40     -3.46      3.48      5.81     -2.06      4.44      1.22      0.11      1.38     -2.13     -2.39      0.15     -0.45     -0.42      0.64     -1.19     -0.23      2.81     -1.97     -0.40
     -52.508484    -165.643967     185.8      0.67      1.92     116.1         3         1      3902      1000    179.89   -17.450       5.1      35.7   309.052     0.608     552.5   0.08255      25.9         H               343.9  0.050204  0.033210  0.000796  3.345868  0.702928  4.759901  1.109398     30.06    3.1252   15.8238   0.12895   4.55126   0.31867   0.02265  27.56657   3.48693     199.6  0.515505  0.006758  0.001583  0.000127  0.189376  7.165491  0.617350    114.22  1.000117  1.000006     2.649    14.984     121.0      77.3      30.9     203.6     11.47     -3.43      1.91      4.78     -2.33      3.93      1.64      0.29      1.81     -2.40     -2.29      0.21     -1.53     -1.55      0.69     -3.12     -0.93      3.50     -1.40     -1.31
     -52.488739    -165.560928     184.4      0.68      1.92     121.5         3         2      3902      2291    173.24   -17.614       5.2      36.1   306.671     0.602     411.2   0.07981      25.4         H               343.9  0.048690  0.032695  0.001228  3.355534  0.677711  4.951278  1.102569     28.32    2.9920   14.4941   0.12425   4.47735   0.32574   0.02427  25.38633   3.35905     191.0  0.512124  0.006494  0.001017  0.000130  0.189481  7.166574  0.611221    113.06  1.000159  1.000010     2.603    14.538     117.4      76.3      28.5     193.6     11.79     -3.55      3.22      3.91     -1.89      3.43      2.46      0.01      2.41     -2.37     -1.68     -0.42     -0.71     -1.41      1.05     -6.14      0.39      0.61     -0.06     -2.02
     -52.469116    -165.478729     190.6      0.45      1.92     122.7         3         3      3902      3582    164.38   -17.842       5.2      36.5   297.809     0.571      37.9   0.06777      27.7         H               343.9  0.045737  0.028609  0.000364  2.966249  0.648611  4.573231  1.072102     18.24    2.8175   12.3092   0.09843   4.38126   0.33288   0.02550  22.19517   3.18279     176.2  0.495746  0.000396  0.000032  0.000126  0.186721  7.133917  0.575942    111.36  1.000112  1.000007     2.459    13.603     105.0      76.0      25.1     191.4     11.09     -3.60      2.89      6.31     -2.26      4.70      1.56     -0.10      2.04     -1.88     -2.21     -0.53     -1.18     -0.63      0.90      0.33     -0.52      3.85     -1.74     -0.15
