corner points
-174.2007446    -33.79032898
-174.2578125    -33.61817169
-173.9940033    -33.74133682
-174.0514832    -33.56927872
========== RESULTS WAVE VERSION 16.10.2018 ====================
IMAGE SIZE  X: 4316     Y:4778    col:row     POLARIZATION:VV
COVERAGE    X: 19.82618327km       Y: 19.81334096km 
RESOLUTION dX: 4.593647652m       dY:4.146785466m  
resolution of original product 4.593647652m x 4.146785466m;   raster step x:5999.303834m  
===============================================================
FLAGS: H=HIGH PROBABILITY SEA STATE, I=LAND(ISLAND), O=OUTLIER NO SEA STATE, N=NO WIND AVAILABLE, SEA STATE NOT VISIBLE, M=MEAN PROBABILITY SEA STATE, L= LOW PROBABILITY SEA STATE
Filtering wave length
 integration  Lmin=1m
 integration  Lmax=2200m
  peak        Lmin=100m
               FFT=1024pixels, 4703.895196m 
   mean-Hs (SWH_c)=0.2m
         mean-wind=6.659464836m/s
--------------0--------------1---------2---------3---------4---------5---------6---------7---------8---------9--------10--------11--------12--------13--------14--------15--------16--------17--------18--------19------------------20--------21--------22--------23--------24--------25--------26--------27--------28--------29--------30--------31--------32--------33--------34--------35--------36--------37--------38--------39--------40--------41--------42--------43--------44--------45--------46--------47--------48--------49--------50--------51--------52--------53--------54--------55--------56--------57--------58--------59--------60--------61--------62--------63--------64--------65--------66--------67--------68--------69--------70--------71--------72--------73
            LAT            LON  P-LENGHT     SWH_o     SWH_c     P-DIR      LINE     POINT     ROW-Y     COL-X  M-INTENC        dB      WIND INC-ANGLE  ENERGY-M  ENERGY-N  ENERGY-R ENERGY-NN  FG-DEPTH      FLAG         HEADING-DEG    E30-75   E75-390  E390-600 meanincut   meanout   cut/out  STD-NORM  SPEC-MAX   GL-MEAN    GL-VAR      CORR   ENTROPY   HOMOGEN    ENERGY  CONTRAST  DISSIMIL     STD-O    E 1-30 E600-2000   E2000 >      GODA  LONG-HIG     Tmean  CONVOLUT  MEAN-DIR  relation     Sy/Sx  SKEWNESS  KURTOSIS  cutoff-A >50/10000     INT*V   INT-LOG  S-1_g1f1  S-2_g1f2  S-3_g1f3  S-4_g2f1  S-5_g2f2  S-6_g2f3  S-7_g3f1  S-8_g3f2  S-9_g3f3 S-10_g1f4 S-11_g2f4 S-12_g3f4 S-13_g1f5 S-14_g2f5 S-15_g3f5 S-16_g4f1 S-17_g4f2 S-18_g4f3 S-19_g4f4 S-20_g4f5
--------------1--------------2---------3---------4---------5---------6---------7---------8---------9--------10--------11--------12--------13--------14--------15--------16--------17--------18--------19--------20------------------21--------22--------23--------24--------25--------26--------27--------28--------29--------30--------31--------32--------33--------34--------35--------36--------37--------38--------39--------40--------41--------42--------43--------44--------45--------46--------47--------48--------49--------50--------51--------52--------53--------54--------55--------56--------57--------58--------59--------60--------61--------62--------63--------64--------65--------66--------67--------68--------69--------70--------71--------72--------73--------74
     -33.742844    -174.164261     293.0      0.41      1.41     145.9         1         1      1000      1000    227.85   -16.423       6.7      36.2   252.503     0.538      54.3   0.05940     100.0         H               346.9  0.042374  0.011577  0.000353  1.056038  0.641932  1.645093  1.040732      5.63    4.0751   22.4146   0.07989   5.03082   0.25853   0.01302  41.24768   4.43378     237.1  0.482998  0.000777  0.000103  0.000097  0.161789  6.720793  0.539894     95.72  1.000120  1.000005     2.226    10.891      83.0      83.2      45.4     215.9     11.09     -1.64     -2.05      1.61      0.64     -0.04      1.10      0.86      1.19      0.76     -0.73     -0.18     -0.28     -0.14      0.44     -5.71      0.79     -0.28     -1.26     -0.33
     -33.727985    -174.101501     286.5      0.40      1.41     137.9         1         2      1000      2306    212.38   -16.729       6.6      36.6   252.942     0.535      35.1   0.05743     100.0         H               346.9  0.041412  0.011728  0.000314  1.055736  0.634519  1.663837  1.037726      7.20    3.7698   19.3219   0.07491   4.89304   0.27222   0.01478  35.74896   4.12424     220.3  0.481311  0.000498  0.000048  0.000098  0.165645  6.748475  0.536812     99.67  1.000098  1.000005     2.225    11.018      81.3      82.1      39.5     210.0     11.20     -2.20     -2.13      1.89      0.87      0.31      0.77      1.08      1.25      1.13     -0.60     -0.55     -1.00      0.16      0.58     -5.03      1.30      0.48     -1.10      0.47
     -33.713226    -174.039307     282.8      0.41      1.41     143.0         1         3      1000      3612    206.58   -16.849       6.7      37.0   252.965     0.535      44.3   0.05675     100.0         H               346.9  0.040990  0.011475  0.000340  1.021544  0.632679  1.614632  1.038592      7.23    3.6531   18.3289   0.07422   4.83727   0.27774   0.01569  33.93696   4.01964     214.5  0.482069  0.000636  0.000076  0.000097  0.160891  6.727322  0.537225     99.69  1.000083  1.000004     2.225    11.012      79.7      81.4      37.6     206.2     10.96     -2.33     -2.59      1.64      0.62     -0.60      1.08      0.68      1.56      1.11     -0.85     -0.44     -0.56      0.28      0.31     -5.63      1.12     -1.26     -2.06      0.09
     -33.690742    -174.181580     268.3      0.41      1.41     145.2         2         1      2446      1000    223.97   -16.498       6.6      36.2   252.535     0.537      34.0   0.05922     100.0         H               346.9  0.042084  0.011498  0.000290  1.039967  0.642705  1.618109  1.039845      5.74    3.9975   21.6135   0.07859   4.99669   0.26187   0.01343  39.82994   4.35575     232.9  0.482888  0.000520  0.000044  0.000101  0.161276  6.719554  0.538897     98.59  1.000098  1.000006     2.223    10.828      81.3      83.0      43.9     210.8     10.91     -1.97     -2.39      2.39      0.25      0.25      0.82      0.83      1.37      0.75     -0.55     -0.71     -0.58     -0.14      0.13     -4.21      0.34      0.52     -0.63      0.43
     -33.675892    -174.118835     275.2      0.40      1.41     166.5         2         2      2446      2306    210.82   -16.761       6.5      36.6   251.740     0.535      35.2   0.05785     100.0         H               346.9  0.041590  0.011452  0.000279  1.034631  0.642646  1.609955  1.037450      5.34    3.7394   19.0345   0.07739   4.87861   0.27395   0.01501  35.12270   4.08806     218.7  0.481180  0.000524  0.000046  0.000098  0.162334  6.718177  0.537097     97.95  1.000092  1.000005     2.218    10.867      81.3      82.0      39.0     199.8     11.06     -1.77     -2.42      1.90      0.55     -0.03      0.49      1.03      1.13      1.18     -0.41     -0.54     -0.69     -0.11      0.24     -4.43      0.54     -0.03     -0.87      0.35
     -33.661140    -174.056702     298.4      0.41      1.41     140.6         2         3      2446      3612    207.45   -16.831       6.7      37.0   253.032     0.536      44.6   0.05713     100.0         H               346.9  0.041286  0.011399  0.000331  1.046847  0.630381  1.660656  1.039381      4.53    3.6704   18.5196   0.07458   4.84562   0.27708   0.01556  34.27689   4.03506     215.6  0.482663  0.000676  0.000074  0.000098  0.160344  6.726779  0.538004     95.40  1.000098  1.000004     2.232    10.949      81.3      81.5      37.9     195.8     10.79     -1.14     -2.11      2.10      0.34     -0.12      1.40      0.60      1.11      0.87     -0.62     -0.44     -0.52      0.23      0.38     -4.95      0.35      0.02     -0.81      0.42
     -33.638634    -174.198853     255.1      0.40      1.41     154.3         3         1      3892      1000    220.08   -16.574       6.5      36.2   252.850     0.535      43.5   0.05715      82.5         H               346.9  0.041398  0.011346  0.000290  1.040642  0.631428  1.648077  1.038148      5.87    3.9199   20.7922   0.07499   4.96218   0.26508   0.01385  38.46575   4.28081     228.5  0.481703  0.000640  0.000070  0.000098  0.161859  6.730185  0.536958     97.32  1.000089  1.000005     2.226    10.972      81.3      82.6      42.3     208.6     10.87     -1.57     -2.41      2.21      0.73      0.41      1.04      1.03      1.17      1.64     -0.72     -0.39     -0.38     -0.36      0.39     -4.47      1.23      0.65     -1.45     -0.42
     -33.623795    -174.136169     293.0      0.41      1.41     145.9         3         2      3892      2306    216.29   -16.650       6.7      36.6   253.015     0.535      51.7   0.05780     100.0         H               346.9  0.041148  0.011495  0.000308  1.036053  0.630692  1.642723  1.038072      6.77    3.8481   20.0557   0.07495   4.92951   0.26855   0.01426  37.10460   4.20376     224.5  0.481769  0.000769  0.000095  0.000098  0.162914  6.731050  0.536936     95.64  1.000081  1.000005     2.222    10.938      81.3      82.5      41.0     212.3     11.07     -1.62     -2.31      1.77      0.59      0.24      0.92      0.49      1.21      1.15     -0.96     -0.52     -0.42      0.20      0.71     -5.07      1.10      0.39     -1.48      0.14
     -33.609055    -174.074066     262.3      0.42      1.41     149.9         3         3      3892      3612    210.11   -16.776       6.8      37.0   252.516     0.536      40.8   0.05791     120.3         H               346.9  0.041809  0.011490  0.000272  1.058999  0.642101  1.649273  1.038854      4.74    3.7238   18.9766   0.07649   4.87101   0.27462   0.01516  35.05014   4.08254     218.2  0.481745  0.000548  0.000068  0.000099  0.161338  6.725914  0.537522     98.20  1.000067  1.000005     2.235    11.057      79.7      81.8      38.8     204.4     10.96     -1.39     -2.06      2.27      0.52      0.26      0.77      0.72      1.25      1.05     -0.57     -0.63     -0.63     -0.00      0.65     -4.11      0.59      0.07     -1.08      0.34
