corner points
168.526535    32.04229736
168.4832153    32.22187042
168.7296143    32.07701492
168.6867371    32.25660324
========== RESULTS WAVE VERSION 16.10.2018 ====================
IMAGE SIZE  X: 5345     Y:4921    col:row     POLARIZATION:VV
COVERAGE    X: 19.48154151km       Y: 20.33096473km 
RESOLUTION dX: 3.644815998m       dY:4.131470175m  
resolution of original product 3.644815998m x 4.131470175m;   raster step x:5999.367133m  
===============================================================
FLAGS: H=HIGH PROBABILITY SEA STATE, I=LAND(ISLAND), O=OUTLIER NO SEA STATE, N=NO WIND AVAILABLE, SEA STATE NOT VISIBLE, M=MEAN PROBABILITY SEA STATE, L= LOW PROBABILITY SEA STATE
Filtering wave length
 integration  Lmin=1m
 integration  Lmax=2200m
  peak        Lmin=100m
               FFT=1024pixels, 3732.291582m 
   mean-Hs (SWH_c)=2.412398071m
         mean-wind=5.905144215m/s
--------------0--------------1---------2---------3---------4---------5---------6---------7---------8---------9--------10--------11--------12--------13--------14--------15--------16--------17--------18--------19------------------20--------21--------22--------23--------24--------25--------26--------27--------28--------29--------30--------31--------32--------33--------34--------35--------36--------37--------38--------39--------40--------41--------42--------43--------44--------45--------46--------47--------48--------49--------50--------51--------52--------53--------54--------55--------56--------57--------58--------59--------60--------61--------62--------63--------64--------65--------66--------67--------68--------69--------70--------71--------72--------73
            LAT            LON  P-LENGHT     SWH_o     SWH_c     P-DIR      LINE     POINT     ROW-Y     COL-X  M-INTENC        dB      WIND INC-ANGLE  ENERGY-M  ENERGY-N  ENERGY-R ENERGY-NN  FG-DEPTH      FLAG         HEADING-DEG    E30-75   E75-390  E390-600 meanincut   meanout   cut/out  STD-NORM  SPEC-MAX   GL-MEAN    GL-VAR      CORR   ENTROPY   HOMOGEN    ENERGY  CONTRAST  DISSIMIL     STD-O    E 1-30 E600-2000   E2000 >      GODA  LONG-HIG     Tmean  CONVOLUT  MEAN-DIR  relation     Sy/Sx  SKEWNESS  KURTOSIS  cutoff-A >50/10000     INT*V   INT-LOG  S-1_g1f1  S-2_g1f2  S-3_g1f3  S-4_g2f1  S-5_g2f2  S-6_g2f3  S-7_g3f1  S-8_g3f2  S-9_g3f3 S-10_g1f4 S-11_g2f4 S-12_g3f4 S-13_g1f5 S-14_g2f5 S-15_g3f5 S-16_g4f1 S-17_g4f2 S-18_g4f3 S-19_g4f4 S-20_g4f5
--------------1--------------2---------3---------4---------5---------6---------7---------8---------9--------10--------11--------12--------13--------14--------15--------16--------17--------18--------19--------20------------------21--------22--------23--------24--------25--------26--------27--------28--------29--------30--------31--------32--------33--------34--------35--------36--------37--------38--------39--------40--------41--------42--------43--------44--------45--------46--------47--------48--------49--------50--------51--------52--------53--------54--------55--------56--------57--------58--------59--------60--------61--------62--------63--------64--------65--------66--------67--------68--------69--------70--------71--------72--------73--------74
      32.085476     168.556671     168.5      2.41      3.21      71.4         1         1      1000      1000   2399.37    -6.199       6.9      23.6   455.833     0.888     119.8   0.23826      20.3         H               347.2  0.105435  0.099096  0.001782  7.160426  1.022635  7.001935  1.337614    105.31    4.3017   38.7002   0.31484   5.02006   0.30168   0.01916  53.03123   4.43492    3209.1  0.681137  0.001049  0.000026  0.000293  0.202096  7.331656  0.942401     82.39  1.000277  1.000043     4.156    38.994     124.8      79.4      69.7     498.6     12.80      5.51      6.44      4.07      0.72      6.85      1.01     -1.82      2.41      5.49      2.30     -1.39     -0.59      4.47      3.68     -2.24     -1.82      5.56     -0.24      5.63
      32.096283     168.619812     176.0      2.54      3.21      70.6         1         2      1000      2646   2120.58    -6.735       6.7      24.1   475.385     0.948     157.8   0.26741      22.5         H               347.2  0.119151  0.109585  0.002778  7.479263  1.100033  6.799125  1.378852    109.29    3.7405   32.1332   0.33078   4.75427   0.33416   0.02561  43.00853   3.89906    2923.6  0.715755  0.001571  0.000057  0.000305  0.204655  7.338156  1.009310     82.72  1.000271  1.000045     4.435    43.473     133.1      76.1      56.4     483.3     13.13      6.07      6.54      3.38     -0.15      6.98      1.56     -1.58      2.47      5.52      2.41     -1.40     -0.30      4.22      3.52     -4.18     -3.80      5.70     -0.41      5.02
      32.106869     168.681839     168.5      2.23      3.21      71.4         1         3      1000      4292   1695.19    -7.708       5.8      24.6   470.870     0.929     172.2   0.25804      20.3         H               347.2  0.116915  0.103744  0.002736  7.740704  1.097546  7.052737  1.361759    112.26    2.9053   20.4674   0.32434   4.32354   0.38362   0.03802  27.65801   3.10296    2308.1  0.704217  0.002037  0.000081  0.000281  0.201553  7.315097  0.987670     80.51  1.000285  1.000044     4.398    42.837     124.8      71.1      35.3     412.2     12.75      5.49      6.43      3.95      0.61      7.17      1.91     -1.61      2.31      4.85      2.86     -1.44      0.48      3.67      3.10     -3.75     -2.43      6.46      0.76      4.56
      32.138474     168.543915     196.1      2.72      3.21      71.1         2         1      2452      1000   2212.76    -6.551       6.2      23.6   470.231     0.931     179.5   0.25736      29.9         H               347.2  0.112602  0.113299  0.003035  7.520854  1.030246  7.300056  1.371195    134.12    3.9233   34.3868   0.32711   4.84181   0.32415   0.02349  46.27689   4.06935    3033.9  0.700401  0.002117  0.000069  0.000324  0.207384  7.412913  0.991850     80.64  1.000295  1.000047     4.385    43.997     137.8      77.2      60.8     492.2     13.07      5.95      7.22      3.67      0.53      7.14      1.52     -1.37      2.36      5.92      2.95     -1.04      0.32      4.60      3.57     -3.86     -2.97      5.76     -0.24      5.48
      32.149284     168.607101     198.9      2.48      3.21      73.6         2         2      2452      2646   1874.25    -7.272       5.7      24.1   471.556     0.932     277.5   0.25824      31.1         H               347.2  0.113614  0.109326  0.002995  7.447660  1.063180  7.005076  1.367970    108.13    3.2607   25.1560   0.32735   4.51700   0.36186   0.03213  33.84245   3.44139    2563.7  0.702342  0.003831  0.000202  0.000297  0.204001  7.352423  0.992006     84.18  1.000270  1.000043     4.305    40.334     133.1      73.4      43.5     398.7     13.06      5.95      6.64      3.25      0.11      6.64      1.23     -2.15      2.05      5.29      2.18     -1.79      0.29      3.60      3.47     -4.52     -2.95      5.47     -0.62      4.08
      32.159866     168.669159     163.9      2.15      3.21      67.2         2         3      2452      4292   1537.79    -8.131       5.2      24.6   462.976     0.902     187.2   0.24545      18.9         H               347.2  0.110450  0.101216  0.002574  7.299358  1.047274  6.969862  1.348610     85.11    2.5961   16.5517   0.31987   4.13774   0.40659   0.04507  22.51445   2.80334    2073.9  0.686460  0.002387  0.000094  0.000280  0.203665  7.346354  0.959112     84.22  1.000268  1.000039     4.336    43.469     121.0      68.7      28.5     329.2     12.74      5.94      5.95      3.58     -0.53      6.88      2.09     -1.41      3.17      4.25      2.12     -1.19     -0.54      4.29      3.61     -3.66     -4.41      6.18      0.12      6.08
      32.191471     168.531158     173.9      2.57      3.21      78.1         3         1      3904      1000   2205.08    -6.566       6.2      23.6   459.466     0.900     208.8   0.24401      21.9         H               347.2  0.107850  0.107188  0.002441  7.065102  1.025043  6.892494  1.344557    110.67    3.9218   33.3747   0.32090   4.84964   0.32253   0.02299  45.32966   4.06289    2964.8  0.680055  0.002566  0.000109  0.000300  0.206899  7.385605  0.957123     83.35  1.000295  1.000046     4.222    41.640     128.8      77.5      59.2     471.1     12.90      5.33      7.32      4.15      0.36      7.61      1.71     -1.80      2.73      5.08      2.21     -1.28      0.99      4.95      3.77     -2.73     -2.19      6.29     -0.36      4.96
      32.202282     168.594376     259.4      2.30      3.21      56.5         3         2      3904      2646   1797.00    -7.455       5.4      24.1   458.156     0.892     183.9   0.24011      97.7         H               347.2  0.107169  0.102658  0.002003  7.457338  1.037600  7.187105  1.334075     90.64    3.1143   22.4306   0.31837   4.44857   0.36801   0.03361  30.57884   3.29949    2397.2  0.678906  0.002199  0.000112  0.000281  0.203561  7.364276  0.948904     85.40  1.000306  1.000046     4.072    35.450     124.8      72.8      38.8     346.7     12.86      5.53      6.63      3.74     -0.12      6.61      1.09     -2.38      2.44      4.63      1.73     -1.74     -0.25      4.24      3.61     -2.54     -2.48      5.32     -0.28      5.09
      32.212868     168.656464     150.6      2.30      3.21      75.6         3         3      3904      4292   1460.47    -8.355       4.9      24.6   456.965     0.883     152.5   0.23477      15.5         H               347.2  0.104554  0.103225  0.002506  7.404957  1.005418  7.365053  1.332888     87.76    2.4541   14.7768   0.31386   4.04737   0.41807   0.04885  20.27741   2.66192    1946.6  0.671233  0.001719  0.000054  0.000298  0.203203  7.387895  0.937560     85.75  1.000299  1.000043     4.141    39.082     124.8      67.6      25.5     298.1     12.50      4.70      6.39      4.23     -0.10      7.61      2.74     -1.38      3.78      3.63      1.95     -0.97      0.55      4.72      3.83     -2.83     -2.76      6.65      0.21      5.58
