corner points
61.8253746    -21.92875671
61.7795105    -22.10274887
61.63331985    -21.88381195
61.58720398    -22.05772972
========== RESULTS WAVE VERSION 16.10.2018 ====================
IMAGE SIZE  X: 4466     Y:4786    col:row     POLARIZATION:VV
COVERAGE    X: 20.39022527km       Y: 19.87108734km 
RESOLUTION dX: 4.565657249m       dY:4.151919628m  
resolution of original product 4.565657249m x 4.151919628m;   raster step x:5999.273625m  
===============================================================
FLAGS: H=HIGH PROBABILITY SEA STATE, I=LAND(ISLAND), O=OUTLIER NO SEA STATE, N=NO WIND AVAILABLE, SEA STATE NOT VISIBLE, M=MEAN PROBABILITY SEA STATE, L= LOW PROBABILITY SEA STATE
Filtering wave length
 integration  Lmin=1m
 integration  Lmax=2200m
  peak        Lmin=100m
               FFT=1024pixels, 4675.233023m 
   mean-Hs (SWH_c)=1.077932816m
         mean-wind=9.274280548m/s
--------------0--------------1---------2---------3---------4---------5---------6---------7---------8---------9--------10--------11--------12--------13--------14--------15--------16--------17--------18--------19------------------20--------21--------22--------23--------24--------25--------26--------27--------28--------29--------30--------31--------32--------33--------34--------35--------36--------37--------38--------39--------40--------41--------42--------43--------44--------45--------46--------47--------48--------49--------50--------51--------52--------53--------54--------55--------56--------57--------58--------59--------60--------61--------62--------63--------64--------65--------66--------67--------68--------69--------70--------71--------72--------73
            LAT            LON  P-LENGHT     SWH_o     SWH_c     P-DIR      LINE     POINT     ROW-Y     COL-X  M-INTENC        dB      WIND INC-ANGLE  ENERGY-M  ENERGY-N  ENERGY-R ENERGY-NN  FG-DEPTH      FLAG         HEADING-DEG    E30-75   E75-390  E390-600 meanincut   meanout   cut/out  STD-NORM  SPEC-MAX   GL-MEAN    GL-VAR      CORR   ENTROPY   HOMOGEN    ENERGY  CONTRAST  DISSIMIL     STD-O    E 1-30 E600-2000   E2000 >      GODA  LONG-HIG     Tmean  CONVOLUT  MEAN-DIR  relation     Sy/Sx  SKEWNESS  KURTOSIS  cutoff-A >50/10000     INT*V   INT-LOG  S-1_g1f1  S-2_g1f2  S-3_g1f3  S-4_g2f1  S-5_g2f2  S-6_g2f3  S-7_g3f1  S-8_g3f2  S-9_g3f3 S-10_g1f4 S-11_g2f4 S-12_g3f4 S-13_g1f5 S-14_g2f5 S-15_g3f5 S-16_g4f1 S-17_g4f2 S-18_g4f3 S-19_g4f4 S-20_g4f5
--------------1--------------2---------3---------4---------5---------6---------7---------8---------9--------10--------11--------12--------13--------14--------15--------16--------17--------18--------19--------20------------------21--------22--------23--------24--------25--------26--------27--------28--------29--------30--------31--------32--------33--------34--------35--------36--------37--------38--------39--------40--------41--------42--------43--------44--------45--------46--------47--------48--------49--------50--------51--------52--------53--------54--------55--------56--------57--------58--------59--------60--------61--------62--------63--------64--------65--------66--------67--------68--------69--------70--------71--------72--------73--------74
     -21.954952      61.772266     367.4      1.19      2.62     141.1         1         1      1000      1000    346.19   -14.607       9.6      36.5   241.733     0.570      94.3   0.07590     100.0         H               192.4  0.044014  0.027469  0.003213  2.164263  0.690312  3.135195  1.071128    117.38    6.4360   54.3199   0.11846   5.85698   0.19128   0.00598  95.77024   6.70220     370.8  0.494210  0.001131  0.000089  0.000169  0.209486  7.188454  0.578055    139.91  1.000017  1.000001     2.374    12.132     110.8      89.8     110.2     362.6     14.61    -11.25     -3.66     -7.11      9.57      6.42      6.72     -6.40      0.54      3.99     -7.99      0.33     -6.62      6.54     -2.94    -27.37     28.81     13.71    -17.61     19.70
     -21.941681      61.715515     358.7      1.12      2.62     147.5         1         2      1000      2314    316.85   -14.991       9.3      36.9   242.328     0.569     111.3   0.07405     100.0         H               192.4  0.043227  0.027217  0.002650  2.170808  0.676131  3.210632  1.070520    106.77    5.8488   45.6324   0.11470   5.68077   0.20509   0.00714  80.79666   6.14772     339.2  0.494559  0.001470  0.000147  0.000167  0.209773  7.215348  0.576938    135.80  1.000005  1.000000     2.376    12.193     110.8      88.4      91.6     333.6     14.13    -10.54     -3.18     -5.67      7.60      6.21      5.88     -4.78      0.72      3.28     -7.63     -0.25     -6.03      5.32     -1.20    -23.19     22.47     13.44    -15.96     14.97
     -21.928505      61.659267     385.7      1.20      2.62     144.7         1         3      1000      3628    312.39   -15.053       9.5      37.2   241.588     0.568     104.2   0.07451     100.0         H               192.4  0.043749  0.028018  0.001965  2.241185  0.682896  3.281884  1.069464     81.25    5.7641   44.3045   0.11656   5.65384   0.20706   0.00733  78.28040   6.05397     334.2  0.492836  0.001327  0.000135  0.000164  0.210722  7.230174  0.575883    132.96  0.999996  0.999999     2.363    11.997     107.8      88.1      88.8     323.2     13.97     -9.81     -3.27     -4.50      5.86      6.13      4.32     -3.17      1.29      2.97     -7.14     -1.06     -5.56      3.80      0.00    -18.70     16.78     12.06    -13.02     10.44
     -22.007492      61.758404     358.7      1.11      2.62     147.5         2         1      2445      1000    329.35   -14.823       9.3      36.5   240.791     0.566     101.4   0.07416     100.0         H               192.4  0.043409  0.027110  0.001709  2.242874  0.675339  3.321109  1.067297     59.64    6.1011   48.9696   0.11508   5.75915   0.19882   0.00657  86.66821   6.37616     351.5  0.492202  0.001393  0.000147  0.000164  0.205970  7.200903  0.573308    119.11  1.000012  1.000002     2.359    11.973     105.0      89.1      98.9     341.9     13.29     -8.73     -2.85     -2.98      4.26      6.08      4.48     -3.52      1.95      1.98     -6.77     -2.42     -4.16      2.65     -0.23    -15.73     13.51     11.46    -11.12      8.12
     -21.994213      61.701630     385.7      0.97      2.62     144.7         2         2      2445      2314    316.20   -15.000       9.3      36.9   241.415     0.567      86.3   0.07393     100.0         H               192.4  0.043923  0.025622  0.002496  2.115581  0.676143  3.128894  1.067994     85.09    5.8351   45.2234   0.11387   5.67679   0.20533   0.00714  80.14790   6.12948     337.7  0.493593  0.001116  0.000086  0.000153  0.202121  7.138734  0.573854    132.37  1.000018  1.000001     2.375    12.201     105.0      88.4      90.8     328.3     14.02    -10.15     -3.13     -5.59      7.76      5.59      5.91     -5.30      0.73      2.99     -7.01     -0.18     -5.79      5.05     -1.82    -23.45     24.00     11.98    -14.71     15.38
     -21.981031      61.645359     334.5      1.09      2.62     149.9         2         3      2445      3628    311.54   -15.065       9.5      37.2   241.135     0.566      92.8   0.07331     100.0         H               192.4  0.043718  0.026663  0.001992  2.121156  0.685744  3.093219  1.067402     81.61    5.7472   43.8819   0.11423   5.64906   0.20723   0.00732  77.73855   6.03262     332.5  0.492232  0.001139  0.000122  0.000154  0.208207  7.180564  0.573313    137.66  1.000009  1.000001     2.369    12.081     107.8      88.2      88.0     320.3     14.01     -9.66     -3.55     -4.86      6.57      6.11      4.61     -3.50      1.18      3.39     -7.11     -0.87     -5.13      3.88     -0.19    -19.65     18.19     12.35    -13.77     10.49
     -22.060028      61.744530     343.8      1.02      2.62     144.0         3         1      3890      1000    307.88   -15.116       8.8      36.5   242.483     0.570     109.7   0.07495     100.0         H               192.4  0.044260  0.027268  0.002073  2.086219  0.690112  3.023017  1.071742     89.26    5.6743   43.1936   0.11681   5.62495   0.20990   0.00754  76.29566   5.96206     329.9  0.495301  0.001403  0.000153  0.000154  0.210898  7.179145  0.578391    139.95  1.000000  1.000000     2.396    12.404     107.8      88.0      86.4     325.3     14.51    -10.57     -3.91     -6.11      7.86      6.07      4.36     -3.03      0.70      3.40     -6.65     -0.61     -5.77      4.69     -0.21    -21.60     20.02     12.47    -12.70     11.83
     -22.046743      61.687733     387.0      1.02      2.62     155.5         3         2      3890      2314    304.06   -15.170       9.0      36.9   242.105     0.569     112.1   0.07416     100.0         H               192.4  0.043456  0.026748  0.002352  2.132827  0.675617  3.156860  1.070109     87.86    5.5939   41.9894   0.11396   5.59898   0.21171   0.00774  74.40853   5.89347     325.3  0.494552  0.001607  0.000139  0.000158  0.207760  7.172992  0.576291    140.99  1.000017  1.000002     2.401    12.725     110.8      87.8      84.0     343.4     14.32    -10.29     -3.74     -5.82      7.66      6.50      5.26     -4.32      0.67      4.05     -7.87     -0.24     -5.90      4.89     -1.03    -22.80     21.82     13.36    -15.80     14.07
     -22.033554      61.631443     346.3      0.98      2.62     153.6         3         3      3890      3628    299.33   -15.238       9.2      37.2   240.111     0.563      98.1   0.07235     100.0         H               192.4  0.043191  0.025824  0.001911  2.151802  0.671281  3.205516  1.064648     70.33    5.5041   40.3369   0.11249   5.57033   0.21374   0.00791  71.59892   5.79897     318.7  0.490559  0.001231  0.000142  0.000150  0.204174  7.172644  0.570070    129.50  1.000017  1.000001     2.348    12.048     105.0      87.6      80.9     319.6     13.66     -8.82     -2.83     -3.98      5.31      5.86      4.82     -3.65      1.43      2.65     -6.73     -0.87     -4.48      3.36     -0.41    -18.49     16.37     11.43    -12.76     10.03
