corner points
66.03263855    -4.296961308
65.99476624    -4.472096443
65.85398865    -4.257604122
65.81607056    -4.432692051
========== RESULTS WAVE VERSION 16.10.2018 ====================
IMAGE SIZE  X: 4466     Y:4787    col:row     POLARIZATION:VV
COVERAGE    X: 20.24269838km       Y: 19.87510985km 
RESOLUTION dX: 4.532623909m       dY:4.151892595m  
resolution of original product 4.532623909m x 4.151892595m;   raster step x:5996.661431m  
===============================================================
FLAGS: H=HIGH PROBABILITY SEA STATE, I=LAND(ISLAND), O=OUTLIER NO SEA STATE, N=NO WIND AVAILABLE, SEA STATE NOT VISIBLE, M=MEAN PROBABILITY SEA STATE, L= LOW PROBABILITY SEA STATE
Filtering wave length
 integration  Lmin=1m
 integration  Lmax=2200m
  peak        Lmin=100m
               FFT=1024pixels, 4641.406883m 
   mean-Hs (SWH_c)=1.684009857m
         mean-wind=17.60514259m/s
--------------0--------------1---------2---------3---------4---------5---------6---------7---------8---------9--------10--------11--------12--------13--------14--------15--------16--------17--------18--------19------------------20--------21--------22--------23--------24--------25--------26--------27--------28--------29--------30--------31--------32--------33--------34--------35--------36--------37--------38--------39--------40--------41--------42--------43--------44--------45--------46--------47--------48--------49--------50--------51--------52--------53--------54--------55--------56--------57--------58--------59--------60--------61--------62--------63--------64--------65--------66--------67--------68--------69--------70--------71--------72--------73
            LAT            LON  P-LENGHT     SWH_o     SWH_c     P-DIR      LINE     POINT     ROW-Y     COL-X  M-INTENC        dB      WIND INC-ANGLE  ENERGY-M  ENERGY-N  ENERGY-R ENERGY-NN  FG-DEPTH      FLAG         HEADING-DEG    E30-75   E75-390  E390-600 meanincut   meanout   cut/out  STD-NORM  SPEC-MAX   GL-MEAN    GL-VAR      CORR   ENTROPY   HOMOGEN    ENERGY  CONTRAST  DISSIMIL     STD-O    E 1-30 E600-2000   E2000 >      GODA  LONG-HIG     Tmean  CONVOLUT  MEAN-DIR  relation     Sy/Sx  SKEWNESS  KURTOSIS  cutoff-A >50/10000     INT*V   INT-LOG  S-1_g1f1  S-2_g1f2  S-3_g1f3  S-4_g2f1  S-5_g2f2  S-6_g2f3  S-7_g3f1  S-8_g3f2  S-9_g3f3 S-10_g1f4 S-11_g2f4 S-12_g3f4 S-13_g1f5 S-14_g2f5 S-15_g3f5 S-16_g4f1 S-17_g4f2 S-18_g4f3 S-19_g4f4 S-20_g4f5
--------------1--------------2---------3---------4---------5---------6---------7---------8---------9--------10--------11--------12--------13--------14--------15--------16--------17--------18--------19--------20------------------21--------22--------23--------24--------25--------26--------27--------28--------29--------30--------31--------32--------33--------34--------35--------36--------37--------38--------39--------40--------41--------42--------43--------44--------45--------46--------47--------48--------49--------50--------51--------52--------53--------54--------55--------56--------57--------58--------59--------60--------61--------62--------63--------64--------65--------66--------67--------68--------69--------70--------71--------72--------73--------74
      -4.324642      65.984261     301.1      2.03      1.76       7.5         1         1      1000      1000   1096.24    -9.601      19.1      36.8   219.123     0.563      95.7   0.08437     100.0         H               192.0  0.053989  0.012497  0.000476  1.230951  0.725968  1.695600  1.064705      5.03   19.8826  330.9694   0.11712   7.68159   0.07766   0.00074 584.41467  18.26532    1167.2  0.494820  0.001361  0.000245  0.000149  0.148226  6.614944  0.567744     84.13  1.000099  1.000009     2.371    12.203      88.6      99.8    1219.5    1154.8     10.83      0.46     -1.89      1.71      0.06      1.70      2.80      0.26     -0.61     -0.28      0.88      0.51      0.41     -0.88      1.46     -7.64     -0.58      5.34      1.47     -2.90
      -4.312936      65.931129     381.3      1.65      1.76     170.5         1         2      1000      2323    876.96   -10.570      17.4      37.2   221.673     0.572     126.7   0.08506     100.0         H               192.0  0.055467  0.013373  0.000575  1.332068  0.730453  1.823620  1.073297      3.46   16.3433  257.3915   0.12395   7.46788   0.08960   0.00099 450.97571  15.61016     941.2  0.500780  0.001831  0.000322  0.000151  0.150261  6.646066  0.577818     84.43  1.000149  1.000013     2.412    12.484      97.3      98.5     777.7     931.6     10.95      0.38     -1.02      1.60      0.46      1.18      2.98      0.61     -0.24      0.55      0.13      0.54      0.31     -0.38      1.64     -8.36     -0.09      3.52     -0.83     -2.17
      -4.301328      65.878456     385.2      1.44      1.76     175.2         1         3      1000      3646    782.08   -11.067      16.7      37.6   222.110     0.571      65.8   0.08416     100.0         H               192.0  0.056886  0.013423  0.000583  1.346784  0.718523  1.874379  1.072439      4.70   14.7085  220.8968   0.12375   7.32082   0.09772   0.00120 387.12314  14.26967     838.7  0.499617  0.001135  0.000119  0.000152  0.148756  6.638581  0.577094     84.21  1.000142  1.000013     2.424    12.798      97.3      97.8     612.6     871.8     10.97      0.96     -1.50      1.52      0.15      1.77      2.99      0.18     -0.58      0.22      0.71      0.23      0.43     -0.81      1.15     -8.60     -0.55      5.32      1.15     -2.43
      -4.377516      65.972824     338.9      1.88      1.76      17.0         2         1      2445      1000   1014.29    -9.938      18.4      36.8   219.481     0.566      65.4   0.08413     100.0         H               192.0  0.054468  0.012732  0.000469  1.264163  0.725551  1.742348  1.066662      3.37   18.6108  304.8269   0.11883   7.62401   0.08112   0.00079 537.21204  17.34701    1081.8  0.496906  0.001216  0.000102  0.000142  0.148727  6.638978  0.570747     84.27  1.000112  1.000010     2.405    12.649      88.6      99.4    1041.8    1059.3     10.65      0.49     -1.61      2.15      0.23      1.18      2.75      0.33     -0.20     -0.13      0.37      0.07      0.13     -0.85      1.28     -6.83     -0.49      3.75      0.77     -2.66
      -4.365807      65.919693     385.2      1.59      1.76     175.2         2         2      2445      2323    859.60   -10.657      17.3      37.2   221.664     0.570     110.5   0.08414     100.0         H               192.0  0.055472  0.013105  0.000619  1.307365  0.719364  1.817390  1.071639      3.67   16.0555  250.4844   0.12255   7.44592   0.09072   0.00101 439.57635  15.37665     921.2  0.499415  0.001747  0.000253  0.000149  0.148596  6.630603  0.575867     83.98  1.000114  1.000010     2.425    12.880      90.6      98.4     744.3     964.8     11.08      0.21     -1.38      1.06      0.30      1.00      3.17     -0.07     -0.49      0.10      0.33      0.56      0.21     -0.37      0.97     -9.73      0.92      3.76     -0.19     -1.33
      -4.354194      65.867012     303.0      1.43      1.76       3.7         2         3      2445      3646    774.50   -11.110      16.6      37.5   220.714     0.567     145.0   0.08330     100.0         H               192.0  0.054471  0.013265  0.000586  1.312992  0.706885  1.857433  1.069322      4.90   14.5790  217.4006   0.12455   7.30870   0.09843   0.00122 380.64447  14.13416     828.2  0.497046  0.001862  0.000468  0.000147  0.150592  6.639802  0.573074     83.73  1.000098  1.000008     2.400    12.420      94.9      97.8     597.8     842.0     11.04      0.17     -2.07      1.37      0.58      1.56      2.65     -0.09     -0.80      0.59     -0.10      0.39      0.47     -0.94      1.08     -8.82      0.97      5.56     -1.29     -2.70
      -4.430390      65.961388     381.3      1.81      1.76       9.5         3         1      3890      1000    968.86   -10.137      18.0      36.8   221.253     0.572     104.7   0.08660     100.0         H               192.0  0.056194  0.013341  0.000548  1.309968  0.723949  1.809476  1.073657      3.59   17.8526  289.7059   0.12347   7.57598   0.08387   0.00085 507.87250  16.76465    1040.2  0.500971  0.001536  0.000248  0.000147  0.150559  6.641753  0.578038     84.45  1.000130  1.000011     2.436    12.843      94.9      99.1     955.2    1055.5     10.83      0.60     -1.54      1.78     -0.12      1.24      2.93      0.88     -0.47     -0.20      0.55      0.08     -0.02     -0.42      1.53     -8.03     -1.85      4.34      1.34     -2.07
      -4.418676      65.908249     281.3      1.73      1.76     173.0         3         2      3890      2323    900.30   -10.456      17.7      37.2   219.158     0.564      76.1   0.08349     100.0         H               192.0  0.053855  0.013531  0.000628  1.320322  0.704219  1.874876  1.065761      5.26   16.7599  265.1072   0.12127   7.50406   0.08767   0.00093 465.91431  15.92586     959.5  0.495037  0.001377  0.000124  0.000145  0.151150  6.654391  0.569603     83.98  1.000091  1.000008     2.378    12.363      90.6      98.7     814.1     987.5     10.96      0.28     -1.86      1.37      0.36      1.83      3.21      0.27     -0.74      0.57      0.18      0.57      0.41     -0.65      1.09     -9.16      0.65      6.33     -0.48     -2.01
      -4.407059      65.855560     375.0      1.58      1.76      14.0         3         3      3890      3646    839.19   -10.761      17.3      37.5   220.633     0.565      69.7   0.08204     100.0         H               192.0  0.054413  0.013035  0.000603  1.304682  0.714955  1.824844  1.066175      3.45   15.7185  242.0442   0.11938   7.42045   0.09228   0.00105 426.29828  15.11702     894.7  0.495784  0.001332  0.000111  0.000155  0.149133  6.643074  0.569909     83.59  1.000125  1.000010     2.378    12.212      92.7      98.3     704.0     899.5     11.07      0.65     -1.17      1.36      0.27      1.48      3.09     -0.11     -1.10      0.42      0.25      0.31      0.33     -0.68      1.31     -9.50      0.24      5.81      0.10     -2.73
