corner points
67.16619873    1.011787057
67.12961578    0.8369997144
66.98806    1.049838305
66.95148468    0.8750928044
========== RESULTS WAVE VERSION 16.10.2018 ====================
IMAGE SIZE  X: 4466     Y:4774    col:row     POLARIZATION:VV
COVERAGE    X: 20.20710637km       Y: 19.80972412km 
RESOLUTION dX: 4.52465436m       dY:4.14950233m  
resolution of original product 4.52465436m x 4.14950233m;   raster step x:5999.691682m  
===============================================================
FLAGS: H=HIGH PROBABILITY SEA STATE, I=LAND(ISLAND), O=OUTLIER NO SEA STATE, N=NO WIND AVAILABLE, SEA STATE NOT VISIBLE, M=MEAN PROBABILITY SEA STATE, L= LOW PROBABILITY SEA STATE
Filtering wave length
 integration  Lmin=1m
 integration  Lmax=2200m
  peak        Lmin=100m
               FFT=1024pixels, 4633.246065m 
   mean-Hs (SWH_c)=0.2m
         mean-wind=3.737566233m/s
--------------0--------------1---------2---------3---------4---------5---------6---------7---------8---------9--------10--------11--------12--------13--------14--------15--------16--------17--------18--------19------------------20--------21--------22--------23--------24--------25--------26--------27--------28--------29--------30--------31--------32--------33--------34--------35--------36--------37--------38--------39--------40--------41--------42--------43--------44--------45--------46--------47--------48--------49--------50--------51--------52--------53--------54--------55--------56--------57--------58--------59--------60--------61--------62--------63--------64--------65--------66--------67--------68--------69--------70--------71--------72--------73
            LAT            LON  P-LENGHT     SWH_o     SWH_c     P-DIR      LINE     POINT     ROW-Y     COL-X  M-INTENC        dB      WIND INC-ANGLE  ENERGY-M  ENERGY-N  ENERGY-R ENERGY-NN  FG-DEPTH      FLAG         HEADING-DEG    E30-75   E75-390  E390-600 meanincut   meanout   cut/out  STD-NORM  SPEC-MAX   GL-MEAN    GL-VAR      CORR   ENTROPY   HOMOGEN    ENERGY  CONTRAST  DISSIMIL     STD-O    E 1-30 E600-2000   E2000 >      GODA  LONG-HIG     Tmean  CONVOLUT  MEAN-DIR  relation     Sy/Sx  SKEWNESS  KURTOSIS  cutoff-A >50/10000     INT*V   INT-LOG  S-1_g1f1  S-2_g1f2  S-3_g1f3  S-4_g2f1  S-5_g2f2  S-6_g2f3  S-7_g3f1  S-8_g3f2  S-9_g3f3 S-10_g1f4 S-11_g2f4 S-12_g3f4 S-13_g1f5 S-14_g2f5 S-15_g3f5 S-16_g4f1 S-17_g4f2 S-18_g4f3 S-19_g4f4 S-20_g4f5
--------------1--------------2---------3---------4---------5---------6---------7---------8---------9--------10--------11--------12--------13--------14--------15--------16--------17--------18--------19--------20------------------21--------22--------23--------24--------25--------26--------27--------28--------29--------30--------31--------32--------33--------34--------35--------36--------37--------38--------39--------40--------41--------42--------43--------44--------45--------46--------47--------48--------49--------50--------51--------52--------53--------54--------55--------56--------57--------58--------59--------60--------61--------62--------63--------64--------65--------66--------67--------68--------69--------70--------71--------72--------73--------74
       0.983789      67.118195     372.5      0.24      1.26     105.2         1         1      1000      1000     99.09   -20.040       3.7      36.9   222.033     0.536      78.7   0.05038     100.0         H               192.0  0.037044  0.011983  0.000935  1.173087  0.598250  1.960863  1.039312      4.35    1.5252    4.1498   0.05036   3.38774   0.45807   0.06477   7.88158   1.88749     103.0  0.484316  0.001617  0.000138  0.000096  0.157924  6.786349  0.538710     68.33  1.000154  1.000002     2.226    11.150     110.8      62.3       9.2      95.0     11.59     -0.15      0.69     -0.78      0.40     -2.40      4.52      0.74      1.86     -0.35     -0.23      0.25      1.00     -0.00     -0.02    -15.54     -0.10     -7.30      0.14     -0.38
       0.995133      67.065102     384.5      0.24      1.26      95.2         1         2      1000      2326     94.26   -20.257       3.7      37.2   221.691     0.533      85.4   0.04973     100.0         H               192.0  0.036464  0.011869  0.000699  1.167375  0.592444  1.970441  1.037060      4.25    1.4342    3.7311   0.04730   3.29423   0.47128   0.07054   7.10932   1.78964      97.7  0.482486  0.001615  0.000160  0.000095  0.160385  6.798668  0.535455     68.86  1.000160  1.000002     2.204    10.735     114.0      60.8       8.3      82.5     11.27      0.09      0.68      0.78      0.02     -0.72      3.70      0.72      0.96     -0.11      0.06      0.12      1.28      0.24      0.28    -11.40     -1.04     -3.27      0.29     -0.73
       1.006379      67.012459     379.9      0.25      1.26     100.3         1         3      1000      3652     95.30   -20.209       3.8      37.6   222.909     0.539     106.8   0.05092     100.0         H               192.0  0.037037  0.012516  0.000752  1.236730  0.594311  2.080947  1.042169      5.42    1.4528    3.8523   0.05103   3.31322   0.46944   0.06966   7.31133   1.80999      99.3  0.486663  0.001927  0.000220  0.000097  0.157671  6.798646  0.541873     66.18  1.000254  1.000005     2.240    11.152     114.0      61.1       8.5      86.8     11.21     -0.05      0.83      0.57      0.48     -2.14      3.77      0.33      1.18     -1.05      0.43     -0.27      1.65     -1.06      0.49    -11.73      1.02     -5.89      2.26     -3.73
       0.930875      67.107117     379.9      0.25      1.26     100.3         2         1      2445      1000    103.56   -19.848       3.8      36.9   221.583     0.538     208.6   0.05233     100.0         H               192.0  0.036644  0.012543  0.000839  1.224656  0.584350  2.095756  1.042188      4.42    1.6131    4.5713   0.05714   3.47381   0.44692   0.05993   8.62015   1.97516     107.9  0.484266  0.002981  0.000633  0.000098  0.162284  6.815453  0.540933     64.37  0.999933  0.999999     2.229    10.890     117.4      63.6      10.1      91.5     11.60      0.30      0.26     -0.09      0.22     -0.66      3.84      0.74      0.73     -0.08     -0.19      0.32      1.55     -0.79      0.36    -13.41     -0.38     -1.88     -0.13     -2.86
       0.942223      67.054024     355.2      0.24      1.26      94.8         2         2      2445      2326     91.68   -20.377       3.6      37.2   222.834     0.537     172.3   0.05031     100.0         H               192.0  0.035918  0.011561  0.000954  1.112212  0.583992  1.904498  1.041650      7.09    1.3838    3.5564   0.04939   3.23971   0.47997   0.07476   6.76154   1.73825      95.5  0.485640  0.003228  0.000375  0.000093  0.163843  6.803924  0.540398     68.76  1.000236  1.000004     2.235    11.098     137.8      59.7       7.9      79.4     12.08     -0.36      1.28     -1.39      0.43     -2.03      4.42      0.72      0.93     -0.64      0.05      0.44      1.79     -1.31      0.42    -16.96      0.06     -5.69      0.10     -3.98
       0.953472      67.001389       0.0      0.00      0.00       0.0         2         3      2445      3652      0.00     0.000       0.0      37.6     0.000     0.000       0.0   0.00000       0.0         O               192.0  0.000000  0.000000  0.000000  0.000000  0.000000  0.000000  0.000000      0.00    0.0000    0.0000   0.00000   0.00000   0.00000   0.00000   0.00000   0.00000       0.0  0.000000  0.000000  0.000000  0.000000  0.000000  0.000000  0.000000      0.00  0.000000  0.000000     0.000     0.000       0.0       0.0       0.0       0.0      0.00      0.00      0.00      0.00      0.00      0.00      0.00      0.00      0.00      0.00      0.00      0.00      0.00      0.00      0.00      0.00      0.00      0.00      0.00      0.00
       0.877962      67.096039     386.1      0.25      1.26      90.0         3         1      3890      1000    104.63   -19.804       3.8      36.9   221.690     0.539     123.8   0.05206     100.0         H               192.0  0.037491  0.012822  0.000868  1.258471  0.599981  2.097518  1.043194      5.31    1.6333    4.6732   0.05727   3.49306   0.44378   0.05883   8.81117   1.99721     109.1  0.486045  0.002029  0.000310  0.000098  0.161472  6.822029  0.542795     66.91  1.000181  1.000002     2.250    11.187     110.8      63.9      10.3      94.2     11.56     -0.01      1.14     -0.05      0.52     -2.14      3.84     -0.24      1.86     -0.14      0.24     -0.06      1.52     -0.50      0.25    -13.23      1.59     -7.40      0.91     -2.06
       0.889314      67.042946     372.5      0.25      1.26     105.2         3         2      3890      2326     96.76   -20.143       3.8      37.2   222.832     0.540     212.8   0.05205     100.0         H               192.0  0.036572  0.012667  0.000792  1.220015  0.593619  2.055215  1.044582      4.32    1.4834    3.9936   0.05572   3.34468   0.46535   0.06794   7.54210   1.84013     101.1  0.486591  0.003433  0.000531  0.000096  0.164338  6.819408  0.543849     67.47  1.000197  1.000003     2.237    10.973     128.8      61.4       8.8      85.2     11.78     -0.09      0.71     -0.24      0.75     -1.42      3.28     -0.07      0.69     -0.56      0.63     -0.62      0.98     -0.25     -0.22    -12.95      1.92     -4.03      2.70     -0.85
       0.900567      66.990311       0.0      0.00      0.00       0.0         3         3      3890      3652      0.00     0.000       0.0      37.6     0.000     0.000       0.0   0.00000       0.0         O               192.0  0.000000  0.000000  0.000000  0.000000  0.000000  0.000000  0.000000      0.00    0.0000    0.0000   0.00000   0.00000   0.00000   0.00000   0.00000   0.00000       0.0  0.000000  0.000000  0.000000  0.000000  0.000000  0.000000  0.000000      0.00  0.000000  0.000000     0.000     0.000       0.0       0.0       0.0       0.0      0.00      0.00      0.00      0.00      0.00      0.00      0.00      0.00      0.00      0.00      0.00      0.00      0.00      0.00      0.00      0.00      0.00      0.00      0.00      0.00
