corner points
60.86407089    -25.4382534
60.81561661    -25.61157799
60.66674805    -25.39182663
60.61798859    -25.5650692
========== RESULTS WAVE VERSION 16.10.2018 ====================
IMAGE SIZE  X: 4466     Y:4778    col:row     POLARIZATION:VV
COVERAGE    X: 20.43556102km       Y: 19.83175008km 
RESOLUTION dX: 4.575808559m       dY:4.150638358m  
resolution of original product 4.575808559m x 4.150638358m;   raster step x:5998.88502m  
===============================================================
FLAGS: H=HIGH PROBABILITY SEA STATE, I=LAND(ISLAND), O=OUTLIER NO SEA STATE, N=NO WIND AVAILABLE, SEA STATE NOT VISIBLE, M=MEAN PROBABILITY SEA STATE, L= LOW PROBABILITY SEA STATE
Filtering wave length
 integration  Lmin=1m
 integration  Lmax=2200m
  peak        Lmin=100m
               FFT=1024pixels, 4685.627964m 
   mean-Hs (SWH_c)=0.6858850098m
         mean-wind=9.318311691m/s
--------------0--------------1---------2---------3---------4---------5---------6---------7---------8---------9--------10--------11--------12--------13--------14--------15--------16--------17--------18--------19------------------20--------21--------22--------23--------24--------25--------26--------27--------28--------29--------30--------31--------32--------33--------34--------35--------36--------37--------38--------39--------40--------41--------42--------43--------44--------45--------46--------47--------48--------49--------50--------51--------52--------53--------54--------55--------56--------57--------58--------59--------60--------61--------62--------63--------64--------65--------66--------67--------68--------69--------70--------71--------72--------73
            LAT            LON  P-LENGHT     SWH_o     SWH_c     P-DIR      LINE     POINT     ROW-Y     COL-X  M-INTENC        dB      WIND INC-ANGLE  ENERGY-M  ENERGY-N  ENERGY-R ENERGY-NN  FG-DEPTH      FLAG         HEADING-DEG    E30-75   E75-390  E390-600 meanincut   meanout   cut/out  STD-NORM  SPEC-MAX   GL-MEAN    GL-VAR      CORR   ENTROPY   HOMOGEN    ENERGY  CONTRAST  DISSIMIL     STD-O    E 1-30 E600-2000   E2000 >      GODA  LONG-HIG     Tmean  CONVOLUT  MEAN-DIR  relation     Sy/Sx  SKEWNESS  KURTOSIS  cutoff-A >50/10000     INT*V   INT-LOG  S-1_g1f1  S-2_g1f2  S-3_g1f3  S-4_g2f1  S-5_g2f2  S-6_g2f3  S-7_g3f1  S-8_g3f2  S-9_g3f3 S-10_g1f4 S-11_g2f4 S-12_g3f4 S-13_g1f5 S-14_g2f5 S-15_g3f5 S-16_g4f1 S-17_g4f2 S-18_g4f3 S-19_g4f4 S-20_g4f5
--------------1--------------2---------3---------4---------5---------6---------7---------8---------9--------10--------11--------12--------13--------14--------15--------16--------17--------18--------19--------20------------------21--------22--------23--------24--------25--------26--------27--------28--------29--------30--------31--------32--------33--------34--------35--------36--------37--------38--------39--------40--------41--------42--------43--------44--------45--------46--------47--------48--------49--------50--------51--------52--------53--------54--------55--------56--------57--------58--------59--------60--------61--------62--------63--------64--------65--------66--------67--------68--------69--------70--------71--------72--------73--------74
     -25.464039      60.809200     334.6      0.56      2.32     150.0         1         1      1000      1000    318.87   -14.964       9.0      36.4   243.584     0.549      57.9   0.06693     100.0         H               192.5  0.040983  0.020227  0.001801  1.393442  0.658049  2.117534  1.051448     72.21    5.8909   44.6780   0.09872   5.69776   0.20137   0.00682  80.53465   6.18770     335.3  0.485756  0.000619  0.000037  0.000135  0.209051  7.076514  0.553911    148.83  0.999994  0.999999     2.280    11.294      94.9      88.8      90.6     316.0     14.89    -10.33     -6.51     -7.44      9.30      6.63      3.41     -2.35     -0.50      6.70     -7.28      0.35     -4.66      3.75     -0.16    -23.96     22.53     15.45    -16.17      9.31
     -25.450359      60.751022     322.5      0.60      2.32     146.6         1         2      1000      2311    312.89   -15.046       9.1      36.8   242.587     0.549      59.1   0.06762     100.0         H               192.5  0.041207  0.020578  0.001571  1.390522  0.659409  2.108738  1.050942     75.91    5.7719   43.0254   0.10153   5.65985   0.20438   0.00709  77.31357   6.06316     328.9  0.485055  0.000650  0.000040  0.000137  0.213146  7.081694  0.554001    148.16  1.000000  0.999999     2.271    11.158      94.9      88.5      87.1     296.7     14.97    -10.74     -6.19     -7.12      9.13      6.34      2.49     -0.94     -0.35      6.48     -7.03      0.07     -4.80      3.61      0.43    -22.04     20.36     14.43    -14.93      7.89
     -25.436777      60.693363     346.3      0.68      2.32     153.7         1         3      1000      3622    316.40   -14.998       9.5      37.1   243.661     0.551      70.4   0.06824     100.0         H               192.5  0.041352  0.020861  0.001702  1.345600  0.671292  2.004494  1.053577     84.45    5.8409   44.1568   0.10128   5.68138   0.20270   0.00696  79.36940   6.13661     333.3  0.486791  0.000818  0.000065  0.000152  0.216178  7.100041  0.556259    151.78  0.999993  1.000000     2.285    11.309      97.3      88.5      89.5     314.4     15.03    -10.96     -7.39     -7.55      9.37      7.28      2.50     -1.27     -0.12      8.04     -8.69     -0.02     -4.48      3.39      0.45    -22.65     21.47     16.17    -17.98      8.09
     -25.516462      60.794533     346.3      0.61      2.32     153.7         2         1      2445      1000    313.59   -15.036       8.9      36.4   244.333     0.552      95.2   0.06774     100.0         H               192.5  0.040515  0.020980  0.001689  1.385639  0.658145  2.105369  1.054148     86.74    5.7858   43.3925   0.09998   5.66409   0.20416   0.00708  78.10806   6.08547     330.6  0.487572  0.001121  0.000156  0.000149  0.216091  7.110912  0.556715    149.78  0.999977  0.999998     2.308    11.702      99.7      88.5      87.8     322.8     15.18    -10.53     -6.47     -8.00      9.64      6.72      3.12     -2.05     -0.43      6.75     -7.75      0.42     -4.70      3.81      0.17    -23.87     21.96     15.04    -16.25      8.53
     -25.502777      60.736320     310.3      0.58      2.32     143.4         2         2      2445      2311    311.91   -15.060       9.1      36.8   242.902     0.548      81.3   0.06702     100.0         H               192.5  0.040892  0.020247  0.001580  1.398169  0.658817  2.122240  1.050753     56.02    5.7525   42.7442   0.09983   5.65389   0.20513   0.00713  76.95361   6.04762     327.7  0.484873  0.001072  0.000099  0.000135  0.212543  7.093613  0.553370    146.62  0.999976  0.999998     2.262    11.039      97.3      88.5      86.5     294.2     15.03    -10.27     -5.99     -7.24      8.46      6.04      2.39     -0.81     -0.03      5.77     -6.33      0.04     -4.58      3.47      0.63    -22.37     18.99     13.27    -13.21      7.85
     -25.489187      60.678635     334.6      0.68      2.32     150.0         2         3      2445      3622    310.22   -15.083       9.4      37.1   243.617     0.552      69.8   0.06825     100.0         H               192.5  0.041479  0.021193  0.001395  1.414526  0.678060  2.086137  1.054067     71.41    5.7178   42.5059   0.10195   5.64218   0.20584   0.00723  76.34531   6.01295     327.0  0.487243  0.000858  0.000068  0.000143  0.213333  7.099877  0.557363    147.42  0.999983  0.999999     2.308    11.593      97.3      88.3      86.0     314.4     14.67    -10.03     -6.32     -6.39      7.90      6.17      1.97     -0.22      0.39      6.38     -6.87     -0.91     -4.41      2.89      1.30    -19.64     16.74     13.07    -13.00      5.54
     -25.568884      60.779842     344.0      0.94      2.32     144.0         3         1      3890      1000    356.41   -14.480       9.7      36.4   244.693     0.557     134.3   0.07148     100.0         H               192.5  0.041801  0.023291  0.001817  1.535602  0.677851  2.265397  1.059826     88.99    6.6373   56.2991   0.11029   5.91604   0.18533   0.00554 100.17892   6.89595     377.7  0.488961  0.001564  0.000295  0.000157  0.220618  7.157686  0.563667    145.36  0.999966  0.999997     2.353    12.289      97.3      90.3     115.5     397.7     15.33    -11.61     -5.75     -8.01      9.63      5.68      2.39     -0.69     -0.06      5.80     -6.41     -0.07     -6.38      5.02      0.88    -23.40     21.10     12.73    -13.15     10.38
     -25.555191      60.721607     385.9      0.77      2.32     144.8         3         2      3890      2311    333.37   -14.771       9.6      36.8   245.606     0.556     120.8   0.06956     100.0         H               192.5  0.041371  0.021611  0.002308  1.421212  0.666596  2.132045  1.058065     94.08    6.1799   49.3839   0.10425   5.78481   0.19515   0.00632  88.47134   6.47228     352.7  0.489270  0.001394  0.000237  0.000156  0.217846  7.121958  0.561465    146.14  0.999975  0.999999     2.301    11.402     102.3      89.3     100.2     338.3     15.57    -11.80     -6.03     -9.08     11.53      6.58      4.01     -2.97     -0.80      6.91     -7.67      0.88     -6.01      5.59     -0.83    -27.98     27.86     15.41    -17.28     13.62
     -25.541595      60.663898     322.5      0.76      2.32     146.6         3         3      3890      3622    321.56   -14.927       9.6      37.1   242.941     0.550      85.9   0.06774     100.0         H               192.5  0.040840  0.021463  0.001769  1.367223  0.660798  2.069049  1.052453    100.33    5.9429   45.4789   0.10210   5.71341   0.20054   0.00674  81.67111   6.22616     338.4  0.485056  0.000968  0.000116  0.000162  0.219404  7.127341  0.555410    145.15  0.999982  0.999999     2.293    11.480      97.3      88.8      92.3     319.5     15.44    -11.88     -6.06     -8.48     10.61      6.22      3.02     -1.99      0.10      6.74     -7.47     -0.09     -6.40      5.85     -0.59    -24.40     23.95     13.35    -15.29     13.45
