corner points
67.9048996    4.553161144
67.86878967    4.377927303
67.72618866    4.590419769
67.69011688    4.415225029
========== RESULTS WAVE VERSION 16.10.2018 ====================
IMAGE SIZE  X: 4466     Y:4785    col:row     POLARIZATION:VV
COVERAGE    X: 20.19257998km       Y: 19.84500586km 
RESOLUTION dX: 4.521401697m       dY:4.147336649m  
resolution of original product 4.521401697m x 4.147336649m;   raster step x:5999.900052m  
===============================================================
FLAGS: H=HIGH PROBABILITY SEA STATE, I=LAND(ISLAND), O=OUTLIER NO SEA STATE, N=NO WIND AVAILABLE, SEA STATE NOT VISIBLE, M=MEAN PROBABILITY SEA STATE, L= LOW PROBABILITY SEA STATE
Filtering wave length
 integration  Lmin=1m
 integration  Lmax=2200m
  peak        Lmin=100m
               FFT=1024pixels, 4629.915338m 
   mean-Hs (SWH_c)=0.2m
         mean-wind=6.503009319m/s
--------------0--------------1---------2---------3---------4---------5---------6---------7---------8---------9--------10--------11--------12--------13--------14--------15--------16--------17--------18--------19------------------20--------21--------22--------23--------24--------25--------26--------27--------28--------29--------30--------31--------32--------33--------34--------35--------36--------37--------38--------39--------40--------41--------42--------43--------44--------45--------46--------47--------48--------49--------50--------51--------52--------53--------54--------55--------56--------57--------58--------59--------60--------61--------62--------63--------64--------65--------66--------67--------68--------69--------70--------71--------72--------73
            LAT            LON  P-LENGHT     SWH_o     SWH_c     P-DIR      LINE     POINT     ROW-Y     COL-X  M-INTENC        dB      WIND INC-ANGLE  ENERGY-M  ENERGY-N  ENERGY-R ENERGY-NN  FG-DEPTH      FLAG         HEADING-DEG    E30-75   E75-390  E390-600 meanincut   meanout   cut/out  STD-NORM  SPEC-MAX   GL-MEAN    GL-VAR      CORR   ENTROPY   HOMOGEN    ENERGY  CONTRAST  DISSIMIL     STD-O    E 1-30 E600-2000   E2000 >      GODA  LONG-HIG     Tmean  CONVOLUT  MEAN-DIR  relation     Sy/Sx  SKEWNESS  KURTOSIS  cutoff-A >50/10000     INT*V   INT-LOG  S-1_g1f1  S-2_g1f2  S-3_g1f3  S-4_g2f1  S-5_g2f2  S-6_g2f3  S-7_g3f1  S-8_g3f2  S-9_g3f3 S-10_g1f4 S-11_g2f4 S-12_g3f4 S-13_g1f5 S-14_g2f5 S-15_g3f5 S-16_g4f1 S-17_g4f2 S-18_g4f3 S-19_g4f4 S-20_g4f5
--------------1--------------2---------3---------4---------5---------6---------7---------8---------9--------10--------11--------12--------13--------14--------15--------16--------17--------18--------19--------20------------------21--------22--------23--------24--------25--------26--------27--------28--------29--------30--------31--------32--------33--------34--------35--------36--------37--------38--------39--------40--------41--------42--------43--------44--------45--------46--------47--------48--------49--------50--------51--------52--------53--------54--------55--------56--------57--------58--------59--------60--------61--------62--------63--------64--------65--------66--------67--------68--------69--------70--------71--------72--------73--------74
       4.524976      67.856880     235.6      0.38      1.14       2.9         1         1      1000      1000    192.08   -17.165       6.2      36.9   212.674     0.518      35.2   0.05158      53.8         H               192.0  0.036278  0.009259  0.000307  0.846447  0.611196  1.384903  1.021551      3.04    3.3632   15.3280   0.06182   4.69371   0.29126   0.01771  28.76094   3.72330     196.2  0.471827  0.000513  0.000058  0.000091  0.157605  6.714997  0.518385     81.92  1.000031  1.000001     2.121    10.026      72.4      80.3      32.1     175.5     10.38      0.99     -1.57      2.45      0.06     -1.00      1.94      0.24      0.71      0.62     -0.17      0.14      0.68     -0.57      0.40     -4.82     -0.98     -1.82     -0.72     -1.40
       4.536093      67.803574     279.2      0.39      1.14      74.8         1         2      1000      2327    188.00   -17.258       6.4      37.3   213.119     0.519      32.8   0.05176     100.0         H               192.0  0.036618  0.008909  0.000325  0.829001  0.617132  1.343312  1.022844      2.33    3.2849   14.6956   0.06193   4.65261   0.29564   0.01843  27.57113   3.64483     192.3  0.473322  0.000570  0.000044  0.000092  0.155255  6.696037  0.520019     82.08  1.000056  1.000003     2.121     9.992      73.8      79.8      30.9     170.9     10.40      0.75     -1.22      2.40      0.14     -1.43      2.04      0.15      0.45      0.34      0.11      0.11      0.18     -0.65      0.46     -5.44     -0.58     -2.50      0.13     -1.25
       4.547112      67.750732     352.9      0.43      1.14     175.6         1         3      1000      3654    205.42   -16.874       7.1      37.6   241.749     0.643    2356.4   0.10285     100.0         L               192.0  0.041187  0.013552  0.002616  1.081427  0.700362  1.544098  1.148990     12.64    3.6273   21.6511   0.15942   4.80580   0.28597   0.01695  36.39938   3.98542     236.1  0.537282  0.042460  0.005887  0.000094  0.185017  6.849248  0.660555    120.70  0.998999  0.999937     3.778    36.316     450.0      80.7      42.3     350.6     13.53      0.72     -3.69     -7.16      0.43      4.27      8.02     -0.90     -5.07     -0.07      0.78     -1.44      2.85     -3.12      3.28    -36.74      0.77     20.92      4.86    -13.51
       4.472013      67.845970     283.5      0.39      1.14      78.4         2         1      2446      1000    197.18   -17.051       6.4      36.9   213.155     0.520      54.4   0.05270     100.0         H               192.0  0.036315  0.009601  0.000324  0.886861  0.612222  1.448594  1.023477      3.35    3.4650   16.2163   0.06465   4.74569   0.28597   0.01690  30.33564   3.82459     201.8  0.473190  0.000697  0.000121  0.000091  0.160583  6.731673  0.520533     83.39  1.000045  1.000003     2.114     9.886      71.1      80.7      33.8     179.6     10.62      1.18     -0.67      2.47     -0.19     -1.17      1.73     -0.15      0.29      1.24     -0.12      0.31      0.82     -0.70      0.09     -4.93     -1.05     -2.12     -1.07     -1.41
       4.483134      67.792671     322.0      0.40      1.14      76.9         2         2      2446      2327    193.83   -17.126       6.5      37.3   211.900     0.518      32.0   0.05273     100.0         H               192.0  0.036436  0.009468  0.000338  0.874745  0.608658  1.437169  1.021237      2.72    3.4010   15.5859   0.06522   4.71318   0.28944   0.01735  29.13886   3.74878     197.9  0.471331  0.000538  0.000041  0.000091  0.159217  6.726929  0.518401     83.11  1.000051  1.000002     2.118     9.965      71.1      80.6      32.6     176.7     10.64      1.00     -0.79      2.34      0.03     -1.03      1.93      0.05      0.58      0.88      0.07     -0.12      0.48     -0.46      0.22     -5.39     -0.79     -1.97     -0.22     -0.71
       4.494155      67.739830     391.3      0.41      1.14      68.4         2         3      2446      3654    193.16   -17.141       6.8      37.6   212.650     0.520      29.9   0.05352     100.0         H               192.0  0.037174  0.009227  0.000369  0.864207  0.621610  1.390272  1.023578      2.81    3.3870   15.5506   0.06634   4.70567   0.29060   0.01754  29.03799   3.73828     197.7  0.473396  0.000483  0.000037  0.000092  0.155051  6.698874  0.520730     88.06  1.000056  1.000003     2.126    10.039      69.9      80.4      32.5     177.7     10.45      1.22     -1.05      2.15     -0.44     -1.54      2.33      0.21      0.46      0.83     -0.22      0.27      0.24     -0.39      0.61     -6.23     -1.95     -2.81     -1.08     -1.13
       4.419050      67.835052     234.7      0.39      1.14       5.8         3         1      3892      1000    196.93   -17.057       6.4      36.9   213.001     0.521      71.7   0.05344      53.0         H               192.0  0.036732  0.009570  0.000407  0.896617  0.613423  1.461661  1.024968      2.62    3.4592   16.2195   0.06686   4.74249   0.28654   0.01697  30.27030   3.81478     201.8  0.473791  0.000886  0.000179  0.000091  0.159737  6.725898  0.522080     86.02  1.000058  1.000002     2.149    10.331      73.8      80.7      33.8     186.0     10.81      1.34     -0.51      2.01      0.15     -1.32      2.19     -0.03      0.89      0.26      0.05      0.18      0.48     -0.69      0.43     -6.86     -0.37     -3.52      0.03     -1.59
       4.430175      67.781761     345.4      0.40      1.14      75.9         3         2      3892      2327    194.13   -17.119       6.6      37.3   213.199     0.520      30.6   0.05268     100.0         H               192.0  0.036633  0.009421  0.000412  0.874320  0.618475  1.413670  1.023111      3.64    3.4074   15.6901   0.06436   4.71639   0.28908   0.01735  29.36059   3.76191     198.6  0.473034  0.000506  0.000038  0.000091  0.158630  6.714707  0.520187     81.53  1.000065  1.000003     2.111     9.882      71.1      80.5      32.8     175.0     10.78      1.40     -0.52      1.65      0.05     -1.70      2.38      0.08      0.60      0.87     -0.05      0.41      0.58     -0.59      0.02     -7.09     -1.17     -3.59     -1.01     -0.72
       4.441200      67.728920     379.6      0.42      1.14      79.7         3         3      3892      3654    196.13   -17.075       6.8      37.6   213.032     0.521      33.7   0.05357     100.0         H               192.0  0.036714  0.009393  0.000452  0.862878  0.617538  1.397286  1.024634      3.18    3.4453   16.0695   0.06606   4.73549   0.28721   0.01705  30.01575   3.80033     201.0  0.474476  0.000580  0.000047  0.000091  0.157870  6.712422  0.521754     85.93  1.000074  1.000005     2.138    10.169      71.1      80.7      33.5     179.8     10.61      0.94     -0.59      1.85      0.44     -1.61      2.80      0.31      1.09      1.20     -0.02      0.33      0.36     -0.50      0.68     -7.62     -0.42     -4.22     -1.35     -1.52
