corner points
69.35973358    3.324663401
69.32221985    3.143853903
69.17961121    3.362806797
69.1421051    3.182026625
========== RESULTS WAVE VERSION 16.10.2018 ====================
IMAGE SIZE  X: 5599     Y:4929    col:row     POLARIZATION:VV
COVERAGE    X: 20.39546042km       Y: 20.484307km 
RESOLUTION dX: 3.642696985m       dY:4.155874822m  
resolution of original product 3.642696985m x 4.155874822m;   raster step x:5999.521935m  
===============================================================
FLAGS: H=HIGH PROBABILITY SEA STATE, I=LAND(ISLAND), O=OUTLIER NO SEA STATE, N=NO WIND AVAILABLE, SEA STATE NOT VISIBLE, M=MEAN PROBABILITY SEA STATE, L= LOW PROBABILITY SEA STATE
Filtering wave length
 integration  Lmin=1m
 integration  Lmax=2200m
  peak        Lmin=100m
               FFT=1024pixels, 3730.121713m 
   mean-Hs (SWH_c)=0.2m
         mean-wind=4.494855881m/s
--------------0--------------1---------2---------3---------4---------5---------6---------7---------8---------9--------10--------11--------12--------13--------14--------15--------16--------17--------18--------19------------------20--------21--------22--------23--------24--------25--------26--------27--------28--------29--------30--------31--------32--------33--------34--------35--------36--------37--------38--------39--------40--------41--------42--------43--------44--------45--------46--------47--------48--------49--------50--------51--------52--------53--------54--------55--------56--------57--------58--------59--------60--------61--------62--------63--------64--------65--------66--------67--------68--------69--------70--------71--------72--------73
            LAT            LON  P-LENGHT     SWH_o     SWH_c     P-DIR      LINE     POINT     ROW-Y     COL-X  M-INTENC        dB      WIND INC-ANGLE  ENERGY-M  ENERGY-N  ENERGY-R ENERGY-NN  FG-DEPTH      FLAG         HEADING-DEG    E30-75   E75-390  E390-600 meanincut   meanout   cut/out  STD-NORM  SPEC-MAX   GL-MEAN    GL-VAR      CORR   ENTROPY   HOMOGEN    ENERGY  CONTRAST  DISSIMIL     STD-O    E 1-30 E600-2000   E2000 >      GODA  LONG-HIG     Tmean  CONVOLUT  MEAN-DIR  relation     Sy/Sx  SKEWNESS  KURTOSIS  cutoff-A >50/10000     INT*V   INT-LOG  S-1_g1f1  S-2_g1f2  S-3_g1f3  S-4_g2f1  S-5_g2f2  S-6_g2f3  S-7_g3f1  S-8_g3f2  S-9_g3f3 S-10_g1f4 S-11_g2f4 S-12_g3f4 S-13_g1f5 S-14_g2f5 S-15_g3f5 S-16_g4f1 S-17_g4f2 S-18_g4f3 S-19_g4f4 S-20_g4f5
--------------1--------------2---------3---------4---------5---------6---------7---------8---------9--------10--------11--------12--------13--------14--------15--------16--------17--------18--------19--------20------------------21--------22--------23--------24--------25--------26--------27--------28--------29--------30--------31--------32--------33--------34--------35--------36--------37--------38--------39--------40--------41--------42--------43--------44--------45--------46--------47--------48--------49--------50--------51--------52--------53--------54--------55--------56--------57--------58--------59--------60--------61--------62--------63--------64--------65--------66--------67--------68--------69--------70--------71--------72--------73--------74
       3.294966      69.319122     130.0      0.27      0.99      50.1         1         1      1000      1000   1548.67    -8.100       4.2      23.7   368.711     0.561      96.9   0.09742      11.2         H               192.0  0.047737  0.017747  0.000942  1.661265  0.755384  2.199231  1.062067      6.73    2.6200   10.6892   0.18401   4.24719   0.36061   0.03022  17.44456   2.82030    1644.7  0.492682  0.001974  0.000074  0.000120  0.167991  6.844176  0.579360     60.59  1.000084  1.000005     2.376    12.395      41.9      74.6      22.1     161.4     11.06      2.22     -1.64      1.32      1.72     -1.42      2.77      0.62      2.69      0.57      0.18      1.09      0.23     -2.65     -0.00     -9.85      0.30     -4.94     -0.81     -4.91
       3.306309      69.265572     140.3      0.28      0.99      48.8         1         2      1000      2647   1414.21    -8.495       4.3      24.2   371.116     0.566     107.3   0.09892      13.2         H               192.0  0.047634  0.017658  0.000589  1.615893  0.758421  2.130602  1.066865      7.85    2.3656    9.0487   0.18378   4.07510   0.38254   0.03595  14.77139   2.58346    1508.8  0.498228  0.001858  0.000110  0.000117  0.168197  6.862972  0.583992     59.26  1.000030  1.000002     2.386    12.392      41.0      72.2      18.8     144.8     10.64      1.93     -2.71      2.69      2.06     -0.25      1.69      0.08      1.35      0.38      0.42      0.48     -0.50     -1.82     -0.68     -5.39      1.83      0.62      0.44     -1.70
       3.317443      69.212990     115.9      0.28      0.99      57.0         1         3      1000      4294   1295.12    -8.877       4.4      24.6   372.458     0.569     112.6   0.10018       8.7         H               192.0  0.048298  0.017875  0.000730  1.634620  0.771891  2.117683  1.069709      7.55    2.1282    7.6025   0.18572   3.89985   0.40614   0.04271  12.38115   2.35172    1385.4  0.499961  0.002046  0.000086  0.000118  0.169508  6.864319  0.587392     62.07  1.000036  1.000003     2.429    12.846      41.9      69.8      15.9     132.5     10.90      1.59     -2.34      2.03      2.48     -0.20      2.13      0.25      1.96      0.92      0.48      0.67     -0.21     -2.13     -0.80     -7.02      2.91     -0.68      0.25     -2.69
       3.242023      69.308136     130.0      0.29      0.99      50.1         2         1      2443      1000   1690.64    -7.719       4.6      23.7   367.762     0.561      78.5   0.09798      11.2         H               192.0  0.047680  0.017516  0.000637  1.621150  0.749199  2.163843  1.061951      7.56    2.9094   12.8155   0.18486   4.42567   0.33860   0.02539  20.89306   3.09778    1795.3  0.493779  0.001466  0.000061  0.000119  0.167585  6.873657  0.579219     63.50  1.000045  1.000002     2.340    11.814      41.0      76.7      26.2     167.7     10.65      1.55     -2.20      2.29      1.66     -0.54      2.31      0.73      1.59      0.94      0.70      0.22     -0.16     -2.06     -0.69     -6.02      0.98     -0.88      0.93     -3.03
       3.253369      69.254593     132.6      0.29      0.99      51.5         2         2      2443      2647   1506.84    -8.219       4.5      24.2   369.336     0.564      90.0   0.09952      11.7         H               192.0  0.048064  0.018061  0.000713  1.679785  0.759454  2.211834  1.064868      8.58    2.5389   10.1820   0.18586   4.19343   0.36747   0.03197  16.57931   2.74451    1604.5  0.496135  0.001636  0.000075  0.000120  0.166895  6.867746  0.582790     61.71  1.000058  1.000005     2.389    12.587      41.4      73.8      21.0     160.5     10.60      1.43     -2.29      2.42      2.39     -0.59      2.29      0.52      2.29      0.44      0.79      0.46     -0.21     -1.69     -1.15     -6.42      3.06     -1.81      1.58     -2.05
       3.264506      69.202011     223.6      0.30      0.99     176.6         2         3      2443      4294   1386.20    -8.582       4.7      24.6   372.804     0.571     131.0   0.10111      44.3         H               192.0  0.048275  0.017679  0.000780  1.597230  0.769177  2.076545  1.070916      7.64    2.2941    8.6670   0.18693   4.02303   0.39028   0.03804  14.09369   2.51372    1484.5  0.501708  0.002475  0.000131  0.000117  0.169296  6.852071  0.589493     67.30  1.000067  1.000004     2.415    12.671      43.7      71.4      17.9     140.6     10.90      1.59     -2.43      1.82      1.86     -0.47      2.17     -0.08      2.24      0.13      0.20      1.24     -0.13     -1.36     -0.65     -7.78      2.20     -1.31     -0.59     -1.47
       3.189081      69.297157     223.6      0.30      0.99       3.4         3         1      3886      1000   1708.13    -7.675       4.6      23.7   369.734     0.565     142.5   0.09961      44.3         H               192.0  0.047703  0.017469  0.000823  1.585581  0.750062  2.113932  1.066521      6.00    2.9415   13.1646   0.18710   4.44379   0.33694   0.02498  21.40305   3.12676    1821.7  0.496180  0.002723  0.000116  0.000118  0.168039  6.851073  0.583326     68.77  1.000073  1.000005     2.398    12.494      42.8      76.9      26.8     173.3     10.91      1.24     -2.49      1.51      1.85     -0.74      2.32     -0.46      2.15      0.35      0.81      0.38     -0.14     -1.63     -0.41     -8.60      3.27     -1.89      1.33     -2.04
       3.200429      69.243607     121.2      0.29      0.99      51.2         3         2      3886      2647   1507.54    -8.217       4.5      24.2   370.561     0.565      91.8   0.09955       9.6         H               192.0  0.048306  0.017389  0.000728  1.588009  0.770050  2.062215  1.066835      6.23    2.5391   10.2051   0.18549   4.19355   0.36792   0.03201  16.62432   2.74512    1608.2  0.497506  0.001608  0.000092  0.000117  0.166781  6.840643  0.583755     68.09  1.000051  1.000003     2.398    12.481      40.2      73.8      21.1     151.5     10.77      2.24     -2.06      2.16      2.03     -0.95      2.16      0.05      1.99      0.25      0.62      0.71      0.06     -2.05     -0.41     -6.97      1.77     -2.26      0.63     -3.26
       3.211569      69.191032     140.3      0.30      0.99      48.8         3         3      3886      4294   1383.41    -8.591       4.7      24.6   370.491     0.567     112.1   0.10021      13.2         H               192.0  0.048448  0.017741  0.000846  1.610297  0.765664  2.103137  1.067858      6.88    2.2805    8.5134   0.18643   4.01371   0.39107   0.03827  13.85268   2.49698    1477.2  0.497591  0.002249  0.000086  0.000119  0.167869  6.843952  0.585205     64.51  1.000055  1.000004     2.401    12.582      42.3      71.3      17.7     143.5     10.85      2.22     -2.11      1.85      2.17     -0.69      2.58      0.21      2.09      0.44      0.53      0.66     -0.06     -2.01     -0.74     -8.53      1.90     -2.16      0.65     -2.59
