corner points
59.26869965    -37.23013306
59.21064377    -37.40755844
59.03874588    -37.18012619
58.98003387    -37.3574295
========== RESULTS WAVE VERSION 16.10.2018 ====================
IMAGE SIZE  X: 5599     Y:4912    col:row     POLARIZATION:VV
COVERAGE    X: 21.07048699km       Y: 20.34147248km 
RESOLUTION dX: 3.763258973m       dY:4.141179252m  
resolution of original product 3.763258973m x 4.141179252m;   raster step x:5998.634803m  
===============================================================
FLAGS: H=HIGH PROBABILITY SEA STATE, I=LAND(ISLAND), O=OUTLIER NO SEA STATE, N=NO WIND AVAILABLE, SEA STATE NOT VISIBLE, M=MEAN PROBABILITY SEA STATE, L= LOW PROBABILITY SEA STATE
Filtering wave length
 integration  Lmin=1m
 integration  Lmax=2200m
  peak        Lmin=100m
               FFT=1024pixels, 3853.577188m 
   mean-Hs (SWH_c)=1.188316345m
         mean-wind=4.116048813m/s
--------------0--------------1---------2---------3---------4---------5---------6---------7---------8---------9--------10--------11--------12--------13--------14--------15--------16--------17--------18--------19------------------20--------21--------22--------23--------24--------25--------26--------27--------28--------29--------30--------31--------32--------33--------34--------35--------36--------37--------38--------39--------40--------41--------42--------43--------44--------45--------46--------47--------48--------49--------50--------51--------52--------53--------54--------55--------56--------57--------58--------59--------60--------61--------62--------63--------64--------65--------66--------67--------68--------69--------70--------71--------72--------73
            LAT            LON  P-LENGHT     SWH_o     SWH_c     P-DIR      LINE     POINT     ROW-Y     COL-X  M-INTENC        dB      WIND INC-ANGLE  ENERGY-M  ENERGY-N  ENERGY-R ENERGY-NN  FG-DEPTH      FLAG         HEADING-DEG    E30-75   E75-390  E390-600 meanincut   meanout   cut/out  STD-NORM  SPEC-MAX   GL-MEAN    GL-VAR      CORR   ENTROPY   HOMOGEN    ENERGY  CONTRAST  DISSIMIL     STD-O    E 1-30 E600-2000   E2000 >      GODA  LONG-HIG     Tmean  CONVOLUT  MEAN-DIR  relation     Sy/Sx  SKEWNESS  KURTOSIS  cutoff-A >50/10000     INT*V   INT-LOG  S-1_g1f1  S-2_g1f2  S-3_g1f3  S-4_g2f1  S-5_g2f2  S-6_g2f3  S-7_g3f1  S-8_g3f2  S-9_g3f3 S-10_g1f4 S-11_g2f4 S-12_g3f4 S-13_g1f5 S-14_g2f5 S-15_g3f5 S-16_g4f1 S-17_g4f2 S-18_g4f3 S-19_g4f4 S-20_g4f5
--------------1--------------2---------3---------4---------5---------6---------7---------8---------9--------10--------11--------12--------13--------14--------15--------16--------17--------18--------19--------20------------------21--------22--------23--------24--------25--------26--------27--------28--------29--------30--------31--------32--------33--------34--------35--------36--------37--------38--------39--------40--------41--------42--------43--------44--------45--------46--------47--------48--------49--------50--------51--------52--------53--------54--------55--------56--------57--------58--------59--------60--------61--------62--------63--------64--------65--------66--------67--------68--------69--------70--------71--------72--------73--------74
     -37.257114      59.214638     220.0      1.06      2.16     141.1         1         1      1000      1000   1845.19    -7.340       4.1      22.9   293.548     0.692     285.6   0.15097      42.0         H               193.3  0.067392  0.060564  0.001552  4.226762  0.903825  4.676528  1.179521     69.33    3.2129   18.7533   0.25523   4.56059   0.34089   0.02625  27.93396   3.38483    2176.3  0.558448  0.004494  0.000270  0.000183  0.220672  7.413219  0.727083    131.82  1.000115  1.000007     2.959    18.611      71.1      76.0      34.6     256.4     13.54     -8.89     -0.59      0.90     -0.35      0.53     -3.38      4.32      1.94     -1.08     -1.26     -0.11     -5.76     -1.43      2.90     -6.00      2.22     -1.03     -0.38     -0.31
     -37.242725      59.148357     249.0      1.06      2.16     139.8         1         2      1000      2594   1509.81    -8.211       3.8      23.3   292.174     0.691     189.9   0.15229      70.0         H               193.3  0.068202  0.062266  0.001333  4.084462  0.877144  4.656547  1.179006     69.09    2.5532   12.5313   0.25646   4.16739   0.38941   0.03845  18.63523   2.74739    1780.0  0.556426  0.003082  0.000132  0.000195  0.224296  7.427537  0.726053    130.40  1.000086  1.000005     2.950    18.397      75.2      71.1      23.4     200.0     13.65     -9.60     -1.05      0.94     -0.22      0.94     -3.91      5.19      2.26     -1.04     -1.26     -0.07     -6.36     -1.25      3.35     -5.42      2.24     -0.55     -0.51     -0.10
     -37.228573      59.083344     235.0      1.05      2.16     127.6         1         3      1000      4188   1464.50    -8.343       4.1      23.8   291.748     0.684     201.4   0.14777      53.2         H               193.3  0.065804  0.059763  0.001333  4.038262  0.900836  4.482795  1.172735     60.24    2.4659   11.6931   0.25050   4.11185   0.39536   0.04012  17.52789   2.66711    1717.4  0.554215  0.003101  0.000114  0.000180  0.222243  7.407526  0.717368    129.41  1.000083  1.000005     2.934    18.374      72.4      70.5      22.0     201.5     13.66     -8.78     -1.40      0.72     -0.19      1.19     -3.60      4.19      2.15     -1.17     -1.41      0.22     -5.55     -1.21      2.41     -5.90      2.70      0.37     -1.01      0.57
     -37.309422      59.197498     246.7      1.19      2.16     129.8         2         1      2448      1000   1965.25    -7.066       4.4      22.9   296.053     0.705     216.0   0.15764      66.6         H               193.3  0.071215  0.064067  0.001205  4.452414  0.924570  4.815660  1.191018     89.07    3.4571   21.7308   0.26165   4.68452   0.32777   0.02351  32.08965   3.61370    2340.5  0.566088  0.003115  0.000139  0.000196  0.222678  7.392258  0.741970    125.05  1.000092  1.000005     3.035    19.390      75.2      77.3      39.9     277.3     13.82     -9.42      0.58      1.17     -0.77      1.20     -3.98      4.57      1.08     -3.20     -1.66      1.28     -6.05     -1.08      3.00     -4.58      1.36      0.21     -1.16      0.09
     -37.295021      59.131157     243.0      1.10      2.16     125.0         2         2      2448      2594   1518.95    -8.185       3.8      23.3   293.965     0.695     165.7   0.15270      61.6         H               193.3  0.068131  0.063052  0.001364  4.287333  0.903785  4.743756  1.181482     95.30    2.5710   12.7585   0.25577   4.17845   0.38835   0.03812  18.99054   2.76850    1794.5  0.560038  0.002811  0.000066  0.000193  0.225066  7.442113  0.730529    126.12  1.000096  1.000007     2.960    18.308      73.8      71.2      23.7     202.2     13.92     -9.49     -0.34      0.51     -0.38      0.87     -4.03      5.07      1.68     -2.18     -1.36      0.69     -5.68     -0.89      2.77     -5.67      1.41     -0.71     -0.75      0.10
     -37.280857      59.066090     225.4      1.26      2.16     148.2         2         3      2448      4188   1540.55    -8.123       4.3      23.8   292.434     0.688     195.9   0.14948      45.6         H               193.3  0.066104  0.063534  0.001177  4.068269  0.892307  4.559272  1.176886     77.37    2.6186   13.0360   0.25372   4.21186   0.38305   0.03657  19.45712   2.81320    1813.1  0.554589  0.002620  0.000134  0.000202  0.228069  7.466088  0.722426    131.22  1.000063  1.000004     2.969    18.899      76.6      71.7      24.4     214.9     13.95    -10.45     -0.82      0.58      0.19      1.44     -4.33      5.29      1.49     -1.37     -1.47     -0.26     -6.68     -0.60      2.95     -5.19      2.94      1.16     -0.37      1.54
     -37.361725      59.180332     217.2      1.38      2.16     127.9         3         1      3896      1000   2092.20    -6.794       4.7      22.9   297.579     0.714     244.6   0.16271      40.3         H               193.3  0.071077  0.066800  0.001550  4.319041  0.906955  4.762132  1.198890    116.29    3.7083   24.8971   0.26683   4.80436   0.31548   0.02114  36.50723   3.85095    2508.1  0.571001  0.003880  0.000178  0.000225  0.225664  7.445438  0.751764    123.85  1.000114  1.000009     3.033    18.920      76.6      78.6      45.5     285.5     14.03    -10.43      1.41      1.15     -1.09      1.19     -3.98      5.20      0.53     -4.21     -1.92      1.87     -6.13     -1.55      3.13     -5.59      1.90     -0.40     -0.62     -0.08
     -37.347317      59.113937     250.9      1.48      2.16     122.2         3         2      3896      2594   1493.76    -8.257       3.7      23.3   307.102     0.742     533.9   0.17222      73.4         H               193.3  0.072270  0.073172  0.002953  4.734454  0.938594  5.044197  1.223960     87.92    2.5252   13.2166   0.27512   4.13273   0.39960   0.04181  19.16065   2.72225    1828.1  0.584488  0.009691  0.000489  0.000208  0.228028  7.503922  0.784350    127.48  1.000226  1.000016     3.247    23.304      79.7      69.9      24.0     235.1     14.15     -9.96      0.94     -0.28     -0.17      0.15     -2.82      4.66      1.90     -2.39     -1.88      0.62     -5.55     -1.99      3.77     -9.18      2.70     -3.44     -1.08     -2.73
     -37.333145      59.048813     230.9      1.12      2.16     123.0         3         3      3896      4188   1486.03    -8.280       4.1      23.8   294.759     0.694     342.7   0.15154      49.7         H               193.3  0.066612  0.061410  0.001659  4.351565  0.889510  4.892094  1.182529     71.04    2.5058   12.2106   0.25497   4.13469   0.39444   0.03998  18.19436   2.70603    1757.1  0.558741  0.006221  0.000227  0.000182  0.224448  7.424601  0.729505    128.63  1.000121  1.000008     2.972    18.787      73.8      70.5      22.8     201.8     13.95     -9.46     -0.56     -0.28      0.90      1.04     -3.15      3.90      1.75     -1.74     -1.36     -0.29     -5.54     -0.72      2.44     -7.16      3.83     -0.02     -0.09      0.33
