corner points
66.79241943    -0.7583283782
66.75539398    -0.9335212708
66.61428833    -0.7198569179
66.57725525    -0.8950063586
========== RESULTS WAVE VERSION 16.10.2018 ====================
IMAGE SIZE  X: 4466     Y:4786    col:row     POLARIZATION:VV
COVERAGE    X: 20.21752992km       Y: 19.86397165km 
RESOLUTION dX: 4.526988339m       dY:4.150432856m  
resolution of original product 4.526988339m x 4.150432856m;   raster step x:5998.259549m  
===============================================================
FLAGS: H=HIGH PROBABILITY SEA STATE, I=LAND(ISLAND), O=OUTLIER NO SEA STATE, N=NO WIND AVAILABLE, SEA STATE NOT VISIBLE, M=MEAN PROBABILITY SEA STATE, L= LOW PROBABILITY SEA STATE
Filtering wave length
 integration  Lmin=1m
 integration  Lmax=2200m
  peak        Lmin=100m
               FFT=1024pixels, 4635.636059m 
   mean-Hs (SWH_c)=0.2m
         mean-wind=7.420576096m/s
--------------0--------------1---------2---------3---------4---------5---------6---------7---------8---------9--------10--------11--------12--------13--------14--------15--------16--------17--------18--------19------------------20--------21--------22--------23--------24--------25--------26--------27--------28--------29--------30--------31--------32--------33--------34--------35--------36--------37--------38--------39--------40--------41--------42--------43--------44--------45--------46--------47--------48--------49--------50--------51--------52--------53--------54--------55--------56--------57--------58--------59--------60--------61--------62--------63--------64--------65--------66--------67--------68--------69--------70--------71--------72--------73
            LAT            LON  P-LENGHT     SWH_o     SWH_c     P-DIR      LINE     POINT     ROW-Y     COL-X  M-INTENC        dB      WIND INC-ANGLE  ENERGY-M  ENERGY-N  ENERGY-R ENERGY-NN  FG-DEPTH      FLAG         HEADING-DEG    E30-75   E75-390  E390-600 meanincut   meanout   cut/out  STD-NORM  SPEC-MAX   GL-MEAN    GL-VAR      CORR   ENTROPY   HOMOGEN    ENERGY  CONTRAST  DISSIMIL     STD-O    E 1-30 E600-2000   E2000 >      GODA  LONG-HIG     Tmean  CONVOLUT  MEAN-DIR  relation     Sy/Sx  SKEWNESS  KURTOSIS  cutoff-A >50/10000     INT*V   INT-LOG  S-1_g1f1  S-2_g1f2  S-3_g1f3  S-4_g2f1  S-5_g2f2  S-6_g2f3  S-7_g3f1  S-8_g3f2  S-9_g3f3 S-10_g1f4 S-11_g2f4 S-12_g3f4 S-13_g1f5 S-14_g2f5 S-15_g3f5 S-16_g4f1 S-17_g4f2 S-18_g4f3 S-19_g4f4 S-20_g4f5
--------------1--------------2---------3---------4---------5---------6---------7---------8---------9--------10--------11--------12--------13--------14--------15--------16--------17--------18--------19--------20------------------21--------22--------23--------24--------25--------26--------27--------28--------29--------30--------31--------32--------33--------34--------35--------36--------37--------38--------39--------40--------41--------42--------43--------44--------45--------46--------47--------48--------49--------50--------51--------52--------53--------54--------55--------56--------57--------58--------59--------60--------61--------62--------63--------64--------65--------66--------67--------68--------69--------70--------71--------72--------73--------74
      -0.786227      66.744339     282.8      0.45      1.21     176.5         1         1      1000      1000    240.55   -16.188       7.5      36.8   216.466     0.538      45.7   0.06218     100.0         H               192.0  0.041468  0.013639  0.000402  1.264127  0.650139  1.944394  1.040119      6.01    4.3280   24.9588   0.08756   5.13799   0.24917   0.01174  45.54699   4.65849     250.2  0.481540  0.000764  0.000065  0.000108  0.162283  6.822226  0.540361     66.64  1.000030  1.000002     2.216    10.743      68.7      84.3      50.5     223.8     10.81      0.03     -3.65      1.53      2.00      0.66      1.79      0.36      1.09      0.48      0.15      0.38     -0.67     -1.01     -0.21     -6.12      3.47      2.36      0.34     -0.40
      -0.774767      66.691284     282.8      0.44      1.21     176.5         1         2      1000      2325    219.75   -16.581       7.2      37.2   217.345     0.537      50.1   0.06078     100.0         H               192.0  0.040677  0.013453  0.000396  1.268204  0.633193  2.002872  1.040291      7.31    3.9167   20.7893   0.08379   4.95982   0.26632   0.01396  38.09466   4.25690     228.6  0.482250  0.000758  0.000098  0.000105  0.161142  6.822671  0.539826     64.29  1.000028  1.000001     2.223    10.983      69.9      82.6      42.4     225.7     10.68      0.06     -3.45      1.71      1.79      0.87      2.01      0.46      0.95      0.62     -0.10      0.31      0.39     -1.36     -0.57     -5.79      3.02      2.74     -0.55     -1.66
      -0.763404      66.638687     249.6      0.46      1.21     176.9         1         3      1000      3650    222.09   -16.535       7.5      37.6   216.544     0.536      62.0   0.06065      71.1         H               192.0  0.040930  0.012968  0.000396  1.185211  0.640755  1.849709  1.039472     10.00    3.9631   21.2320   0.08475   4.98077   0.26438   0.01366  38.86489   4.30280     230.8  0.481231  0.000983  0.000115  0.000102  0.163224  6.814468  0.538981     65.27  1.000014  1.000001     2.213    10.708      71.1      83.0      43.2     208.4     10.89     -0.33     -4.20      1.23      1.56      1.43      1.73      0.53      1.10      0.70     -0.11      0.29      0.82     -1.46     -0.53     -6.14      2.57      3.81     -0.49     -1.91
      -0.839130      66.733162     302.9      0.46      1.21       3.7         2         1      2445      1000    246.45   -16.083       7.6      36.8   216.074     0.537      46.7   0.06220     100.0         H               192.0  0.041631  0.013037  0.000335  1.223674  0.652813  1.874465  1.039353      7.09    4.4446   26.1424   0.08781   5.18587   0.24441   0.01119  47.69341   4.77234     256.1  0.481112  0.000719  0.000075  0.000102  0.160757  6.798644  0.539383     65.13  1.000027  1.000001     2.213    10.741      67.5      84.7      53.0     233.3     10.57      0.67     -3.48      2.05      1.37      0.88      1.69      0.16      0.80      0.05      0.24      0.57     -0.08     -1.24     -0.18     -4.81      2.14      2.85      0.31     -1.12
      -0.827666      66.680099     265.2      0.45      1.21     176.7         2         2      2445      2325    224.62   -16.485       7.4      37.2   217.094     0.537      42.3   0.06073     100.0         H               192.0  0.041391  0.012608  0.000355  1.149769  0.661618  1.737813  1.039883      9.74    4.0134   21.7271   0.08367   5.00331   0.26195   0.01337  39.81832   4.35312     233.5  0.482405  0.000747  0.000056  0.000098  0.160934  6.785151  0.539714     66.38  1.000027  1.000002     2.224    10.862      68.7      83.1      44.2     212.5     10.77     -0.06     -4.08      1.54      1.35      0.70      1.48      0.44      1.43      1.08      0.08      0.19      0.67     -1.17     -0.77     -5.46      2.31      1.90     -0.25     -0.88
      -0.816299      66.627502     282.8      0.45      1.21     176.5         2         3      2445      3650    220.34   -16.569       7.5      37.6   216.158     0.534      41.1   0.06012     100.0         H               192.0  0.040906  0.012816  0.000323  1.168151  0.650644  1.795377  1.036925      8.85    3.9277   20.7913   0.08300   4.96511   0.26567   0.01384  38.13140   4.26479     228.5  0.479329  0.000659  0.000057  0.000101  0.161814  6.795977  0.536238     61.17  1.000036  1.000003     2.197    10.560      68.7      82.9      42.4     206.2     10.82      0.33     -4.16      1.58      1.08      0.74      1.28      0.31      1.38      0.32      0.39      0.23      0.84     -1.13     -0.71     -5.34      1.32      2.02      0.67     -1.09
      -0.892032      66.721977     302.9      0.44      1.21     176.3         3         1      3890      1000    233.61   -16.315       7.3      36.8   216.561     0.537      78.8   0.06145     100.0         H               192.0  0.041358  0.013422  0.000417  1.213846  0.660915  1.836614  1.040387     11.00    4.1901   23.5401   0.08667   5.08000   0.25530   0.01246  42.99966   4.52377     243.0  0.481167  0.001052  0.000202  0.000100  0.164523  6.805881  0.540320     67.71  1.000004  1.000001     2.203    10.568      68.7      83.8      47.6     217.0     11.08     -0.10     -4.02      1.02      1.51      1.04      1.60      0.54      1.19      0.67     -0.33      0.28      0.32     -1.83     -0.27     -6.70      2.29      2.68     -0.82     -1.99
      -0.880564      66.668922     282.8      0.45      1.21       3.5         3         2      3890      2325    226.25   -16.454       7.4      37.2   216.083     0.535      34.4   0.06064     100.0         H               192.0  0.041120  0.013153  0.000384  1.196517  0.646699  1.850193  1.037606     11.09    4.0453   21.9454   0.08439   5.01762   0.26058   0.01315  40.18658   4.37844     234.8  0.480120  0.000495  0.000040  0.000100  0.163915  6.808507  0.537620     67.45  1.000022  1.000001     2.205    10.661      67.5      83.3      44.7     217.6     11.06      0.09     -4.07      1.21      1.45      1.02      1.34      0.55      1.35      0.52      0.14      0.05      0.40     -1.40     -0.42     -6.16      2.00      2.40      0.30     -1.06
      -0.869194      66.616318     282.8      0.45      1.21     176.5         3         3      3890      3650    215.28   -16.670       7.4      37.6   216.627     0.536      64.2   0.05995     100.0         H               192.0  0.040567  0.012934  0.000376  1.174617  0.642428  1.828404  1.038767      7.75    3.8265   19.9030   0.08258   4.91865   0.27077   0.01451  36.51847   4.16710     223.6  0.480892  0.000973  0.000132  0.000102  0.162746  6.812664  0.538185     66.37  1.000038  1.000003     2.219    10.813      69.9      82.4      40.6     203.3     10.70     -0.08     -3.79      1.73      1.46      0.47      1.59      0.60      1.42      0.70     -0.20     -0.11      0.51     -1.21     -0.42     -5.49      2.16      1.73     -0.06     -1.62
