corner points
-13.64553642    -48.40287399
-13.73387527    -48.57086563
-13.9112711    -48.33977509
-14.00044346    -48.50756454
========== RESULTS WAVE VERSION 16.10.2018 ====================
IMAGE SIZE  X: 4486     Y:4773    col:row     POLARIZATION:VV
COVERAGE    X: 20.80079801km       Y: 19.73852678km 
RESOLUTION dX: 4.636825236m       dY:4.135455014m  
resolution of original product 4.636825236m x 4.135455014m;   raster step x:5995.41503m  
===============================================================
FLAGS: H=HIGH PROBABILITY SEA STATE, I=LAND(ISLAND), O=OUTLIER NO SEA STATE, N=NO WIND AVAILABLE, SEA STATE NOT VISIBLE, M=MEAN PROBABILITY SEA STATE, L= LOW PROBABILITY SEA STATE
Filtering wave length
 integration  Lmin=1m
 integration  Lmax=2200m
  peak        Lmin=100m
               FFT=1024pixels, 4748.109042m 
   mean-Hs (SWH_c)=1.891836243m
         mean-wind=16.62613297m/s
--------------0--------------1---------2---------3---------4---------5---------6---------7---------8---------9--------10--------11--------12--------13--------14--------15--------16--------17--------18--------19------------------20--------21--------22--------23--------24--------25--------26--------27--------28--------29--------30--------31--------32--------33--------34--------35--------36--------37--------38--------39--------40--------41--------42--------43--------44--------45--------46--------47--------48--------49--------50--------51--------52--------53--------54--------55--------56--------57--------58--------59--------60--------61--------62--------63--------64--------65--------66--------67--------68--------69--------70--------71--------72--------73
            LAT            LON  P-LENGHT     SWH_o     SWH_c     P-DIR      LINE     POINT     ROW-Y     COL-X  M-INTENC        dB      WIND INC-ANGLE  ENERGY-M  ENERGY-N  ENERGY-R ENERGY-NN  FG-DEPTH      FLAG         HEADING-DEG    E30-75   E75-390  E390-600 meanincut   meanout   cut/out  STD-NORM  SPEC-MAX   GL-MEAN    GL-VAR      CORR   ENTROPY   HOMOGEN    ENERGY  CONTRAST  DISSIMIL     STD-O    E 1-30 E600-2000   E2000 >      GODA  LONG-HIG     Tmean  CONVOLUT  MEAN-DIR  relation     Sy/Sx  SKEWNESS  KURTOSIS  cutoff-A >50/10000     INT*V   INT-LOG  S-1_g1f1  S-2_g1f2  S-3_g1f3  S-4_g2f1  S-5_g2f2  S-6_g2f3  S-7_g3f1  S-8_g3f2  S-9_g3f3 S-10_g1f4 S-11_g2f4 S-12_g3f4 S-13_g1f5 S-14_g2f5 S-15_g3f5 S-16_g4f1 S-17_g4f2 S-18_g4f3 S-19_g4f4 S-20_g4f5
--------------1--------------2---------3---------4---------5---------6---------7---------8---------9--------10--------11--------12--------13--------14--------15--------16--------17--------18--------19--------20------------------21--------22--------23--------24--------25--------26--------27--------28--------29--------30--------31--------32--------33--------34--------35--------36--------37--------38--------39--------40--------41--------42--------43--------44--------45--------46--------47--------48--------49--------50--------51--------52--------53--------54--------55--------56--------57--------58--------59--------60--------61--------62--------63--------64--------65--------66--------67--------68--------69--------70--------71--------72--------73--------74
     -48.423885     -13.724072     100.0      1.54      2.64      98.1         1         1      1000      1000    866.88   -10.620      16.2      35.8   291.624     0.604      35.7   0.09663       6.3         H               195.1  0.062953  0.025555  0.000468  2.798919  0.752693  3.718542  1.102304     10.17   16.0835  256.6187   0.13905   7.43075   0.09291   0.00105 441.86801  15.36996     955.5  0.515119  0.000389  0.000031  0.000261  0.147376  6.804442  0.610609     85.12  1.000252  1.000025     2.617    14.914     128.8      98.3     782.4    1041.2     11.32      1.13      0.22      2.30     -1.24      2.08      1.80      0.03      0.49     -0.16      0.39     -0.68     -1.60      1.33      1.58     -5.16     -2.61      3.34      1.39      2.71
     -48.405632     -13.801070     100.6      1.03      2.64      84.5         1         2      1000      2293    840.83   -10.753      16.3      36.2   288.913     0.600      32.0   0.09620       6.4         H               195.1  0.062718  0.024926  0.000549  2.714290  0.745811  3.639379  1.098256      9.66   15.6582  246.7881   0.14017   7.39574   0.09457   0.00110 424.39331  15.00424     923.4  0.511512  0.000381  0.000012  0.000252  0.148064  6.788839  0.606234     84.37  1.000245  1.000024     2.587    14.530     133.1      98.1     731.0     976.1     11.53      0.89      0.95      1.93     -0.98      1.99      2.02     -0.70      0.44      0.28     -0.60     -0.84     -1.40      1.46      1.84     -6.20     -1.06      2.74     -0.59      2.32
     -48.387489     -13.877322     100.6      1.48      2.64      84.5         1         3      1000      3586    844.85   -10.732      16.6      36.6   291.522     0.604      35.3   0.09703       6.4         H               195.1  0.063436  0.025888  0.000530  2.784177  0.754906  3.688112  1.102351      8.93   15.7160  248.4882   0.14104   7.39934   0.09473   0.00110 426.88403  15.04798     931.3  0.514089  0.000378  0.000026  0.000272  0.147970  6.815815  0.610742     85.49  1.000266  1.000027     2.609    14.650     133.1      98.2     742.0     982.9     11.43      1.53      0.43      1.93     -1.29      1.96      2.16     -0.79      0.69     -0.08      0.29     -0.98     -0.87      1.12      1.64     -5.97     -1.98      2.97      1.09      1.61
     -48.474922     -13.750949     107.5      2.34      2.64     103.2         2         1      2450      1000    906.61   -10.426      16.6      35.8   291.019     0.606      46.6   0.09852       7.4         H               195.1  0.064260  0.026283  0.000566  2.728161  0.761464  3.582784  1.104177      9.62   16.7320  270.7031   0.14231   7.48144   0.08997   0.00098 464.35516  15.82999    1001.0  0.514924  0.000539  0.000058  0.000268  0.146438  6.797357  0.613697     84.59  1.000246  1.000025     2.635    14.907     133.1      98.6     860.0    1035.2     11.53      1.12      0.43      1.65     -0.85      2.09      2.15     -0.21      0.60     -0.35     -0.18     -0.25     -1.00      1.14      1.67     -6.65     -2.05      3.21     -0.36      1.45
     -48.456646     -13.828019     100.0      1.71      2.64      81.9         2         2      2450      2293    849.42   -10.709      16.4      36.2   290.510     0.603      37.1   0.09736       6.3         H               195.1  0.062454  0.026572  0.000546  2.852002  0.759059  3.757287  1.101593     13.41   15.7917  249.9225   0.14178   7.40779   0.09418   0.00108 428.97589  15.09962     935.8  0.513664  0.000466  0.000024  0.000261  0.149254  6.827718  0.610338     84.43  1.000247  1.000025     2.615    14.863     133.1      98.1     750.1    1023.1     11.43      0.81      0.85      2.08     -0.96      2.10      2.29      0.24      0.67      0.05     -0.05     -0.51     -0.98      1.18      1.65     -6.03     -2.04      2.68      0.22      1.85
     -48.438492     -13.904345     100.0      2.21      2.64      98.1         2         3      2450      3586    830.72   -10.805      16.5      36.6   291.257     0.604      42.7   0.09703       6.3         H               195.1  0.063311  0.025524  0.000589  2.726957  0.748523  3.643116  1.102208     10.52   15.4807  243.2643   0.14141   7.37955   0.09580   0.00113 417.72992  14.85712     915.6  0.514174  0.000527  0.000050  0.000262  0.147141  6.790543  0.610437     84.57  1.000252  1.000025     2.635    15.407     133.1      98.0     716.5    1015.9     11.52      0.68      0.67      1.61     -0.94      1.97      2.22     -0.47      0.35      0.25     -0.41     -0.90     -0.48      1.15      1.25     -6.87     -1.59      3.48     -0.42      1.88
     -48.525951     -13.777876     103.9      2.49      2.64      99.9         3         1      3900      1000   1008.75    -9.962      17.6      35.8   289.627     0.603      51.0   0.09861       6.9         H               195.1  0.063956  0.025211  0.000543  2.705473  0.774590  3.492782  1.100991      9.61   18.3772  306.0779   0.14004   7.58791   0.08436   0.00085 526.42596  17.07853    1110.6  0.512628  0.000635  0.000072  0.000273  0.147471  6.795112  0.609682     85.51  1.000242  1.000026     2.595    14.428     128.8      99.2    1068.5    1150.9     11.52      0.76      0.70      1.79     -0.89      1.85      2.13     -0.28      0.44      0.25     -0.55     -0.47     -1.30      1.36      1.31     -6.37     -1.57      2.81     -0.76      2.57
     -48.507660     -13.855021     112.5      2.35      2.64     103.8         3         2      3900      2293    890.86   -10.502      16.8      36.2   291.417     0.608      50.9   0.09975       8.1         H               195.1  0.064744  0.026508  0.000497  2.854913  0.754430  3.784200  1.106046     12.91   16.4723  265.6722   0.14424   7.45952   0.09147   0.00101 454.70483  15.62455     985.4  0.516132  0.000578  0.000081  0.000270  0.148828  6.819410  0.615498     84.90  1.000241  1.000025     2.669    15.837     133.1      98.4     830.9    1101.5     11.46      1.42      0.98      2.20     -0.60      2.03      1.62     -0.91      0.52      0.73     -0.40     -0.96     -0.95      1.01      1.86     -4.96     -1.06      2.78     -0.47      1.42
     -48.489483     -13.931418     100.0      1.87      2.64      81.9         3         3      3900      3586    838.82   -10.763      16.5      36.6   291.201     0.606      38.4   0.09767       6.3         H               195.1  0.063885  0.026241  0.000525  2.785715  0.762115  3.655241  1.103885     12.80   15.6158  246.6015   0.14280   7.39171   0.09529   0.00111 422.77344  14.96290     925.9  0.514881  0.000471  0.000027  0.000265  0.149998  6.792652  0.612891     84.27  1.000235  1.000024     2.659    15.884     133.1      98.1     732.5    1050.8     11.59      1.75      0.86      1.70     -1.23      1.99      1.86     -0.76      0.59      0.27     -0.54     -0.40     -1.18      1.39      1.76     -5.90     -2.00      2.89     -0.82      2.33
