corner points
-17.7970314    -55.13528824
-17.91488838    -55.29958725
-18.10041618    -55.06275558
-18.21938133    -55.22676849
========== RESULTS WAVE VERSION 16.10.2018 ====================
IMAGE SIZE  X: 4486     Y:4769    col:row     POLARIZATION:VV
COVERAGE    X: 20.87413603km       Y: 19.69681564km 
RESOLUTION dX: 4.653173435m       dY:4.13017732m  
resolution of original product 4.653173435m x 4.13017732m;   raster step x:5997.940557m  
===============================================================
FLAGS: H=HIGH PROBABILITY SEA STATE, I=LAND(ISLAND), O=OUTLIER NO SEA STATE, N=NO WIND AVAILABLE, SEA STATE NOT VISIBLE, M=MEAN PROBABILITY SEA STATE, L= LOW PROBABILITY SEA STATE
Filtering wave length
 integration  Lmin=1m
 integration  Lmax=2200m
  peak        Lmin=100m
               FFT=1024pixels, 4764.849597m 
   mean-Hs (SWH_c)=0.5825252151m
         mean-wind=9.057819366m/s
--------------0--------------1---------2---------3---------4---------5---------6---------7---------8---------9--------10--------11--------12--------13--------14--------15--------16--------17--------18--------19------------------20--------21--------22--------23--------24--------25--------26--------27--------28--------29--------30--------31--------32--------33--------34--------35--------36--------37--------38--------39--------40--------41--------42--------43--------44--------45--------46--------47--------48--------49--------50--------51--------52--------53--------54--------55--------56--------57--------58--------59--------60--------61--------62--------63--------64--------65--------66--------67--------68--------69--------70--------71--------72--------73
            LAT            LON  P-LENGHT     SWH_o     SWH_c     P-DIR      LINE     POINT     ROW-Y     COL-X  M-INTENC        dB      WIND INC-ANGLE  ENERGY-M  ENERGY-N  ENERGY-R ENERGY-NN  FG-DEPTH      FLAG         HEADING-DEG    E30-75   E75-390  E390-600 meanincut   meanout   cut/out  STD-NORM  SPEC-MAX   GL-MEAN    GL-VAR      CORR   ENTROPY   HOMOGEN    ENERGY  CONTRAST  DISSIMIL     STD-O    E 1-30 E600-2000   E2000 >      GODA  LONG-HIG     Tmean  CONVOLUT  MEAN-DIR  relation     Sy/Sx  SKEWNESS  KURTOSIS  cutoff-A >50/10000     INT*V   INT-LOG  S-1_g1f1  S-2_g1f2  S-3_g1f3  S-4_g2f1  S-5_g2f2  S-6_g2f3  S-7_g3f1  S-8_g3f2  S-9_g3f3 S-10_g1f4 S-11_g2f4 S-12_g3f4 S-13_g1f5 S-14_g2f5 S-15_g3f5 S-16_g4f1 S-17_g4f2 S-18_g4f3 S-19_g4f4 S-20_g4f5
--------------1--------------2---------3---------4---------5---------6---------7---------8---------9--------10--------11--------12--------13--------14--------15--------16--------17--------18--------19--------20------------------21--------22--------23--------24--------25--------26--------27--------28--------29--------30--------31--------32--------33--------34--------35--------36--------37--------38--------39--------40--------41--------42--------43--------44--------45--------46--------47--------48--------49--------50--------51--------52--------53--------54--------55--------56--------57--------58--------59--------60--------61--------62--------63--------64--------65--------66--------67--------68--------69--------70--------71--------72--------73--------74
     -55.153439     -17.890301     386.6      2.25     -1.46     156.1         1         1      1000      1000    364.72   -14.380       9.3      35.6   695.206     1.893     239.3   0.74211     100.0         H               197.0  0.436775  0.130940  0.003374 12.393230  6.328138  1.958432  1.948389     19.48    6.7676   59.5940   0.11662   5.94946   0.18274   0.00537 105.28931   7.03802     710.6  1.320912  0.003487  0.000196  0.000088  0.150688  6.705138  2.030052     94.46  1.000093  1.000020   255.015  9999.000      40.6      90.6     125.2     768.8      9.67     -0.23     -1.56      3.57     -0.08     -0.75      2.55     -0.21     -0.24      0.05     -0.10     -0.05      0.32      0.40      0.39     -2.92      0.28      0.24     -0.05      0.47
     -55.132515     -17.977964     382.2      0.55     -1.46     105.7         1         2      1000      2289    352.91   -14.523       9.4      36.0   299.521     0.582      74.6   0.08094     100.0         H               197.0  0.055576  0.019021  0.000672  2.054094  0.739694  2.776950  1.082722      5.00    6.5641   56.8751   0.11981   5.89201   0.18749   0.00574 100.12093   6.84236     382.1  0.505992  0.001006  0.000142  0.000189  0.148755  6.755332  0.585655     93.59  1.000264  1.000021     2.649    17.395     110.8      90.0     116.5     499.0     11.55      0.24      0.67      1.24      0.09      0.60      2.48     -0.61      0.66     -0.44      0.44     -0.23      0.16      0.57      1.14     -8.58      0.93     -0.22      1.27      0.58
     -55.111721     -18.064743     101.3      0.54     -1.46      92.7         1         3      1000      3578    324.99   -14.881       9.1      36.4   297.757     0.576      58.2   0.07803       6.5         H               197.0  0.053860  0.018939  0.000606  2.024273  0.714784  2.832007  1.076958      4.99    6.0097   48.2895   0.11611   5.72998   0.20020   0.00674  85.36540   6.31542     350.0  0.501993  0.000886  0.000087  0.000169  0.150465  6.773559  0.579294     93.10  1.000256  1.000018     2.512    14.269     110.8      88.8      97.3     398.5     11.57     -0.18      0.66      1.51      0.03      0.96      2.02     -0.30      0.03     -0.60     -0.03      0.16     -0.25      0.76      0.86     -7.81      0.67      0.77      0.31      1.27
     -55.203457     -17.926228     100.3      0.54     -1.46      98.2         2         1      2452      1000    356.20   -14.483       9.1      35.6   300.411     0.585     117.8   0.08204       6.4         H               197.0  0.054140  0.019001  0.000768  2.036928  0.719817  2.829787  1.085493      6.14    6.6291   58.1561   0.12021   5.90950   0.18643   0.00564 102.33075   6.91128     386.7  0.509378  0.001468  0.000298  0.000162  0.149578  6.770922  0.587949     93.17  1.000240  1.000019     2.636    16.230     114.0      90.1     119.1     473.5     11.56     -0.43      0.48      0.76      0.95      0.59      3.23     -0.91      0.84     -0.11      0.70     -0.62     -0.38      0.43      0.77    -10.06      3.05      0.08      1.95      1.23
     -55.182507     -18.013988     395.3      0.94     -1.46      95.4         2         2      2452      2289    349.32   -14.568       9.3      36.0   417.178     0.868     297.9   0.18692     100.0         H               197.0  0.101709  0.037695  0.003326  3.861899  1.582768  2.439965  1.322055     24.35    6.4706   56.2297   0.12960   5.86290   0.18992   0.00593  97.88308   6.75444     461.7  0.719644  0.005946  0.000494  0.000129  0.163660  6.800271  0.885901     91.52  1.000232  1.000024    88.035  9999.000      81.3      89.7     119.3     849.8     13.09      0.52      3.04     -1.98      2.78     -2.20      3.73     -0.11      0.52     -2.35     -0.17      0.97      1.18     -1.69     -0.23    -19.40      3.65     -6.83      1.22     -3.96
     -55.161690     -18.100864     101.2      0.54     -1.46     102.4         2         3      2452      3578    325.33   -14.877       9.1      36.4   296.941     0.574      75.5   0.07728       6.5         H               197.0  0.053216  0.018491  0.000703  2.014006  0.700054  2.876930  1.074941      6.86    6.0175   48.2689   0.11597   5.73254   0.19998   0.00670  85.34282   6.31236     349.7  0.500495  0.001028  0.000150  0.000180  0.148301  6.768815  0.576918     94.83  1.000237  1.000018     2.488    13.511     114.0      89.0      97.4     358.6     11.73      0.13      0.72      0.87      0.06      0.44      2.40     -0.28      0.43     -0.39      0.42     -0.25     -0.25      0.49      1.04     -9.74      0.53     -0.48      1.44      0.61
     -55.253464     -17.962244     100.3      0.51     -1.46      98.2         3         1      3904      1000    332.01   -14.788       8.6      35.6   300.779     0.586      62.2   0.08230       6.4         H               197.0  0.055416  0.020269  0.000627  2.196762  0.721760  3.043620  1.086531      8.74    6.1497   50.8587   0.12059   5.77086   0.19718   0.00648  89.45209   6.44609     360.8  0.509459  0.000876  0.000105  0.000177  0.149001  6.782138  0.589950     93.39  1.000256  1.000021     2.662    16.580     114.0      89.2     102.9     443.0     11.33      0.14      0.81      1.73     -0.39      1.09      2.65      0.12      0.26     -0.33      0.29     -0.27     -0.23      0.71      1.16     -7.41     -0.66      1.46      1.54      1.25
     -55.232491     -18.050102     100.0      0.53     -1.46     105.1         3         2      3904      2289    336.83   -14.726       9.0      36.0   298.634     0.579      59.5   0.07946       6.4         H               197.0  0.054351  0.019136  0.000616  2.035759  0.727478  2.798380  1.079742      6.78    6.2462   51.8223   0.11794   5.80076   0.19452   0.00627  91.42114   6.53480     363.7  0.504295  0.000909  0.000093  0.000163  0.149557  6.775049  0.582384     92.23  1.000233  1.000018     2.589    15.890     110.8      89.4     105.3     447.1     11.41      0.20      0.35      1.48      0.07      0.57      2.33     -0.33      0.29     -0.24      0.19     -0.29     -0.57      1.35      0.72     -8.19      0.55      0.69      0.60      2.38
     -55.211647     -18.137074     104.9      0.51     -1.46     104.4         3         3      3904      3578    299.71   -15.233       8.6      36.4   294.954     0.569      53.4   0.07510       7.0         H               197.0  0.051391  0.019028  0.000587  2.019918  0.697592  2.895557  1.070388      6.37    5.5070   40.7800   0.11313   5.57057   0.21284   0.00786  72.33237   5.81531     320.8  0.497513  0.000856  0.000072  0.000164  0.150890  6.796271  0.572345     93.46  1.000263  1.000019     2.461    13.407     114.0      87.7      81.8     337.6     11.51     -0.22      0.69      1.37      0.18      0.65      2.26     -0.75      0.00     -0.49      0.56      0.11      0.12      0.24      0.91     -7.91      1.47      0.79      0.73     -0.10
