corner points
-2.332697868    -15.35461998
-2.374698877    -15.5291605
-2.518314123    -15.31184483
-2.56048584    -15.48632336
========== RESULTS WAVE VERSION 16.10.2018 ====================
IMAGE SIZE  X: 4486     Y:4786    col:row     POLARIZATION:VV
COVERAGE    X: 20.42109147km       Y: 19.87753526km 
RESOLUTION dX: 4.552182672m       dY:4.153266875m  
resolution of original product 4.552182672m x 4.153266875m;   raster step x:5999.776762m  
===============================================================
FLAGS: H=HIGH PROBABILITY SEA STATE, I=LAND(ISLAND), O=OUTLIER NO SEA STATE, N=NO WIND AVAILABLE, SEA STATE NOT VISIBLE, M=MEAN PROBABILITY SEA STATE, L= LOW PROBABILITY SEA STATE
Filtering wave length
 integration  Lmin=1m
 integration  Lmax=2200m
  peak        Lmin=100m
               FFT=1024pixels, 4661.435056m 
   mean-Hs (SWH_c)=0.2884867096m
         mean-wind=10.64856052m/s
--------------0--------------1---------2---------3---------4---------5---------6---------7---------8---------9--------10--------11--------12--------13--------14--------15--------16--------17--------18--------19------------------20--------21--------22--------23--------24--------25--------26--------27--------28--------29--------30--------31--------32--------33--------34--------35--------36--------37--------38--------39--------40--------41--------42--------43--------44--------45--------46--------47--------48--------49--------50--------51--------52--------53--------54--------55--------56--------57--------58--------59--------60--------61--------62--------63--------64--------65--------66--------67--------68--------69--------70--------71--------72--------73
            LAT            LON  P-LENGHT     SWH_o     SWH_c     P-DIR      LINE     POINT     ROW-Y     COL-X  M-INTENC        dB      WIND INC-ANGLE  ENERGY-M  ENERGY-N  ENERGY-R ENERGY-NN  FG-DEPTH      FLAG         HEADING-DEG    E30-75   E75-390  E390-600 meanincut   meanout   cut/out  STD-NORM  SPEC-MAX   GL-MEAN    GL-VAR      CORR   ENTROPY   HOMOGEN    ENERGY  CONTRAST  DISSIMIL     STD-O    E 1-30 E600-2000   E2000 >      GODA  LONG-HIG     Tmean  CONVOLUT  MEAN-DIR  relation     Sy/Sx  SKEWNESS  KURTOSIS  cutoff-A >50/10000     INT*V   INT-LOG  S-1_g1f1  S-2_g1f2  S-3_g1f3  S-4_g2f1  S-5_g2f2  S-6_g2f3  S-7_g3f1  S-8_g3f2  S-9_g3f3 S-10_g1f4 S-11_g2f4 S-12_g3f4 S-13_g1f5 S-14_g2f5 S-15_g3f5 S-16_g4f1 S-17_g4f2 S-18_g4f3 S-19_g4f4 S-20_g4f5
--------------1--------------2---------3---------4---------5---------6---------7---------8---------9--------10--------11--------12--------13--------14--------15--------16--------17--------18--------19--------20------------------21--------22--------23--------24--------25--------26--------27--------28--------29--------30--------31--------32--------33--------34--------35--------36--------37--------38--------39--------40--------41--------42--------43--------44--------45--------46--------47--------48--------49--------50--------51--------52--------53--------54--------55--------56--------57--------58--------59--------60--------61--------62--------63--------64--------65--------66--------67--------68--------69--------70--------71--------72--------73--------74
     -15.381460      -2.383348     308.7      0.62      1.90      19.3         1         1      1000      1000    400.08   -13.979      10.7      36.6   228.327     0.543      43.9   0.06552     100.0         H               192.2  0.044497  0.013777  0.000460  1.155308  0.659594  1.751544  1.045499     17.21    7.5055   68.7083   0.09452   6.14751   0.16642   0.00429 124.42824   7.75096     418.2  0.483899  0.000652  0.000056  0.000114  0.169310  6.769653  0.546778     72.16  1.000010  1.000001     2.263    11.221      83.0      92.0     144.8     398.9     12.21      2.11     -5.33     -1.00     -0.81      3.22      0.83     -0.79      0.77     -2.07      1.93      0.90      0.29     -1.06      0.19     -9.39     -1.27      6.66      2.54     -1.26
     -15.368845      -2.438113     282.9      0.63      1.90      21.4         1         2      1000      2318    387.66   -14.115      10.8      37.0   228.874     0.544      80.3   0.06552     100.0         H               192.2  0.044110  0.013850  0.000491  1.162789  0.651068  1.785972  1.046677     19.03    7.2581   64.8262   0.09418   6.08511   0.17082   0.00459 117.44191   7.52339     405.7  0.484482  0.001050  0.000207  0.000114  0.171128  6.784752  0.547581     68.69  0.999985  1.000000     2.272    11.388      83.0      91.4     135.7     402.4     12.47      2.42     -5.58     -1.27     -0.95      3.59      0.64     -1.13      0.89     -2.05      1.71      1.14     -0.16     -0.77      0.62    -10.20     -0.81      7.62      1.47     -1.03
     -15.356325      -2.492398     271.3      0.63      1.90      16.9         1         3      1000      3636    377.84   -14.227      10.9      37.4   226.463     0.538      42.5   0.06366     100.0         H               192.2  0.043259  0.013389  0.000453  1.159324  0.646574  1.793026  1.040242     11.14    7.0632   60.9874   0.09239   6.03525   0.17452   0.00479 110.70598   7.31366     393.0  0.480058  0.000719  0.000046  0.000108  0.167793  6.782737  0.541235     78.42  1.000003  1.000000     2.229    10.979      79.7      91.3     127.4     381.7     11.98      0.80     -4.49     -0.24      0.68      2.81      1.08     -0.83      0.75     -0.31      0.62      1.03      0.37     -0.90      0.08     -8.73      2.11      5.80     -0.25     -0.80
     -15.434129      -2.396031     278.9      0.62      1.90      10.3         2         1      2444      1000    394.35   -14.041      10.6      36.6   228.539     0.543      74.5   0.06577     100.0         H               192.2  0.044395  0.013633  0.000487  1.178390  0.663153  1.776950  1.046177     14.41    7.3923   66.9544   0.09482   6.11904   0.16880   0.00443 121.21233   7.64606     412.5  0.484089  0.001073  0.000146  0.000111  0.168374  6.769701  0.547166     73.87  0.999985  0.999998     2.259    11.207      81.3      91.7     140.5     401.4     12.18      1.75     -5.02     -0.70     -0.17      3.09      0.81     -1.15      0.73     -1.48      1.12      1.06      0.49     -1.44      0.22     -9.39      0.42      6.45      0.51     -2.09
     -15.421508      -2.450812     294.0      0.62      1.90      14.6         2         2      2444      2318    376.66   -14.240      10.6      37.0   228.577     0.544     121.3   0.06565     100.0         H               192.2  0.044363  0.013777  0.000457  1.211159  0.649095  1.865919  1.047636     13.09    7.0397   61.4776   0.09679   6.02797   0.17527   0.00487 111.05412   7.30157     394.6  0.484260  0.001591  0.000352  0.000112  0.167246  6.770577  0.548799     77.61  0.999948  0.999997     2.272    11.245      83.0      91.1     127.8     377.3     12.08      1.34     -4.92     -0.34      0.05      2.87      0.70     -0.78      0.62     -0.97      1.10      0.65      0.27     -1.38      0.36     -8.77      0.41      6.72      0.76     -2.39
     -15.408982      -2.505111     271.3      0.63      1.90      16.9         2         3      2444      3636    376.20   -14.246      10.9      37.4   228.162     0.542      91.8   0.06516     100.0         H               192.2  0.043682  0.013844  0.000513  1.157694  0.652750  1.773563  1.044809     22.03    7.0309   61.0192   0.09499   6.02596   0.17520   0.00486 110.44576   7.29420     393.0  0.482849  0.001254  0.000206  0.000114  0.171157  6.776730  0.545846     59.41  1.000005  1.000000     2.247    11.037      81.3      91.2     126.8     372.3     12.47      1.31     -5.75     -1.38     -0.32      3.64      0.73     -1.36      0.90     -1.97      1.39      1.27      1.10     -1.26     -0.11    -10.46      1.08      7.39      1.22     -1.54
     -15.486796      -2.408721     288.8      0.61      1.90      18.0         3         1      3888      1000    383.73   -14.160      10.4      36.6   228.936     0.544     101.0   0.06510     100.0         H               192.2  0.043609  0.013980  0.000464  1.159080  0.654913  1.769823  1.047148     20.41    7.1811   63.6095   0.09418   6.06524   0.17227   0.00468 115.23708   7.44717     401.8  0.484862  0.001225  0.000293  0.000109  0.174199  6.793958  0.547916     51.91  0.999974  0.999998     2.270    11.337      84.8      91.4     132.7     395.9     12.53      2.39     -5.88     -1.46     -1.05      4.08      0.61     -0.84      0.69     -2.32      2.32      0.82      0.34     -1.36      0.57     -9.98     -1.34      8.48      3.08     -2.01
     -15.474170      -2.463518     298.1      0.59      1.90      11.1         3         2      3888      2318    350.99   -14.547      10.1      37.0   228.981     0.544      86.7   0.06501     100.0         H               192.2  0.044165  0.013936  0.000513  1.153601  0.657762  1.753827  1.046872     20.50    6.5293   53.5146   0.09360   5.88862   0.18537   0.00559  97.01131   6.81700     367.4  0.484233  0.001175  0.000225  0.000112  0.173792  6.779713  0.547812     60.12  0.999969  0.999998     2.262    11.167      84.8      90.1     110.0     338.9     12.64      1.94     -6.16     -1.61     -0.64      4.30      0.66     -0.50      0.85     -1.83      1.65      0.82      1.39     -1.85      0.13    -10.76     -1.16      8.68      2.00     -2.81
     -15.461639      -2.517832     266.3      0.62      1.90      20.0         3         3      3888      3636    366.85   -14.355      10.7      37.4   227.363     0.538      49.6   0.06303     100.0         H               192.2  0.043246  0.012970  0.000470  1.121919  0.653475  1.716850  1.040735     14.88    6.8454   57.7050   0.09096   5.97719   0.17856   0.00507 104.91206   7.11046     381.8  0.480918  0.000800  0.000072  0.000108  0.166972  6.749800  0.541673     72.41  1.000002  1.000000     2.225    10.806      79.7      90.9     119.9     356.9     12.05      0.99     -4.83     -0.59      0.38      2.99      1.12     -1.05      0.49     -1.29      0.96      0.90      0.42     -1.05      0.15     -9.33      1.89      6.79      0.54     -1.24
