corner points
-0.2890295386    -6.529381752
-0.3275462091    -6.704396725
-0.469132185    -6.489250183
-0.5077222586    -6.664215565
========== RESULTS WAVE VERSION 16.10.2018 ====================
IMAGE SIZE  X: 4486     Y:4786    col:row     POLARIZATION:VV
COVERAGE    X: 20.34718301km       Y: 19.87403584km 
RESOLUTION dX: 4.535707313m       dY:4.152535696m  
resolution of original product 4.535707313m x 4.152535696m;   raster step x:5996.205068m  
===============================================================
FLAGS: H=HIGH PROBABILITY SEA STATE, I=LAND(ISLAND), O=OUTLIER NO SEA STATE, N=NO WIND AVAILABLE, SEA STATE NOT VISIBLE, M=MEAN PROBABILITY SEA STATE, L= LOW PROBABILITY SEA STATE
Filtering wave length
 integration  Lmin=1m
 integration  Lmax=2200m
  peak        Lmin=100m
               FFT=1024pixels, 4644.564289m 
   mean-Hs (SWH_c)=0.2m
         mean-wind=7.022222519m/s
--------------0--------------1---------2---------3---------4---------5---------6---------7---------8---------9--------10--------11--------12--------13--------14--------15--------16--------17--------18--------19------------------20--------21--------22--------23--------24--------25--------26--------27--------28--------29--------30--------31--------32--------33--------34--------35--------36--------37--------38--------39--------40--------41--------42--------43--------44--------45--------46--------47--------48--------49--------50--------51--------52--------53--------54--------55--------56--------57--------58--------59--------60--------61--------62--------63--------64--------65--------66--------67--------68--------69--------70--------71--------72--------73
            LAT            LON  P-LENGHT     SWH_o     SWH_c     P-DIR      LINE     POINT     ROW-Y     COL-X  M-INTENC        dB      WIND INC-ANGLE  ENERGY-M  ENERGY-N  ENERGY-R ENERGY-NN  FG-DEPTH      FLAG         HEADING-DEG    E30-75   E75-390  E390-600 meanincut   meanout   cut/out  STD-NORM  SPEC-MAX   GL-MEAN    GL-VAR      CORR   ENTROPY   HOMOGEN    ENERGY  CONTRAST  DISSIMIL     STD-O    E 1-30 E600-2000   E2000 >      GODA  LONG-HIG     Tmean  CONVOLUT  MEAN-DIR  relation     Sy/Sx  SKEWNESS  KURTOSIS  cutoff-A >50/10000     INT*V   INT-LOG  S-1_g1f1  S-2_g1f2  S-3_g1f3  S-4_g2f1  S-5_g2f2  S-6_g2f3  S-7_g3f1  S-8_g3f2  S-9_g3f3 S-10_g1f4 S-11_g2f4 S-12_g3f4 S-13_g1f5 S-14_g2f5 S-15_g3f5 S-16_g4f1 S-17_g4f2 S-18_g4f3 S-19_g4f4 S-20_g4f5
--------------1--------------2---------3---------4---------5---------6---------7---------8---------9--------10--------11--------12--------13--------14--------15--------16--------17--------18--------19--------20------------------21--------22--------23--------24--------25--------26--------27--------28--------29--------30--------31--------32--------33--------34--------35--------36--------37--------38--------39--------40--------41--------42--------43--------44--------45--------46--------47--------48--------49--------50--------51--------52--------53--------54--------55--------56--------57--------58--------59--------60--------61--------62--------63--------64--------65--------66--------67--------68--------69--------70--------71--------72--------73--------74
      -6.556911      -0.337697     314.8      0.43      1.24     164.3         1         1      1000      1000    225.49   -16.469       7.0      36.8   217.753     0.522      60.9   0.05374     100.0         H               192.0  0.036353  0.010697  0.000472  0.913225  0.626630  1.457358  1.025661     10.31    4.0300   21.3150   0.06728   5.01297   0.25881   0.01297  39.76194   4.38067     231.2  0.473853  0.001152  0.000091  0.000090  0.172579  6.794914  0.523959    105.32  1.000083  1.000005     2.131     9.989      72.4      83.4      43.8     199.6     11.53     -0.20     -2.62      0.37      2.15     -0.12      1.57     -1.29      0.87      0.37     -1.51      0.60     -0.61     -0.70      0.66     -9.05      4.56     -0.28     -2.16     -1.15
      -6.545037      -0.390987     314.8      0.42      1.24     164.3         1         2      1000      2322    210.02   -16.777       6.9      37.1   217.583     0.521      56.3   0.05322     100.0         H               192.0  0.036407  0.010456  0.000473  0.893804  0.618516  1.445078  1.025067      6.59    3.7232   18.4414   0.06600   4.87231   0.27251   0.01487  34.44823   4.07750     215.3  0.473199  0.000962  0.000101  0.000090  0.169903  6.786923  0.523047     55.09  1.000059  1.000003     2.143    10.288      72.4      82.0      38.2     199.3     11.34      0.86     -2.47      0.78      1.65     -0.51      1.71     -0.91      1.34     -0.10     -0.78      0.53      0.29     -1.06      0.70     -8.66      2.30     -1.10     -0.40     -2.29
      -6.533260      -0.443815     314.8      0.42      1.24     164.3         1         3      1000      3644    201.60   -16.955       6.9      37.5   218.080     0.521      45.0   0.05175     100.0         H               192.0  0.035681  0.009909  0.000344  0.878486  0.617571  1.422487  1.024450      5.49    3.5545   16.9742   0.06107   4.79088   0.28108   0.01610  31.87506   3.91565     206.6  0.474341  0.000826  0.000065  0.000090  0.167337  6.772209  0.522221     60.88  1.000051  1.000002     2.131    10.047      75.2      81.4      35.3     179.8     10.94      1.10     -1.94      1.88      1.36     -0.70      1.37     -0.90      0.70      0.25     -0.74      0.57     -0.61     -0.82      0.58     -5.92      2.11     -0.82     -1.11     -1.08
      -6.609723      -0.349323     356.9      0.43      1.24     157.4         2         1      2444      1000    228.76   -16.406       7.1      36.8   217.192     0.521      70.9   0.05377     100.0         H               192.0  0.036238  0.010377  0.000413  0.922778  0.619705  1.489060  1.024377      5.43    4.0944   21.8927   0.06803   5.04128   0.25586   0.01259  40.80676   4.44227     234.3  0.472991  0.001221  0.000141  0.000090  0.169836  6.786503  0.522805     60.79  1.000071  1.000003     2.132    10.064      72.4      83.7      45.0     207.7     11.27      0.65     -1.79      1.32      1.80     -0.72      1.23     -1.27      0.83     -0.27     -0.68      0.97     -1.24     -0.04      0.40     -7.48      3.86     -1.15     -0.80      0.81
      -6.597845      -0.402620     338.9      0.42      1.24     163.0         2         2      2444      2322    209.15   -16.795       6.9      37.1   217.347     0.520      50.0   0.05264     100.0         H               192.0  0.036157  0.010173  0.000459  0.883650  0.621582  1.421614  1.023886      7.23    3.7055   18.2575   0.06464   4.86398   0.27348   0.01500  34.15465   4.06006     214.1  0.472779  0.000968  0.000070  0.000091  0.169609  6.769920  0.521997     51.41  1.000063  1.000003     2.126     9.994      73.8      81.8      37.9     190.7     11.44      0.69     -2.50      0.72      2.04     -0.37      1.56     -1.25      1.07     -0.24     -0.66      0.83     -0.10     -0.98      0.72     -9.01      3.58     -0.38     -0.78     -1.50
      -6.586063      -0.455455     322.2      0.42      1.24     155.4         2         3      2444      3644    199.14   -17.008       6.8      37.5   218.013     0.520      52.8   0.05127     100.0         H               192.0  0.035353  0.010327  0.000401  0.895060  0.600417  1.490730  1.023346      6.74    3.5053   16.5212   0.06038   4.76646   0.28339   0.01646  31.04746   3.86743     203.8  0.472736  0.000972  0.000085  0.000090  0.171691  6.803145  0.520845     50.34  1.000067  1.000003     2.132    10.111      78.1      81.1      34.5     182.2     11.22      1.21     -2.39      1.22      1.88     -0.36      1.32     -1.51      0.95     -0.01     -0.96      1.03     -1.24     -0.38      0.80     -7.20      3.46     -0.07     -1.81     -0.34
      -6.662535      -0.360954     301.3      0.45      1.24     157.1         3         1      3888      1000    238.30   -16.229       7.4      36.8   217.943     0.525     110.1   0.05564     100.0         H               192.0  0.036958  0.010829  0.000509  0.936299  0.633407  1.478195  1.028599      6.81    4.2841   23.9322   0.07285   5.12190   0.24876   0.01168  44.37758   4.62329     245.1  0.475073  0.001622  0.000265  0.000090  0.172397  6.790401  0.527038     58.91  1.000036  1.000001     2.167    10.407      71.1      84.4      49.0     227.6     11.44     -0.03     -2.00      0.79      2.59     -0.50      1.75     -0.74      1.00     -0.06     -0.41      0.58     -0.69     -0.76      0.21     -8.89      4.39     -0.64     -0.08     -0.67
      -6.650652      -0.414257     176.2      0.43      1.24      29.5         3         2      3888      2322    216.17   -16.652       7.1      37.1   218.694     0.525     122.3   0.05400      22.6         H               192.0  0.036016  0.010629  0.000413  0.924390  0.613283  1.507281  1.028616      5.69    3.8447   19.6830   0.06856   4.92891   0.26714   0.01414  36.66681   4.20047     222.4  0.475780  0.001684  0.000325  0.000090  0.171815  6.818211  0.526406     39.66  1.000028  1.000002     2.155    10.262      76.6      82.5      40.5     198.9     11.18      1.51     -2.51      1.48      1.35     -0.27      1.14     -1.24      0.66     -0.11     -0.85      0.66     -0.55     -0.70      0.61     -7.20      1.64      0.61     -0.78     -1.04
      -6.638866      -0.467099     331.1      0.43      1.24     159.1         3         3      3888      3644    208.22   -16.815       7.1      37.5   217.573     0.520      54.7   0.05186     100.0         H               192.0  0.035465  0.010264  0.000474  0.882066  0.604000  1.460374  1.023473      7.55    3.6864   18.0860   0.06324   4.85501   0.27420   0.01510  33.88447   4.04258     213.1  0.472839  0.001074  0.000085  0.000091  0.171442  6.791702  0.521524     53.09  1.000069  1.000003     2.129    10.041      76.6      82.0      37.5     188.2     11.46      0.57     -2.62      0.71      2.16     -0.50      1.49     -1.20      1.05     -0.03     -1.32      1.00     -0.68     -0.69      0.24     -9.12      3.57     -0.52     -1.82     -0.14
