corner points
-10.05164242    -46.35817337
-10.12687683    -46.53350067
-10.32040215    -46.30090714
-10.39660549    -46.47605515
========== RESULTS WAVE VERSION 16.10.2018 ====================
IMAGE SIZE  X: 5671     Y:4909    col:row     POLARIZATION:VV
COVERAGE    X: 21.5542316km       Y: 20.28627539km 
RESOLUTION dX: 3.800781449m       dY:4.132465958m  
resolution of original product 3.800781449m x 4.132465958m;   raster step x:5997.633127m  
===============================================================
FLAGS: H=HIGH PROBABILITY SEA STATE, I=LAND(ISLAND), O=OUTLIER NO SEA STATE, N=NO WIND AVAILABLE, SEA STATE NOT VISIBLE, M=MEAN PROBABILITY SEA STATE, L= LOW PROBABILITY SEA STATE
Filtering wave length
 integration  Lmin=1m
 integration  Lmax=2200m
  peak        Lmin=100m
               FFT=1024pixels, 3892.000204m 
   mean-Hs (SWH_c)=1.399194946m
         mean-wind=10.63148117m/s
--------------0--------------1---------2---------3---------4---------5---------6---------7---------8---------9--------10--------11--------12--------13--------14--------15--------16--------17--------18--------19------------------20--------21--------22--------23--------24--------25--------26--------27--------28--------29--------30--------31--------32--------33--------34--------35--------36--------37--------38--------39--------40--------41--------42--------43--------44--------45--------46--------47--------48--------49--------50--------51--------52--------53--------54--------55--------56--------57--------58--------59--------60--------61--------62--------63--------64--------65--------66--------67--------68--------69--------70--------71--------72--------73
            LAT            LON  P-LENGHT     SWH_o     SWH_c     P-DIR      LINE     POINT     ROW-Y     COL-X  M-INTENC        dB      WIND INC-ANGLE  ENERGY-M  ENERGY-N  ENERGY-R ENERGY-NN  FG-DEPTH      FLAG         HEADING-DEG    E30-75   E75-390  E390-600 meanincut   meanout   cut/out  STD-NORM  SPEC-MAX   GL-MEAN    GL-VAR      CORR   ENTROPY   HOMOGEN    ENERGY  CONTRAST  DISSIMIL     STD-O    E 1-30 E600-2000   E2000 >      GODA  LONG-HIG     Tmean  CONVOLUT  MEAN-DIR  relation     Sy/Sx  SKEWNESS  KURTOSIS  cutoff-A >50/10000     INT*V   INT-LOG  S-1_g1f1  S-2_g1f2  S-3_g1f3  S-4_g2f1  S-5_g2f2  S-6_g2f3  S-7_g3f1  S-8_g3f2  S-9_g3f3 S-10_g1f4 S-11_g2f4 S-12_g3f4 S-13_g1f5 S-14_g2f5 S-15_g3f5 S-16_g4f1 S-17_g4f2 S-18_g4f3 S-19_g4f4 S-20_g4f5
--------------1--------------2---------3---------4---------5---------6---------7---------8---------9--------10--------11--------12--------13--------14--------15--------16--------17--------18--------19--------20------------------21--------22--------23--------24--------25--------26--------27--------28--------29--------30--------31--------32--------33--------34--------35--------36--------37--------38--------39--------40--------41--------42--------43--------44--------45--------46--------47--------48--------49--------50--------51--------52--------53--------54--------55--------56--------57--------58--------59--------60--------61--------62--------63--------64--------65--------66--------67--------68--------69--------70--------71--------72--------73--------74
     -46.383553     -10.115771     101.9      1.34      2.71      84.5         1         1      1000      1000   4032.44    -3.944      10.3      22.6   273.260     0.804      61.6   0.20365       6.6         H               194.6  0.104979  0.056661  0.000946  5.482217  1.011416  5.420341  1.269808     36.55    7.4969   91.1296   0.28524   6.06249   0.19614   0.00608 130.27032   7.39578    5120.0  0.641042  0.000618  0.000015  0.000305  0.154070  6.923678  0.844297     84.77  1.000256  1.000041     3.810    32.592     117.4      89.7     191.2     738.4     11.85      1.40      0.35      2.00     -0.51      2.25      0.86     -0.63      1.26      0.59      0.21     -0.52     -1.94      0.40      1.74     -4.83     -1.03      3.45      0.20      1.58
     -46.367439     -10.191566     101.4      1.31      2.71      81.7         1         2      1000      2578   3783.40    -4.221      10.7      23.1   267.967     0.775      56.7   0.19039       6.5         H               194.6  0.098518  0.053676  0.001158  5.203969  0.976341  5.330073  1.248455     31.52    7.0271   80.4177   0.27806   5.95134   0.20363   0.00672 116.11394   6.97833    4723.2  0.622055  0.000562  0.000009  0.000285  0.156387  6.932229  0.813403     84.95  1.000250  1.000036     3.576    27.868     114.0      88.9     163.4     663.0     11.56      1.41     -0.58      1.74     -0.46      3.22      2.00     -0.26      1.93      0.35      0.42     -0.11     -1.27      0.45      1.44     -5.89     -1.43      5.62      0.13      1.81
     -46.351585     -10.265884     101.7      1.46      2.71      83.1         1         3      1000      4156   3579.83    -4.461      11.2      23.5   271.037     0.787      65.6   0.19519       6.6         H               194.6  0.099651  0.056816  0.001255  5.430151  0.990630  5.481514  1.257115     39.10    6.6299   73.4775   0.28129   5.84187   0.21334   0.00758 105.61664   6.61529    4500.2  0.629242  0.000742  0.000015  0.000295  0.158546  6.975367  0.826100     84.15  1.000237  1.000035     3.727    33.014     117.4      88.0     146.9     687.7     11.85      0.41      0.39      1.91     -0.25      3.47      1.83     -0.34      1.86      0.96     -0.26     -0.28     -1.28      0.45      1.94     -6.11     -0.74      5.31     -0.92      1.32
     -46.435379     -10.138047     102.4      1.36      2.71      91.4         2         1      2451      1000   3994.09    -3.986      10.2      22.6   275.381     0.809      61.5   0.20544       6.7         H               194.6  0.105349  0.057754  0.001137  5.473736  1.010731  5.415619  1.273409     37.93    7.4259   89.8528   0.28419   6.04492   0.19747   0.00620 128.63644   7.34355    5085.5  0.644328  0.000653  0.000013  0.000314  0.152614  6.930696  0.849749     83.59  1.000269  1.000042     3.969    40.559     121.0      89.5     188.2     794.8     11.80      1.21      0.61      1.90     -1.31      2.31      1.71     -0.51      1.92      0.26     -0.26     -0.22     -1.54      0.46      1.68     -5.85     -2.34      2.58     -0.32      1.26
     -46.419250     -10.213923     101.4      1.44      2.71      81.7         2         2      2451      2578   3758.60    -4.250      10.6      23.1   271.426     0.791      59.7   0.19688       6.5         H               194.6  0.101228  0.058103  0.001094  5.240618  0.983196  5.330186  1.260870     33.42    6.9726   80.5101   0.28339   5.93161   0.20663   0.00699 115.38855   6.93104    4738.6  0.630226  0.000650  0.000010  0.000320  0.153921  6.933903  0.830338     84.60  1.000268  1.000042     3.623    28.164     117.4      88.6     162.9     651.5     11.91      0.84      0.04      1.69     -0.29      3.07      1.52     -0.14      1.71      0.52      0.35     -0.21     -1.31      0.35      1.36     -5.96     -0.93      4.29      0.23      1.47
     -46.403381     -10.288321     100.6      1.45      2.71      79.0         2         3      2451      4156   3515.27    -4.540      11.0      23.5   269.978     0.785      70.3   0.19480       6.4         H               194.6  0.100623  0.057714  0.001117  5.488740  0.997908  5.500247  1.255716     37.93    6.5006   70.9554   0.28257   5.80628   0.21646   0.00785 101.81098   6.48753    4414.1  0.624845  0.000833  0.000024  0.000311  0.155369  6.955538  0.824037     83.23  1.000252  1.000039     3.665    29.585     117.4      87.8     140.9     625.6     11.86      1.20     -0.01      1.84     -0.45      3.23      1.35     -0.33      1.51      0.83     -0.09     -0.09     -2.08      0.57      1.99     -5.79     -1.27      5.13     -0.76      1.72
     -46.487198     -10.160361     102.2      1.45      2.71      85.8         3         1      3902      1000   3920.40    -4.067       9.9      22.6   274.551     0.810      65.1   0.20650       6.6         H               194.6  0.106737  0.061745  0.001275  5.552629  1.023472  5.425285  1.276215     39.40    7.2725   87.1232   0.29017   6.00487   0.20084   0.00646 123.68509   7.18336    5002.8  0.640454  0.000663  0.000014  0.000322  0.153443  6.967860  0.853132     86.27  1.000256  1.000041     3.838    32.595     121.0      89.2     181.2     724.8     11.76      1.08     -0.20      1.53     -0.70      3.38      1.95     -0.37      1.63      0.33      0.20     -0.29     -1.57      0.52      1.64     -6.30     -1.71      5.97      0.00      1.49
     -46.471058     -10.236319     102.3      1.37      2.71      92.8         3         2      3902      2578   3705.25    -4.312      10.4      23.1   272.190     0.798      59.4   0.20088       6.7         H               194.6  0.103165  0.057489  0.001154  5.438470  0.979015  5.555042  1.266458     37.79    6.8672   78.7782   0.28562   5.90256   0.20861   0.00717 112.55579   6.82734    4692.0  0.636263  0.000575  0.000012  0.000314  0.154058  6.937569  0.838152     86.17  1.000259  1.000040     3.708    29.836     121.0      88.4     159.6     662.4     11.89      0.75      0.32      1.75     -0.24      3.04      1.77     -0.73      1.95      0.66     -0.14     -0.63     -1.80      0.71      1.64     -6.06     -0.19      4.24     -0.49      1.87
     -46.455173     -10.310794     101.7      1.41      2.71      83.1         3         3      3902      4156   3624.21    -4.408      11.3      23.5   271.450     0.788      64.6   0.19452       6.6         H               194.6  0.101408  0.055552  0.001165  5.088267  0.991768  5.130503  1.258077     39.94    6.7041   74.7875   0.28040   5.86268   0.21143   0.00742 107.63470   6.68777    4559.0  0.629479  0.000730  0.000018  0.000329  0.153988  6.936007  0.827049     84.62  1.000255  1.000038     3.745    32.833     121.0      88.2     150.3     677.6     11.92      1.39      0.16      1.54     -0.90      2.56      1.45     -0.29      1.66      0.48      0.24     -0.11     -1.64      0.37      1.65     -6.45     -2.08      3.66      0.13      1.22
