corner points
-24.86737823    -66.43604279
-25.07911873    -66.59677124
-25.3015461    -66.34286499
-25.51552963    -66.50300598
========== RESULTS WAVE VERSION 16.10.2018 ====================
IMAGE SIZE  X: 5671     Y:4896    col:row     POLARIZATION:VV
COVERAGE    X: 21.89231176km       Y: 20.14269574km 
RESOLUTION dX: 3.860397066m       dY:4.114112692m  
resolution of original product 3.860397066m x 4.114112692m;   raster step x:5999.05704m  
===============================================================
FLAGS: H=HIGH PROBABILITY SEA STATE, I=LAND(ISLAND), O=OUTLIER NO SEA STATE, N=NO WIND AVAILABLE, SEA STATE NOT VISIBLE, M=MEAN PROBABILITY SEA STATE, L= LOW PROBABILITY SEA STATE
Filtering wave length
 integration  Lmin=1m
 integration  Lmax=2200m
  peak        Lmin=100m
               FFT=1024pixels, 3953.046595m 
   mean-Hs (SWH_c)=0.2m
         mean-wind=2.61769557m/s
--------------0--------------1---------2---------3---------4---------5---------6---------7---------8---------9--------10--------11--------12--------13--------14--------15--------16--------17--------18--------19------------------20--------21--------22--------23--------24--------25--------26--------27--------28--------29--------30--------31--------32--------33--------34--------35--------36--------37--------38--------39--------40--------41--------42--------43--------44--------45--------46--------47--------48--------49--------50--------51--------52--------53--------54--------55--------56--------57--------58--------59--------60--------61--------62--------63--------64--------65--------66--------67--------68--------69--------70--------71--------72--------73
            LAT            LON  P-LENGHT     SWH_o     SWH_c     P-DIR      LINE     POINT     ROW-Y     COL-X  M-INTENC        dB      WIND INC-ANGLE  ENERGY-M  ENERGY-N  ENERGY-R ENERGY-NN  FG-DEPTH      FLAG         HEADING-DEG    E30-75   E75-390  E390-600 meanincut   meanout   cut/out  STD-NORM  SPEC-MAX   GL-MEAN    GL-VAR      CORR   ENTROPY   HOMOGEN    ENERGY  CONTRAST  DISSIMIL     STD-O    E 1-30 E600-2000   E2000 >      GODA  LONG-HIG     Tmean  CONVOLUT  MEAN-DIR  relation     Sy/Sx  SKEWNESS  KURTOSIS  cutoff-A >50/10000     INT*V   INT-LOG  S-1_g1f1  S-2_g1f2  S-3_g1f3  S-4_g2f1  S-5_g2f2  S-6_g2f3  S-7_g3f1  S-8_g3f2  S-9_g3f3 S-10_g1f4 S-11_g2f4 S-12_g3f4 S-13_g1f5 S-14_g2f5 S-15_g3f5 S-16_g4f1 S-17_g4f2 S-18_g4f3 S-19_g4f4 S-20_g4f5
--------------1--------------2---------3---------4---------5---------6---------7---------8---------9--------10--------11--------12--------13--------14--------15--------16--------17--------18--------19--------20------------------21--------22--------23--------24--------25--------26--------27--------28--------29--------30--------31--------32--------33--------34--------35--------36--------37--------38--------39--------40--------41--------42--------43--------44--------45--------46--------47--------48--------49--------50--------51--------52--------53--------54--------55--------56--------57--------58--------59--------60--------61--------62--------63--------64--------65--------66--------67--------68--------69--------70--------71--------72--------73--------74
     -66.452042     -24.989586     372.4      0.20      0.83      58.0         1         1      1000      1000   1224.15    -9.122       2.4      22.2   165.654     0.541     442.5   0.08834     100.0         H               203.1  0.044167  0.011695  0.001238  0.979479  0.808894  1.210887  1.046102      6.02    1.9953    6.5254   0.17185   3.79909   0.41815   0.04607  10.80798   2.21529    1280.5  0.476560  0.007475  0.000556  0.000106  0.165819  6.744148  0.552804     84.23  0.999985  0.999999     2.277    11.418      72.4      68.8      14.1     116.4     11.54      2.63     -1.09     -1.47     -2.53     -1.72      4.57      1.49     -0.52      0.50     -0.34      0.26      0.32      0.56      0.36    -17.57     -8.87     -1.57     -1.63      0.71
     -66.426208     -25.110388     381.9      0.20      0.83      50.6         1         2      1000      2554   1255.55    -9.012       2.8      22.7   172.233     0.576     466.0   0.10174     100.0         H               203.1  0.051833  0.015808  0.001559  1.192027  0.989514  1.204659  1.077210      8.65    2.0375    7.1778   0.19244   3.82618   0.41991   0.04704  11.59296   2.25729    1352.5  0.499207  0.007797  0.000565  0.000108  0.169790  6.780108  0.591976    135.36  1.000009  1.000001     2.485    14.174      66.4      68.3      15.0     148.0     11.33      1.41     -2.46     -1.32     -1.62     -1.63      3.95      1.11     -0.70      0.40      0.09      0.17      1.55      0.36      0.42    -16.06     -6.00     -0.36     -0.14     -0.99
     -66.400780     -25.228626     376.0      0.20      0.83      11.0         1         3      1000      4108    844.68   -10.733       2.1      23.1   179.388     0.612     459.3   0.11447     100.0         H               203.1  0.060474  0.021080  0.001920  1.502143  1.244972  1.206568  1.113219     15.36    1.2498    3.4520   0.20699   3.06439   0.53268   0.09840   5.47494   1.48245     940.3  0.519908  0.008861  0.000461  0.000109  0.176207  6.848914  0.633229     86.03  0.999942  0.999996     2.997    22.290      58.5      55.9       7.2     117.7     11.32      1.55     -3.74     -1.08     -1.11      0.14      3.67      0.60     -1.17     -1.15      0.55      0.44      1.44     -0.09      0.47    -14.70     -3.94      3.88      1.16     -1.65
     -66.499901     -25.052662     376.0      0.20      0.83      11.0         2         1      2458      1000   1363.25    -8.654       2.6      22.2   167.024     0.552     428.1   0.09394     100.0         H               203.1  0.047005  0.012670  0.001274  1.048262  0.865428  1.211264  1.054295      5.59    2.2505    8.1322   0.18237   3.99372   0.39357   0.03864  13.29840   2.45889    1437.3  0.482762  0.008034  0.000392  0.000107  0.164439  6.739653  0.564691     90.00  1.000013  1.000002     2.333    12.311      67.5      71.2      17.2     145.5     11.29      1.61     -2.05     -1.06     -1.69     -0.69      4.42      1.05     -1.38     -0.18      0.30     -0.36      1.66     -0.84      1.38    -16.57     -5.64      2.29      0.91     -4.41
     -66.474014     -25.173649     385.1      0.20      0.83      43.0         2         2      2458      2554   1188.79    -9.249       2.7      22.7   171.239     0.570     367.2   0.09902     100.0         H               203.1  0.050972  0.014674  0.001363  1.152777  0.973817  1.183771  1.071108      7.86    1.9218    6.4352   0.18666   3.73386   0.43043   0.05055  10.46792   2.14781    1273.3  0.496665  0.006517  0.000427  0.000108  0.166824  6.747352  0.584909     84.35  0.999926  0.999994     2.527    15.943      54.5      67.2      13.6     154.3     11.22      2.59     -2.70     -0.95     -1.87     -0.76      4.11      1.14     -0.84     -0.31      0.25      0.54      0.51      0.17      0.54    -15.45     -7.15      1.51     -0.20     -0.39
     -66.448540     -25.292070     323.0      0.20      0.83       4.7         2         3      2458      4108   1124.97    -9.489       2.8      23.1   165.779     0.544     421.4   0.09054     100.0         H               203.1  0.045616  0.012113  0.001053  0.988986  0.850511  1.162815  1.047650      4.97    1.7899    5.4723   0.17499   3.62432   0.44272   0.05478   9.02930   2.01525    1178.5  0.477869  0.006947  0.000479  0.000108  0.162477  6.723902  0.555481    114.28  0.999991  0.999999     2.294    11.826      65.3      66.1      11.9     117.0     10.94      1.39     -2.39     -0.43     -1.13     -0.69      4.31      0.44     -0.95     -0.13      0.37     -0.20      1.54     -0.93      1.55    -14.33     -4.00      1.37      1.20     -4.65
     -66.547729     -25.115973     389.5      0.20      0.83      62.5         3         1      3916      1000   1263.63    -8.984       2.5      22.2   168.572     0.557     637.8   0.09484     100.0         H               203.1  0.045652  0.012703  0.001430  1.096482  0.808473  1.356239  1.063522      6.70    2.0729    7.1647   0.18416   3.85787   0.41237   0.04440  11.69045   2.28993    1343.8  0.486248  0.010644  0.000600  0.000106  0.169182  6.765731  0.569935     85.32  0.999965  0.999997     2.474    15.646      83.0      69.2      15.2     161.4     11.71      2.21     -0.49     -1.51     -2.71     -0.93      5.05      1.53     -0.19     -0.02     -0.13     -0.54     -0.09      0.91      0.20    -18.60     -9.48     -1.00      0.22      1.76
     -66.521797     -25.237146     393.6      0.20      0.83      84.6         3         2      3916      2554   1117.36    -9.518       2.5      22.7   170.313     0.565     712.1   0.09754     100.0         H               203.1  0.047282  0.013640  0.001081  1.132305  0.874584  1.294678  1.067780      6.98    1.7626    5.5511   0.18746   3.59517   0.45191   0.05857   9.02091   1.98812    1192.9  0.491250  0.011151  0.000919  0.000106  0.170070  6.781126  0.579282    104.41  1.000037  1.000003     2.387    12.885      97.3      64.9      11.8     120.6     11.43      1.75     -0.10     -0.35     -0.91     -2.94      3.28      0.22      0.79      0.29      0.08      0.27      1.54     -0.93      1.08    -13.36     -3.44     -6.55     -0.28     -4.24
     -66.496269     -25.355747     381.9      0.21      0.83      50.6         3         3      3916      4108   1252.22    -9.023       3.1      23.1   164.875     0.536     200.0   0.08658     100.0         H               203.1  0.044345  0.011211  0.000782  0.945959  0.803638  1.177096  1.037202      5.29    2.0328    6.6439   0.16495   3.83077   0.41204   0.04413  11.09596   2.25477    1298.7  0.475921  0.003504  0.000201  0.000108  0.160429  6.717657  0.545502     92.00  0.999991  0.999999     2.279    12.248      42.3      69.4      14.4     134.8     10.53      2.40     -2.02      0.85     -1.98     -1.74      3.42      0.85     -0.03     -0.03      0.33     -0.22     -0.63      1.54     -0.07    -10.81     -6.78     -1.96      1.05      4.01
