corner points
-4.017570972    -28.94363403
-4.066717148    -29.12253189
-4.228813171    -28.89699936
-4.278430939    -29.07580757
========== RESULTS WAVE VERSION 16.10.2018 ====================
IMAGE SIZE  X: 5671     Y:4921    col:row     POLARIZATION:VV
COVERAGE    X: 21.1624307km       Y: 20.41336381km 
RESOLUTION dX: 3.731692946m       dY:4.148214552m  
resolution of original product 3.731692946m x 4.148214552m;   raster step x:5996.830565m  
===============================================================
FLAGS: H=HIGH PROBABILITY SEA STATE, I=LAND(ISLAND), O=OUTLIER NO SEA STATE, N=NO WIND AVAILABLE, SEA STATE NOT VISIBLE, M=MEAN PROBABILITY SEA STATE, L= LOW PROBABILITY SEA STATE
Filtering wave length
 integration  Lmin=1m
 integration  Lmax=2200m
  peak        Lmin=100m
               FFT=1024pixels, 3821.253577m 
   mean-Hs (SWH_c)=0.2m
         mean-wind=6.245138645m/s
--------------0--------------1---------2---------3---------4---------5---------6---------7---------8---------9--------10--------11--------12--------13--------14--------15--------16--------17--------18--------19------------------20--------21--------22--------23--------24--------25--------26--------27--------28--------29--------30--------31--------32--------33--------34--------35--------36--------37--------38--------39--------40--------41--------42--------43--------44--------45--------46--------47--------48--------49--------50--------51--------52--------53--------54--------55--------56--------57--------58--------59--------60--------61--------62--------63--------64--------65--------66--------67--------68--------69--------70--------71--------72--------73
            LAT            LON  P-LENGHT     SWH_o     SWH_c     P-DIR      LINE     POINT     ROW-Y     COL-X  M-INTENC        dB      WIND INC-ANGLE  ENERGY-M  ENERGY-N  ENERGY-R ENERGY-NN  FG-DEPTH      FLAG         HEADING-DEG    E30-75   E75-390  E390-600 meanincut   meanout   cut/out  STD-NORM  SPEC-MAX   GL-MEAN    GL-VAR      CORR   ENTROPY   HOMOGEN    ENERGY  CONTRAST  DISSIMIL     STD-O    E 1-30 E600-2000   E2000 >      GODA  LONG-HIG     Tmean  CONVOLUT  MEAN-DIR  relation     Sy/Sx  SKEWNESS  KURTOSIS  cutoff-A >50/10000     INT*V   INT-LOG  S-1_g1f1  S-2_g1f2  S-3_g1f3  S-4_g2f1  S-5_g2f2  S-6_g2f3  S-7_g3f1  S-8_g3f2  S-9_g3f3 S-10_g1f4 S-11_g2f4 S-12_g3f4 S-13_g1f5 S-14_g2f5 S-15_g3f5 S-16_g4f1 S-17_g4f2 S-18_g4f3 S-19_g4f4 S-20_g4f5
--------------1--------------2---------3---------4---------5---------6---------7---------8---------9--------10--------11--------12--------13--------14--------15--------16--------17--------18--------19--------20------------------21--------22--------23--------24--------25--------26--------27--------28--------29--------30--------31--------32--------33--------34--------35--------36--------37--------38--------39--------40--------41--------42--------43--------44--------45--------46--------47--------48--------49--------50--------51--------52--------53--------54--------55--------56--------57--------58--------59--------60--------61--------62--------63--------64--------65--------66--------67--------68--------69--------70--------71--------72--------73--------74
     -28.971567      -4.065861     182.6      0.38      1.87     154.5         1         1      1000      1000   2504.83    -6.012       6.2      23.1   309.719     0.638     115.4   0.13061      24.8         H               192.7  0.058616  0.030741  0.000549  1.946062  0.870469  2.235649  1.131801     40.02    4.5167   31.6939   0.22406   5.18327   0.26412   0.01306  49.18570   4.63732    2835.0  0.546823  0.001612  0.000107  0.000157  0.208834  7.130120  0.663103    142.75  1.000000  0.999999     2.780    16.751      59.4      83.7      60.7     324.3     12.17     -0.88     -7.68      1.52     -0.16      0.11     -4.49      0.91      5.82      2.02      0.17     -1.38      1.63     -0.37     -1.89     -2.99      0.07      1.33     -0.31     -0.17
     -28.958208      -4.126463     201.2      0.28      1.87       6.0         1         2      1000      2607   1641.82    -7.847       4.3      23.6   315.325     0.652     229.8   0.13393      32.1         H               192.7  0.058444  0.037424  0.000737  2.157760  0.860323  2.508082  1.146153     58.84    2.8117   14.0215   0.22885   4.34559   0.35986   0.03049  21.62525   3.01671    1881.7  0.552008  0.003300  0.000261  0.000193  0.223089  7.293800  0.679247     61.79  0.999948  0.999996     2.830    16.816      65.3      74.2      26.7     205.2     12.61     -0.32     -8.89      0.84     -0.34      0.16     -5.40      0.76      6.90      0.97      0.19     -0.76      2.84     -0.56     -2.69     -3.72     -0.75      1.34      0.14     -0.80
     -28.945070      -4.185925     192.1      0.31      1.87       5.8         1         3      1000      4214   1645.87    -7.836       4.8      24.0   310.344     0.638      98.9   0.13061      28.3         H               192.7  0.058963  0.033349  0.000521  2.060700  0.862677  2.388728  1.132947     53.72    2.8152   13.7342   0.22464   4.35147   0.35705   0.02973  21.29788   3.01520    1864.6  0.544314  0.001273  0.000077  0.000170  0.214119  7.197137  0.663312     24.24  0.999952  0.999997     2.802    17.146      60.3      74.6      26.5     206.4     12.24     -0.05     -8.23      1.57     -0.27      0.08     -4.90      0.02      6.66      0.02      0.08     -0.18      2.81     -0.59     -2.73     -2.57     -0.07      1.01     -0.01     -0.55
     -29.024141      -4.080324     210.9      0.43      1.87     160.7         2         1      2446      1000   2766.23    -5.581       7.1      23.1   309.854     0.639      58.8   0.13142      36.8         H               192.7  0.059502  0.029722  0.000589  2.021426  0.860196  2.349959  1.134204     51.00    5.0436   38.6096   0.22276   5.38376   0.24397   0.01062  60.01642   5.13466    3137.3  0.549022  0.000715  0.000028  0.000149  0.204133  7.095672  0.663373    156.16  1.000048  1.000005     2.879    18.973      57.7      85.5      74.6     395.9     12.28     -1.06     -7.14      1.18     -0.14      0.43     -4.02      1.13      5.27      2.36     -0.10     -1.80      0.92     -0.42     -1.50     -3.47     -0.18      1.65     -0.16      0.03
     -29.010775      -4.140966     197.9      0.39      1.87     158.7         2         2      2446      2607   2279.63    -6.421       6.3      23.5   310.257     0.640     113.9   0.13148      30.6         H               192.7  0.059444  0.031126  0.000604  1.977753  0.880861  2.245250  1.135119     37.49    4.0716   26.4546   0.22472   4.99686   0.28337   0.01569  41.01914   4.21435    2587.6  0.547789  0.001659  0.000102  0.000152  0.210950  7.131901  0.665567    101.34  1.000012  1.000000     2.821    17.102      59.4      81.8      50.4     292.7     12.43     -0.20     -7.64      1.00     -0.03      0.42     -4.49      0.56      5.92      1.13      0.24     -0.76      1.69     -0.52     -1.70     -3.58     -0.36      1.26      0.27     -0.80
     -28.997629      -4.200466     192.8      0.30      1.87     177.1         2         3      2446      4214   1628.84    -7.881       4.8      24.0   317.175     0.657     440.0   0.13668      28.5         M               192.7  0.059246  0.035831  0.001058  2.084116  0.879004  2.370997  1.151976     56.36    2.8032   14.0746   0.23328   4.33863   0.36138   0.03085  21.58233   3.00543    1876.4  0.553948  0.006984  0.000432  0.000186  0.221095  7.251087  0.685321    153.50  0.999905  0.999994     2.927    18.824      67.5      74.1      26.7     219.1     12.62     -0.55     -8.72      0.48     -0.23      0.37     -4.61      0.68      6.54      1.38     -0.17     -1.01      2.62     -0.78     -2.06     -5.53     -0.40      1.95     -0.48     -1.66
     -29.076714      -4.094800     206.9      0.44      1.87     157.7         3         1      3892      1000   2799.64    -5.529       7.2      23.1   312.809     0.650      77.8   0.13603      34.8         H               192.7  0.060888  0.029917  0.000598  2.108223  0.887300  2.375999  1.143480     37.33    5.1120   40.1015   0.22646   5.40607   0.24229   0.01047  62.03965   5.20464    3201.1  0.557828  0.001019  0.000059  0.000139  0.203987  7.083498  0.675069    142.17  1.000043  1.000005     2.966    20.642      59.4      85.6      77.4     417.1     12.34     -1.12     -6.63      1.11     -0.09      0.69     -3.86      1.17      5.00      1.91      0.15     -1.59      0.63     -0.56     -0.80     -3.62      0.05      1.52     -0.07     -0.50
     -29.063339      -4.155482     210.9      0.42      1.87     160.7         3         2      3892      2607   2446.78    -6.114       6.9      23.5   311.139     0.645      70.7   0.13423      36.8         H               192.7  0.061785  0.027757  0.000609  1.998594  0.900406  2.219658  1.139453     31.82    4.4140   30.6260   0.22533   5.14145   0.26746   0.01350  47.44979   4.54035    2787.9  0.554569  0.000891  0.000045  0.000129  0.195812  6.992868  0.670050    147.11  1.000070  1.000006     2.956    19.757      57.7      83.4      58.7     341.5     12.13     -0.44     -6.24      1.14     -0.08      0.73     -3.03      0.82      4.71      1.64     -0.09     -1.12      0.79     -0.20     -1.00     -3.87     -0.44      1.77     -0.05      0.02
     -29.050188      -4.215021     201.2      0.43      1.87       6.0         3         3      3892      4214   2256.65    -6.465       7.1      24.0   307.796     0.632      73.2   0.12834      32.1         H               192.7  0.059417  0.027778  0.000694  1.850127  0.864599  2.139866  1.126863     36.29    4.0369   25.6408   0.21950   4.98403   0.28299   0.01569  40.02502   4.18152    2542.8  0.543142  0.000960  0.000048  0.000143  0.203598  7.056710  0.654964     48.22  1.000010  1.000001     2.812    17.637      56.9      81.9      49.1     300.2     12.36     -0.67     -7.55      0.85      0.05      0.88     -3.90      0.62      5.10      1.16     -0.10     -0.69      1.88     -0.54     -2.01     -4.39      0.11      2.78     -0.38     -0.44
