corner points
-11.66770935    -49.79295349
-11.75282192    -49.96712875
-11.95380497    -49.73240662
-12.04003429    -49.90636826
========== RESULTS WAVE VERSION 16.10.2018 ====================
IMAGE SIZE  X: 5671     Y:4907    col:row     POLARIZATION:VV
COVERAGE    X: 21.58232181km       Y: 20.26143584km 
RESOLUTION dX: 3.805734758m       dY:4.12908821m  
resolution of original product 3.805734758m x 4.12908821m;   raster step x:5997.837979m  
===============================================================
FLAGS: H=HIGH PROBABILITY SEA STATE, I=LAND(ISLAND), O=OUTLIER NO SEA STATE, N=NO WIND AVAILABLE, SEA STATE NOT VISIBLE, M=MEAN PROBABILITY SEA STATE, L= LOW PROBABILITY SEA STATE
Filtering wave length
 integration  Lmin=1m
 integration  Lmax=2200m
  peak        Lmin=100m
               FFT=1024pixels, 3897.072393m 
   mean-Hs (SWH_c)=1.937579956m
         mean-wind=11.07345581m/s
--------------0--------------1---------2---------3---------4---------5---------6---------7---------8---------9--------10--------11--------12--------13--------14--------15--------16--------17--------18--------19------------------20--------21--------22--------23--------24--------25--------26--------27--------28--------29--------30--------31--------32--------33--------34--------35--------36--------37--------38--------39--------40--------41--------42--------43--------44--------45--------46--------47--------48--------49--------50--------51--------52--------53--------54--------55--------56--------57--------58--------59--------60--------61--------62--------63--------64--------65--------66--------67--------68--------69--------70--------71--------72--------73
            LAT            LON  P-LENGHT     SWH_o     SWH_c     P-DIR      LINE     POINT     ROW-Y     COL-X  M-INTENC        dB      WIND INC-ANGLE  ENERGY-M  ENERGY-N  ENERGY-R ENERGY-NN  FG-DEPTH      FLAG         HEADING-DEG    E30-75   E75-390  E390-600 meanincut   meanout   cut/out  STD-NORM  SPEC-MAX   GL-MEAN    GL-VAR      CORR   ENTROPY   HOMOGEN    ENERGY  CONTRAST  DISSIMIL     STD-O    E 1-30 E600-2000   E2000 >      GODA  LONG-HIG     Tmean  CONVOLUT  MEAN-DIR  relation     Sy/Sx  SKEWNESS  KURTOSIS  cutoff-A >50/10000     INT*V   INT-LOG  S-1_g1f1  S-2_g1f2  S-3_g1f3  S-4_g2f1  S-5_g2f2  S-6_g2f3  S-7_g3f1  S-8_g3f2  S-9_g3f3 S-10_g1f4 S-11_g2f4 S-12_g3f4 S-13_g1f5 S-14_g2f5 S-15_g3f5 S-16_g4f1 S-17_g4f2 S-18_g4f3 S-19_g4f4 S-20_g4f5
--------------1--------------2---------3---------4---------5---------6---------7---------8---------9--------10--------11--------12--------13--------14--------15--------16--------17--------18--------19--------20------------------21--------22--------23--------24--------25--------26--------27--------28--------29--------30--------31--------32--------33--------34--------35--------36--------37--------38--------39--------40--------41--------42--------43--------44--------45--------46--------47--------48--------49--------50--------51--------52--------53--------54--------55--------56--------57--------58--------59--------60--------61--------62--------63--------64--------65--------66--------67--------68--------69--------70--------71--------72--------73--------74
     -49.817520     -11.737013     124.8      2.00      2.71      96.8         1         1      1000      1000   4245.98    -3.720      10.9      22.6   273.347     0.835      76.3   0.21625      10.2         H               195.3  0.108086  0.072565  0.001059  5.485556  1.029005  5.330931  1.295860     85.26    7.8787  101.5539   0.29611   6.14191   0.19089   0.00572 142.96597   7.74073    5501.7  0.653219  0.000734  0.000023  0.000330  0.170891  7.090263  0.880360     89.33  1.000297  1.000051     3.900    33.247     128.8      90.0     217.9     785.4     10.03      0.51      3.41      5.31     -0.91      7.02      5.20     -0.42      6.70     -0.65     -0.73     -0.66      1.89      4.73      5.72      1.49     -1.73      9.24     -0.68      6.55
     -49.800507     -11.817609     132.7      1.87      2.71      99.0         1         2      1000      2576   3946.65    -4.038      11.2      23.0   268.841     0.818      69.8   0.20895      11.7         H               195.3  0.105131  0.068087  0.000997  5.329863  1.004370  5.306671  1.282324     71.28    7.3240   88.9545   0.29178   6.01416   0.20056   0.00646 126.00062   7.23668    5060.4  0.643209  0.000713  0.000014  0.000310  0.173770  7.082163  0.860809     89.93  1.000302  1.000049     3.867    33.940     128.8      89.2     184.7     741.9     10.15      0.27      3.43      5.35     -0.85      7.06      4.91     -0.49      6.12     -0.54     -0.50     -0.46      1.47      4.62      5.36      1.47     -1.18      9.23     -0.31      6.27
     -49.783760     -11.896624     111.3      2.04      2.71      88.5         1         3      1000      4152   3724.37    -4.289      11.6      23.5   270.783     0.822      73.4   0.21064       8.0         H               195.3  0.103607  0.071062  0.001255  5.208699  1.008246  5.166100  1.285289     72.51    6.8919   80.6208   0.29392   5.90173   0.21094   0.00732 113.84932   6.83556    4786.3  0.645761  0.000711  0.000016  0.000331  0.174898  7.114465  0.865467     87.83  1.000324  1.000053     3.881    33.883     133.1      88.3     164.3     701.3     10.49      0.65      3.51      4.74     -1.24      7.35      4.99     -0.43      6.34     -0.67     -0.58     -0.43      1.90      5.24      5.42      0.15     -1.66      9.34     -0.28      7.40
     -49.869099     -11.762257     117.9      1.87      2.71      86.8         2         1      2453      1000   4164.48    -3.804      10.6      22.6   272.477     0.832      66.6   0.21495       9.0         H               195.3  0.105738  0.069488  0.001104  5.508447  1.023670  5.381076  1.294071     75.58    7.7295   98.1748   0.29356   6.10849   0.19365   0.00591 138.70773   7.60990    5388.7  0.656061  0.000578  0.000016  0.000328  0.169320  7.096965  0.876685     85.73  1.000320  1.000053     3.940    34.984     128.8      89.8     208.7     774.9     10.22      0.76      2.64      4.74     -0.71      6.43      4.82      0.09      6.07     -0.31      0.05      0.06      1.47      4.26      4.81      0.22     -1.43      8.63      0.62      6.19
     -49.852066     -11.842946     134.1      1.81      2.71      93.6         2         2      2453      2576   3895.22    -4.095      11.0      23.0   269.603     0.816      65.2   0.20764      12.0         H               195.3  0.104480  0.066985  0.001021  5.469098  1.023667  5.342656  1.279205     68.28    7.2323   87.0273   0.28905   5.99187   0.20241   0.00663 123.74373   7.16927    4982.4  0.643718  0.000631  0.000013  0.000306  0.170626  7.075758  0.858278     87.57  1.000310  1.000050     3.779    30.702     128.8      89.0     180.0     694.4     10.16      0.73      3.19      5.32     -0.32      6.91      4.98      0.03      6.14      0.36      0.30     -0.11      1.52      4.52      5.21      0.98     -0.93      8.72      0.64      6.30
     -49.835304     -11.922052     128.4      1.85      2.71      98.7         2         3      2453      4152   3705.47    -4.312      11.6      23.5   266.887     0.808      70.6   0.20592      10.9         H               195.3  0.102575  0.066014  0.001124  5.431636  0.987598  5.499847  1.273288     69.49    6.8659   79.0704   0.28920   5.90023   0.20977   0.00723 112.40628   6.81790    4717.5  0.637686  0.000682  0.000017  0.000304  0.171981  7.076663  0.849433     90.80  1.000318  1.000050     3.820    32.411     128.8      88.4     160.7     698.7     10.08      0.26      3.76      5.65     -0.72      7.41      5.58     -0.05      6.67     -0.57     -0.53     -0.32      2.18      4.73      5.53      1.28     -1.39      9.03     -0.72      6.12
     -49.920666     -11.787550     117.9      1.99      2.71      86.8         3         1      3906      1000   4218.07    -3.749      10.8      22.6   272.421     0.838      76.2   0.21884       9.0         H               195.3  0.109342  0.073212  0.001028  5.251712  1.029533  5.101061  1.296864    118.64    7.8462  101.4140   0.29894   6.13139   0.19266   0.00582 142.19460   7.70084    5469.5  0.653861  0.000785  0.000022  0.000375  0.170909  7.100966  0.883116     86.20  1.000368  1.000063     3.838    31.156     133.1      89.9     216.6     749.8     10.14      1.05      3.20      5.26      0.46      7.10      4.98      0.58      6.54      0.85      1.14      0.95      2.03      4.75      5.81      1.37      0.07      9.34      1.57      6.32
     -49.903618     -11.868333     125.2      1.92      2.71      84.9         3         2      3906      2576   3851.89    -4.143      10.8      23.0   271.236     0.825      69.4   0.21060      10.3         H               195.3  0.103720  0.070134  0.001069  5.233892  1.012374  5.169920  1.287564    100.51    7.1400   86.0152   0.29201   5.96528   0.20507   0.00687 121.79773   7.08849    4959.4  0.650060  0.000658  0.000016  0.000363  0.173550  7.116704  0.868723     86.86  1.000365  1.000058     3.836    32.528     133.1      88.7     176.7     711.8      9.79      1.19      3.53      5.53      0.18      7.90      5.95      0.56      7.44      0.59      1.00      1.00      2.57      5.57      6.48      2.15     -0.15     10.64      1.30      7.80
     -49.886841     -11.947530     113.6      2.08      2.71      82.3         3         3      3906      4152   3549.56    -4.498      11.0      23.5   272.620     0.832      77.0   0.21549       8.3         H               195.3  0.105981  0.075331  0.001272  5.472491  1.019038  5.370254  1.293009     99.94    6.5562   75.0173   0.29677   5.80634   0.21960   0.00817 105.50960   6.53925    4589.5  0.649272  0.000748  0.000019  0.000360  0.174692  7.134661  0.876916     85.39  1.000338  1.000057     3.903    33.986     133.1      87.4     149.8     673.1     10.17      1.25      3.73      5.44      0.01      8.02      5.65      0.52      6.72      0.29      1.49      1.40      2.41      5.36      5.95      0.93     -0.17     10.25      2.07      6.72
