corner points
3.062301636    1.08300519
3.024629593    0.9021726251
2.87990737    1.122005939
2.842213869    0.94120574
========== RESULTS WAVE VERSION 16.10.2018 ====================
IMAGE SIZE  X: 5671     Y:4930    col:row     POLARIZATION:VV
COVERAGE    X: 20.69183059km       Y: 20.49178013km 
RESOLUTION dX: 3.648709326m       dY:4.156547694m  
resolution of original product 3.648709326m x 4.156547694m;   raster step x:5998.478132m  
===============================================================
FLAGS: H=HIGH PROBABILITY SEA STATE, I=LAND(ISLAND), O=OUTLIER NO SEA STATE, N=NO WIND AVAILABLE, SEA STATE NOT VISIBLE, M=MEAN PROBABILITY SEA STATE, L= LOW PROBABILITY SEA STATE
Filtering wave length
 integration  Lmin=1m
 integration  Lmax=2200m
  peak        Lmin=100m
               FFT=1024pixels, 3736.27835m 
   mean-Hs (SWH_c)=0.2m
         mean-wind=4.244443893m/s
--------------0--------------1---------2---------3---------4---------5---------6---------7---------8---------9--------10--------11--------12--------13--------14--------15--------16--------17--------18--------19------------------20--------21--------22--------23--------24--------25--------26--------27--------28--------29--------30--------31--------32--------33--------34--------35--------36--------37--------38--------39--------40--------41--------42--------43--------44--------45--------46--------47--------48--------49--------50--------51--------52--------53--------54--------55--------56--------57--------58--------59--------60--------61--------62--------63--------64--------65--------66--------67--------68--------69--------70--------71--------72--------73
            LAT            LON  P-LENGHT     SWH_o     SWH_c     P-DIR      LINE     POINT     ROW-Y     COL-X  M-INTENC        dB      WIND INC-ANGLE  ENERGY-M  ENERGY-N  ENERGY-R ENERGY-NN  FG-DEPTH      FLAG         HEADING-DEG    E30-75   E75-390  E390-600 meanincut   meanout   cut/out  STD-NORM  SPEC-MAX   GL-MEAN    GL-VAR      CORR   ENTROPY   HOMOGEN    ENERGY  CONTRAST  DISSIMIL     STD-O    E 1-30 E600-2000   E2000 >      GODA  LONG-HIG     Tmean  CONVOLUT  MEAN-DIR  relation     Sy/Sx  SKEWNESS  KURTOSIS  cutoff-A >50/10000     INT*V   INT-LOG  S-1_g1f1  S-2_g1f2  S-3_g1f3  S-4_g2f1  S-5_g2f2  S-6_g2f3  S-7_g3f1  S-8_g3f2  S-9_g3f3 S-10_g1f4 S-11_g2f4 S-12_g3f4 S-13_g1f5 S-14_g2f5 S-15_g3f5 S-16_g4f1 S-17_g4f2 S-18_g4f3 S-19_g4f4 S-20_g4f5
--------------1--------------2---------3---------4---------5---------6---------7---------8---------9--------10--------11--------12--------13--------14--------15--------16--------17--------18--------19--------20------------------21--------22--------23--------24--------25--------26--------27--------28--------29--------30--------31--------32--------33--------34--------35--------36--------37--------38--------39--------40--------41--------42--------43--------44--------45--------46--------47--------48--------49--------50--------51--------52--------53--------54--------55--------56--------57--------58--------59--------60--------61--------62--------63--------64--------65--------66--------67--------68--------69--------70--------71--------72--------73--------74
       1.053378       3.021648     231.2      0.27      0.98      29.7         1         1      1000      1000   1548.56    -8.101       4.1      23.6   366.768     0.567      78.5   0.10014      49.9         H               192.0  0.048429  0.019055  0.000446  1.451694  0.766063  1.895005  1.067866     23.59    2.6251   10.8375   0.18674   4.24940   0.36120   0.03033  17.62748   2.82676    1653.6  0.497763  0.001175  0.000071  0.000119  0.185426  6.923129  0.585413     30.60  1.000014  1.000001     2.405    12.576      41.0      74.5      22.2     160.2     11.52      2.09     -5.45      1.36     -0.16      0.25     -1.41     -1.23      2.80     -2.04      0.30      1.78     -0.33     -0.67      0.21     -4.27      0.19      1.04     -0.69     -1.06
       1.064812       2.968187     238.1      0.27      0.98      26.5         1         2      1000      2644   1420.71    -8.475       4.2      24.1   365.142     0.566     114.4   0.10051      56.2         H               192.0  0.048542  0.018945  0.000555  1.405567  0.754654  1.862532  1.067443     27.23    2.3669    9.0609   0.18841   4.07523   0.38348   0.03600  14.70757   2.57556    1516.5  0.496162  0.001721  0.000127  0.000124  0.185582  6.906691  0.584914     27.14  1.000053  1.000003     2.395    12.420      42.3      72.2      18.8     140.7     11.68      2.71     -5.21      0.86     -0.00      0.06     -1.17     -1.93      3.21     -2.53     -0.02      2.15      0.79     -0.49      0.08     -5.40      0.26      0.03     -0.81     -1.36
       1.076038       2.915695     258.2      0.26      0.98      24.5         1         3      1000      4288   1196.68    -9.220       4.0      24.6   365.421     0.565      86.7   0.09998      92.6         H               192.0  0.048530  0.019337  0.000521  1.455279  0.737317  1.973750  1.066770     17.18    1.9300    6.4153   0.18600   3.74126   0.42801   0.04992  10.44401   2.15680    1276.6  0.495523  0.001447  0.000069  0.000117  0.186359  6.935956  0.583844     35.20  1.000039  1.000001     2.386    12.367      41.0      67.4      13.6     117.8     11.54      2.60     -5.33      1.17     -0.25      0.51     -0.82     -1.10      2.54     -1.93      0.15      1.56      0.52     -0.61     -0.16     -5.29     -0.80      1.60     -0.17     -1.29
       1.000440       3.010619     250.6      0.29      0.98      19.6         2         1      2443      1000   1702.20    -7.690       4.6      23.6   366.752     0.571      91.0   0.10262      72.8         H               192.0  0.049335  0.019554  0.000533  1.503199  0.766835  1.960263  1.071392     28.04    2.9212   13.1372   0.19039   4.43075   0.33950   0.02545  21.27220   3.10643    1823.6  0.500283  0.001486  0.000079  0.000121  0.186277  6.914198  0.590427     26.80  1.000065  1.000004     2.441    13.079      43.2      76.7      26.6     183.4     11.86      2.49     -5.04      0.82     -0.70      0.15     -1.34     -1.83      3.18     -3.20      0.44      2.23     -0.32     -0.82      0.30     -5.49     -0.62     -0.18      0.17     -1.33
       1.011876       2.957155     250.5      0.26      0.98      28.0         2         2      2443      2644   1339.28    -8.731       4.0      24.1   364.375     0.562      99.5   0.09849      72.7         H               192.0  0.047748  0.018881  0.000603  1.396756  0.774302  1.803890  1.063603     24.19    2.2121    8.0276   0.18486   3.96411   0.39757   0.04002  13.08724   2.42798    1424.4  0.493813  0.001559  0.000106  0.000119  0.185151  6.916530  0.581436     30.46  1.000015  1.000001     2.373    12.285      41.4      70.7      16.8     133.5     11.55      2.81     -5.38      0.88     -0.12     -0.34     -0.81     -1.06      2.88     -2.42     -0.26      1.78      0.36     -0.78      0.11     -6.11     -0.75     -0.01     -1.05     -1.61
       1.023105       2.904662     238.1      0.27      0.98      26.5         2         3      2443      4288   1230.55    -9.099       4.1      24.6   366.714     0.567     126.8   0.10003      56.2         H               192.0  0.048897  0.019193  0.000472  1.429828  0.773090  1.849497  1.068979     28.50    1.9937    6.7979   0.18672   3.79336   0.42117   0.04744  11.05716   2.21786    1315.3  0.496643  0.002007  0.000125  0.000122  0.185986  6.925243  0.586209     28.48  1.000025  1.000002     2.412    12.623      41.4      68.3      14.3     125.2     11.49      3.30     -5.49      1.25     -0.49     -0.02     -1.30     -1.59      2.70     -3.01      0.16      2.25      0.05     -0.52     -0.09     -4.53     -1.11      0.58     -0.19     -1.01
       0.947502       2.999588     242.5      0.28      0.98      31.3         3         1      3886      1000   1621.23    -7.902       4.3      23.6   365.798     0.568      58.0   0.10082      61.0         H               192.0  0.049707  0.018160  0.000575  1.422323  0.761866  1.866894  1.068884     16.97    2.7620   11.8579   0.18765   4.33531   0.35078   0.02797  19.26553   2.95700    1732.8  0.498950  0.001024  0.000028  0.000119  0.180205  6.871026  0.587158     39.46  1.000075  1.000004     2.389    12.297      41.9      75.5      24.2     164.5     11.56      2.67     -4.68      0.77     -0.47     -0.34     -0.44     -1.49      3.21     -2.62      0.33      1.64      0.18     -0.62      0.06     -6.12     -0.53     -1.36      0.26     -1.79
       0.958941       2.946123     226.7      0.29      0.98      25.1         3         2      3886      2644   1488.48    -8.273       4.4      24.1   366.925     0.571      85.8   0.10273      46.5         H               192.0  0.050030  0.018920  0.000643  1.511237  0.769587  1.963698  1.072373     17.15    2.5048   10.0728   0.19077   4.16911   0.37205   0.03296  16.30241   2.70868    1596.1  0.500485  0.001466  0.000070  0.000118  0.181788  6.887850  0.590797     41.47  1.000065  1.000004     2.444    13.155      42.8      73.4      20.7     160.1     11.62      1.97     -4.36      1.03      0.13     -0.21     -0.51     -1.26      2.68     -2.08      0.17      1.57     -0.12     -0.98      0.39     -6.48      0.44     -0.38      0.06     -1.83
       0.970172       2.893627     244.6      0.28      0.98      23.1         3         3      3886      4288   1304.90    -8.844       4.3      24.6   365.847     0.566     130.3   0.09958      63.7         H               192.0  0.048370  0.018917  0.000594  1.437457  0.769275  1.868588  1.065876     19.09    2.1353    7.6044   0.18573   3.90546   0.40583   0.04253  12.38414   2.35559    1390.9  0.495562  0.002271  0.000141  0.000118  0.185837  6.919940  0.584467     31.78  1.000049  1.000003     2.382    12.396      42.3      69.8      16.0     133.3     11.63      2.28     -4.96      0.91      0.14      0.06     -0.82     -1.03      2.56     -2.08      0.06      1.48      0.46     -0.72      0.03     -6.22      0.26      0.54     -0.21     -1.68
