corner points
-7.82172966    -34.62894821
-7.880084038    -34.80080414
-8.038894653    -34.57748413
-8.097709656    -34.74922943
========== RESULTS WAVE VERSION 16.10.2018 ====================
IMAGE SIZE  X: 4486     Y:4775    col:row     POLARIZATION:VV
COVERAGE    X: 20.63928364km       Y: 19.795741km 
RESOLUTION dX: 4.600821142m       dY:4.145704922m  
resolution of original product 4.600821142m x 4.145704922m;   raster step x:5999.470769m  
===============================================================
FLAGS: H=HIGH PROBABILITY SEA STATE, I=LAND(ISLAND), O=OUTLIER NO SEA STATE, N=NO WIND AVAILABLE, SEA STATE NOT VISIBLE, M=MEAN PROBABILITY SEA STATE, L= LOW PROBABILITY SEA STATE
Filtering wave length
 integration  Lmin=1m
 integration  Lmax=2200m
  peak        Lmin=100m
               FFT=1024pixels, 4711.240849m 
   mean-Hs (SWH_c)=0.3055673218m
         mean-wind=5.43912077m/s
--------------0--------------1---------2---------3---------4---------5---------6---------7---------8---------9--------10--------11--------12--------13--------14--------15--------16--------17--------18--------19------------------20--------21--------22--------23--------24--------25--------26--------27--------28--------29--------30--------31--------32--------33--------34--------35--------36--------37--------38--------39--------40--------41--------42--------43--------44--------45--------46--------47--------48--------49--------50--------51--------52--------53--------54--------55--------56--------57--------58--------59--------60--------61--------62--------63--------64--------65--------66--------67--------68--------69--------70--------71--------72--------73
            LAT            LON  P-LENGHT     SWH_o     SWH_c     P-DIR      LINE     POINT     ROW-Y     COL-X  M-INTENC        dB      WIND INC-ANGLE  ENERGY-M  ENERGY-N  ENERGY-R ENERGY-NN  FG-DEPTH      FLAG         HEADING-DEG    E30-75   E75-390  E390-600 meanincut   meanout   cut/out  STD-NORM  SPEC-MAX   GL-MEAN    GL-VAR      CORR   ENTROPY   HOMOGEN    ENERGY  CONTRAST  DISSIMIL     STD-O    E 1-30 E600-2000   E2000 >      GODA  LONG-HIG     Tmean  CONVOLUT  MEAN-DIR  relation     Sy/Sx  SKEWNESS  KURTOSIS  cutoff-A >50/10000     INT*V   INT-LOG  S-1_g1f1  S-2_g1f2  S-3_g1f3  S-4_g2f1  S-5_g2f2  S-6_g2f3  S-7_g3f1  S-8_g3f2  S-9_g3f3 S-10_g1f4 S-11_g2f4 S-12_g3f4 S-13_g1f5 S-14_g2f5 S-15_g3f5 S-16_g4f1 S-17_g4f2 S-18_g4f3 S-19_g4f4 S-20_g4f5
--------------1--------------2---------3---------4---------5---------6---------7---------8---------9--------10--------11--------12--------13--------14--------15--------16--------17--------18--------19--------20------------------21--------22--------23--------24--------25--------26--------27--------28--------29--------30--------31--------32--------33--------34--------35--------36--------37--------38--------39--------40--------41--------42--------43--------44--------45--------46--------47--------48--------49--------50--------51--------52--------53--------54--------55--------56--------57--------58--------59--------60--------61--------62--------63--------64--------65--------66--------67--------68--------69--------70--------71--------72--------73--------74
     -34.653366      -7.882977     167.0      0.45      1.62     154.8         1         1      1000      1000    188.12   -17.256       5.6      36.2   263.295     0.555     119.9   0.06325      19.8         H               193.1  0.039146  0.025646  0.000614  2.032330  0.652692  3.113765  1.057697     25.14    3.2857   15.7434   0.09005   4.64853   0.30076   0.01947  28.65148   3.65367     199.0  0.488144  0.001607  0.000282  0.000134  0.204411  7.304211  0.561009    145.87  0.999952  0.999997     2.318    11.896      90.6      78.9      31.9     198.1     10.94     -2.88     -4.05      3.99     -2.19     -2.26     -1.35      0.72      2.97      1.76      0.34     -1.31     -2.57     -2.53     -0.02     -3.49     -0.59     -1.38     -0.68     -1.89
     -34.638351      -7.946404     161.2      0.35      1.62     139.4         1         2      1000      2304    180.18   -17.443       5.6      36.5   261.963     0.551     202.0   0.06199      18.2         H               193.1  0.038393  0.022613  0.000538  1.835231  0.641561  2.860570  1.054952     20.31    3.1324   14.3456   0.08904   4.56602   0.31049   0.02097  26.13671   3.48844     190.1  0.486893  0.002735  0.000515  0.000126  0.204909  7.243292  0.556990    142.92  0.999970  0.999999     2.299    11.589      90.6      78.4      29.4     185.7     11.17     -2.89     -3.86      3.73     -2.14     -1.52     -1.47      1.12      2.79      1.25     -0.01     -1.06     -2.68     -2.65      0.14     -3.89     -0.77     -0.43     -0.73     -1.80
     -34.623440      -8.009249     166.7      0.29      1.62     145.5         1         3      1000      3608    133.57   -18.743       4.6      36.9   262.609     0.543     125.9   0.05527      19.7         H               193.1  0.036575  0.018751  0.000888  1.562590  0.615564  2.538469  1.046803     13.40    2.2036    7.7265   0.06796   3.97280   0.37985   0.03721  14.40279   2.57995     139.8  0.484869  0.002396  0.000242  0.000103  0.199907  7.146940  0.547416    141.53  1.000031  1.000001     2.229    10.742      97.3      70.9      16.5     120.3     11.68     -2.29     -2.31      1.96     -1.44     -1.30      0.19      1.16      1.90      0.91      0.38     -1.12     -1.87     -1.84      0.13     -8.59     -0.29     -0.90      0.44     -0.83
     -34.705448      -7.900686     153.6      0.43      1.62     125.4         2         1      2447      1000    196.08   -17.076       5.8      36.1   263.775     0.559     155.3   0.06519      16.3         H               193.1  0.040017  0.025141  0.000623  2.028419  0.665376  3.048531  1.061595     22.52    3.4446   17.2310   0.09498   4.73031   0.29270   0.01805  31.18899   3.80725     208.1  0.490653  0.002291  0.000387  0.000126  0.204286  7.268441  0.564968    132.48  0.999922  0.999997     2.334    11.878      83.0      79.8      34.7     201.9     11.11     -3.13     -3.31      3.99     -2.41     -1.03     -0.82     -0.01      2.67      0.26     -0.92     -1.40     -2.62     -2.64     -0.46     -3.73     -0.36      0.18     -0.55     -1.66
     -34.690426      -7.964154     167.4      0.34      1.62     150.2         2         2      2447      2304    172.72   -17.627       5.4      36.5   261.870     0.549     162.0   0.06013      19.9         H               193.1  0.038367  0.021236  0.000486  1.750410  0.637482  2.745819  1.052247     18.52    2.9840   13.1128   0.08288   4.48285   0.31941   0.02265  24.05192   3.34729     181.7  0.486457  0.002214  0.000424  0.000119  0.200753  7.194341  0.553647    148.25  0.999959  0.999999     2.281    11.313      88.6      77.4      27.0     169.4     10.97     -2.86     -3.85      3.92     -1.97     -1.38     -1.17      0.83      2.52      1.68      0.30     -1.80     -2.53     -2.76      0.14     -3.47     -0.27      0.10     -0.10     -2.06
     -34.675503      -8.027039     159.1      0.32      1.62     149.6         2         3      2447      3608    149.25   -18.261       5.0      36.9   259.630     0.538      93.5   0.05554      17.7         H               193.1  0.036555  0.018077  0.000674  1.515748  0.614309  2.467404  1.041443     14.48    2.5138    9.5777   0.07005   4.19242   0.35184   0.02981  17.81359   2.88633     155.4  0.481244  0.001685  0.000186  0.000106  0.197467  7.118367  0.541415    145.61  0.999962  0.999999     2.212    10.634      88.6      74.0      20.3     134.2     11.31     -2.65     -3.14      2.83     -1.02     -1.36     -0.44      0.66      2.21      1.21      0.33     -1.25     -3.07     -1.62      0.19     -6.34      1.39     -0.44     -0.02      0.39
     -34.757530      -7.918417     156.9      0.55      1.62     123.7         3         1      3894      1000    224.35   -16.491       6.6      36.1   260.011     0.551      71.9   0.06475      17.1         H               193.1  0.040247  0.025129  0.000420  2.076476  0.654401  3.173093  1.053473     20.25    4.0067   22.2546   0.09598   4.99839   0.26470   0.01374  40.23723   4.34752     236.4  0.484535  0.001018  0.000141  0.000127  0.202557  7.267194  0.556857    135.48  0.999981  0.999999     2.286    11.343      83.0      82.7      44.7     225.7     10.82     -3.03     -3.40      4.86     -2.68     -0.78     -1.06      0.08      2.84      0.60     -0.89     -1.85     -3.01     -2.59     -0.33     -1.79     -0.87      0.38     -0.96     -1.19
     -34.742496      -7.981925     152.6      0.35      1.62     122.6         3         2      3894      2304    181.59   -17.409       5.7      36.5   270.631     0.579     723.5   0.07192      16.0         M               193.1  0.040768  0.024385  0.000931  2.036147  0.676059  3.011789  1.084578     21.51    3.1616   15.3994   0.11103   4.57679   0.31319   0.02155  27.37932   3.52021     196.9  0.502164  0.008995  0.002183  0.000119  0.202902  7.228468  0.587617    134.76  1.000005  1.000000     2.466    13.033     142.7      78.0      30.7     198.8     11.38     -1.78     -2.33      3.17     -2.14     -0.90      0.13     -0.21      2.48      0.44     -1.06     -1.69     -1.78     -3.44      0.19     -6.33     -1.26     -0.49     -0.98     -4.54
     -34.727562      -8.044850     173.3      0.31      1.62     149.0         3         3      3894      3608    145.47   -18.372       4.9      36.9   261.635     0.543     128.5   0.05653      21.7         H               193.1  0.036638  0.018745  0.000616  1.578475  0.616986  2.558363  1.046820     14.14    2.4383    9.1841   0.07159   4.14071   0.35850   0.03157  17.05336   2.81437     152.3  0.485343  0.002000  0.000321  0.000103  0.197505  7.135870  0.547238    142.47  0.999914  0.999998     2.247    10.963      88.6      73.1      19.4     129.2     11.31     -1.79     -3.07      3.09     -1.92     -0.66     -0.46      0.49      1.42      0.75     -0.15     -0.88     -2.30     -2.10      0.16     -5.73     -1.13      1.50     -0.71     -1.09
