corner points
-21.89884377    -60.06727982
-22.05211258    -60.22705841
-22.23828316    -59.98489761
-22.39289284    -60.14429474
========== RESULTS WAVE VERSION 16.10.2018 ====================
IMAGE SIZE  X: 4486     Y:4761    col:row     POLARIZATION:VV
COVERAGE    X: 20.91907263km       Y: 19.64562342km 
RESOLUTION dX: 4.66319051m       dY:4.126364927m  
resolution of original product 4.66319051m x 4.126364927m;   raster step x:5996.862996m  
===============================================================
FLAGS: H=HIGH PROBABILITY SEA STATE, I=LAND(ISLAND), O=OUTLIER NO SEA STATE, N=NO WIND AVAILABLE, SEA STATE NOT VISIBLE, M=MEAN PROBABILITY SEA STATE, L= LOW PROBABILITY SEA STATE
Filtering wave length
 integration  Lmin=1m
 integration  Lmax=2200m
  peak        Lmin=100m
               FFT=1024pixels, 4775.107082m 
   mean-Hs (SWH_c)=0m
         mean-wind=8.061317444m/s
--------------0--------------1---------2---------3---------4---------5---------6---------7---------8---------9--------10--------11--------12--------13--------14--------15--------16--------17--------18--------19------------------20--------21--------22--------23--------24--------25--------26--------27--------28--------29--------30--------31--------32--------33--------34--------35--------36--------37--------38--------39--------40--------41--------42--------43--------44--------45--------46--------47--------48--------49--------50--------51--------52--------53--------54--------55--------56--------57--------58--------59--------60--------61--------62--------63--------64--------65--------66--------67--------68--------69--------70--------71--------72--------73
            LAT            LON  P-LENGHT     SWH_o     SWH_c     P-DIR      LINE     POINT     ROW-Y     COL-X  M-INTENC        dB      WIND INC-ANGLE  ENERGY-M  ENERGY-N  ENERGY-R ENERGY-NN  FG-DEPTH      FLAG         HEADING-DEG    E30-75   E75-390  E390-600 meanincut   meanout   cut/out  STD-NORM  SPEC-MAX   GL-MEAN    GL-VAR      CORR   ENTROPY   HOMOGEN    ENERGY  CONTRAST  DISSIMIL     STD-O    E 1-30 E600-2000   E2000 >      GODA  LONG-HIG     Tmean  CONVOLUT  MEAN-DIR  relation     Sy/Sx  SKEWNESS  KURTOSIS  cutoff-A >50/10000     INT*V   INT-LOG  S-1_g1f1  S-2_g1f2  S-3_g1f3  S-4_g2f1  S-5_g2f2  S-6_g2f3  S-7_g3f1  S-8_g3f2  S-9_g3f3 S-10_g1f4 S-11_g2f4 S-12_g3f4 S-13_g1f5 S-14_g2f5 S-15_g3f5 S-16_g4f1 S-17_g4f2 S-18_g4f3 S-19_g4f4 S-20_g4f5
--------------1--------------2---------3---------4---------5---------6---------7---------8---------9--------10--------11--------12--------13--------14--------15--------16--------17--------18--------19--------20------------------21--------22--------23--------24--------25--------26--------27--------28--------29--------30--------31--------32--------33--------34--------35--------36--------37--------38--------39--------40--------41--------42--------43--------44--------45--------46--------47--------48--------49--------50--------51--------52--------53--------54--------55--------56--------57--------58--------59--------60--------61--------62--------63--------64--------65--------66--------67--------68--------69--------70--------71--------72--------73--------74
     -60.082321     -22.007759     382.9      0.50   -100.89     175.4         1         1      1000      1000    328.60   -14.833       8.4      35.5   642.877     1.599    6485.8   0.47841     100.0         H               199.1  0.195713  0.178445  0.036402 11.246009  4.080035  2.756351  1.815762    176.25    5.8407   94.8234   0.39314   5.39630   0.26095   0.01367 115.08868   6.03024     596.6  1.067949  0.103029  0.018949  0.000097  0.226439  7.368113  1.728463     59.35  0.999197  0.999929     6.564    83.478     166.7      82.7     217.0    1041.0     14.66      0.96     -3.22     -7.77     -0.74      2.01      5.77      0.04     -1.06     -0.27     -0.06      0.34      1.16     -0.36      0.10    -33.98     -2.26      8.06     -0.06     -1.66
     -60.058609     -22.105640     386.7      0.48   -100.89      34.5         1         2      1000      2286    293.02   -15.331       8.0      35.9   628.529     1.546    4444.7   0.45152     100.0         H               199.1  0.200119  0.177714  0.035322 11.615185  4.306027  2.697425  1.776384    193.45    5.2132   77.6588   0.37732   5.22286   0.27241   0.01536  96.71087   5.48805     520.5  1.043660  0.079603  0.011201  0.000095  0.220468  7.329531  1.668571     44.20  0.999714  0.999980     6.588    82.986     128.8      81.5     165.6     924.6     14.17      1.65     -3.01     -6.93     -1.82      1.38      5.69      1.57     -0.68     -0.77      1.11     -0.46      0.04      0.59     -0.13    -32.28     -6.31      5.49      2.91      1.49
     -60.035046     -22.202490     386.4      0.57   -100.89      23.9         1         3      1000      3572    363.20   -14.399       9.8      36.3   610.561     1.477    3686.0   0.41697     100.0         H               199.1  0.189383  0.166106  0.027576 11.236127  3.893335  2.885990  1.732093    135.42    6.5105  104.6374   0.36314   5.63179   0.23887   0.01083 133.27806   6.71085     629.1  1.014546  0.073553  0.007113  0.000093  0.219018  7.316441  1.586264     94.05  0.999619  0.999974     9.087   525.184     128.8      84.8     241.5    1052.6     14.25     -0.53     -0.83     -5.79     -0.06      0.64      4.75      0.41     -0.47     -1.21      0.36      0.07      1.15     -0.31      0.92    -28.39     -0.72      2.90      1.02     -2.45
     -60.131107     -22.054609     382.9      0.52   -100.89       4.6         2         1      2454      1000    344.81   -14.624       8.8      35.5   614.115     1.513    4025.4   0.44026     100.0         H               199.1  0.206085  0.166740  0.031327 10.564623  4.494040  2.350807  1.756620    157.45    6.1680  101.1907   0.37776   5.50245   0.25221   0.01255 125.93105   6.38009     605.5  1.028361  0.071106  0.010315  0.000093  0.213891  7.249768  1.632667     53.56  0.999429  0.999957     6.012    68.907     117.4      83.5     226.4    1001.8     13.88      0.64     -4.00     -6.64     -0.45      2.18      5.89      0.51     -1.67     -0.56      0.72     -0.61      1.66     -0.86      1.23    -31.64     -2.11     10.29      2.75     -4.91
     -60.107365     -22.152609     382.9      0.52   -100.89       4.6         2         2      2454      2286    329.95   -14.816       8.8      35.9   625.165     1.536    4301.6   0.44311     100.0         H               199.1  0.193582  0.169208  0.032912 10.919388  4.096932  2.665260  1.767099    198.96    5.9105   98.2337   0.37748   5.39676   0.26717   0.01479 122.30461   6.16407     582.9  1.044037  0.089605  0.008183  0.000093  0.219190  7.307378  1.657505     91.69  0.999211  0.999935     5.729    63.199     128.8      81.8     209.1     925.5     14.04     -0.17     -4.79     -6.80     -0.18      4.06      5.91      0.53     -3.46     -0.08      0.42     -0.35      1.62     -1.43      1.20    -32.53     -1.09     17.39      1.26     -6.23
     -60.083763     -22.249577     382.9      0.55   -100.89     175.4         2         3      2454      3572    342.80   -14.650       9.4      36.3   610.991     1.494    5244.3   0.43006     100.0         H               199.1  0.187179  0.156688  0.028081 10.779892  3.975373  2.711668  1.749031    124.25    6.1392  101.2616   0.37920   5.48461   0.25615   0.01313 125.72974   6.34647     599.3  1.013993  0.095922  0.012903  0.000091  0.215862  7.286204  1.609784    101.15  0.999277  0.999942     5.910    71.529     153.8      83.0     222.2     989.7     13.94     -0.26     -2.62     -6.07     -0.27      1.89      5.45      0.08     -2.13      0.08      0.17     -0.03      1.22     -1.29      1.37    -30.47     -0.12      9.38      0.08     -5.37
     -60.179882     -22.101595     324.3      0.36   -100.89       3.9         3         1      3908      1000    208.90   -16.801       5.7      35.5   472.564     1.069    3652.1   0.26842     100.0         H               199.1  0.110329  0.089798  0.016345  6.060853  2.379628  2.546975  1.478128     80.99    3.6613   30.4127   0.28877   4.76112   0.29537   0.01853  43.26078   3.99731     308.7  0.776684  0.068406  0.008154  0.000097  0.214317  7.264987  1.134549     95.29  0.999203  0.999944     8.628   169.138     200.3      79.8      62.8     690.9     13.83      0.52     -3.76     -6.17     -0.25      2.66      5.46      0.35     -2.84      0.35     -0.16      0.59      2.62     -1.90      0.52    -30.57     -1.47     12.63     -1.47     -5.77
     -60.156101     -22.199713     386.1      0.41   -100.89      62.8         3         2      3908      2286    232.80   -16.330       6.6      35.9   712.263     1.801    4000.4   0.54965     100.0         H               199.1  0.237633  0.248871  0.042066 14.790126  5.369709  2.754362  1.912065    222.05    4.0657   56.8158   0.39445   4.75540   0.32172   0.02414  68.81077   4.38642     445.0  1.191117  0.074742  0.008100  0.000103  0.224942  7.433293  1.954263     52.82  0.999671  0.999975     8.112   134.147     102.3      76.5     117.1     913.6     14.05      2.23     -3.03     -6.09     -1.26      0.52      4.52      0.75     -0.49      0.03     -0.12      0.85     -0.32      1.49     -0.55    -28.67     -4.95      4.90     -1.36      2.80
     -60.132469     -22.296797     386.4      0.43   -100.89      23.9         3         3      3908      3572    236.13   -16.269       7.0      36.3   599.241     1.453    3653.2   0.41158     100.0         H               199.1  0.180470  0.165975  0.032315  9.765071  4.073976  2.396939  1.717240    183.35    4.1569   50.1959   0.35546   4.88166   0.29757   0.01925  64.70717   4.48999     405.3  0.993817  0.074359  0.007544  0.000101  0.222026  7.350680  1.565663     70.88  0.999153  0.999930     7.348    99.235     117.4      79.2     101.7     748.5     13.97      0.84     -5.44     -6.76     -0.88      3.92      5.39      0.49     -3.43     -0.43      0.83     -0.81      0.48      0.10      0.87    -31.71     -2.75     17.28      3.36     -2.27
