corner points
-6.13890934    -35.94551468
-6.195263386    -36.12307358
-6.3677845    -35.89559555
-6.424768925    -36.07303619
========== RESULTS WAVE VERSION 16.10.2018 ====================
IMAGE SIZE  X: 5671     Y:4910    col:row     POLARIZATION:VV
COVERAGE    X: 21.30331903km       Y: 20.33909733km 
RESOLUTION dX: 3.756536594m       dY:4.142382348m  
resolution of original product 3.756536594m x 4.142382348m;   raster step x:5999.188941m  
===============================================================
FLAGS: H=HIGH PROBABILITY SEA STATE, I=LAND(ISLAND), O=OUTLIER NO SEA STATE, N=NO WIND AVAILABLE, SEA STATE NOT VISIBLE, M=MEAN PROBABILITY SEA STATE, L= LOW PROBABILITY SEA STATE
Filtering wave length
 integration  Lmin=1m
 integration  Lmax=2200m
  peak        Lmin=100m
               FFT=1024pixels, 3846.693472m 
   mean-Hs (SWH_c)=0.2394600296m
         mean-wind=2.32962966m/s
--------------0--------------1---------2---------3---------4---------5---------6---------7---------8---------9--------10--------11--------12--------13--------14--------15--------16--------17--------18--------19------------------20--------21--------22--------23--------24--------25--------26--------27--------28--------29--------30--------31--------32--------33--------34--------35--------36--------37--------38--------39--------40--------41--------42--------43--------44--------45--------46--------47--------48--------49--------50--------51--------52--------53--------54--------55--------56--------57--------58--------59--------60--------61--------62--------63--------64--------65--------66--------67--------68--------69--------70--------71--------72--------73
            LAT            LON  P-LENGHT     SWH_o     SWH_c     P-DIR      LINE     POINT     ROW-Y     COL-X  M-INTENC        dB      WIND INC-ANGLE  ENERGY-M  ENERGY-N  ENERGY-R ENERGY-NN  FG-DEPTH      FLAG         HEADING-DEG    E30-75   E75-390  E390-600 meanincut   meanout   cut/out  STD-NORM  SPEC-MAX   GL-MEAN    GL-VAR      CORR   ENTROPY   HOMOGEN    ENERGY  CONTRAST  DISSIMIL     STD-O    E 1-30 E600-2000   E2000 >      GODA  LONG-HIG     Tmean  CONVOLUT  MEAN-DIR  relation     Sy/Sx  SKEWNESS  KURTOSIS  cutoff-A >50/10000     INT*V   INT-LOG  S-1_g1f1  S-2_g1f2  S-3_g1f3  S-4_g2f1  S-5_g2f2  S-6_g2f3  S-7_g3f1  S-8_g3f2  S-9_g3f3 S-10_g1f4 S-11_g2f4 S-12_g3f4 S-13_g1f5 S-14_g2f5 S-15_g3f5 S-16_g4f1 S-17_g4f2 S-18_g4f3 S-19_g4f4 S-20_g4f5
--------------1--------------2---------3---------4---------5---------6---------7---------8---------9--------10--------11--------12--------13--------14--------15--------16--------17--------18--------19--------20------------------21--------22--------23--------24--------25--------26--------27--------28--------29--------30--------31--------32--------33--------34--------35--------36--------37--------38--------39--------40--------41--------42--------43--------44--------45--------46--------47--------48--------49--------50--------51--------52--------53--------54--------55--------56--------57--------58--------59--------60--------61--------62--------63--------64--------65--------66--------67--------68--------69--------70--------71--------72--------73--------74
     -35.972664      -6.191908       0.0      0.00      0.00       0.0         1         1      1000      1000      0.00     0.000       0.0      22.9     0.000     0.000       0.0   0.00000       0.0         O               193.2  0.000000  0.000000  0.000000  0.000000  0.000000  0.000000  0.000000      0.00    0.0000    0.0000   0.00000   0.00000   0.00000   0.00000   0.00000   0.00000       0.0  0.000000  0.000000  0.000000  0.000000  0.000000  0.000000  0.000000      0.00  0.000000  0.000000     0.000     0.000       0.0       0.0       0.0       0.0      0.00      0.00      0.00      0.00      0.00      0.00      0.00      0.00      0.00      0.00      0.00      0.00      0.00      0.00      0.00      0.00      0.00      0.00      0.00      0.00
     -35.958454      -6.257185       0.0      0.00      0.00       0.0         1         2      1000      2597      0.00     0.000       0.0      23.4     0.000     0.000       0.0   0.00000       0.0         O               193.2  0.000000  0.000000  0.000000  0.000000  0.000000  0.000000  0.000000      0.00    0.0000    0.0000   0.00000   0.00000   0.00000   0.00000   0.00000   0.00000       0.0  0.000000  0.000000  0.000000  0.000000  0.000000  0.000000  0.000000      0.00  0.000000  0.000000     0.000     0.000       0.0       0.0       0.0       0.0      0.00      0.00      0.00      0.00      0.00      0.00      0.00      0.00      0.00      0.00      0.00      0.00      0.00      0.00      0.00      0.00      0.00      0.00      0.00      0.00
     -35.944473      -6.321219     157.2      0.81      2.32     129.1         1         3      1000      4194   1003.07    -9.987       2.9      23.8   302.068     0.691     163.2   0.15015      17.2         H               193.2  0.067052  0.063295  0.001160  4.400548  0.971135  4.531344  1.179118     73.57    1.5589    5.4810   0.25048   3.37038   0.50066   0.08303   8.21620   1.78059    1182.6  0.557491  0.002624  0.000099  0.000204  0.204539  7.421017  0.726212    133.49  0.999973  0.999999     2.897    17.422      68.7      59.0      10.6     123.9     11.02     -3.87     -3.19      4.67     -4.78     -0.56     -0.93      0.64      2.38      0.12     -0.45     -1.54     -4.33     -2.92     -0.14     -2.39     -2.98      1.29     -0.67     -0.37
     -36.025036      -6.208555       0.0      0.00      0.00       0.0         2         1      2448      1000      0.00     0.000       0.0      22.9     0.000     0.000       0.0   0.00000       0.0         O               193.2  0.000000  0.000000  0.000000  0.000000  0.000000  0.000000  0.000000      0.00    0.0000    0.0000   0.00000   0.00000   0.00000   0.00000   0.00000   0.00000       0.0  0.000000  0.000000  0.000000  0.000000  0.000000  0.000000  0.000000      0.00  0.000000  0.000000     0.000     0.000       0.0       0.0       0.0       0.0      0.00      0.00      0.00      0.00      0.00      0.00      0.00      0.00      0.00      0.00      0.00      0.00      0.00      0.00      0.00      0.00      0.00      0.00      0.00      0.00
     -36.010811      -6.273886     383.1      0.14      2.32      84.8         2         2      2448      2597    600.53   -12.215       2.0      23.4   331.363     0.869    3734.7   0.25727     100.0         H               193.2  0.086018  0.092797  0.010287  7.185936  1.167787  6.153467  1.337145     65.60    0.6343    2.6167   0.39366   1.88656   0.77437   0.41185   3.17323   0.74738     802.7  0.614755  0.060925  0.004576  0.000149  0.223088  7.504852  0.941445    138.23  1.000286  1.000020     4.965    47.742     153.8      26.7       4.1     118.3     13.88     -1.12      0.85     -2.67     -2.60     -2.12      1.82      0.07      2.25      0.98     -0.19     -1.15     -0.05     -2.53      0.92    -20.49     -2.57     -6.30     -0.64     -5.47
     -35.996822      -6.337971     167.9      0.38      2.32     142.3         2         3      2448      4194    937.10   -10.282       2.8      23.8   302.171     0.692     526.2   0.15103      20.1         H               193.2  0.067207  0.054928  0.001593  4.203253  0.935571  4.492715  1.180278     60.01    1.4230    4.7544   0.25239   3.23084   0.52236   0.09445   7.10888   1.64261    1105.9  0.559710  0.008760  0.000438  0.000181  0.204758  7.350545  0.727033    136.11  0.999908  0.999994     2.927    17.938      64.2      56.8       9.3     119.9     11.38     -3.32     -2.74      3.81     -3.90     -0.06     -0.55      0.36      1.85     -0.07     -0.21     -1.81     -3.93     -3.26      0.58     -4.59     -2.02      2.19      0.43     -1.99
     -36.077400      -6.225222     146.8      0.13      2.32     139.6         3         1      3896      1000    495.63   -13.048       1.7      22.9   341.092     0.894    4905.2   0.26675      14.6         N               193.2  0.081542  0.089112  0.009359  6.773386  1.168797  5.795179  1.356094     81.72    0.4950    1.7891   0.38637   1.65644   0.80304   0.45832   2.19570   0.60255     672.1  0.628244  0.080000  0.006718  0.000179  0.217219  7.545154  0.971006    137.61  1.000298  1.000022     4.972    45.176     404.2      23.4       2.9      99.3     13.00     -1.54      0.31     -1.19     -4.09     -1.68      2.77      0.23      2.56      0.28     -0.01     -0.69     -1.31     -2.42      0.15    -18.48     -4.47     -4.99     -0.99     -2.61
     -36.063168      -6.290606     146.3      0.13      2.32     142.5         3         2      3896      2597    520.81   -12.833       1.9      23.4   326.777     0.839    3693.2   0.23488      14.6         H               193.2  0.077940  0.075530  0.009589  6.032846  1.037782  5.813211  1.304052     70.71    0.5449    1.7900   0.35806   1.81288   0.77533   0.39850   2.29821   0.67154     679.1  0.607638  0.063933  0.004842  0.000165  0.219464  7.470831  0.904948    139.58  1.000237  1.000016     4.387    37.395     181.9      26.7       3.0      89.8     13.54     -1.88      1.34     -2.60     -2.22     -2.55      3.42     -0.55      3.29      0.24      0.39     -2.04     -1.28     -1.98      0.27    -22.69     -0.25     -8.47      1.78     -1.71
     -36.049171      -6.354743     149.7      0.14      2.32     144.3         3         3      3896      4194    577.61   -12.384       2.1      23.8   326.735     0.802    3192.5   0.20563      15.3         H               193.2  0.070688  0.068357  0.006957  5.501752  0.991187  5.550671  1.285777     48.62    0.7946    2.1102   0.30420   2.35125   0.70159   0.20694   2.93662   0.88006     742.7  0.601959  0.051791  0.002759  0.000163  0.214401  7.468497  0.858518    136.55  0.999880  0.999991     3.807    28.615     137.8      44.4       4.1      86.9     12.82     -1.74     -1.21     -0.83     -2.84     -0.22      2.63     -0.70      1.38      0.36      0.09     -1.08     -1.34     -3.25      1.14    -18.02     -1.21      0.85     -0.31     -6.03
