corner points
-7.319463253    -39.43148041
-7.380831718    -39.60861588
-7.559915066    -39.37943649
-7.622012615    -39.55643845
========== RESULTS WAVE VERSION 16.10.2018 ====================
IMAGE SIZE  X: 5671     Y:4915    col:row     POLARIZATION:VV
COVERAGE    X: 21.41298848km       Y: 20.34370899km 
RESOLUTION dX: 3.775875239m       dY:4.139106609m  
resolution of original product 3.775875239m x 4.139106609m;   raster step x:5999.865754m  
===============================================================
FLAGS: H=HIGH PROBABILITY SEA STATE, I=LAND(ISLAND), O=OUTLIER NO SEA STATE, N=NO WIND AVAILABLE, SEA STATE NOT VISIBLE, M=MEAN PROBABILITY SEA STATE, L= LOW PROBABILITY SEA STATE
Filtering wave length
 integration  Lmin=1m
 integration  Lmax=2200m
  peak        Lmin=100m
               FFT=1024pixels, 3866.496244m 
   mean-Hs (SWH_c)=0.2m
         mean-wind=3.498559713m/s
--------------0--------------1---------2---------3---------4---------5---------6---------7---------8---------9--------10--------11--------12--------13--------14--------15--------16--------17--------18--------19------------------20--------21--------22--------23--------24--------25--------26--------27--------28--------29--------30--------31--------32--------33--------34--------35--------36--------37--------38--------39--------40--------41--------42--------43--------44--------45--------46--------47--------48--------49--------50--------51--------52--------53--------54--------55--------56--------57--------58--------59--------60--------61--------62--------63--------64--------65--------66--------67--------68--------69--------70--------71--------72--------73
            LAT            LON  P-LENGHT     SWH_o     SWH_c     P-DIR      LINE     POINT     ROW-Y     COL-X  M-INTENC        dB      WIND INC-ANGLE  ENERGY-M  ENERGY-N  ENERGY-R ENERGY-NN  FG-DEPTH      FLAG         HEADING-DEG    E30-75   E75-390  E390-600 meanincut   meanout   cut/out  STD-NORM  SPEC-MAX   GL-MEAN    GL-VAR      CORR   ENTROPY   HOMOGEN    ENERGY  CONTRAST  DISSIMIL     STD-O    E 1-30 E600-2000   E2000 >      GODA  LONG-HIG     Tmean  CONVOLUT  MEAN-DIR  relation     Sy/Sx  SKEWNESS  KURTOSIS  cutoff-A >50/10000     INT*V   INT-LOG  S-1_g1f1  S-2_g1f2  S-3_g1f3  S-4_g2f1  S-5_g2f2  S-6_g2f3  S-7_g3f1  S-8_g3f2  S-9_g3f3 S-10_g1f4 S-11_g2f4 S-12_g3f4 S-13_g1f5 S-14_g2f5 S-15_g3f5 S-16_g4f1 S-17_g4f2 S-18_g4f3 S-19_g4f4 S-20_g4f5
--------------1--------------2---------3---------4---------5---------6---------7---------8---------9--------10--------11--------12--------13--------14--------15--------16--------17--------18--------19--------20------------------21--------22--------23--------24--------25--------26--------27--------28--------29--------30--------31--------32--------33--------34--------35--------36--------37--------38--------39--------40--------41--------42--------43--------44--------45--------46--------47--------48--------49--------50--------51--------52--------53--------54--------55--------56--------57--------58--------59--------60--------61--------62--------63--------64--------65--------66--------67--------68--------69--------70--------71--------72--------73--------74
     -39.458122      -7.375588     122.8      0.23      1.65     127.5         1         1      1000      1000   1601.49    -7.955       3.5      22.8   274.934     0.673      78.8   0.14379       9.8         H               193.6  0.070345  0.035189  0.000516  3.488421  0.879319  3.967184  1.163506     28.91    2.7313   13.7233   0.23766   4.29127   0.36766   0.03257  20.92373   2.94032    1863.3  0.566028  0.001103  0.000059  0.000162  0.177383  7.017658  0.700192    123.83  1.000152  1.000012     3.011    19.797      64.2      73.3      25.9     215.6     10.03     -2.16     -1.35      5.52     -3.55      0.58      1.82     -1.81      2.05      0.50     -0.35     -2.05     -4.12     -3.65     -1.19      0.19     -2.75      1.74     -1.01     -1.83
     -39.443378      -7.443842     136.5      0.21      1.65     135.1         1         2      1000      2589   1248.88    -9.035       3.1      23.3   275.032     0.671     110.1   0.14218      12.4         H               193.6  0.068467  0.035814  0.000561  3.478223  0.895909  3.882339  1.161527     28.47    2.0355    8.2853   0.23580   3.80269   0.43205   0.05238  12.66333   2.26615    1450.6  0.564867  0.001519  0.000107  0.000154  0.181429  7.045765  0.698657    128.61  1.000149  1.000012     2.987    20.202      64.2      66.5      16.0     180.2     10.45     -1.80     -1.72      4.89     -3.59      0.04      1.06     -1.20      1.80      0.85      0.17     -1.36     -4.69     -3.35     -0.87     -0.95     -2.44      1.02     -0.77     -1.09
     -39.428875      -7.510785     127.1      0.20      1.65     124.7         1         3      1000      4178   1075.68    -9.683       3.0      23.7   273.903     0.662     103.0   0.13817      10.6         H               193.6  0.067906  0.035376  0.000631  3.346174  0.882545  3.791507  1.153377     28.98    1.6971    6.0528   0.23166   3.51489   0.47209   0.06843   9.30132   1.93133    1240.6  0.556701  0.001559  0.000077  0.000156  0.183614  7.037594  0.688566    126.34  1.000138  1.000010     2.914    18.190      63.2      62.3      11.9     138.6     10.57     -1.90     -1.84      4.60     -3.62      0.29      1.15     -1.69      2.01      0.98      0.12     -1.72     -3.99     -3.28     -1.08     -1.39     -2.71      1.28     -0.81     -1.52
     -39.510349      -7.393712     149.9      0.22      1.65     144.4         2         1      2449      1000   1508.13    -8.216       3.3      22.8   274.398     0.670     161.5   0.14279      15.4         H               193.6  0.069041  0.035778  0.000627  3.454825  0.876826  3.940149  1.161265     27.61    2.5487   12.1326   0.23827   4.17463   0.38242   0.03643  18.48358   2.76215    1751.2  0.562467  0.002458  0.000159  0.000154  0.185241  7.047942  0.697940    132.82  1.000156  1.000011     3.003    20.125      65.3      71.8      23.0     216.0     10.76     -2.50     -1.76      4.48     -3.23      0.12      0.64     -0.65      1.85      1.51      0.70     -1.26     -4.89     -3.36     -0.20     -1.66     -1.13      1.13     -0.38     -1.12
     -39.495598      -7.462027     124.6      0.22      1.65     134.9         2         2      2449      2589   1322.88    -8.785       3.3      23.2   273.477     0.666      66.0   0.14096      10.2         H               193.6  0.069535  0.033176  0.000551  3.253923  0.883550  3.682781  1.157886     23.17    2.1850    9.2814   0.23368   3.91985   0.41520   0.04641  14.22510   2.41292    1531.7  0.562692  0.000942  0.000028  0.000149  0.178575  6.983216  0.692975    126.77  1.000165  1.000014     2.946    18.543      66.4      68.4      17.8     170.0     10.61     -1.86     -1.52      4.66     -3.55      0.23      0.93     -1.37      1.62      1.09     -0.09     -1.15     -4.37     -3.29     -0.38     -1.44     -2.25      1.24     -1.38     -1.18
     -39.481079      -7.529028     133.4      0.24      1.65     139.0         2         3      2449      4178   1309.01    -8.831       3.6      23.7   272.277     0.663     143.1   0.13965      11.8         H               193.6  0.068049  0.031842  0.000634  3.060377  0.881768  3.470727  1.154089     32.42    2.1611    9.0630   0.23373   3.90218   0.41760   0.04718  13.88949   2.38744    1510.7  0.560406  0.002160  0.000128  0.000153  0.179321  6.988930  0.689257    132.07  1.000165  1.000014     2.893    17.960      65.3      68.1      17.5     169.6     10.57     -1.87     -1.55      4.54     -3.48      0.14      1.17     -1.70      1.11      0.97      0.25     -1.26     -4.09     -3.51     -0.66     -2.05     -1.78      1.80     -0.31     -1.39
     -39.562572      -7.411859     139.0      0.23      1.65     131.0         3         1      3898      1000   1582.02    -8.008       3.5      22.8   274.875     0.678      80.0   0.14715      13.0         H               193.6  0.071317  0.037322  0.000722  3.463545  0.907005  3.818663  1.167299     34.99    2.6958   13.5053   0.24249   4.26735   0.37130   0.03350  20.46045   2.90419    1846.5  0.567362  0.001234  0.000034  0.000165  0.186609  7.060112  0.706189    129.43  1.000134  1.000012     2.999    19.292      66.4      72.9      25.4     209.3     10.92     -2.69     -1.39      4.51     -3.68      0.29      0.55     -1.35      1.74      0.59     -0.09     -1.54     -5.01     -3.81      0.08     -2.16     -1.40      0.87     -0.66     -1.54
     -39.547806      -7.480236     123.6      0.24      1.65     129.9         3         2      3898      2589   1488.96    -8.271       3.6      23.2   271.494     0.660     113.3   0.13845      10.0         H               193.6  0.067069  0.032654  0.000590  3.126224  0.873353  3.579566  1.151507     32.37    2.5149   11.6821   0.23213   4.15490   0.38382   0.03679  17.94082   2.73229    1714.4  0.557940  0.001866  0.000082  0.000162  0.182521  7.010322  0.685772    130.75  1.000150  1.000012     2.888    17.976      64.2      71.7      22.3     199.2     10.57     -3.24     -1.62      4.86     -3.66      0.27      0.94     -1.28      1.73      1.33     -0.01     -1.68     -4.53     -3.51     -0.52     -1.52     -1.49      1.29     -0.86     -1.20
     -39.533283      -7.547297     139.6      0.29      1.65     133.8         3         3      3898      4178   1654.82    -7.812       4.5      23.7   268.264     0.652      79.5   0.13706      13.1         H               193.6  0.067128  0.029350  0.000626  2.815202  0.858194  3.280379  1.144340     18.08    2.8397   14.2424   0.23122   4.36291   0.35639   0.02970  21.89881   3.04216    1893.5  0.553819  0.001048  0.000059  0.000137  0.179271  6.948913  0.676493    118.31  1.000160  1.000013     2.864    17.604      65.3      74.5      27.2     209.5     10.99     -1.54     -1.53      3.70     -3.04      0.20      0.53     -0.68      1.56      1.10      0.36     -1.36     -3.67     -2.21      0.24     -2.85     -2.36      0.95     -0.31     -0.59
