corner points
-32.56567001    -71.04040527
-32.88297272    -71.18960571
-33.06307602    -70.92723846
-33.38256454    -71.07559204
========== RESULTS WAVE VERSION 16.10.2018 ====================
IMAGE SIZE  X: 5671     Y:4889    col:row     POLARIZATION:VV
COVERAGE    X: 21.93446775km       Y: 20.09848361km 
RESOLUTION dX: 3.867830673m       dY:4.110960035m  
resolution of original product 3.867830673m x 4.110960035m;   raster step x:5999.005374m  
===============================================================
FLAGS: H=HIGH PROBABILITY SEA STATE, I=LAND(ISLAND), O=OUTLIER NO SEA STATE, N=NO WIND AVAILABLE, SEA STATE NOT VISIBLE, M=MEAN PROBABILITY SEA STATE, L= LOW PROBABILITY SEA STATE
Filtering wave length
 integration  Lmin=1m
 integration  Lmax=2200m
  peak        Lmin=100m
               FFT=1024pixels, 3960.658609m 
   mean-Hs (SWH_c)=0.08888889313m
         mean-wind=2.802263498m/s
--------------0--------------1---------2---------3---------4---------5---------6---------7---------8---------9--------10--------11--------12--------13--------14--------15--------16--------17--------18--------19------------------20--------21--------22--------23--------24--------25--------26--------27--------28--------29--------30--------31--------32--------33--------34--------35--------36--------37--------38--------39--------40--------41--------42--------43--------44--------45--------46--------47--------48--------49--------50--------51--------52--------53--------54--------55--------56--------57--------58--------59--------60--------61--------62--------63--------64--------65--------66--------67--------68--------69--------70--------71--------72--------73
            LAT            LON  P-LENGHT     SWH_o     SWH_c     P-DIR      LINE     POINT     ROW-Y     COL-X  M-INTENC        dB      WIND INC-ANGLE  ENERGY-M  ENERGY-N  ENERGY-R ENERGY-NN  FG-DEPTH      FLAG         HEADING-DEG    E30-75   E75-390  E390-600 meanincut   meanout   cut/out  STD-NORM  SPEC-MAX   GL-MEAN    GL-VAR      CORR   ENTROPY   HOMOGEN    ENERGY  CONTRAST  DISSIMIL     STD-O    E 1-30 E600-2000   E2000 >      GODA  LONG-HIG     Tmean  CONVOLUT  MEAN-DIR  relation     Sy/Sx  SKEWNESS  KURTOSIS  cutoff-A >50/10000     INT*V   INT-LOG  S-1_g1f1  S-2_g1f2  S-3_g1f3  S-4_g2f1  S-5_g2f2  S-6_g2f3  S-7_g3f1  S-8_g3f2  S-9_g3f3 S-10_g1f4 S-11_g2f4 S-12_g3f4 S-13_g1f5 S-14_g2f5 S-15_g3f5 S-16_g4f1 S-17_g4f2 S-18_g4f3 S-19_g4f4 S-20_g4f5
--------------1--------------2---------3---------4---------5---------6---------7---------8---------9--------10--------11--------12--------13--------14--------15--------16--------17--------18--------19--------20------------------21--------22--------23--------24--------25--------26--------27--------28--------29--------30--------31--------32--------33--------34--------35--------36--------37--------38--------39--------40--------41--------42--------43--------44--------45--------46--------47--------48--------49--------50--------51--------52--------53--------54--------55--------56--------57--------58--------59--------60--------61--------62--------63--------64--------65--------66--------67--------68--------69--------70--------71--------72--------73--------74
     -71.050484     -32.721046     382.2      0.20      1.21     129.5         1         1      1000      1000   1376.09    -8.614       2.7      22.2   188.779     0.707     304.9   0.14995     100.0         H               208.8  0.077207  0.042624  0.004490  3.150649  1.520905  2.071562  1.191171     22.15    2.2744   10.4911   0.24616   3.97139   0.41767   0.04801  15.81708   2.50191    1639.0  0.576325  0.006921  0.000174  0.000104  0.201907  7.088757  0.738880     82.48  0.999915  0.999996     2.984    18.919      47.4      67.6      19.6     192.3     12.76      0.15     -1.71     -2.46      0.26     -0.43      2.80     -0.51     -0.12     -0.47     -0.01      0.44      0.05      0.71     -0.16    -18.11      0.84      0.82     -0.52      1.76
     -71.019150     -32.859264     360.5      0.19      1.21     140.4         1         2      1000      2551   1283.66    -8.915       2.8      22.6   184.360     0.682     974.2   0.14018     100.0         H               208.8  0.066082  0.032114  0.004203  2.346339  1.271231  1.845722  1.172355     20.65    2.0892    8.8546   0.24151   3.84084   0.42983   0.05151  13.43225   2.31563    1504.8  0.561337  0.017925  0.001044  0.000104  0.199430  7.026082  0.711194     94.48  1.000014  1.000001     3.008    19.560      92.7      66.8      16.8     182.5     13.03     -0.74     -1.78     -3.67      0.73     -0.37      3.90     -0.46      0.11      0.14     -0.14      0.28     -0.90      1.53     -0.35    -22.16      3.02      0.77     -0.43      3.69
     -70.988319     -32.994396     390.0      0.15      1.21      62.4         1         3      1000      4102    820.51   -10.859       2.1      23.1   195.056     0.746    1351.6   0.16631     100.0         H               208.8  0.075197  0.046437  0.007368  3.357140  1.424221  2.357176  1.227955     29.31    1.2023    3.9524   0.26564   2.97705   0.55772   0.11653   5.80499   1.42939    1007.5  0.589709  0.026689  0.001344  0.000108  0.215589  7.188178  0.785454     78.06  0.999740  0.999984     3.819    34.815     107.8      52.7       7.4     141.9     13.89      1.16     -1.56     -5.09     -0.80     -0.12      4.35      1.12      1.24     -0.64      0.34     -0.13      0.12      0.06      0.08    -26.57     -4.51     -0.55      1.34      0.26
     -71.094994     -32.815674     387.4      0.20      1.21      23.0         2         1      2459      1000   1541.60    -8.120       2.9      22.2   187.509     0.701     533.0   0.14805     100.0         H               208.8  0.073527  0.038222  0.005176  2.845119  1.452602  1.958637  1.187683     22.60    2.6049   13.1573   0.24626   4.19915   0.38705   0.03831  19.83452   2.82469    1830.9  0.573310  0.011171  0.000440  0.000104  0.201497  7.058811  0.732422     93.32  0.999912  0.999996     3.016    20.704      63.2      70.9      24.4     231.2     13.09      0.08     -0.93     -3.79     -0.29     -0.65      4.10      0.11      0.06      0.22      0.28     -0.77      0.67      0.41     -0.19    -22.38     -0.97     -0.50      1.68      1.16
     -71.063591     -32.954071     381.2      0.20      1.21     105.8         2         2      2459      2551   1346.61    -8.708       2.9      22.6   185.481     0.692    1122.8   0.14487     100.0         H               208.8  0.064715  0.035151  0.006660  2.458261  1.237151  1.987034  1.181552     25.63    2.2263   10.0075   0.24817   3.93917   0.41962   0.04815  15.04793   2.44631    1591.1  0.563143  0.021811  0.001170  0.000107  0.211165  7.106844  0.723071     79.12  0.999883  0.999993     2.934    17.799     105.0      67.8      18.7     174.2     13.89      0.78     -2.05     -6.29     -0.03     -0.07      5.59     -0.46      0.29     -1.25      0.84     -0.42      0.07      0.71     -0.56    -30.47     -0.12      1.21      3.14      2.41
     -71.032692     -33.089382     380.9      0.18      1.21       5.5         2         3      2459      4102   1086.98    -9.638       2.6      23.1   208.311     0.820    2828.9   0.19610     100.0         H               208.8  0.074614  0.050561  0.009554  3.695624  1.403983  2.632243  1.302187     45.33    1.7464    7.9438   0.29892   3.49763   0.50190   0.08299  11.13859   1.94567    1415.5  0.630985  0.052446  0.002662  0.000111  0.224255  7.271093  0.868588     72.45  0.999790  0.999989     3.454    23.410     210.9      59.4      13.9     167.0     14.43      1.22     -1.61     -6.50     -1.14      1.83      5.08      1.28     -1.78     -0.42      0.17      0.22      1.17     -0.59      0.47    -30.77     -5.28      7.66     -0.06     -2.69
     -71.139465     -32.910717     390.0      0.20      1.21     117.6         3         1      3918      1000   1530.70    -8.151       2.9      22.2   182.025     0.675     410.3   0.13916     100.0         H               208.8  0.070934  0.035788  0.004077  2.650449  1.409643  1.880227  1.165614     19.52    2.5875   12.5446   0.23996   4.19593   0.38457   0.03719  19.06885   2.79774    1784.2  0.556063  0.008069  0.000338  0.000103  0.196466  7.038783  0.703261    109.35  0.999940  0.999997     2.869    17.560      53.1      71.4      23.7     202.2     12.58     -1.01     -1.51     -2.57      0.79     -0.97      3.41     -0.16      0.19     -0.29      0.17      0.17      0.68     -0.13      0.52    -18.76      2.18     -0.72      0.17     -0.93
     -71.107986     -33.049301     380.9      0.21      1.21       5.5         3         2      3918      2551   1425.32    -8.461       3.1      22.6   185.897     0.693     721.6   0.14524     100.0         H               208.8  0.070622  0.036457  0.005236  2.632944  1.404180  1.875076  1.183319     20.52    2.3768   11.1552   0.24524   4.04902   0.40484   0.04330  16.83884   2.59508    1686.4  0.566823  0.014090  0.000616  0.000105  0.198834  7.050632  0.723886     72.86  0.999923  0.999996     2.997    18.945      71.1      69.3      20.9     195.2     12.90      0.11     -2.27     -3.90     -0.03     -0.29      4.66      0.03     -0.04     -0.75      0.56     -0.15      0.32      0.15      0.37    -23.78     -0.27      1.34      1.54     -0.16
     -71.077019     -33.184788     380.9      0.22      1.21     174.5         3         3      3918      4102   1352.23    -8.689       3.2      23.1   193.140     0.734     901.0   0.16008     100.0         H               208.8  0.073290  0.044976  0.006609  3.338554  1.386683  2.407583  1.213160     31.75    2.2254   10.4711   0.25861   3.91660   0.43738   0.05503  15.52636   2.43514    1640.5  0.589049  0.019535  0.000618  0.000106  0.215595  7.184615  0.769005     83.92  0.999920  0.999996     2.923    18.549      86.6      65.8      19.2     192.8     13.87      0.47     -0.91     -4.76     -0.57      0.53      4.08      0.34     -0.62     -0.58      0.34      0.20      0.59     -0.48      0.50    -25.28     -2.16      2.60      0.62     -1.94
