corner points
0.8640646338    -1.224399686
0.8269356489    -1.39954102
0.685077548    -1.185624361
0.6479299664    -1.360721707
========== RESULTS WAVE VERSION 16.10.2018 ====================
IMAGE SIZE  X: 4486     Y:4785    col:row     POLARIZATION:VV
COVERAGE    X: 20.315153km       Y: 19.86072277km 
RESOLUTION dX: 4.528567321m       dY:4.150621268m  
resolution of original product 4.528567321m x 4.150621268m;   raster step x:5995.823133m  
===============================================================
FLAGS: H=HIGH PROBABILITY SEA STATE, I=LAND(ISLAND), O=OUTLIER NO SEA STATE, N=NO WIND AVAILABLE, SEA STATE NOT VISIBLE, M=MEAN PROBABILITY SEA STATE, L= LOW PROBABILITY SEA STATE
Filtering wave length
 integration  Lmin=1m
 integration  Lmax=2200m
  peak        Lmin=100m
               FFT=1024pixels, 4637.252937m 
   mean-Hs (SWH_c)=0.2m
         mean-wind=6.313169003m/s
--------------0--------------1---------2---------3---------4---------5---------6---------7---------8---------9--------10--------11--------12--------13--------14--------15--------16--------17--------18--------19------------------20--------21--------22--------23--------24--------25--------26--------27--------28--------29--------30--------31--------32--------33--------34--------35--------36--------37--------38--------39--------40--------41--------42--------43--------44--------45--------46--------47--------48--------49--------50--------51--------52--------53--------54--------55--------56--------57--------58--------59--------60--------61--------62--------63--------64--------65--------66--------67--------68--------69--------70--------71--------72--------73
            LAT            LON  P-LENGHT     SWH_o     SWH_c     P-DIR      LINE     POINT     ROW-Y     COL-X  M-INTENC        dB      WIND INC-ANGLE  ENERGY-M  ENERGY-N  ENERGY-R ENERGY-NN  FG-DEPTH      FLAG         HEADING-DEG    E30-75   E75-390  E390-600 meanincut   meanout   cut/out  STD-NORM  SPEC-MAX   GL-MEAN    GL-VAR      CORR   ENTROPY   HOMOGEN    ENERGY  CONTRAST  DISSIMIL     STD-O    E 1-30 E600-2000   E2000 >      GODA  LONG-HIG     Tmean  CONVOLUT  MEAN-DIR  relation     Sy/Sx  SKEWNESS  KURTOSIS  cutoff-A >50/10000     INT*V   INT-LOG  S-1_g1f1  S-2_g1f2  S-3_g1f3  S-4_g2f1  S-5_g2f2  S-6_g2f3  S-7_g3f1  S-8_g3f2  S-9_g3f3 S-10_g1f4 S-11_g2f4 S-12_g3f4 S-13_g1f5 S-14_g2f5 S-15_g3f5 S-16_g4f1 S-17_g4f2 S-18_g4f3 S-19_g4f4 S-20_g4f5
--------------1--------------2---------3---------4---------5---------6---------7---------8---------9--------10--------11--------12--------13--------14--------15--------16--------17--------18--------19--------20------------------21--------22--------23--------24--------25--------26--------27--------28--------29--------30--------31--------32--------33--------34--------35--------36--------37--------38--------39--------40--------41--------42--------43--------44--------45--------46--------47--------48--------49--------50--------51--------52--------53--------54--------55--------56--------57--------58--------59--------60--------61--------62--------63--------64--------65--------66--------67--------68--------69--------70--------71--------72--------73--------74
      -1.252265       0.815943     236.1      0.39      1.16      27.3         1         1      1000      1000    196.78   -17.060       6.3      36.8   214.563     0.516      42.4   0.04963      54.3         H               192.0  0.034879  0.009440  0.000382  0.809771  0.598327  1.353393  1.019021      5.17    3.4566   16.0034   0.05637   4.74232   0.28490   0.01681  30.20261   3.82584     200.5  0.470444  0.000663  0.000077  0.000090  0.164917  6.757241  0.516434     57.30  1.000011  1.000001     2.095     9.783      78.1      80.8      33.5     178.6     10.85      0.81     -3.24      1.35      1.26     -0.49      1.55     -0.90      1.19     -0.23     -0.45      0.67     -0.17     -0.66      1.00     -6.89      2.66      0.13     -1.09     -1.67
      -1.240773       0.762908     224.7      0.40      1.16      32.2         1         2      1000      2324    192.37   -17.159       6.5      37.2   214.762     0.515      49.9   0.04935      45.1         H               192.0  0.034567  0.009453  0.000374  0.800833  0.600998  1.332506  1.018018      4.89    3.3716   15.2534   0.05497   4.69880   0.28976   0.01748  28.82986   3.73375     195.8  0.469576  0.000855  0.000085  0.000090  0.165984  6.769979  0.515229     49.63  1.000034  1.000002     2.096     9.779      79.7      80.3      32.1     171.6     10.70      0.20     -3.16      1.55      1.11     -0.39      1.58     -1.07      1.33     -0.34     -0.43      1.20      0.11     -0.02      0.47     -6.53      3.16     -0.38     -1.18     -0.22
      -1.229380       0.710329     229.6      0.41      1.16      23.3         1         3      1000      3648    189.40   -17.226       6.6      37.6   213.469     0.513      43.5   0.04942      48.7         H               192.0  0.034520  0.009265  0.000340  0.771743  0.598265  1.289968  1.016544      6.38    3.3113   14.7440   0.05580   4.66720   0.29337   0.01805  27.84250   3.67319     192.5  0.468190  0.000700  0.000082  0.000091  0.167634  6.758511  0.513547     35.15  1.000031  1.000001     2.077     9.579      79.7      80.1      31.1     167.4     11.02      1.13     -3.33      1.30      0.88     -0.36      0.87     -1.18      1.23     -0.65     -0.24      1.22     -0.01     -0.43      0.98     -6.31      2.11      0.04     -0.99     -1.48
      -1.305163       0.804728     220.1      0.37      1.16      28.3         2         1      2445      1000    187.34   -17.274       6.0      36.8   214.154     0.513      47.5   0.04833      42.0         H               192.0  0.034138  0.008963  0.000315  0.766940  0.586317  1.308063  1.016846      5.59    3.2688   14.4312   0.05254   4.64487   0.29496   0.01845  27.34602   3.64165     190.5  0.468995  0.000695  0.000095  0.000091  0.165912  6.745553  0.513628     44.14  0.999990  1.000001     2.076     9.620      81.3      79.7      30.5     166.6     10.92      0.14     -3.35      1.47      1.27     -0.30      1.00     -0.94      1.14     -0.32     -0.25      1.03     -0.05     -0.37      0.43     -5.87      3.64      0.31     -1.11     -0.75
      -1.293668       0.751692     237.9      0.40      1.16      17.9         2         2      2445      2324    193.45   -17.134       6.5      37.2   214.247     0.515      46.5   0.04982      56.0         H               192.0  0.034883  0.009500  0.000356  0.797470  0.601014  1.326874  1.018191      5.78    3.3929   15.4244   0.05669   4.70978   0.28867   0.01731  29.10011   3.75338     197.0  0.469532  0.000776  0.000078  0.000091  0.168974  6.764180  0.515663     43.80  1.000039  1.000001     2.085     9.613      78.1      80.4      32.4     165.7     11.10      0.91     -3.37      1.16      0.90     -0.14      0.87     -1.03      1.20     -0.42     -0.38      0.73     -0.40     -0.48      0.74     -6.48      2.09      0.55     -1.06     -0.87
      -1.282270       0.699112     224.9      0.39      1.16      25.9         2         3      2445      3648    182.76   -17.381       6.4      37.6   214.679     0.515      35.8   0.04889      45.3         H               192.0  0.034402  0.009249  0.000314  0.789747  0.586876  1.345679  1.019004      4.65    3.1787   13.7808   0.05329   4.59616   0.30121   0.01936  26.09293   3.54659     186.2  0.470730  0.000552  0.000055  0.000090  0.165054  6.756587  0.515732     48.63  1.000014  1.000001     2.096     9.713      81.3      79.4      29.1     158.9     10.73      1.06     -2.96      1.84      1.03     -0.23      1.28     -1.05      0.88     -0.45     -0.13      0.85      0.53     -0.39      0.21     -5.55      2.72      0.40     -0.39     -1.15
      -1.358061       0.793510     224.9      0.38      1.16      25.9         3         1      3890      1000    189.14   -17.232       6.1      36.8   214.439     0.514      36.0   0.04877      45.3         H               192.0  0.034634  0.009209  0.000287  0.788620  0.595936  1.323330  1.017549      5.97    3.3041   14.7306   0.05368   4.66359   0.29338   0.01814  27.87954   3.67454     192.4  0.469622  0.000629  0.000052  0.000091  0.163992  6.750296  0.514995     40.92  1.000015  1.000001     2.080     9.606      79.7      79.9      31.1     165.6     10.55      1.24     -3.26      2.16      0.55     -0.59      1.02     -1.15      0.82     -0.58     -0.35      1.22     -0.65      0.06      0.38     -4.94      1.42      0.18     -1.45      0.40
      -1.346562       0.740472     218.7      0.39      1.16      22.2         3         2      3890      2324    187.65   -17.266       6.3      37.2   215.155     0.516      40.5   0.04930      41.2         H               192.0  0.034692  0.009166  0.000333  0.788037  0.590143  1.335332  1.019662      3.73    3.2776   14.5599   0.05472   4.64938   0.29497   0.01838  27.52653   3.64455     191.4  0.471734  0.000676  0.000069  0.000090  0.163920  6.748172  0.517259     66.49  1.000029  1.000001     2.111     9.950      79.7      79.8      30.7     172.3     10.80      0.50     -3.25      1.54      0.69     -0.57      1.24     -0.50      1.06     -0.06     -0.13      0.60     -0.07     -0.33      0.86     -6.23      1.22      0.05     -0.25     -1.43
      -1.335160       0.687890     218.7      0.38      1.16      22.2         3         3      3890      3648    172.86   -17.623       6.1      37.6   215.108     0.514      47.3   0.04817      41.2         H               192.0  0.034291  0.008753  0.000309  0.752675  0.594046  1.267033  1.017770      4.27    2.9819   12.2974   0.05073   4.48566   0.31308   0.02157  23.34731   3.35502     175.9  0.470159  0.000752  0.000091  0.000091  0.163173  6.729154  0.514656     55.58  1.000009  1.000000     2.095     9.780      83.0      78.1      26.3     151.8     10.79      0.47     -3.45      1.55      0.99     -0.12      1.24     -0.66      0.87     -0.24     -0.30      1.04      0.55     -0.59      0.37     -6.05      2.11      1.01     -1.17     -1.59
