corner points
-6.675455093    -31.1449337
-6.729483128    -31.31744576
-6.884384632    -31.09549522
-6.938807487    -31.26791
========== RESULTS WAVE VERSION 16.10.2018 ====================
IMAGE SIZE  X: 4486     Y:4777    col:row     POLARIZATION:VV
COVERAGE    X: 20.5901513km       Y: 19.81399195km 
RESOLUTION dX: 4.589868769m       dY:4.147789815m  
resolution of original product 4.589868769m x 4.147789815m;   raster step x:5998.958482m  
===============================================================
FLAGS: H=HIGH PROBABILITY SEA STATE, I=LAND(ISLAND), O=OUTLIER NO SEA STATE, N=NO WIND AVAILABLE, SEA STATE NOT VISIBLE, M=MEAN PROBABILITY SEA STATE, L= LOW PROBABILITY SEA STATE
Filtering wave length
 integration  Lmin=1m
 integration  Lmax=2200m
  peak        Lmin=100m
               FFT=1024pixels, 4700.02562m 
   mean-Hs (SWH_c)=0.2073244286m
         mean-wind=4.823251247m/s
--------------0--------------1---------2---------3---------4---------5---------6---------7---------8---------9--------10--------11--------12--------13--------14--------15--------16--------17--------18--------19------------------20--------21--------22--------23--------24--------25--------26--------27--------28--------29--------30--------31--------32--------33--------34--------35--------36--------37--------38--------39--------40--------41--------42--------43--------44--------45--------46--------47--------48--------49--------50--------51--------52--------53--------54--------55--------56--------57--------58--------59--------60--------61--------62--------63--------64--------65--------66--------67--------68--------69--------70--------71--------72--------73
            LAT            LON  P-LENGHT     SWH_o     SWH_c     P-DIR      LINE     POINT     ROW-Y     COL-X  M-INTENC        dB      WIND INC-ANGLE  ENERGY-M  ENERGY-N  ENERGY-R ENERGY-NN  FG-DEPTH      FLAG         HEADING-DEG    E30-75   E75-390  E390-600 meanincut   meanout   cut/out  STD-NORM  SPEC-MAX   GL-MEAN    GL-VAR      CORR   ENTROPY   HOMOGEN    ENERGY  CONTRAST  DISSIMIL     STD-O    E 1-30 E600-2000   E2000 >      GODA  LONG-HIG     Tmean  CONVOLUT  MEAN-DIR  relation     Sy/Sx  SKEWNESS  KURTOSIS  cutoff-A >50/10000     INT*V   INT-LOG  S-1_g1f1  S-2_g1f2  S-3_g1f3  S-4_g2f1  S-5_g2f2  S-6_g2f3  S-7_g3f1  S-8_g3f2  S-9_g3f3 S-10_g1f4 S-11_g2f4 S-12_g3f4 S-13_g1f5 S-14_g2f5 S-15_g3f5 S-16_g4f1 S-17_g4f2 S-18_g4f3 S-19_g4f4 S-20_g4f5
--------------1--------------2---------3---------4---------5---------6---------7---------8---------9--------10--------11--------12--------13--------14--------15--------16--------17--------18--------19--------20------------------21--------22--------23--------24--------25--------26--------27--------28--------29--------30--------31--------32--------33--------34--------35--------36--------37--------38--------39--------40--------41--------42--------43--------44--------45--------46--------47--------48--------49--------50--------51--------52--------53--------54--------55--------56--------57--------58--------59--------60--------61--------62--------63--------64--------65--------66--------67--------68--------69--------70--------71--------72--------73--------74
     -31.169926      -6.733925     176.5      0.33      1.38     175.7         1         1      1000      1000    170.69   -17.678       5.2      36.3   256.426     0.552     191.9   0.06069      22.7         H               192.9  0.038168  0.022515  0.000525  1.416145  0.658080  2.151935  1.055009     36.93    2.9394   12.8864   0.08434   4.45632   0.32234   0.02346  23.59924   3.31178     180.1  0.487753  0.002515  0.000484  0.000134  0.206168  7.226147  0.557394    170.94  0.999819  0.999991     2.297    11.485      90.6      76.8      26.5     164.5     11.24     -0.35     -6.97      2.57     -0.52     -2.01     -2.81      0.44      4.20      0.90      0.21     -1.02      1.63     -0.07     -1.78     -3.92     -0.58      0.31      0.45     -0.87
     -31.155470      -6.795080     176.8      0.30      1.38     177.8         1         2      1000      2307    140.96   -18.509       4.6      36.6   253.344     0.537      55.7   0.05406      22.8         H               192.9  0.036161  0.019137  0.000408  1.257674  0.634549  1.981995  1.039641     25.32    2.3529    8.4898   0.06522   4.08235   0.36524   0.03300  15.87210   2.72145     146.5  0.480409  0.000739  0.000095  0.000123  0.202151  7.165246  0.540454    169.00  0.999784  0.999991     2.200    10.555      99.7      72.6      18.2     126.5     11.15     -0.13     -6.74      2.74     -0.79     -1.95     -2.66      0.15      4.06      1.01      0.33     -0.88      1.14     -0.03     -2.03     -3.40     -1.08      0.29      0.02      0.00
     -31.141111      -6.855679     173.9      0.31      1.38     169.3         1         3      1000      3614    145.60   -18.368       4.9      37.0   253.615     0.538      51.8   0.05492      21.9         H               192.9  0.036612  0.019357  0.000455  1.292677  0.629519  2.053436  1.041272     20.22    2.4416    9.1055   0.06825   4.14362   0.35772   0.03129  16.96820   2.81548     151.6  0.480969  0.000755  0.000081  0.000115  0.200271  7.160742  0.541802    164.28  0.999850  0.999994     2.212    10.701      90.6      73.2      19.4     131.0     11.01     -0.44     -6.44      2.83     -0.79     -2.05     -2.18     -0.15      3.76      0.70      0.34     -0.53      0.57     -0.28     -1.24     -3.71     -0.38      0.09      0.03     -0.54
     -31.222153      -6.750301     184.5      0.32      1.38     177.8         2         1      2446      1000    166.88   -17.776       5.1      36.3   257.919     0.557     214.5   0.06278      25.4         H               192.9  0.039004  0.024396  0.000577  1.527113  0.672455  2.270952  1.060254     33.61    2.8643   12.4347   0.08900   4.41102   0.32839   0.02472  22.65625   3.23480     176.9  0.489745  0.002972  0.000529  0.000138  0.205915  7.273036  0.563465    167.51  0.999853  0.999992     2.321    11.660      94.9      76.2      25.5     164.8     11.06     -1.13     -7.10      2.84     -0.53     -2.39     -2.65      0.74      4.44      1.22      0.01     -1.31      1.66     -0.66     -1.61     -3.85     -0.19     -0.60     -0.19     -1.87
     -31.207687      -6.811492     168.1      0.28      1.38     171.8         2         2      2446      2307    128.59   -18.908       4.3      36.6   257.921     0.550     128.9   0.05723      20.2         H               192.9  0.037454  0.020566  0.001000  1.323213  0.659923  2.005102  1.052753     19.72    2.1087    7.2270   0.07183   3.90004   0.39033   0.04004  13.41570   2.47734     135.3  0.488689  0.002439  0.000229  0.000111  0.199559  7.157649  0.555387    168.84  0.999784  0.999992     2.288    11.435      88.6      69.9      15.4     120.9     11.43     -0.55     -6.53      1.03     -0.75     -1.36     -0.61      0.46      2.35      0.79      0.27     -0.53      1.31     -0.04     -1.44     -9.03     -0.96      2.94      0.00     -0.65
     -31.193319      -6.872126     167.2      0.30      1.38     169.8         2         3      2446      3614    137.38   -18.621       4.7      37.0   256.128     0.545      54.4   0.05642      19.9         H               192.9  0.037261  0.021330  0.000537  1.383854  0.662176  2.089858  1.048081     21.54    2.2791    8.2096   0.07114   4.02808   0.37270   0.03530  15.25112   2.65515     144.0  0.485528  0.000955  0.000057  0.000122  0.202343  7.198797  0.549987    163.99  0.999824  0.999993     2.265    11.224      94.9      71.6      17.5     126.1     11.07     -0.03     -6.73      2.64     -0.96     -2.15     -2.32      0.12      3.60      0.48      0.37     -0.46      0.65      0.04     -1.33     -4.16     -1.27      0.51      0.18     -0.13
     -31.274374      -6.766696     181.2      0.32      1.38     168.9         3         1      3892      1000    167.06   -17.771       5.1      36.3   256.967     0.553      95.5   0.06119      24.3         H               192.9  0.039481  0.023578  0.000624  1.583783  0.681287  2.324693  1.055348     26.83    2.8673   12.3510   0.08461   4.41364   0.32744   0.02449  22.61193   3.24038     176.3  0.487728  0.001336  0.000193  0.000124  0.202752  7.220825  0.558413    165.26  0.999843  0.999992     2.283    11.218      88.6      76.3      25.4     156.2     10.98     -0.61     -6.50      2.91     -1.26     -2.05     -2.03      0.60      3.78      0.53      0.23     -1.08      0.72     -0.78     -1.60     -4.12     -2.09      0.25      0.71     -0.99
     -31.259901      -6.827921     171.1      0.29      1.38     165.2         3         2      3892      2307    136.17   -18.659       4.5      36.6   257.510     0.550     117.4   0.05843      21.0         H               192.9  0.038215  0.021807  0.000756  1.513616  0.662832  2.283559  1.052653     16.75    2.2578    8.1209   0.07617   4.01210   0.37581   0.03593  15.00467   2.62671     143.4  0.487444  0.002086  0.000225  0.000110  0.196409  7.159244  0.555771    153.79  0.999884  0.999995     2.285    11.377      88.6      71.4      17.2     130.0     10.92     -0.02     -5.59      2.48     -0.58     -2.33     -0.98      0.27      2.96      0.41     -0.16     -0.60      0.16     -0.43     -1.05     -5.71     -1.61     -0.62     -0.44     -0.55
     -31.245525      -6.888589     173.9      0.31      1.38     169.3         3         3      3892      3614    141.30   -18.499       4.8      37.0   255.056     0.543      57.7   0.05651      21.9         H               192.9  0.037480  0.021000  0.000438  1.364230  0.656788  2.077125  1.045927     23.35    2.3572    8.6531   0.07129   4.08429   0.36606   0.03339  16.07243   2.72970     147.8  0.483352  0.000919  0.000076  0.000123  0.202526  7.189638  0.547390    166.84  0.999834  0.999993     2.248    11.038      94.9      72.3      18.4     126.2     10.99     -0.57     -6.73      2.93     -0.46     -2.26     -2.56      0.13      3.95      1.19      0.34     -1.02      0.77     -0.10     -1.56     -3.14      0.13     -0.17     -0.04     -0.27
