corner points
-7.237534523    -32.88827133
-7.293644905    -33.06053925
-7.450417519    -32.83785248
-7.506954193    -33.0100174
========== RESULTS WAVE VERSION 16.10.2018 ====================
IMAGE SIZE  X: 4486     Y:4778    col:row     POLARIZATION:VV
COVERAGE    X: 20.61446791km       Y: 19.81328307km 
RESOLUTION dX: 4.595289324m       dY:4.146773352m  
resolution of original product 4.595289324m x 4.146773352m;   raster step x:5996.852568m  
===============================================================
FLAGS: H=HIGH PROBABILITY SEA STATE, I=LAND(ISLAND), O=OUTLIER NO SEA STATE, N=NO WIND AVAILABLE, SEA STATE NOT VISIBLE, M=MEAN PROBABILITY SEA STATE, L= LOW PROBABILITY SEA STATE
Filtering wave length
 integration  Lmin=1m
 integration  Lmax=2200m
  peak        Lmin=100m
               FFT=1024pixels, 4705.576268m 
   mean-Hs (SWH_c)=0.2794381332m
         mean-wind=7.036213875m/s
--------------0--------------1---------2---------3---------4---------5---------6---------7---------8---------9--------10--------11--------12--------13--------14--------15--------16--------17--------18--------19------------------20--------21--------22--------23--------24--------25--------26--------27--------28--------29--------30--------31--------32--------33--------34--------35--------36--------37--------38--------39--------40--------41--------42--------43--------44--------45--------46--------47--------48--------49--------50--------51--------52--------53--------54--------55--------56--------57--------58--------59--------60--------61--------62--------63--------64--------65--------66--------67--------68--------69--------70--------71--------72--------73
            LAT            LON  P-LENGHT     SWH_o     SWH_c     P-DIR      LINE     POINT     ROW-Y     COL-X  M-INTENC        dB      WIND INC-ANGLE  ENERGY-M  ENERGY-N  ENERGY-R ENERGY-NN  FG-DEPTH      FLAG         HEADING-DEG    E30-75   E75-390  E390-600 meanincut   meanout   cut/out  STD-NORM  SPEC-MAX   GL-MEAN    GL-VAR      CORR   ENTROPY   HOMOGEN    ENERGY  CONTRAST  DISSIMIL     STD-O    E 1-30 E600-2000   E2000 >      GODA  LONG-HIG     Tmean  CONVOLUT  MEAN-DIR  relation     Sy/Sx  SKEWNESS  KURTOSIS  cutoff-A >50/10000     INT*V   INT-LOG  S-1_g1f1  S-2_g1f2  S-3_g1f3  S-4_g2f1  S-5_g2f2  S-6_g2f3  S-7_g3f1  S-8_g3f2  S-9_g3f3 S-10_g1f4 S-11_g2f4 S-12_g3f4 S-13_g1f5 S-14_g2f5 S-15_g3f5 S-16_g4f1 S-17_g4f2 S-18_g4f3 S-19_g4f4 S-20_g4f5
--------------1--------------2---------3---------4---------5---------6---------7---------8---------9--------10--------11--------12--------13--------14--------15--------16--------17--------18--------19--------20------------------21--------22--------23--------24--------25--------26--------27--------28--------29--------30--------31--------32--------33--------34--------35--------36--------37--------38--------39--------40--------41--------42--------43--------44--------45--------46--------47--------48--------49--------50--------51--------52--------53--------54--------55--------56--------57--------58--------59--------60--------61--------62--------63--------64--------65--------66--------67--------68--------69--------70--------71--------72--------73--------74
     -32.912987      -7.297334     155.9      0.43      1.53     156.6         1         1      1000      1000    241.14   -16.177       7.0      36.2   252.101     0.535      72.9   0.05962      16.8         H               193.0  0.037610  0.018507  0.000334  1.316040  0.648265  2.030095  1.037916     29.42    4.3397   24.9841   0.08396   5.14347   0.24841   0.01166  45.77288   4.67574     250.3  0.477764  0.000889  0.000150  0.000141  0.205724  7.150773  0.538079    155.22  0.999938  0.999995     2.201    10.598      76.6      84.3      50.7     223.5     11.33     -2.47     -5.90      3.04     -2.51     -1.64     -3.11      1.35      3.59      2.75      1.53     -2.16     -1.30     -0.56      0.29     -3.10     -0.76      0.76      0.01     -0.01
     -32.898266      -7.359555     165.6      0.42      1.53     159.4         1         2      1000      2305    222.81   -16.521       6.8      36.6   252.104     0.532      53.7   0.05762      19.4         H               193.0  0.037019  0.017209  0.000300  1.154590  0.638364  1.808669  1.034822     19.05    3.9782   21.1639   0.07783   4.98869   0.26298   0.01347  39.03331   4.32168     230.6  0.476875  0.000679  0.000094  0.000125  0.201090  7.104576  0.534381    154.40  0.999930  0.999995     2.166    10.209      76.6      83.1      43.2     204.1     11.08     -1.85     -6.36      3.23     -1.52     -1.64     -2.92      1.11      3.58      2.30      0.86     -1.63      0.10      0.12     -0.53     -2.78     -0.50      1.45     -0.26     -0.12
     -32.883644      -7.421206     155.9      0.43      1.53     162.7         1         3      1000      3610    219.58   -16.584       7.0      37.0   251.429     0.533      50.7   0.05817      16.8         H               193.0  0.037292  0.017579  0.000388  1.130857  0.648068  1.744967  1.035833     21.15    3.9109   20.6130   0.08037   4.95791   0.26641   0.01397  37.91251   4.25670     227.4  0.476834  0.000683  0.000089  0.000130  0.203972  7.121335  0.535724    160.90  0.999923  0.999995     2.181    10.410      76.6      82.6      42.1     207.3     11.29     -1.68     -6.67      2.67     -1.60     -1.40     -2.93      1.10      3.63      2.19      0.81     -1.92      0.43      0.04     -0.50     -3.87     -1.02      2.07     -0.09     -0.60
     -32.965126      -7.314339     161.3      0.44      1.53     155.7         2         1      2446      1000    252.26   -15.982       7.3      36.2   252.741     0.538      69.4   0.06155      18.2         H               193.0  0.037765  0.020559  0.000329  1.342613  0.652420  2.057898  1.041199     29.37    4.5616   27.5047   0.08773   5.23267   0.24101   0.01075  50.18330   4.88975     262.6  0.478852  0.000825  0.000137  0.000156  0.209928  7.232965  0.541689    153.36  0.999956  0.999995     2.203    10.567      78.1      85.0      55.6     240.7     11.13     -3.16     -6.44      3.40     -2.21     -1.85     -3.14      1.37      3.68      3.19      1.40     -2.20     -0.45     -0.70     -0.43     -2.70     -0.37      1.18     -0.21     -0.47
     -32.950394      -7.376597     157.9      0.42      1.53     158.3         2         2      2446      2305    227.67   -16.427       7.0      36.6   251.863     0.536      42.0   0.05992      17.3         H               193.0  0.037337  0.020307  0.000324  1.347743  0.646992  2.083091  1.039102     32.11    4.0759   22.2895   0.08542   5.03109   0.25966   0.01302  40.77100   4.40692     236.6  0.478212  0.000431  0.000058  0.000158  0.212877  7.237568  0.540294    155.81  0.999951  0.999995     2.196    10.487      79.7      83.4      45.3     210.9     11.42     -2.90     -6.48      3.00     -2.24     -1.76     -3.65      1.61      3.99      3.27      1.37     -2.46     -1.01     -0.30      0.06     -2.85     -0.76      0.85     -0.19     -0.02
     -32.935764      -7.438286     161.5      0.43      1.53     162.0         2         3      2446      3610    220.77   -16.561       7.1      37.0   254.296     0.539      57.3   0.05989      18.3         H               193.0  0.036901  0.020429  0.000317  1.270946  0.640671  1.983775  1.042160     34.27    3.9346   21.0998   0.08275   4.96790   0.26596   0.01395  38.70744   4.28844     230.1  0.481216  0.000588  0.000111  0.000159  0.210780  7.237015  0.542771    158.44  0.999954  0.999997     2.217    10.803      83.0      82.6      42.8     215.6     11.23     -2.34     -7.03      3.08     -1.41     -2.00     -3.64      1.48      4.43      2.74      1.05     -2.16     -0.17     -0.06     -0.38     -2.65     -0.08      0.66     -0.01     -0.15
     -33.017262      -7.331363     156.6      0.44      1.53     152.2         3         1      3892      1000    247.90   -16.057       7.2      36.2   252.308     0.539      41.0   0.06221      17.0         H               193.0  0.038122  0.021873  0.000298  1.367631  0.657495  2.080065  1.041677     33.16    4.4744   26.5936   0.09095   5.19756   0.24436   0.01114  48.34953   4.80031     258.2  0.478512  0.000469  0.000047  0.000173  0.212120  7.274113  0.543291    153.37  0.999951  0.999998     2.212    10.683      81.3      84.7      53.7     239.0     11.22     -3.42     -6.86      3.40     -2.27     -2.04     -3.69      1.78      4.24      3.09      1.42     -2.21     -0.53     -0.29     -0.44     -2.40     -0.37      0.83     -0.25      0.27
     -33.002525      -7.393660     159.0      0.43      1.53     154.0         3         2      3892      2305    228.60   -16.409       7.0      36.6   253.264     0.538      35.9   0.06067      17.6         H               193.0  0.037805  0.021159  0.000294  1.377603  0.649809  2.120012  1.040849     32.80    4.0941   22.5343   0.08547   5.03893   0.25927   0.01292  41.21667   4.42676     237.9  0.478606  0.000397  0.000035  0.000162  0.211108  7.254616  0.541627    156.49  0.999959  0.999998     2.217    10.776      83.0      83.5      45.8     221.3     11.22     -3.44     -6.56      3.46     -2.25     -1.83     -3.60      1.75      3.86      3.26      1.11     -2.51     -0.80     -0.51     -0.27     -2.27     -0.42      1.23     -0.42     -0.00
     -32.987885      -7.455386     157.9      0.42      1.53     158.3         3         3      3892      3610    216.99   -16.636       7.0      37.0   253.616     0.536      30.9   0.05854      17.3         H               193.0  0.037168  0.018933  0.000269  1.219425  0.638229  1.910640  1.039150     24.52    3.8593   20.2564   0.07895   4.93404   0.26898   0.01433  37.31411   4.21226     225.5  0.479736  0.000321  0.000027  0.000139  0.207288  7.191468  0.539156    158.44  0.999956  0.999997     2.217    10.800      81.3      82.4      41.3     205.0     11.10     -1.80     -6.69      3.35     -1.43     -2.08     -3.36      0.89      3.95      1.87      0.79     -1.44     -0.10     -0.03     -0.69     -2.37     -0.52      0.76     -0.07      0.11
