corner points
-2.589709282    -23.67077065
-2.634997368    -23.85019684
-2.79120636    -23.62604904
-2.836867809    -23.80539894
========== RESULTS WAVE VERSION 16.10.2018 ====================
IMAGE SIZE  X: 5671     Y:4921    col:row     POLARIZATION:VV
COVERAGE    X: 21.07627447km       Y: 20.43127157km 
RESOLUTION dX: 3.716500524m       dY:4.151853602m  
resolution of original product 3.716500524m x 4.151853602m;   raster step x:5998.431845m  
===============================================================
FLAGS: H=HIGH PROBABILITY SEA STATE, I=LAND(ISLAND), O=OUTLIER NO SEA STATE, N=NO WIND AVAILABLE, SEA STATE NOT VISIBLE, M=MEAN PROBABILITY SEA STATE, L= LOW PROBABILITY SEA STATE
Filtering wave length
 integration  Lmin=1m
 integration  Lmax=2200m
  peak        Lmin=100m
               FFT=1024pixels, 3805.696536m 
   mean-Hs (SWH_c)=0.2m
         mean-wind=8.760700226m/s
--------------0--------------1---------2---------3---------4---------5---------6---------7---------8---------9--------10--------11--------12--------13--------14--------15--------16--------17--------18--------19------------------20--------21--------22--------23--------24--------25--------26--------27--------28--------29--------30--------31--------32--------33--------34--------35--------36--------37--------38--------39--------40--------41--------42--------43--------44--------45--------46--------47--------48--------49--------50--------51--------52--------53--------54--------55--------56--------57--------58--------59--------60--------61--------62--------63--------64--------65--------66--------67--------68--------69--------70--------71--------72--------73
            LAT            LON  P-LENGHT     SWH_o     SWH_c     P-DIR      LINE     POINT     ROW-Y     COL-X  M-INTENC        dB      WIND INC-ANGLE  ENERGY-M  ENERGY-N  ENERGY-R ENERGY-NN  FG-DEPTH      FLAG         HEADING-DEG    E30-75   E75-390  E390-600 meanincut   meanout   cut/out  STD-NORM  SPEC-MAX   GL-MEAN    GL-VAR      CORR   ENTROPY   HOMOGEN    ENERGY  CONTRAST  DISSIMIL     STD-O    E 1-30 E600-2000   E2000 >      GODA  LONG-HIG     Tmean  CONVOLUT  MEAN-DIR  relation     Sy/Sx  SKEWNESS  KURTOSIS  cutoff-A >50/10000     INT*V   INT-LOG  S-1_g1f1  S-2_g1f2  S-3_g1f3  S-4_g2f1  S-5_g2f2  S-6_g2f3  S-7_g3f1  S-8_g3f2  S-9_g3f3 S-10_g1f4 S-11_g2f4 S-12_g3f4 S-13_g1f5 S-14_g2f5 S-15_g3f5 S-16_g4f1 S-17_g4f2 S-18_g4f3 S-19_g4f4 S-20_g4f5
--------------1--------------2---------3---------4---------5---------6---------7---------8---------9--------10--------11--------12--------13--------14--------15--------16--------17--------18--------19--------20------------------21--------22--------23--------24--------25--------26--------27--------28--------29--------30--------31--------32--------33--------34--------35--------36--------37--------38--------39--------40--------41--------42--------43--------44--------45--------46--------47--------48--------49--------50--------51--------52--------53--------54--------55--------56--------57--------58--------59--------60--------61--------62--------63--------64--------65--------66--------67--------68--------69--------70--------71--------72--------73--------74
     -23.699154      -2.635436     249.5      0.52      1.79     176.2         1         1      1000      1000   3172.18    -4.986       8.8      23.2   362.014     0.767      82.4   0.18611      71.0         H               192.4  0.105569  0.033335  0.000790  3.314442  0.996161  3.327217  1.242120     31.61    5.8218   57.4404   0.27168   5.61239   0.23137   0.00929  83.67073   5.87247    3939.9  0.626339  0.001066  0.000041  0.000300  0.151011  6.670331  0.805552     89.29  1.000181  1.000024     3.700    31.417      92.7      86.5     111.8     584.3     12.35      1.18     -3.98      0.74     -0.09      2.48     -1.12     -0.17      2.30     -0.33      0.70      0.40     -0.05     -1.10     -0.18     -5.43     -0.49      3.89      0.78     -0.44
     -23.686287      -2.693480     235.7      0.53      1.79       3.6         1         2      1000      2614   2930.16    -5.331       9.0      23.7   359.264     0.757      54.9   0.18096      53.9         H               192.4  0.103772  0.032366  0.000790  3.348544  0.978789  3.421108  1.234052     17.45    5.3634   49.4846   0.26890   5.46506   0.24396   0.01071  72.35645   5.44954    3615.9  0.620149  0.000603  0.000017  0.000291  0.148261  6.667267  0.795241     89.63  1.000192  1.000025     3.634    30.906      92.7      85.3      94.6     535.7     11.99      1.25     -2.86      1.45      0.03      1.94     -0.42     -0.10      2.13      0.19      0.70      0.68     -0.59     -0.54      0.12     -5.10     -0.61      3.19      0.30      0.16
     -23.673635      -2.750439     249.5      0.54      1.79       3.8         1         3      1000      4228   2710.88    -5.669       9.1      24.1   357.459     0.748      60.1   0.17705      71.0         H               192.4  0.100015  0.032101  0.000814  3.442076  0.965661  3.564476  1.224436     19.74    4.9370   42.4922   0.26529   5.31710   0.25746   0.01231  62.43861   5.05126    3319.3  0.614916  0.000753  0.000022  0.000276  0.147824  6.695137  0.784870     90.92  1.000196  1.000025     3.511    27.382      92.7      84.0      80.1     466.9     12.07      0.59     -2.60      1.12      0.08      2.29     -0.08     -0.17      1.78      0.07      0.43      0.36     -0.03     -0.66     -0.12     -5.76     -0.17      3.59     -0.15     -0.08
     -23.751848      -2.648753     249.5      0.50      1.79       3.8         2         1      2445      1000   3085.01    -5.107       8.4      23.2   366.457     0.784      63.9   0.19527      71.0         H               192.4  0.112316  0.034964  0.000947  3.576880  1.020915  3.503603  1.254957     24.08    5.6603   55.7805   0.27839   5.55569   0.23753   0.00999  80.50438   5.72551    3871.6  0.635474  0.000796  0.000021  0.000300  0.150172  6.675103  0.824788     90.05  1.000191  1.000027     3.797    33.809      92.7      85.9     107.7     578.8     12.17      1.21     -2.85      1.29     -0.13      2.30     -0.55     -0.49      2.21     -0.08      0.50      0.29     -0.36     -0.64      0.21     -5.65     -0.38      3.34      0.40     -0.11
     -23.738974      -2.706828     235.7      0.52      1.79       3.6         2         2      2445      2614   2852.37    -5.448       8.7      23.7   363.255     0.769      66.0   0.18773      53.9         H               192.4  0.107828  0.032099  0.000781  3.384142  1.002010  3.377356  1.243465     11.64    5.1980   47.5081   0.27322   5.40439   0.25080   0.01147  69.05560   5.29058    3546.6  0.627975  0.000768  0.000031  0.000297  0.148238  6.651558  0.807706     90.67  1.000211  1.000029     3.669    30.625      94.9      84.6      90.0     519.9     12.31      0.75     -2.18      1.17      0.11      1.92     -0.76     -0.16      1.72      0.68      0.27     -0.07     -1.24     -0.06      0.56     -5.52     -0.20      2.68      0.03      1.02
     -23.726318      -2.763818     265.1      0.55      1.79       4.0         2         3      2445      4228   2738.32    -5.625       9.3      24.1   358.922     0.756      56.1   0.18164     100.0         H               192.4  0.101705  0.033277  0.000876  3.422259  0.969290  3.530685  1.231738     25.60    4.9805   43.4559   0.26887   5.33093   0.25656   0.01219  63.54334   5.08747    3372.7  0.619894  0.000684  0.000016  0.000270  0.150828  6.696518  0.793083     90.25  1.000195  1.000027     3.637    30.439      94.9      84.2      81.9     491.5     12.20      1.43     -2.99      0.97     -0.07      2.47     -0.30     -0.93      2.10     -0.60      0.48      0.56      0.10     -0.87      0.09     -6.03     -0.25      3.73      0.15     -0.56
     -23.804541      -2.662079     223.4      0.49      1.79     176.6         3         1      3890      1000   2997.22    -5.233       8.1      23.2   363.825     0.778      62.6   0.19255      44.2         H               192.4  0.110686  0.033563  0.000779  3.530000  0.967356  3.649120  1.251678     14.39    5.4909   52.7275   0.27795   5.50092   0.24251   0.01052  76.14413   5.56365    3751.2  0.632694  0.000766  0.000019  0.000300  0.148448  6.657383  0.818459     91.44  1.000216  1.000032     3.687    29.880      97.3      85.4     101.0     521.1     11.90      0.69     -2.13      1.94      0.19      2.20     -0.25      0.23      2.12      0.50      0.70      0.16     -0.54     -0.50      0.27     -4.50     -0.43      3.03      0.45      0.04
     -23.791660      -2.720186     249.5      0.52      1.79       3.8         3         2      3890      2614   2852.68    -5.447       8.7      23.6   368.684     0.788      84.1   0.19622      71.0         H               192.4  0.111950  0.034485  0.000753  3.602389  1.027600  3.505633  1.257627     18.69    5.2012   48.4599   0.27943   5.40034   0.25205   0.01165  69.83664   5.29538    3587.4  0.640694  0.001049  0.000051  0.000308  0.147056  6.670364  0.829735     90.99  1.000208  1.000029     3.779    32.634      94.9      84.6      91.8     533.5     11.80      0.95     -2.64      1.96      0.33      2.57     -0.05      0.28      1.98      0.04      0.61      0.68     -0.42     -0.66      0.07     -4.21     -0.29      4.14      0.46     -0.06
     -23.778997      -2.777207     248.0      0.52      1.79       7.5         3         3      3890      4228   2615.02    -5.825       8.7      24.1   364.213     0.776      67.6   0.19209      68.4         H               192.4  0.108720  0.033283  0.000968  3.515805  1.036592  3.391695  1.248698     16.66    4.7459   40.8482   0.27642   5.23769   0.26707   0.01360  59.11382   4.86880    3265.1  0.632365  0.000845  0.000030  0.000296  0.145304  6.676682  0.815041     91.94  1.000205  1.000030     3.713    30.947      94.9      83.1      76.3     470.0     11.98      1.33     -2.43      1.23     -0.39      2.21      0.31     -0.06      1.66     -0.65      1.01      0.51     -0.59     -0.52      0.38     -6.18     -1.47      3.58      1.74      0.08
