corner points
-95.34804535    4.489334583
-95.38398743    4.663804531
-95.17024994    4.526427269
-95.20615387    4.70085907
========== RESULTS WAVE VERSION 16.10.2018 ====================
IMAGE SIZE  X: 4444     Y:4764    col:row     POLARIZATION:VV
COVERAGE    X: 20.08998631km       Y: 19.75818177km 
RESOLUTION dX: 4.52069899m       dY:4.147393319m  
resolution of original product 4.52069899m x 4.147393319m;   raster step x:5998.96756m  
===============================================================
FLAGS: H=HIGH PROBABILITY SEA STATE, I=LAND(ISLAND), O=OUTLIER NO SEA STATE, N=NO WIND AVAILABLE, SEA STATE NOT VISIBLE, M=MEAN PROBABILITY SEA STATE, L= LOW PROBABILITY SEA STATE
Filtering wave length
 integration  Lmin=1m
 integration  Lmax=2200m
  peak        Lmin=100m
               FFT=1024pixels, 4629.195766m 
   mean-Hs (SWH_c)=0.2m
         mean-wind=3.735185385m/s
--------------0--------------1---------2---------3---------4---------5---------6---------7---------8---------9--------10--------11--------12--------13--------14--------15--------16--------17--------18--------19------------------20--------21--------22--------23--------24--------25--------26--------27--------28--------29--------30--------31--------32--------33--------34--------35--------36--------37--------38--------39--------40--------41--------42--------43--------44--------45--------46--------47--------48--------49--------50--------51--------52--------53--------54--------55--------56--------57--------58--------59--------60--------61--------62--------63--------64--------65--------66--------67--------68--------69--------70--------71--------72--------73
            LAT            LON  P-LENGHT     SWH_o     SWH_c     P-DIR      LINE     POINT     ROW-Y     COL-X  M-INTENC        dB      WIND INC-ANGLE  ENERGY-M  ENERGY-N  ENERGY-R ENERGY-NN  FG-DEPTH      FLAG         HEADING-DEG    E30-75   E75-390  E390-600 meanincut   meanout   cut/out  STD-NORM  SPEC-MAX   GL-MEAN    GL-VAR      CORR   ENTROPY   HOMOGEN    ENERGY  CONTRAST  DISSIMIL     STD-O    E 1-30 E600-2000   E2000 >      GODA  LONG-HIG     Tmean  CONVOLUT  MEAN-DIR  relation     Sy/Sx  SKEWNESS  KURTOSIS  cutoff-A >50/10000     INT*V   INT-LOG  S-1_g1f1  S-2_g1f2  S-3_g1f3  S-4_g2f1  S-5_g2f2  S-6_g2f3  S-7_g3f1  S-8_g3f2  S-9_g3f3 S-10_g1f4 S-11_g2f4 S-12_g3f4 S-13_g1f5 S-14_g2f5 S-15_g3f5 S-16_g4f1 S-17_g4f2 S-18_g4f3 S-19_g4f4 S-20_g4f5
--------------1--------------2---------3---------4---------5---------6---------7---------8---------9--------10--------11--------12--------13--------14--------15--------16--------17--------18--------19--------20------------------21--------22--------23--------24--------25--------26--------27--------28--------29--------30--------31--------32--------33--------34--------35--------36--------37--------38--------39--------40--------41--------42--------43--------44--------45--------46--------47--------48--------49--------50--------51--------52--------53--------54--------55--------56--------57--------58--------59--------60--------61--------62--------63--------64--------65--------66--------67--------68--------69--------70--------71--------72--------73--------74
       4.534409     -95.315125       0.0      0.00      0.00       0.0         1         1      1000      1000      0.00     0.000       0.0      36.9     0.000     0.000       0.0   0.00000       0.0         O               348.0  0.000000  0.000000  0.000000  0.000000  0.000000  0.000000  0.000000      0.00    0.0000    0.0000   0.00000   0.00000   0.00000   0.00000   0.00000   0.00000       0.0  0.000000  0.000000  0.000000  0.000000  0.000000  0.000000  0.000000      0.00  0.000000  0.000000     0.000     0.000       0.0       0.0       0.0       0.0      0.00      0.00      0.00      0.00      0.00      0.00      0.00      0.00      0.00      0.00      0.00      0.00      0.00      0.00      0.00      0.00      0.00      0.00      0.00      0.00
       4.545526     -95.261841       0.0      0.00      0.00       0.0         1         2      1000      2327      0.00     0.000       0.0      37.3     0.000     0.000       0.0   0.00000       0.0         O               348.0  0.000000  0.000000  0.000000  0.000000  0.000000  0.000000  0.000000      0.00    0.0000    0.0000   0.00000   0.00000   0.00000   0.00000   0.00000   0.00000       0.0  0.000000  0.000000  0.000000  0.000000  0.000000  0.000000  0.000000      0.00  0.000000  0.000000     0.000     0.000       0.0       0.0       0.0       0.0      0.00      0.00      0.00      0.00      0.00      0.00      0.00      0.00      0.00      0.00      0.00      0.00      0.00      0.00      0.00      0.00      0.00      0.00      0.00      0.00
       4.556543     -95.209000       0.0      0.00      0.00       0.0         1         3      1000      3654      0.00     0.000       0.0      37.7     0.000     0.000       0.0   0.00000       0.0         O               348.0  0.000000  0.000000  0.000000  0.000000  0.000000  0.000000  0.000000      0.00    0.0000    0.0000   0.00000   0.00000   0.00000   0.00000   0.00000   0.00000       0.0  0.000000  0.000000  0.000000  0.000000  0.000000  0.000000  0.000000      0.00  0.000000  0.000000     0.000     0.000       0.0       0.0       0.0       0.0      0.00      0.00      0.00      0.00      0.00      0.00      0.00      0.00      0.00      0.00      0.00      0.00      0.00      0.00      0.00      0.00      0.00      0.00      0.00      0.00
       4.587373     -95.326035       0.0      0.00      0.00       0.0         2         1      2446      1000      0.00     0.000       0.0      36.9     0.000     0.000       0.0   0.00000       0.0         O               348.0  0.000000  0.000000  0.000000  0.000000  0.000000  0.000000  0.000000      0.00    0.0000    0.0000   0.00000   0.00000   0.00000   0.00000   0.00000   0.00000       0.0  0.000000  0.000000  0.000000  0.000000  0.000000  0.000000  0.000000      0.00  0.000000  0.000000     0.000     0.000       0.0       0.0       0.0       0.0      0.00      0.00      0.00      0.00      0.00      0.00      0.00      0.00      0.00      0.00      0.00      0.00      0.00      0.00      0.00      0.00      0.00      0.00      0.00      0.00
       4.598487     -95.272743       0.0      0.00      0.00       0.0         2         2      2446      2327      0.00     0.000       0.0      37.3     0.000     0.000       0.0   0.00000       0.0         O               348.0  0.000000  0.000000  0.000000  0.000000  0.000000  0.000000  0.000000      0.00    0.0000    0.0000   0.00000   0.00000   0.00000   0.00000   0.00000   0.00000       0.0  0.000000  0.000000  0.000000  0.000000  0.000000  0.000000  0.000000      0.00  0.000000  0.000000     0.000     0.000       0.0       0.0       0.0       0.0      0.00      0.00      0.00      0.00      0.00      0.00      0.00      0.00      0.00      0.00      0.00      0.00      0.00      0.00      0.00      0.00      0.00      0.00      0.00      0.00
       4.609501     -95.219902     196.3      0.26      1.83      22.4         2         3      2446      3654     98.87   -20.049       3.9      37.7   220.219     0.535     116.3   0.05142      29.9         H               348.0  0.035206  0.014164  0.001391  1.201619  0.585278  2.053073  1.038354      6.71    1.5231    4.1269   0.05430   3.38557   0.45934   0.06492   7.80560   1.87858     102.7  0.482171  0.002461  0.000198  0.000090  0.188196  6.958347  0.538571     98.85  1.000059  1.000001     2.200    10.573     110.8      62.3       9.2      85.8     12.76     -0.92     -0.78     -2.03      0.40     -2.35      2.30     -0.99      2.12     -0.45      0.32      0.47     -0.41     -0.40     -0.04    -17.95      3.16     -5.59     -0.08      0.28
       4.640338     -95.336945     351.2      0.23      1.83      99.5         3         1      3892      1000     93.09   -20.311       3.5      36.9   220.268     0.531     145.1   0.04883     100.0         H               348.0  0.033523  0.011847  0.001071  1.050525  0.564687  1.860366  1.035367      7.85    1.4069    3.6263   0.04468   3.26517   0.47556   0.07260   6.92849   1.76454      96.4  0.482463  0.002483  0.000355  0.000090  0.182983  6.879106  0.533906     81.90  1.000089  1.000001     2.201    10.851     142.7      60.3       8.1      85.2     12.75     -0.26      0.59     -1.74     -0.74     -2.86      2.07      0.35      1.77     -0.73      0.17     -0.00     -0.36     -0.60      0.77    -16.61     -1.85     -7.03      0.85     -0.94
       4.651448     -95.283646       0.0      0.00      0.00       0.0         3         2      3892      2327      0.00     0.000       0.0      37.3     0.000     0.000       0.0   0.00000       0.0         O               348.0  0.000000  0.000000  0.000000  0.000000  0.000000  0.000000  0.000000      0.00    0.0000    0.0000   0.00000   0.00000   0.00000   0.00000   0.00000   0.00000       0.0  0.000000  0.000000  0.000000  0.000000  0.000000  0.000000  0.000000      0.00  0.000000  0.000000     0.000     0.000       0.0       0.0       0.0       0.0      0.00      0.00      0.00      0.00      0.00      0.00      0.00      0.00      0.00      0.00      0.00      0.00      0.00      0.00      0.00      0.00      0.00      0.00      0.00      0.00
       4.662458     -95.230804       0.0      0.00      0.00       0.0         3         3      3892      3654      0.00     0.000       0.0      37.7     0.000     0.000       0.0   0.00000       0.0         O               348.0  0.000000  0.000000  0.000000  0.000000  0.000000  0.000000  0.000000      0.00    0.0000    0.0000   0.00000   0.00000   0.00000   0.00000   0.00000   0.00000       0.0  0.000000  0.000000  0.000000  0.000000  0.000000  0.000000  0.000000      0.00  0.000000  0.000000     0.000     0.000       0.0       0.0       0.0       0.0      0.00      0.00      0.00      0.00      0.00      0.00      0.00      0.00      0.00      0.00      0.00      0.00      0.00      0.00      0.00      0.00      0.00      0.00      0.00      0.00
