corner points
-94.92015076    -5.606334209
-94.95863342    -5.425663471
-94.73840332    -5.566619873
-94.7769928    -5.385990143
========== RESULTS WAVE VERSION 16.10.2018 ====================
IMAGE SIZE  X: 5619     Y:4928    col:row     POLARIZATION:VV
COVERAGE    X: 20.54315795km       Y: 20.48931831km 
RESOLUTION dX: 3.656016719m       dY:4.157735047m  
resolution of original product 3.656016719m x 4.157735047m;   raster step x:5999.523436m  
===============================================================
FLAGS: H=HIGH PROBABILITY SEA STATE, I=LAND(ISLAND), O=OUTLIER NO SEA STATE, N=NO WIND AVAILABLE, SEA STATE NOT VISIBLE, M=MEAN PROBABILITY SEA STATE, L= LOW PROBABILITY SEA STATE
Filtering wave length
 integration  Lmin=1m
 integration  Lmax=2200m
  peak        Lmin=100m
               FFT=1024pixels, 3743.76112m 
   mean-Hs (SWH_c)=0.2m
         mean-wind=5.589094162m/s
--------------0--------------1---------2---------3---------4---------5---------6---------7---------8---------9--------10--------11--------12--------13--------14--------15--------16--------17--------18--------19------------------20--------21--------22--------23--------24--------25--------26--------27--------28--------29--------30--------31--------32--------33--------34--------35--------36--------37--------38--------39--------40--------41--------42--------43--------44--------45--------46--------47--------48--------49--------50--------51--------52--------53--------54--------55--------56--------57--------58--------59--------60--------61--------62--------63--------64--------65--------66--------67--------68--------69--------70--------71--------72--------73
            LAT            LON  P-LENGHT     SWH_o     SWH_c     P-DIR      LINE     POINT     ROW-Y     COL-X  M-INTENC        dB      WIND INC-ANGLE  ENERGY-M  ENERGY-N  ENERGY-R ENERGY-NN  FG-DEPTH      FLAG         HEADING-DEG    E30-75   E75-390  E390-600 meanincut   meanout   cut/out  STD-NORM  SPEC-MAX   GL-MEAN    GL-VAR      CORR   ENTROPY   HOMOGEN    ENERGY  CONTRAST  DISSIMIL     STD-O    E 1-30 E600-2000   E2000 >      GODA  LONG-HIG     Tmean  CONVOLUT  MEAN-DIR  relation     Sy/Sx  SKEWNESS  KURTOSIS  cutoff-A >50/10000     INT*V   INT-LOG  S-1_g1f1  S-2_g1f2  S-3_g1f3  S-4_g2f1  S-5_g2f2  S-6_g2f3  S-7_g3f1  S-8_g3f2  S-9_g3f3 S-10_g1f4 S-11_g2f4 S-12_g3f4 S-13_g1f5 S-14_g2f5 S-15_g3f5 S-16_g4f1 S-17_g4f2 S-18_g4f3 S-19_g4f4 S-20_g4f5
--------------1--------------2---------3---------4---------5---------6---------7---------8---------9--------10--------11--------12--------13--------14--------15--------16--------17--------18--------19--------20------------------21--------22--------23--------24--------25--------26--------27--------28--------29--------30--------31--------32--------33--------34--------35--------36--------37--------38--------39--------40--------41--------42--------43--------44--------45--------46--------47--------48--------49--------50--------51--------52--------53--------54--------55--------56--------57--------58--------59--------60--------61--------62--------63--------64--------65--------66--------67--------68--------69--------70--------71--------72--------73--------74
      -5.562418     -94.894768     265.4      0.37      1.56      20.8         1         1      1000      1000   2151.92    -6.672       5.9      23.6   387.930     0.644     177.0   0.13148     100.0         H               348.0  0.066526  0.025695  0.000760  1.969712  0.850574  2.315744  1.137236     40.53    3.8148   23.6894   0.22615   4.87987   0.29589   0.01769  36.66439   3.97317    2447.2  0.548433  0.003238  0.000186  0.000148  0.185438  6.860196  0.671874     59.12  1.000101  1.000009     2.827    17.255      61.3      80.6      45.0     293.6     12.53      2.15     -5.49     -0.36     -1.68      1.34     -1.59     -1.20      3.48     -1.98      2.05      0.88     -0.44     -0.60      0.14     -7.31     -1.01      1.47      1.91     -1.10
      -5.550698     -94.841118     273.4      0.35      1.56      26.0         1         2      1000      2641   1871.73    -7.278       5.6      24.1   386.164     0.641     151.0   0.13045     100.0         H               348.0  0.066212  0.025523  0.000640  1.961958  0.829358  2.365634  1.134597     33.07    3.2686   17.9240   0.22471   4.60905   0.32575   0.02304  27.79261   3.45438    2123.7  0.545538  0.002990  0.000116  0.000141  0.186062  6.877343  0.667421     61.94  1.000080  1.000007     2.812    17.153      62.2      77.6      34.2     240.7     12.43      2.37     -5.48      0.01     -1.26      1.16     -1.94     -1.23      3.33     -1.93      1.74      0.97     -0.20     -0.65     -0.03     -6.32     -1.10      1.57      1.57     -0.71
      -5.539188     -94.788445     265.4      0.36      1.56      20.8         1         3      1000      4282   1712.78    -7.663       5.8      24.5   386.942     0.646     145.3   0.13346     100.0         H               348.0  0.067091  0.025184  0.000805  1.977078  0.845534  2.338260  1.140636     42.26    2.9450   15.0419   0.22690   4.42743   0.34737   0.02759  23.25758   3.14471    1953.6  0.550472  0.002797  0.000126  0.000144  0.183064  6.869839  0.673280     55.98  1.000122  1.000010     2.867    17.931      64.2      75.5      28.8     219.5     12.44      2.09     -5.61     -0.44     -1.11      1.85     -1.10     -1.28      3.24     -2.54      2.10      1.13     -0.02     -0.64     -0.24     -7.69     -0.07      2.58      2.50     -0.50
      -5.509506     -94.906052     244.8      0.35      1.56      23.1         2         1      2443      1000   2072.34    -6.835       5.6      23.6   387.155     0.647     210.4   0.13450      63.8         H               348.0  0.068080  0.026158  0.000800  2.033666  0.846543  2.402318  1.142391     41.91    3.6701   22.2529   0.23074   4.81002   0.30403   0.01903  34.23628   3.83257    2367.3  0.548915  0.003753  0.000220  0.000145  0.184901  6.879043  0.675714     46.58  1.000125  1.000009     2.859    17.478      63.2      79.8      42.2     265.5     12.47      2.16     -5.73     -0.34     -1.25      1.38     -1.52     -1.52      3.41     -2.45      2.10      1.32     -0.02     -0.85     -0.10     -7.44     -0.37      1.80      2.02     -1.02
      -5.497790     -94.852409     265.4      0.35      1.56      20.8         2         2      2443      2641   1878.19    -7.263       5.7      24.1   388.134     0.647     237.5   0.13315     100.0         H               348.0  0.067182  0.025815  0.000733  2.038830  0.834469  2.443267  1.142241     38.21    3.2773   18.1867   0.22950   4.61171   0.32628   0.02312  28.02570   3.45807    2145.2  0.548596  0.004690  0.000189  0.000147  0.184264  6.863572  0.674960     59.63  1.000125  1.000010     2.854    17.601      65.3      77.6      34.6     244.3     12.37      1.33     -5.24     -0.09     -1.14      0.63     -1.66     -1.32      3.78     -1.45      1.79      0.73     -0.70     -0.70      0.18     -6.89      0.43      0.17      1.80     -0.77
      -5.486283     -94.799744     250.7      0.34      1.56      19.6         2         3      2443      4282   1605.43    -7.944       5.3      24.5   388.012     0.645     182.9   0.13252      73.0         H               348.0  0.066196  0.026096  0.000748  2.018138  0.845227  2.387688  1.138731     43.81    2.7339   13.2145   0.22674   4.30043   0.36295   0.03122  20.43659   2.94046    1828.1  0.548886  0.003789  0.000159  0.000149  0.186671  6.882965  0.673075     43.84  1.000046  1.000004     2.861    17.856      62.2      73.9      25.4     207.2     12.61      2.55     -6.21     -0.50     -1.09      2.02     -1.78     -1.78      3.76     -3.10      2.14      1.86      0.33     -1.05     -0.46     -7.10     -0.02      2.75      2.00     -0.79
      -5.456594     -94.917328     244.8      0.37      1.56      23.1         3         1      3886      1000   2137.14    -6.702       5.9      23.6   386.913     0.643     323.6   0.13112      63.8         H               348.0  0.064584  0.024442  0.001028  1.963317  0.845172  2.322978  1.138164     27.40    3.7688   23.1757   0.22691   4.85843   0.29803   0.01806  35.83373   3.92806    2432.3  0.546924  0.006208  0.000343  0.000137  0.182093  6.869774  0.670789     70.15  1.000123  1.000009     2.840    17.354      67.5      80.4      44.0     275.4     12.16      1.27     -4.43      0.03     -0.50      0.18     -0.46     -1.28      3.87     -1.29      1.50      0.40      0.25     -1.00      0.05     -8.70      0.70     -1.18      1.79     -1.94
      -5.444881     -94.863693     258.4      0.33      1.56      24.5         3         2      3886      2641   1733.32    -7.611       5.2      24.1   387.705     0.646     254.8   0.13268      93.2         H               348.0  0.066902  0.026815  0.000805  2.048327  0.847529  2.416823  1.140221     34.50    3.0006   15.5623   0.23000   4.45929   0.34372   0.02679  23.96601   3.19395    1976.2  0.546702  0.004969  0.000236  0.000144  0.187038  6.892539  0.674812     64.31  1.000082  1.000006     2.871    17.991      61.3      75.9      29.7     230.6     12.46      2.18     -5.60     -0.13     -1.36      0.96     -1.72     -1.63      3.59     -1.86      1.99      0.63     -0.57     -0.08     -0.09     -7.29     -0.29      1.45      2.56      0.09
      -5.433378     -94.811043     258.4      0.33      1.56      24.5         3         3      3886      4282   1583.77    -8.003       5.3      24.5   387.402     0.643     121.9   0.13113      93.2         H               348.0  0.066561  0.026502  0.000691  2.013037  0.848134  2.373489  1.137285     40.25    2.7022   12.9011   0.22509   4.28119   0.36538   0.03180  19.99443   2.91123    1801.1  0.547413  0.002466  0.000085  0.000150  0.187502  6.885160  0.670752     59.84  1.000083  1.000006     2.837    17.375      59.4      73.7      24.9     195.9     12.43      1.57     -5.83      0.04     -1.29      1.09     -2.25     -1.10      3.78     -1.41      1.69      0.70     -0.03     -0.70     -0.35     -6.07     -0.32      1.72      1.35     -0.83
