corner points
-87.27819061    -29.00381279
-87.32975769    -28.83088112
-87.07550812    -28.95593643
-87.12743378    -28.7830925
========== RESULTS WAVE VERSION 16.10.2018 ====================
IMAGE SIZE  X: 4444     Y:4779    col:row     POLARIZATION:VV
COVERAGE    X: 20.37353542km       Y: 19.82891251km 
RESOLUTION dX: 4.58450392m       dY:4.149176084m  
resolution of original product 4.58450392m x 4.149176084m;   raster step x:5996.531128m  
===============================================================
FLAGS: H=HIGH PROBABILITY SEA STATE, I=LAND(ISLAND), O=OUTLIER NO SEA STATE, N=NO WIND AVAILABLE, SEA STATE NOT VISIBLE, M=MEAN PROBABILITY SEA STATE, L= LOW PROBABILITY SEA STATE
Filtering wave length
 integration  Lmin=1m
 integration  Lmax=2200m
  peak        Lmin=100m
               FFT=1024pixels, 4694.532014m 
   mean-Hs (SWH_c)=0.7732766724m
         mean-wind=6.222016335m/s
--------------0--------------1---------2---------3---------4---------5---------6---------7---------8---------9--------10--------11--------12--------13--------14--------15--------16--------17--------18--------19------------------20--------21--------22--------23--------24--------25--------26--------27--------28--------29--------30--------31--------32--------33--------34--------35--------36--------37--------38--------39--------40--------41--------42--------43--------44--------45--------46--------47--------48--------49--------50--------51--------52--------53--------54--------55--------56--------57--------58--------59--------60--------61--------62--------63--------64--------65--------66--------67--------68--------69--------70--------71--------72--------73
            LAT            LON  P-LENGHT     SWH_o     SWH_c     P-DIR      LINE     POINT     ROW-Y     COL-X  M-INTENC        dB      WIND INC-ANGLE  ENERGY-M  ENERGY-N  ENERGY-R ENERGY-NN  FG-DEPTH      FLAG         HEADING-DEG    E30-75   E75-390  E390-600 meanincut   meanout   cut/out  STD-NORM  SPEC-MAX   GL-MEAN    GL-VAR      CORR   ENTROPY   HOMOGEN    ENERGY  CONTRAST  DISSIMIL     STD-O    E 1-30 E600-2000   E2000 >      GODA  LONG-HIG     Tmean  CONVOLUT  MEAN-DIR  relation     Sy/Sx  SKEWNESS  KURTOSIS  cutoff-A >50/10000     INT*V   INT-LOG  S-1_g1f1  S-2_g1f2  S-3_g1f3  S-4_g2f1  S-5_g2f2  S-6_g2f3  S-7_g3f1  S-8_g3f2  S-9_g3f3 S-10_g1f4 S-11_g2f4 S-12_g3f4 S-13_g1f5 S-14_g2f5 S-15_g3f5 S-16_g4f1 S-17_g4f2 S-18_g4f3 S-19_g4f4 S-20_g4f5
--------------1--------------2---------3---------4---------5---------6---------7---------8---------9--------10--------11--------12--------13--------14--------15--------16--------17--------18--------19--------20------------------21--------22--------23--------24--------25--------26--------27--------28--------29--------30--------31--------32--------33--------34--------35--------36--------37--------38--------39--------40--------41--------42--------43--------44--------45--------46--------47--------48--------49--------50--------51--------52--------53--------54--------55--------56--------57--------58--------59--------60--------61--------62--------63--------64--------65--------66--------67--------68--------69--------70--------71--------72--------73--------74
     -28.956751     -87.242844     210.0      0.59      2.07     126.4         1         1      1000      1000    190.14   -17.209       5.8      36.3   252.989     0.559      81.2   0.06731      36.3         H               347.3  0.040038  0.027258  0.000803  1.959441  0.652097  3.004831  1.061629     45.40    3.3257   16.2111   0.09918   4.66842   0.29989   0.01916  29.20655   3.67878     201.8  0.490545  0.000921  0.000124  0.000178  0.231447  7.373631  0.565908    133.56  1.000038  1.000003     2.366    12.209      99.7      79.3      32.8     192.7     13.79    -11.33     -0.39      0.51     -1.23      1.68     -3.38      5.82      0.41     -1.79     -1.24     -0.99     -7.92     -0.55      4.33     -6.76      1.59      2.21      0.83      1.87
     -28.942619     -87.182968     243.5      0.79      2.07     133.4         1         2      1000      2308    197.16   -17.052       6.2      36.7   254.099     0.565      83.4   0.06955      62.2         H               347.3  0.041180  0.029304  0.000884  2.180490  0.665365  3.277136  1.066370     43.46    3.4670   17.5693   0.10427   4.74028   0.29332   0.01796  31.47485   3.81055     210.2  0.492808  0.001049  0.000112  0.000171  0.228655  7.390097  0.572044    131.07  1.000031  1.000002     2.391    12.646      97.3      80.0      35.2     215.8     13.60    -10.98     -0.66      0.65     -1.58      1.77     -2.69      4.70      0.94     -1.75     -1.70     -1.37     -7.50     -0.63      3.21     -6.77      1.67      2.09      0.14      2.31
     -28.928589     -87.123634     243.2      0.81      2.07     129.0         1         3      1000      3616    191.92   -17.169       6.4      37.1   254.922     0.566      92.2   0.06981      61.8         H               347.3  0.041389  0.029257  0.000807  2.210895  0.653536  3.382975  1.068250     44.60    3.3614   16.7240   0.10451   4.68578   0.29880   0.01902  29.95243   3.71555     205.0  0.493931  0.001200  0.000158  0.000177  0.225523  7.382976  0.573745    130.32  1.000022  1.000001     2.382    12.241      97.3      79.3      33.5     201.1     13.32    -10.97     -0.18      1.48     -2.01      1.64     -2.75      4.60      0.73     -2.29     -1.71     -0.79     -7.29     -1.39      3.59     -5.67      1.69      1.95     -0.14      0.85
     -28.904423     -87.258484     234.5      0.49      2.07     131.5         2         1      2446      1000    195.49   -17.089       5.9      36.3   252.033     0.557      62.4   0.06586      52.8         H               347.3  0.039986  0.025684  0.000539  1.858733  0.642738  2.891897  1.058810     53.33    3.4325   17.0436   0.09646   4.72423   0.29373   0.01808  30.79918   3.78373     207.0  0.490061  0.000650  0.000080  0.000176  0.230527  7.329041  0.562711    133.68  1.000051  1.000003     2.351    12.211      99.7      80.0      34.4     207.1     13.80    -11.67     -0.74      0.71     -0.79      1.52     -4.25      6.51      0.55     -0.93     -1.57     -0.82     -8.60     -0.22      4.81     -5.10      1.34      2.03     -0.39      1.92
     -28.890299     -87.198639     197.8      0.93      2.07     130.7         2         2      2446      2308    202.03   -16.946       6.4      36.7   255.363     0.569      92.7   0.07139      30.6         H               347.3  0.041569  0.030849  0.000744  2.131201  0.655273  3.252386  1.070369     53.21    3.5639   18.5948   0.10806   4.78792   0.28854   0.01721  33.17109   3.90606     216.2  0.494927  0.001260  0.000130  0.000199  0.234507  7.446419  0.576647    132.23  1.000039  1.000002     2.404    12.513      97.3      80.5      37.1     206.4     13.68    -11.81     -0.19      1.10     -1.67      1.19     -3.92      5.93      0.40     -1.84     -1.11     -0.43     -8.44     -1.15      4.48     -5.39      1.51      1.47      0.13      1.05
     -28.876274     -87.139336     250.8      0.94      2.07     140.1         2         3      2446      3616    197.65   -17.041       6.5      37.1   254.126     0.567      94.8   0.07113      73.2         H               347.3  0.041651  0.030710  0.000912  2.069917  0.674846  3.067244  1.068575     53.30    3.4758   17.7555   0.10822   4.74403   0.29299   0.01800  31.66809   3.82078     211.2  0.492639  0.001342  0.000134  0.000194  0.234192  7.428672  0.574886    132.52  1.000038  1.000002     2.389    12.316      97.3      79.9      35.5     201.0     13.75    -12.03     -0.90      0.53     -1.07      1.31     -3.34      5.57      0.98     -0.72     -1.38     -1.51     -8.41     -0.77      4.05     -7.08      2.65      1.35      0.72      1.85
     -28.852091     -87.274109     239.8      0.64      2.07     142.2         3         1      3892      1000    203.09   -16.923       6.1      36.3   252.691     0.561      81.6   0.06879      58.0         H               347.3  0.041323  0.027639  0.000836  2.103352  0.659466  3.189478  1.063186     45.97    3.5835   18.5536   0.10312   4.79881   0.28641   0.01691  33.28086   3.93012     215.9  0.490497  0.001007  0.000114  0.000166  0.228321  7.344085  0.567890    136.22  1.000044  1.000003     2.351    11.978      97.3      80.7      37.2     210.2     13.81    -11.18     -0.91      0.15     -1.00      1.93     -3.17      5.51      0.67     -1.25     -1.23     -1.44     -7.77     -0.29      4.19     -7.05      1.52      2.91      0.73      1.62
     -28.837976     -87.214294     259.5      0.88      2.07     142.6         3         2      3892      2308    198.24   -17.028       6.2      36.7   254.453     0.567      79.3   0.07109      98.2         H               347.3  0.041850  0.030557  0.000794  2.144775  0.666888  3.216096  1.068654     68.00    3.4880   17.8381   0.10772   4.75034   0.29284   0.01784  31.83345   3.82740     211.8  0.493437  0.001078  0.000082  0.000185  0.234738  7.417985  0.575202    138.32  1.000043  1.000001     2.398    12.543      99.7      80.1      35.7     213.9     13.92    -11.68     -0.90      0.02     -0.72      1.51     -3.59      5.72      0.93     -0.98     -1.30     -1.42     -8.46     -0.13      4.14     -6.42      1.66      1.78      0.48      2.09
     -28.823961     -87.155029     250.8      0.88      2.07     140.1         3         3      3892      3616    195.77   -17.083       6.5      37.1   254.282     0.568      85.6   0.07136      73.2         H               347.3  0.042338  0.030327  0.000833  2.307376  0.673743  3.424711  1.069383     51.23    3.4376   17.4326   0.10912   4.72439   0.29516   0.01838  31.06054   3.78346     209.4  0.493345  0.001201  0.000108  0.000176  0.228928  7.382953  0.575717    135.77  1.000036  1.000002     2.383    12.238      94.9      79.7      34.9     198.3     13.55    -11.57     -1.11      0.72     -1.38      1.22     -3.05      5.02      1.33     -0.50     -1.34     -1.91     -8.13     -0.78      3.70     -6.50      2.09      1.23      0.45      1.95
