corner points
-96.43625641    9.800983429
-96.47184753    9.97618866
-96.25631714    9.836977959
-96.29180908    10.01214886
========== RESULTS WAVE VERSION 16.10.2018 ====================
IMAGE SIZE  X: 4444     Y:4784    col:row     POLARIZATION:VV
COVERAGE    X: 20.07220132km       Y: 19.82081238km 
RESOLUTION dX: 4.516696966m       dY:4.143146401m  
resolution of original product 4.516696966m x 4.143146401m;   raster step x:5998.173571m  
===============================================================
FLAGS: H=HIGH PROBABILITY SEA STATE, I=LAND(ISLAND), O=OUTLIER NO SEA STATE, N=NO WIND AVAILABLE, SEA STATE NOT VISIBLE, M=MEAN PROBABILITY SEA STATE, L= LOW PROBABILITY SEA STATE
Filtering wave length
 integration  Lmin=1m
 integration  Lmax=2200m
  peak        Lmin=100m
               FFT=1024pixels, 4625.097694m 
   mean-Hs (SWH_c)=0.8531469727m
         mean-wind=12.45576096m/s
--------------0--------------1---------2---------3---------4---------5---------6---------7---------8---------9--------10--------11--------12--------13--------14--------15--------16--------17--------18--------19------------------20--------21--------22--------23--------24--------25--------26--------27--------28--------29--------30--------31--------32--------33--------34--------35--------36--------37--------38--------39--------40--------41--------42--------43--------44--------45--------46--------47--------48--------49--------50--------51--------52--------53--------54--------55--------56--------57--------58--------59--------60--------61--------62--------63--------64--------65--------66--------67--------68--------69--------70--------71--------72--------73
            LAT            LON  P-LENGHT     SWH_o     SWH_c     P-DIR      LINE     POINT     ROW-Y     COL-X  M-INTENC        dB      WIND INC-ANGLE  ENERGY-M  ENERGY-N  ENERGY-R ENERGY-NN  FG-DEPTH      FLAG         HEADING-DEG    E30-75   E75-390  E390-600 meanincut   meanout   cut/out  STD-NORM  SPEC-MAX   GL-MEAN    GL-VAR      CORR   ENTROPY   HOMOGEN    ENERGY  CONTRAST  DISSIMIL     STD-O    E 1-30 E600-2000   E2000 >      GODA  LONG-HIG     Tmean  CONVOLUT  MEAN-DIR  relation     Sy/Sx  SKEWNESS  KURTOSIS  cutoff-A >50/10000     INT*V   INT-LOG  S-1_g1f1  S-2_g1f2  S-3_g1f3  S-4_g2f1  S-5_g2f2  S-6_g2f3  S-7_g3f1  S-8_g3f2  S-9_g3f3 S-10_g1f4 S-11_g2f4 S-12_g3f4 S-13_g1f5 S-14_g2f5 S-15_g3f5 S-16_g4f1 S-17_g4f2 S-18_g4f3 S-19_g4f4 S-20_g4f5
--------------1--------------2---------3---------4---------5---------6---------7---------8---------9--------10--------11--------12--------13--------14--------15--------16--------17--------18--------19--------20------------------21--------22--------23--------24--------25--------26--------27--------28--------29--------30--------31--------32--------33--------34--------35--------36--------37--------38--------39--------40--------41--------42--------43--------44--------45--------46--------47--------48--------49--------50--------51--------52--------53--------54--------55--------56--------57--------58--------59--------60--------61--------62--------63--------64--------65--------66--------67--------68--------69--------70--------71--------72--------73--------74
       9.845813     -96.402748     100.4      0.74      2.09      77.7         1         1      1000      1000    456.70   -13.404      12.0      36.9   222.507     0.581      68.9   0.08253       6.4         H               348.0  0.055105  0.017833  0.000563  1.803169  0.699917  2.576261  1.081513     10.47    8.6087   92.7210   0.12421   6.39245   0.15228   0.00348 162.40933   8.80458     493.9  0.506723  0.001105  0.000118  0.000155  0.155932  6.773887  0.586508     81.17  1.000168  1.000013     2.493    13.427     105.0      93.0     199.9     516.8     11.28      1.58     -1.35      1.60     -0.75      1.95      2.08      0.78     -0.13      0.25      0.80     -0.39     -0.87      0.03      0.94     -7.59     -3.36      4.67      1.71      0.80
       9.856611     -96.348770     102.0      0.79      2.09      76.1         1         2      1000      2328    446.22   -13.504      12.1      37.3   222.116     0.578      80.1   0.08139       6.6         H               348.0  0.053833  0.018274  0.000600  1.865371  0.697160  2.675672  1.078408     10.96    8.4080   88.7609   0.12268   6.34982   0.15586   0.00364 155.74359   8.60776     481.2  0.503980  0.001225  0.000184  0.000156  0.155647  6.789079  0.582893     81.57  1.000153  1.000013     2.451    12.977     105.0      92.9     189.6     510.9     11.17      1.25     -1.69      1.61     -0.09      2.10      2.34      0.56      0.11      0.49      1.36     -0.25     -0.39     -0.49      1.42     -7.89     -1.92      5.29      2.84     -0.96
       9.867308     -96.295250     101.3      0.91      2.09      80.4         1         3      1000      3656    462.25   -13.351      12.6      37.7   223.979     0.586     231.5   0.08534       6.5         H               348.0  0.055903  0.019112  0.000629  1.965062  0.703217  2.794392  1.087648     13.77    8.7191   95.6952   0.13162   6.41419   0.15236   0.00344 166.19908   8.88816     502.8  0.507398  0.003108  0.000707  0.000169  0.155567  6.762261  0.592978     81.76  1.000102  1.000008     2.521    13.772     114.0      93.1     206.7     543.1     11.52      1.81     -1.35      0.85     -0.75      1.76      2.14      0.47     -0.20      0.10      1.01     -0.43     -0.40     -0.55      1.46     -9.04     -2.92      4.80      2.44     -1.37
       9.898852     -96.413513     102.0      0.78      2.09      83.1         2         1      2448      1000    468.65   -13.292      12.2      36.9   221.988     0.581      78.6   0.08353       6.6         H               348.0  0.056171  0.017990  0.000595  1.799559  0.712021  2.527396  1.081818     10.80    8.8437   97.3372   0.12660   6.44210   0.14972   0.00332 170.02821   9.01580     507.0  0.505534  0.001283  0.000151  0.000159  0.157172  6.760642  0.587072     82.17  1.000172  1.000014     2.486    13.415     110.8      93.3     211.3     526.9     11.41      1.55     -1.53      1.28     -0.79      1.95      1.91      0.80     -0.02      0.36      0.80     -0.60     -0.88      0.12      1.13     -8.01     -3.75      4.76      2.39      0.43
       9.909647     -96.359528     104.0      0.91      2.09      81.5         2         2      2448      2328    478.22   -13.204      12.6      37.3   222.256     0.581      86.4   0.08318       6.9         H               348.0  0.054956  0.018564  0.000690  1.868837  0.721472  2.590311  1.081599     10.40    9.0301  100.7817   0.12582   6.48057   0.14728   0.00318 176.20251   9.19145     517.2  0.505583  0.001708  0.000133  0.000156  0.156977  6.779960  0.586910     81.71  1.000131  1.000010     2.496    13.724     107.8      93.6     220.5     575.0     11.40      1.63     -1.65      0.80     -0.62      1.94      2.48      0.73     -0.34      0.41      1.12     -0.35     -0.69     -0.32      1.59     -9.66     -3.10      6.02      2.76     -1.04
       9.920341     -96.306000     104.9      0.93      2.09      77.1         2         3      2448      3656    479.99   -13.188      12.9      37.7   221.828     0.578      88.1   0.08205       7.0         H               348.0  0.054845  0.018230  0.000656  1.828046  0.699841  2.612089  1.078603      9.74    9.0667  101.1730   0.12488   6.48844   0.14671   0.00315 177.07547   9.22144     517.7  0.502871  0.001522  0.000171  0.000160  0.155302  6.753902  0.583502     82.16  1.000129  1.000010     2.463    13.189     107.8      93.6     221.1     547.9     11.31      1.01     -2.00      1.02     -0.10      1.99      2.35      1.14      0.17      0.85      0.96     -0.47     -0.56     -0.11      1.24     -8.91     -2.49      5.78      2.37     -0.26
       9.951891     -96.424286     100.4      0.84      2.09      77.7         3         1      3896      1000    481.52   -13.174      12.4      36.9   222.816     0.583      63.3   0.08377       6.4         H               348.0  0.056561  0.018193  0.000580  1.847485  0.715548  2.581916  1.083354      9.18    9.0927  102.2564   0.12688   6.49270   0.14651   0.00315 178.56534   9.25094     521.7  0.507021  0.001030  0.000103  0.000157  0.155305  6.762150  0.588988     82.16  1.000174  1.000013     2.514    13.954     107.8      93.5     224.0     586.4     11.24      1.24     -1.27      1.61     -0.13      2.09      2.26      0.77      0.01      0.57      1.31     -0.41     -0.56      0.04      1.60     -7.52     -2.45      5.15      2.89     -0.38
       9.962683     -96.370285     104.3      0.85      2.09      82.9         3         2      3896      2328    470.88   -13.271      12.5      37.3   222.722     0.583      72.3   0.08313       6.9         H               348.0  0.055467  0.018113  0.000636  1.820409  0.711658  2.557983  1.082935     12.71    8.8864   98.2055   0.12544   6.45088   0.14897   0.00328 171.77390   9.06373     509.9  0.507323  0.001316  0.000106  0.000160  0.156882  6.774948  0.588197     83.04  1.000169  1.000013     2.500    13.527     110.8      93.4     213.5     538.6     11.61      0.95     -1.36      0.72     -0.35      2.07      2.17      0.61     -0.03      0.32      0.68     -0.23     -0.43      0.51      1.17     -9.17     -2.07      4.76      1.97      0.62
       9.973373     -96.316750     100.1      0.93      2.09      84.6         3         3      3896      3656    474.90   -13.234      12.8      37.7   222.252     0.579     150.8   0.08280       6.4         H               348.0  0.054095  0.018464  0.000718  1.848995  0.702770  2.631012  1.080772     11.15    8.9685   99.6803   0.12679   6.46813   0.14826   0.00324 174.08304   9.12874     513.3  0.504043  0.001959  0.000488  0.000158  0.157415  6.786096  0.585015     81.90  1.000113  1.000009     2.471    13.415     107.8      93.4     216.9     569.4     11.54      1.82     -1.76      0.77     -0.68      2.40      2.51      0.58     -0.49      0.16      1.21     -0.13     -0.77     -0.28      2.01    -10.20     -3.14      6.81      2.93     -1.58
