corner points
-92.53227997    -16.22107315
-92.57375336    -16.040905
-92.34283447    -16.17900276
-92.38455963    -15.99889278
========== RESULTS WAVE VERSION 16.10.2018 ====================
IMAGE SIZE  X: 5619     Y:4926    col:row     POLARIZATION:VV
COVERAGE    X: 20.71149745km       Y: 20.47172099km 
RESOLUTION dX: 3.685975698m       dY:4.15585079m  
resolution of original product 3.685975698m x 4.15585079m;   raster step x:5997.08246m  
===============================================================
FLAGS: H=HIGH PROBABILITY SEA STATE, I=LAND(ISLAND), O=OUTLIER NO SEA STATE, N=NO WIND AVAILABLE, SEA STATE NOT VISIBLE, M=MEAN PROBABILITY SEA STATE, L= LOW PROBABILITY SEA STATE
Filtering wave length
 integration  Lmin=1m
 integration  Lmax=2200m
  peak        Lmin=100m
               FFT=1024pixels, 3774.439115m 
   mean-Hs (SWH_c)=0.2620378494m
         mean-wind=8.274486542m/s
--------------0--------------1---------2---------3---------4---------5---------6---------7---------8---------9--------10--------11--------12--------13--------14--------15--------16--------17--------18--------19------------------20--------21--------22--------23--------24--------25--------26--------27--------28--------29--------30--------31--------32--------33--------34--------35--------36--------37--------38--------39--------40--------41--------42--------43--------44--------45--------46--------47--------48--------49--------50--------51--------52--------53--------54--------55--------56--------57--------58--------59--------60--------61--------62--------63--------64--------65--------66--------67--------68--------69--------70--------71--------72--------73
            LAT            LON  P-LENGHT     SWH_o     SWH_c     P-DIR      LINE     POINT     ROW-Y     COL-X  M-INTENC        dB      WIND INC-ANGLE  ENERGY-M  ENERGY-N  ENERGY-R ENERGY-NN  FG-DEPTH      FLAG         HEADING-DEG    E30-75   E75-390  E390-600 meanincut   meanout   cut/out  STD-NORM  SPEC-MAX   GL-MEAN    GL-VAR      CORR   ENTROPY   HOMOGEN    ENERGY  CONTRAST  DISSIMIL     STD-O    E 1-30 E600-2000   E2000 >      GODA  LONG-HIG     Tmean  CONVOLUT  MEAN-DIR  relation     Sy/Sx  SKEWNESS  KURTOSIS  cutoff-A >50/10000     INT*V   INT-LOG  S-1_g1f1  S-2_g1f2  S-3_g1f3  S-4_g2f1  S-5_g2f2  S-6_g2f3  S-7_g3f1  S-8_g3f2  S-9_g3f3 S-10_g1f4 S-11_g2f4 S-12_g3f4 S-13_g1f5 S-14_g2f5 S-15_g3f5 S-16_g4f1 S-17_g4f2 S-18_g4f3 S-19_g4f4 S-20_g4f5
--------------1--------------2---------3---------4---------5---------6---------7---------8---------9--------10--------11--------12--------13--------14--------15--------16--------17--------18--------19--------20------------------21--------22--------23--------24--------25--------26--------27--------28--------29--------30--------31--------32--------33--------34--------35--------36--------37--------38--------39--------40--------41--------42--------43--------44--------45--------46--------47--------48--------49--------50--------51--------52--------53--------54--------55--------56--------57--------58--------59--------60--------61--------62--------63--------64--------65--------66--------67--------68--------69--------70--------71--------72--------73--------74
     -16.176819     -92.506096     290.4      0.51      2.28     152.5         1         1      1000      1000   3004.33    -5.223       8.6      23.4   377.012     0.707      84.4   0.15935     100.0         H               347.8  0.082352  0.035052  0.001213  2.670942  0.905509  2.949659  1.191780     81.77    5.5119   49.4054   0.25095   5.52697   0.23641   0.00983  74.01434   5.58762    3580.2  0.587704  0.000930  0.000038  0.000185  0.193561  6.904918  0.740353    118.50  1.000165  1.000018     3.210    23.305      84.8      86.1      94.6     486.1     14.04     -6.44     -5.40     -3.25      4.65      4.52     -1.12      2.29      1.57      5.28     -3.72     -0.77     -3.50      1.09      1.61    -11.39      8.00      8.11     -6.35      2.10
     -16.164513     -92.450645     290.4      0.51      2.28     152.5         1         2      1000      2627   2680.75    -5.717       8.5      23.9   376.792     0.707      73.1   0.16003     100.0         H               347.8  0.082553  0.033256  0.001082  2.683914  0.921554  2.912379  1.192326     64.26    4.8719   39.7292   0.25191   5.30270   0.25694   0.01223  59.44119   4.98554    3196.3  0.589912  0.000795  0.000032  0.000180  0.185871  6.867719  0.740277    105.15  1.000197  1.000021     3.237    22.962      81.3      84.1      74.9     421.9     13.69     -5.14     -4.91     -2.36      3.63      3.94     -1.06      2.38      1.82      4.71     -2.58     -1.29     -2.69      0.93      1.27    -10.25      5.48      6.63     -4.27      2.00
     -16.152420     -92.396217     290.4      0.48      2.28     152.5         1         3      1000      4254   2316.75    -6.351       7.9      24.3   376.958     0.706      84.6   0.15948     100.0         H               347.8  0.081226  0.035458  0.001275  2.625371  0.921375  2.849406  1.191641     92.89    4.1438   29.8904   0.25248   5.01027   0.28735   0.01649  44.68741   4.29667    2760.7  0.587930  0.000911  0.000034  0.000191  0.192470  6.900172  0.739991    131.24  1.000182  1.000019     3.174    21.965      83.0      81.2      55.5     355.1     14.23     -7.05     -6.32     -3.99      5.64      4.63     -1.18      2.47      1.98      6.26     -4.13     -1.43     -3.37      1.62      1.22    -12.20      8.83      8.16     -7.05      2.96
     -16.124035     -92.518265     321.0      0.51      2.28     154.8         2         1      2443      1000   2995.82    -5.235       8.6      23.4   376.922     0.710      90.5   0.16130     100.0         H               347.8  0.080626  0.035098  0.001294  2.649874  0.918714  2.884330  1.194152     84.47    5.4799   49.0043   0.25289   5.51577   0.23724   0.00995  73.22198   5.55261    3577.1  0.592466  0.001014  0.000050  0.000183  0.192623  6.899809  0.743982    122.03  1.000176  1.000017     3.230    23.067      84.8      85.9      94.0     484.6     14.11     -5.90     -5.87     -3.55      4.68      4.86     -0.90      1.67      1.52      5.58     -4.07     -1.35     -2.17      0.68      1.09    -12.18      7.84      8.54     -6.67      1.37
     -16.111734     -92.462837     282.0      0.49      2.28     158.1         2         2      2443      2627   2616.79    -5.822       8.2      23.9   375.710     0.705      66.7   0.15888     100.0         H               347.8  0.081653  0.033699  0.001461  2.584353  0.893663  2.891865  1.190974     67.06    4.7431   37.8025   0.25154   5.25444   0.26193   0.01286  56.58694   4.86115    3116.4  0.587870  0.000676  0.000013  0.000185  0.190254  6.879113  0.738364    107.89  1.000193  1.000020     3.231    23.848      84.8      83.7      71.1     419.1     14.12     -5.50     -5.95     -3.85      4.68      4.65     -0.47      1.72      2.15      5.26     -3.57     -0.77     -2.09      1.25      0.46    -13.26      8.15      8.15     -6.51      3.09
     -16.099646     -92.408424     300.3      0.51      2.28     156.6         2         3      2443      4254   2450.75    -6.107       8.5      24.3   369.900     0.688      89.3   0.15294     100.0         H               347.8  0.078013  0.032719  0.001292  2.472612  0.900142  2.746912  1.175053     76.66    4.4095   32.6038   0.24727   5.12643   0.27402   0.01445  49.08338   4.54162    2879.6  0.575664  0.001084  0.000050  0.000183  0.189432  6.879856  0.720100    122.86  1.000172  1.000018     3.050    19.922      81.3      82.6      61.1     356.4     13.86     -6.09     -5.88     -3.23      5.03      4.72     -0.48      1.71      1.80      6.28     -4.02     -1.42     -2.27      0.86      0.76    -12.19      8.74      8.32     -7.15      2.17
     -16.071249     -92.530426     321.0      0.50      2.28     154.8         3         1      3886      1000   2920.03    -5.346       8.3      23.4   377.447     0.712      83.1   0.16297     100.0         H               347.8  0.083262  0.035293  0.001419  2.665249  0.937777  2.842092  1.194715     73.90    5.3537   47.2937   0.25513   5.47172   0.24205   0.01046  70.45428   5.43642    3488.5  0.591233  0.000902  0.000030  0.000187  0.194273  6.891365  0.746288    122.20  1.000172  1.000016     3.166    21.274      84.8      85.5      89.9     434.2     14.17     -5.75     -6.30     -3.80      4.48      5.32     -0.77      2.32      2.10      5.22     -3.30     -1.31     -1.99      0.53      0.89    -12.48      7.13      9.38     -5.32      1.19
     -16.058954     -92.475014     321.0      0.46      2.28     154.8         3         2      3886      2627   2470.92    -6.071       7.7      23.9   374.263     0.700      83.5   0.15699     100.0         H               347.8  0.079759  0.034999  0.001516  2.617168  0.912546  2.867984  1.186811     81.94    4.4709   33.8882   0.25023   5.14830   0.27292   0.01430  50.81664   4.59954    2932.4  0.583566  0.000888  0.000033  0.000176  0.194565  6.917478  0.733232    124.68  1.000162  1.000015     3.165    21.822      83.0      82.7      63.3     369.8     14.25     -6.12     -6.27     -4.09      5.12      5.35     -0.41      1.43      1.63      5.30     -4.04     -0.89     -2.14      0.80      0.66    -13.51      9.03      9.80     -7.03      2.05
     -16.046869     -92.420631     296.3      0.48      2.28     146.7         3         3      3886      4254   2341.01    -6.306       8.1      24.3   372.582     0.691     113.8   0.15220     100.0         H               347.8  0.077793  0.033581  0.001259  2.529202  0.869621  2.908394  1.178726     74.01    4.1915   29.8549   0.24595   5.03513   0.28308   0.01584  45.02385   4.33985    2759.2  0.576969  0.001365  0.000095  0.000188  0.192785  6.906249  0.722295    128.25  1.000178  1.000017     3.094    20.907      83.0      81.6      55.8     344.3     14.11     -6.55     -5.89     -3.48      5.13      4.54     -1.14      2.25      2.29      6.09     -3.77     -1.70     -2.43      1.09      0.65    -11.81      8.53      7.44     -6.35      2.27
