corner points
-94.23521423    -0.8217066526
-94.27222443    -0.6464692354
-94.0579834    -0.7834063172
-94.09500885    -0.6082119942
========== RESULTS WAVE VERSION 16.10.2018 ====================
IMAGE SIZE  X: 4444     Y:4787    col:row     POLARIZATION:VV
COVERAGE    X: 20.11415134km       Y: 19.868584km 
RESOLUTION dX: 4.526136665m       dY:4.150529351m  
resolution of original product 4.526136665m x 4.150529351m;   raster step x:5997.131081m  
===============================================================
FLAGS: H=HIGH PROBABILITY SEA STATE, I=LAND(ISLAND), O=OUTLIER NO SEA STATE, N=NO WIND AVAILABLE, SEA STATE NOT VISIBLE, M=MEAN PROBABILITY SEA STATE, L= LOW PROBABILITY SEA STATE
Filtering wave length
 integration  Lmin=1m
 integration  Lmax=2200m
  peak        Lmin=100m
               FFT=1024pixels, 4634.763945m 
   mean-Hs (SWH_c)=0.2m
         mean-wind=5.414197922m/s
--------------0--------------1---------2---------3---------4---------5---------6---------7---------8---------9--------10--------11--------12--------13--------14--------15--------16--------17--------18--------19------------------20--------21--------22--------23--------24--------25--------26--------27--------28--------29--------30--------31--------32--------33--------34--------35--------36--------37--------38--------39--------40--------41--------42--------43--------44--------45--------46--------47--------48--------49--------50--------51--------52--------53--------54--------55--------56--------57--------58--------59--------60--------61--------62--------63--------64--------65--------66--------67--------68--------69--------70--------71--------72--------73
            LAT            LON  P-LENGHT     SWH_o     SWH_c     P-DIR      LINE     POINT     ROW-Y     COL-X  M-INTENC        dB      WIND INC-ANGLE  ENERGY-M  ENERGY-N  ENERGY-R ENERGY-NN  FG-DEPTH      FLAG         HEADING-DEG    E30-75   E75-390  E390-600 meanincut   meanout   cut/out  STD-NORM  SPEC-MAX   GL-MEAN    GL-VAR      CORR   ENTROPY   HOMOGEN    ENERGY  CONTRAST  DISSIMIL     STD-O    E 1-30 E600-2000   E2000 >      GODA  LONG-HIG     Tmean  CONVOLUT  MEAN-DIR  relation     Sy/Sx  SKEWNESS  KURTOSIS  cutoff-A >50/10000     INT*V   INT-LOG  S-1_g1f1  S-2_g1f2  S-3_g1f3  S-4_g2f1  S-5_g2f2  S-6_g2f3  S-7_g3f1  S-8_g3f2  S-9_g3f3 S-10_g1f4 S-11_g2f4 S-12_g3f4 S-13_g1f5 S-14_g2f5 S-15_g3f5 S-16_g4f1 S-17_g4f2 S-18_g4f3 S-19_g4f4 S-20_g4f5
--------------1--------------2---------3---------4---------5---------6---------7---------8---------9--------10--------11--------12--------13--------14--------15--------16--------17--------18--------19--------20------------------21--------22--------23--------24--------25--------26--------27--------28--------29--------30--------31--------32--------33--------34--------35--------36--------37--------38--------39--------40--------41--------42--------43--------44--------45--------46--------47--------48--------49--------50--------51--------52--------53--------54--------55--------56--------57--------58--------59--------60--------61--------62--------63--------64--------65--------66--------67--------68--------69--------70--------71--------72--------73--------74
      -0.776378     -94.202614     241.7      0.33      1.26      31.4         1         1      1000      1000    157.05   -18.040       5.2      36.9   215.799     0.522      36.0   0.04980      60.1         H               348.0  0.034863  0.010927  0.000267  0.876596  0.595784  1.471331  1.024997      8.92    2.6670   10.2783   0.05571   4.29421   0.33683   0.02636  19.41147   3.04126     161.0  0.475365  0.000545  0.000050  0.000092  0.177366  6.836144  0.523094     71.36  0.999993  0.999999     2.126    10.001      83.0      75.6      22.1     137.8     11.21      0.74     -4.44      1.90     -0.88      0.01     -0.96     -0.76      2.18      0.10      0.49     -0.10     -0.57     -0.04      0.23     -3.79     -0.11      1.05      0.07      0.22
      -0.764919     -94.149574     241.5      0.34      1.26      24.6         1         2      1000      2325    156.19   -18.063       5.4      37.2   215.475     0.522      39.1   0.05058      59.8         H               348.0  0.035236  0.011060  0.000307  0.852629  0.600460  1.419960  1.025153     11.85    2.6539   10.1638   0.05749   4.28584   0.33783   0.02652  19.15895   3.02141     160.1  0.474871  0.000548  0.000064  0.000093  0.180263  6.847972  0.523178     40.58  0.999999  1.000001     2.131    10.077      81.3      75.5      21.8     140.7     11.47      0.90     -5.04      1.20     -1.09      0.17     -1.13     -0.89      2.39     -0.88      0.65      0.24     -0.57     -0.09      0.21     -4.88     -0.50      1.18      0.59      0.53
      -0.753557     -94.096985     217.4      0.34      1.26     166.4         1         3      1000      3650    148.22   -18.291       5.4      37.6   215.506     0.522      54.5   0.05037      40.4         H               348.0  0.035076  0.011364  0.000269  0.889088  0.601016  1.479308  1.025329     10.87    2.4931    9.1488   0.05695   4.18027   0.35075   0.02947  17.25540   2.86167     152.0  0.474830  0.000688  0.000120  0.000093  0.182450  6.869055  0.523678    134.32  0.999980  0.999999     2.135    10.087      86.6      74.2      19.7     128.1     11.51      0.25     -4.79      1.63     -0.90      0.32     -1.45     -0.58      2.69     -0.64      0.82     -0.07      0.26     -0.58     -0.30     -3.86     -0.29      1.09      1.11     -0.61
      -0.723473     -94.213791     217.4      0.34      1.26     166.4         2         1      2445      1000    164.54   -17.837       5.4      36.9   214.641     0.521      43.3   0.05113      40.4         H               348.0  0.035875  0.011149  0.000296  0.902632  0.618830  1.458610  1.024812      8.96    2.8157   11.2905   0.06025   4.38633   0.32624   0.02411  21.22058   3.18212     168.6  0.473496  0.000577  0.000084  0.000092  0.177891  6.823617  0.522854    131.42  1.000012  1.000000     2.141    10.208      81.3      76.7      24.1     150.3     11.49      0.32     -4.23      1.47     -0.71      0.13     -1.11     -0.41      2.09      0.47      0.38     -0.31     -0.65     -0.17      0.18     -4.56     -0.10      0.82     -0.23      0.62
      -0.712017     -94.160751     246.3      0.35      1.26      35.8         2         2      2445      2325    162.29   -17.897       5.6      37.2   214.917     0.521      49.5   0.05094      65.9         H               348.0  0.035708  0.010892  0.000277  0.875450  0.610177  1.434747  1.024763      9.47    2.7742   10.9686   0.05945   4.36111   0.32878   0.02465  20.63294   3.13980     166.3  0.473886  0.000653  0.000111  0.000092  0.176782  6.818182  0.522580     39.08  1.000023  1.000000     2.124     9.991      79.7      76.4      23.4     141.1     11.35      1.29     -4.54      1.48     -1.05     -0.12     -1.00     -1.39      2.26     -0.67      0.60      0.62     -0.66     -0.11      0.54     -4.33     -0.27      0.55     -0.06      0.03
      -0.700659     -94.108170     219.6      0.35      1.26     169.1         2         3      2445      3650    152.98   -18.154       5.5      37.6   214.608     0.519      43.6   0.04943      41.8         H               348.0  0.034730  0.011137  0.000255  0.874693  0.590587  1.481056  1.021742     10.23    2.5876    9.6839   0.05511   4.24325   0.34275   0.02759  18.30045   2.95507     156.3  0.471982  0.000608  0.000075  0.000094  0.182002  6.852293  0.519804    145.12  0.999971  0.999998     2.112     9.875      86.6      75.1      20.9     129.1     11.54      0.27     -5.00      1.52     -0.58      0.19     -1.77     -0.37      2.70      0.71      0.34     -0.45     -0.35     -0.11      0.43     -3.81      0.09      1.10     -0.22      0.03
      -0.670568     -94.224960     241.7      0.33      1.26      31.4         3         1      3890      1000    158.02   -18.013       5.2      36.9   214.811     0.520      40.7   0.05030      60.1         H               348.0  0.035068  0.010904  0.000274  0.891035  0.600481  1.483869  1.023989     10.60    2.6870   10.3914   0.05687   4.30687   0.33513   0.02598  19.60087   3.05689     161.8  0.473861  0.000567  0.000069  0.000092  0.179520  6.846638  0.521760     43.43  1.000010  1.000001     2.137    10.131      83.0      75.8      22.3     139.2     11.46      1.06     -4.28      1.59     -0.97      0.16     -1.15     -0.94      1.84     -0.54      0.90     -0.19     -1.23     -0.31      0.75     -4.30     -0.53      1.37      1.18     -0.18
      -0.659116     -94.171928     219.6      0.34      1.26     169.1         3         2      3890      2325    158.71   -17.994       5.5      37.2   214.713     0.521      39.1   0.05108      41.8         H               348.0  0.035421  0.011528  0.000302  0.887336  0.612417  1.448908  1.024396     12.12    2.7028   10.4772   0.05956   4.31670   0.33385   0.02576  19.70642   3.06888     162.5  0.473365  0.000589  0.000056  0.000094  0.183533  6.871239  0.522479    147.47  1.000000  1.000001     2.121     9.973      81.3      75.8      22.5     137.2     11.69      0.45     -4.92      1.26     -0.80      0.07     -1.68     -0.59      2.99      0.18      0.29      0.08     -0.04     -0.43     -0.07     -4.61     -0.37     -0.01     -0.36     -0.34
      -0.647762     -94.119347     214.9      0.35      1.26     163.9         3         3      3890      3650    155.63   -18.079       5.6      37.6   215.367     0.521      57.4   0.05041      39.0         H               348.0  0.035177  0.010768  0.000326  0.854498  0.597361  1.430456  1.024664      9.80    2.6408   10.0846   0.05669   4.27744   0.33865   0.02675  19.02589   3.01051     159.5  0.474352  0.000824  0.000114  0.000092  0.177786  6.829672  0.522636    149.97  1.000009  1.000000     2.133    10.117      83.0      75.5      21.7     139.1     11.40      0.28     -4.59      1.25     -0.28      0.21     -0.72     -0.45      2.06      0.24      0.26     -0.14     -0.01     -0.24     -0.04     -5.22      0.64      1.33      0.05      0.36
