corner points
-92.69252777    -7.894503593
-92.73142242    -7.719491005
-92.51361084    -7.854389191
-92.55258942    -7.679427147
========== RESULTS WAVE VERSION 16.10.2018 ====================
IMAGE SIZE  X: 4444     Y:4787    col:row     POLARIZATION:VV
COVERAGE    X: 20.15925659km       Y: 19.88037774km 
RESOLUTION dX: 4.536286361m       dY:4.152993053m  
resolution of original product 4.536286361m x 4.152993053m;   raster step x:5996.97057m  
===============================================================
FLAGS: H=HIGH PROBABILITY SEA STATE, I=LAND(ISLAND), O=OUTLIER NO SEA STATE, N=NO WIND AVAILABLE, SEA STATE NOT VISIBLE, M=MEAN PROBABILITY SEA STATE, L= LOW PROBABILITY SEA STATE
Filtering wave length
 integration  Lmin=1m
 integration  Lmax=2200m
  peak        Lmin=100m
               FFT=1024pixels, 4645.157234m 
   mean-Hs (SWH_c)=0.2m
         mean-wind=7.129835129m/s
--------------0--------------1---------2---------3---------4---------5---------6---------7---------8---------9--------10--------11--------12--------13--------14--------15--------16--------17--------18--------19------------------20--------21--------22--------23--------24--------25--------26--------27--------28--------29--------30--------31--------32--------33--------34--------35--------36--------37--------38--------39--------40--------41--------42--------43--------44--------45--------46--------47--------48--------49--------50--------51--------52--------53--------54--------55--------56--------57--------58--------59--------60--------61--------62--------63--------64--------65--------66--------67--------68--------69--------70--------71--------72--------73
            LAT            LON  P-LENGHT     SWH_o     SWH_c     P-DIR      LINE     POINT     ROW-Y     COL-X  M-INTENC        dB      WIND INC-ANGLE  ENERGY-M  ENERGY-N  ENERGY-R ENERGY-NN  FG-DEPTH      FLAG         HEADING-DEG    E30-75   E75-390  E390-600 meanincut   meanout   cut/out  STD-NORM  SPEC-MAX   GL-MEAN    GL-VAR      CORR   ENTROPY   HOMOGEN    ENERGY  CONTRAST  DISSIMIL     STD-O    E 1-30 E600-2000   E2000 >      GODA  LONG-HIG     Tmean  CONVOLUT  MEAN-DIR  relation     Sy/Sx  SKEWNESS  KURTOSIS  cutoff-A >50/10000     INT*V   INT-LOG  S-1_g1f1  S-2_g1f2  S-3_g1f3  S-4_g2f1  S-5_g2f2  S-6_g2f3  S-7_g3f1  S-8_g3f2  S-9_g3f3 S-10_g1f4 S-11_g2f4 S-12_g3f4 S-13_g1f5 S-14_g2f5 S-15_g3f5 S-16_g4f1 S-17_g4f2 S-18_g4f3 S-19_g4f4 S-20_g4f5
--------------1--------------2---------3---------4---------5---------6---------7---------8---------9--------10--------11--------12--------13--------14--------15--------16--------17--------18--------19--------20------------------21--------22--------23--------24--------25--------26--------27--------28--------29--------30--------31--------32--------33--------34--------35--------36--------37--------38--------39--------40--------41--------42--------43--------44--------45--------46--------47--------48--------49--------50--------51--------52--------53--------54--------55--------56--------57--------58--------59--------60--------61--------62--------63--------64--------65--------66--------67--------68--------69--------70--------71--------72--------73--------74
      -7.848814     -92.659935     312.6      0.42      1.55      28.1         1         1      1000      1000    220.45   -16.567       6.9      36.8   220.162     0.539      59.4   0.06142     100.0         H               348.0  0.041726  0.011975  0.000466  0.987150  0.647215  1.525227  1.041710     13.95    3.9291   21.0011   0.08503   4.96522   0.26622   0.01388  38.43071   4.27040     229.6  0.484005  0.000996  0.000103  0.000095  0.173962  6.782920  0.542026     48.02  1.000111  1.000007     2.248    11.186      79.7      82.8      42.7     222.6     11.96      0.12     -3.84     -0.32     -0.26      0.84      0.63     -0.48      1.19     -0.80      1.47     -0.32     -1.32      0.44      0.27     -8.97      1.65      1.96      2.20      1.90
      -7.836842     -92.606514     276.2      0.44      1.55      24.6         1         2      1000      2322    219.92   -16.577       7.2      37.1   220.584     0.541      54.1   0.06217     100.0         H               348.0  0.042092  0.011779  0.000422  1.006449  0.647262  1.554932  1.043760      8.01    3.9198   20.9815   0.08510   4.96078   0.26634   0.01398  38.39185   4.26794     229.5  0.485708  0.000943  0.000082  0.000093  0.171124  6.770529  0.543582     86.20  1.000126  1.000007     2.253    11.177      78.1      82.6      42.6     210.8     11.55     -0.54     -2.95      0.79      0.11      0.04      0.53      0.11      1.23     -0.19      0.92     -0.27     -1.15      0.37      0.39     -7.12      1.55      0.33      1.70      1.42
      -7.824965     -92.553558     285.0      0.44      1.55      29.4         1         3      1000      3644    212.92   -16.718       7.2      37.5   219.916     0.536      65.6   0.05972     100.0         H               348.0  0.040559  0.011579  0.000487  0.967928  0.638060  1.516986  1.039061     10.65    3.7807   19.4887   0.08058   4.89747   0.27246   0.01480  35.83627   4.12784     221.2  0.482015  0.001252  0.000094  0.000093  0.174115  6.786794  0.538401     74.65  1.000112  1.000006     2.221    10.819      78.1      82.2      39.8     200.5     11.93     -0.04     -3.09     -0.14     -0.64     -0.13      0.63      0.04      1.74     -0.09      1.06     -0.87     -1.50      0.48      0.33     -8.93      0.45     -0.70      2.06      2.10
      -7.796015     -92.671677     276.2      0.43      1.55      24.6         2         1      2444      1000    228.79   -16.406       7.1      36.8   220.153     0.541      48.0   0.06285     100.0         H               348.0  0.042145  0.011869  0.000447  0.975591  0.658099  1.482438  1.043258     16.46    4.0953   22.6875   0.08711   5.03879   0.25903   0.01295  41.42231   4.43486     238.7  0.485732  0.000759  0.000071  0.000096  0.172654  6.768091  0.543637     46.66  1.000124  1.000006     2.269    11.538      79.7      83.4      46.0     231.6     11.94      1.32     -3.57     -0.20     -0.69      1.00      0.77     -0.82      1.76     -1.49      1.94     -0.16     -1.12      0.78      0.56     -8.54      0.21      1.34      3.46      1.72
      -7.784047     -92.618263     308.6      0.43      1.55      19.4         2         2      2444      2322    218.64   -16.603       7.1      37.1   221.492     0.542      71.8   0.06186     100.0         H               348.0  0.041903  0.011902  0.000489  0.964214  0.649956  1.483505  1.044607     15.74    3.8944   20.7687   0.08491   4.94916   0.26772   0.01417  38.01044   4.24184     228.4  0.486312  0.001169  0.000133  0.000095  0.174965  6.784153  0.544434     49.59  1.000109  1.000006     2.256    11.169      79.7      82.4      42.2     217.1     12.09      0.48     -3.92     -0.57     -0.37      0.83      0.60     -0.69      1.66     -1.15      1.53     -0.29     -0.88      0.54      0.26     -9.41      1.41      1.21      2.85      1.65
      -7.772175     -92.565315     301.3      0.44      1.55      22.9         2         3      2444      3644    212.26   -16.731       7.2      37.5   220.506     0.538      65.0   0.06049     100.0         H               348.0  0.041103  0.011757  0.000411  0.985393  0.647815  1.521102  1.041478      9.96    3.7669   19.4640   0.08272   4.89053   0.27378   0.01497  35.70799   4.11524     221.1  0.484155  0.001220  0.000095  0.000094  0.171804  6.773948  0.541311     72.72  1.000109  1.000006     2.234    10.972      76.6      82.1      39.6     204.9     11.79     -0.03     -3.44      0.09     -0.33      0.15      0.34     -0.04      1.21     -0.53      1.29     -0.54     -0.94      0.10      0.55     -7.97      0.67      0.71      2.12      0.93
      -7.743214     -92.683418     276.2      0.43      1.55      24.6         3         1      3888      1000    225.46   -16.469       7.0      36.8   219.834     0.538      61.3   0.06126     100.0         H               348.0  0.041532  0.011619  0.000424  0.989172  0.639123  1.547703  1.041010      9.82    4.0288   21.9478   0.08373   5.01006   0.26116   0.01329  40.22012   4.37463     234.7  0.483799  0.001054  0.000104  0.000095  0.168200  6.768146  0.541076     75.97  1.000136  1.000009     2.235    11.013      79.7      83.1      44.6     226.6     11.47      0.13     -3.22      0.48     -0.12     -0.15      0.85     -0.58      1.06     -0.77      1.17     -0.15     -0.95      0.47      0.43     -7.69      1.73      0.41      1.77      1.27
      -7.731250     -92.630013     282.8      0.44      1.55      21.4         3         2      3888      2322    219.58   -16.584       7.2      37.2   220.455     0.540      59.2   0.06219     100.0         H               348.0  0.042096  0.012042  0.000465  1.022948  0.648493  1.577422  1.043360     11.25    3.9145   20.9030   0.08583   4.95839   0.26646   0.01402  38.21785   4.25853     229.1  0.484863  0.000995  0.000102  0.000095  0.172070  6.779139  0.543288     73.15  1.000146  1.000007     2.253    11.224      83.0      82.5      42.4     219.2     11.83     -0.06     -2.80      0.27      0.13      0.40      0.49     -0.59      1.45     -0.71      1.24     -0.45     -0.62      0.32      0.41     -8.01      1.91      0.19      2.37      1.27
      -7.719383     -92.577065     301.3      0.44      1.55      22.9         3         3      3888      3644    212.65   -16.723       7.2      37.5   219.285     0.536      45.6   0.05995     100.0         H               348.0  0.041312  0.011818  0.000467  0.983265  0.634404  1.549905  1.038632      9.84    3.7746   19.4181   0.08213   4.89452   0.27310   0.01486  35.64682   4.11733     220.9  0.481354  0.000794  0.000059  0.000096  0.173783  6.787887  0.538395     91.45  1.000083  1.000004     2.218    10.857      79.7      82.2      39.7     203.1     11.83     -0.31     -3.43      0.10     -0.62      0.11      0.32      0.17      1.46      0.12      1.24     -1.30     -1.46      0.64      0.56     -8.37      0.43      0.18      2.98      2.07
