corner points
-85.47846222    -40.78009033
-85.54174042    -40.60321045
-85.2355423    -40.72767258
-85.29957581    -40.55093002
========== RESULTS WAVE VERSION 16.10.2018 ====================
IMAGE SIZE  X: 5619     Y:4914    col:row     POLARIZATION:VV
COVERAGE    X: 21.22148179km       Y: 20.33488447km 
RESOLUTION dX: 3.776736393m       dY:4.138153128m  
resolution of original product 3.776736393m x 4.138153128m;   raster step x:5997.457393m  
===============================================================
FLAGS: H=HIGH PROBABILITY SEA STATE, I=LAND(ISLAND), O=OUTLIER NO SEA STATE, N=NO WIND AVAILABLE, SEA STATE NOT VISIBLE, M=MEAN PROBABILITY SEA STATE, L= LOW PROBABILITY SEA STATE
Filtering wave length
 integration  Lmin=1m
 integration  Lmax=2200m
  peak        Lmin=100m
               FFT=1024pixels, 3867.378067m 
   mean-Hs (SWH_c)=3.253035889m
         mean-wind=6.225308895m/s
--------------0--------------1---------2---------3---------4---------5---------6---------7---------8---------9--------10--------11--------12--------13--------14--------15--------16--------17--------18--------19------------------20--------21--------22--------23--------24--------25--------26--------27--------28--------29--------30--------31--------32--------33--------34--------35--------36--------37--------38--------39--------40--------41--------42--------43--------44--------45--------46--------47--------48--------49--------50--------51--------52--------53--------54--------55--------56--------57--------58--------59--------60--------61--------62--------63--------64--------65--------66--------67--------68--------69--------70--------71--------72--------73
            LAT            LON  P-LENGHT     SWH_o     SWH_c     P-DIR      LINE     POINT     ROW-Y     COL-X  M-INTENC        dB      WIND INC-ANGLE  ENERGY-M  ENERGY-N  ENERGY-R ENERGY-NN  FG-DEPTH      FLAG         HEADING-DEG    E30-75   E75-390  E390-600 meanincut   meanout   cut/out  STD-NORM  SPEC-MAX   GL-MEAN    GL-VAR      CORR   ENTROPY   HOMOGEN    ENERGY  CONTRAST  DISSIMIL     STD-O    E 1-30 E600-2000   E2000 >      GODA  LONG-HIG     Tmean  CONVOLUT  MEAN-DIR  relation     Sy/Sx  SKEWNESS  KURTOSIS  cutoff-A >50/10000     INT*V   INT-LOG  S-1_g1f1  S-2_g1f2  S-3_g1f3  S-4_g2f1  S-5_g2f2  S-6_g2f3  S-7_g3f1  S-8_g3f2  S-9_g3f3 S-10_g1f4 S-11_g2f4 S-12_g3f4 S-13_g1f5 S-14_g2f5 S-15_g3f5 S-16_g4f1 S-17_g4f2 S-18_g4f3 S-19_g4f4 S-20_g4f5
--------------1--------------2---------3---------4---------5---------6---------7---------8---------9--------10--------11--------12--------13--------14--------15--------16--------17--------18--------19--------20------------------21--------22--------23--------24--------25--------26--------27--------28--------29--------30--------31--------32--------33--------34--------35--------36--------37--------38--------39--------40--------41--------42--------43--------44--------45--------46--------47--------48--------49--------50--------51--------52--------53--------54--------55--------56--------57--------58--------59--------60--------61--------62--------63--------64--------65--------66--------67--------68--------69--------70--------71--------72--------73--------74
     -40.734543     -85.446915     251.5      3.41      3.81     122.3         1         1      1000      1000   2724.54    -5.647       6.3      22.8   337.621     0.944     264.8   0.26429      74.5         H               346.3  0.114164  0.132529  0.003536  8.405521  1.111328  7.563495  1.378029    309.87    4.9405   51.8109   0.33680   5.24222   0.28585   0.01660  68.72195   5.00531    3754.4  0.692051  0.002576  0.000109  0.000291  0.233955  7.540496  1.012105    118.38  1.000283  1.000036     4.182    37.365     128.8      80.9      94.9     553.6     15.52    -10.91      6.52     -0.44      1.72      3.66     -3.62      5.58     -1.74     -7.13     -1.07      3.58     -4.50      3.34      3.93     -7.29      3.68      3.27      0.13      3.89
     -40.719585     -85.377472     259.4      3.54      3.81     119.3         1         2      1000      2588   2453.30    -6.102       6.3      23.2   342.172     0.963     264.0   0.27221      97.7         H               346.3  0.116230  0.137027  0.003708  8.437109  1.125794  7.494366  1.390638    285.77    4.4180   43.5060   0.33924   5.03467   0.30933   0.02070  57.49300   4.51946    3411.2  0.703570  0.002715  0.000079  0.000294  0.235833  7.560152  1.032328    119.25  1.000290  1.000037     4.298    39.816     128.8      78.6      77.8     530.1     15.54    -10.21      6.63     -0.74      1.63      3.57     -3.52      5.35     -1.68     -6.72     -1.08      3.22     -4.26      3.69      3.47     -7.48      2.81      3.15     -0.19      4.59
     -40.704868     -85.309372     231.8      3.06      3.81     116.0         1         3      1000      4176   2182.34    -6.611       6.2      23.7   337.752     0.942     197.5   0.26249      50.5         H               346.3  0.115042  0.123537  0.003305  8.183506  1.117584  7.322496  1.376291    185.25    3.8834   34.2875   0.33102   4.81504   0.33095   0.02493  45.87537   4.02603    3003.3  0.699009  0.001804  0.000031  0.000269  0.229302  7.483028  1.007114    112.96  1.000296  1.000039     4.322    43.674     128.8      76.5      60.1     484.4     15.24     -9.19      6.50      0.15      1.25      4.41     -3.15      4.14     -1.65     -6.36     -1.74      3.19     -3.41      3.72      2.90     -7.31      3.85      3.79     -0.88      5.17
     -40.682381     -85.465630     256.5      3.13      3.81     127.3         2         1      2449      1000   2597.36    -5.855       6.0      22.8   338.743     0.945     191.1   0.26421      86.7         H               346.3  0.116698  0.127992  0.002663  8.669701  1.127874  7.686764  1.377592    274.49    4.6959   47.3982   0.33321   5.15349   0.29412   0.01794  63.20903   4.78751    3577.5  0.696847  0.001621  0.000025  0.000272  0.229479  7.485915  1.011202    120.80  1.000277  1.000037     4.293    40.836     124.8      80.1      86.1     562.2     15.24    -10.61      5.97     -0.17      1.93      3.51     -3.69      5.58     -1.23     -6.05     -0.70      2.78     -5.29      3.85      4.02     -6.24      3.63      3.28      0.47      5.26
     -40.667439     -85.396255     281.7      3.11      3.81     126.7         2         2      2449      2588   2426.54    -6.150       6.3      23.2   331.190     0.917     213.6   0.25186     100.0         H               346.3  0.110734  0.122580  0.003064  8.398412  1.077614  7.793524  1.358241    207.96    4.3659   40.8873   0.32787   5.03135   0.30557   0.01989  54.96259   4.47499    3295.3  0.678840  0.001907  0.000062  0.000262  0.227265  7.494152  0.979452    118.52  1.000292  1.000038     4.226    42.191     121.0      79.0      73.2     525.3     15.01     -9.91      5.48     -0.13      2.00      4.27     -2.38      4.25     -0.39     -5.13     -1.46      1.92     -4.50      3.83      3.73     -7.10      4.57      4.14     -0.67      5.03
     -40.652737     -85.328217     270.6      3.05      3.81     129.7         2         3      2449      4176   2163.59    -6.648       6.2      23.7   337.846     0.940     203.1   0.25966     100.0         H               346.3  0.114043  0.123071  0.002910  8.399169  1.117678  7.514836  1.374346    232.25    3.8413   33.6096   0.32975   4.79696   0.33234   0.02524  45.05431   3.99045    2973.4  0.699191  0.001663  0.000052  0.000259  0.228496  7.477911  1.004640    120.13  1.000309  1.000041     4.250    39.636     124.8      76.3      58.8     463.6     15.19     -9.77      5.96     -0.31      2.03      3.81     -3.03      4.94     -0.88     -5.63     -0.71      2.27     -3.97      3.82      3.77     -6.92      3.63      3.39      0.92      4.64
     -40.630219     -85.484329     244.9      3.31      3.81     117.5         3         1      3898      1000   2635.66    -5.791       6.1      22.8   340.776     0.956     221.0   0.26877      64.1         H               346.3  0.116839  0.132406  0.003422  8.678121  1.113583  7.792974  1.386732    207.51    4.7672   49.2785   0.33802   5.17536   0.29270   0.01768  65.24168   4.84905    3654.4  0.702225  0.001983  0.000056  0.000273  0.230362  7.516510  1.024759    112.89  1.000299  1.000040     4.204    36.534     128.8      80.3      89.4     527.2     15.23     -9.72      6.38      0.28      0.81      4.39     -3.22      5.03     -1.29     -6.40     -1.37      2.63     -2.97      3.14      3.11     -6.96      2.65      3.53      0.66      3.60
     -40.615288     -85.415009     256.5      3.30      3.81     127.3         3         2      3898      2588   2427.17    -6.149       6.3      23.3   337.718     0.942     205.0   0.26473      86.7         H               346.3  0.115183  0.130196  0.002918  8.114571  1.098011  7.390244  1.374089    227.71    4.3627   42.1300   0.33576   5.01864   0.30917   0.02057  55.96908   4.47023    3334.6  0.692108  0.001696  0.000036  0.000275  0.234714  7.519932  1.007133    118.32  1.000299  1.000040     4.045    32.985     124.8      78.7      74.7     474.7     15.38     -9.82      6.33     -0.21      1.23      3.83     -3.66      5.05     -1.25     -6.19     -1.29      2.51     -3.49      3.51      3.42     -6.33      2.38      3.13      0.01      3.90
     -40.600597     -85.347031     285.7      3.35      3.81     132.4         3         3      3898      4176   2205.06    -6.566       6.3      23.7   334.187     0.931     221.9   0.25895     100.0         H               346.3  0.111929  0.129239  0.003077  8.284702  1.083511  7.646163  1.367529    292.52    3.9280   34.7783   0.33322   4.83551   0.32903   0.02452  46.37809   4.06192    3015.2  0.685551  0.001917  0.000050  0.000286  0.236950  7.546597  0.996686    124.39  1.000273  1.000035     4.100    35.831     128.8      76.7      60.8     449.3     15.64    -11.12      6.02     -0.99      2.55      3.41     -3.59      5.33     -1.11     -6.01     -0.89      2.43     -5.74      4.31      4.02     -7.63      4.55      2.71      0.58      5.55
