corner points
-95.68264008    -2.063258886
-95.72061157    -1.882409453
-95.50174713    -2.024138927
-95.53977203    -1.843325615
========== RESULTS WAVE VERSION 16.10.2018 ====================
IMAGE SIZE  X: 5619     Y:4931    col:row     POLARIZATION:VV
COVERAGE    X: 20.51860034km       Y: 20.50020585km 
RESOLUTION dX: 3.65164626m       dY:4.157413475m  
resolution of original product 3.65164626m x 4.157413475m;   raster step x:5999.654806m  
===============================================================
FLAGS: H=HIGH PROBABILITY SEA STATE, I=LAND(ISLAND), O=OUTLIER NO SEA STATE, N=NO WIND AVAILABLE, SEA STATE NOT VISIBLE, M=MEAN PROBABILITY SEA STATE, L= LOW PROBABILITY SEA STATE
Filtering wave length
 integration  Lmin=1m
 integration  Lmax=2200m
  peak        Lmin=100m
               FFT=1024pixels, 3739.28577m 
   mean-Hs (SWH_c)=0.2m
         mean-wind=4.642180443m/s
--------------0--------------1---------2---------3---------4---------5---------6---------7---------8---------9--------10--------11--------12--------13--------14--------15--------16--------17--------18--------19------------------20--------21--------22--------23--------24--------25--------26--------27--------28--------29--------30--------31--------32--------33--------34--------35--------36--------37--------38--------39--------40--------41--------42--------43--------44--------45--------46--------47--------48--------49--------50--------51--------52--------53--------54--------55--------56--------57--------58--------59--------60--------61--------62--------63--------64--------65--------66--------67--------68--------69--------70--------71--------72--------73
            LAT            LON  P-LENGHT     SWH_o     SWH_c     P-DIR      LINE     POINT     ROW-Y     COL-X  M-INTENC        dB      WIND INC-ANGLE  ENERGY-M  ENERGY-N  ENERGY-R ENERGY-NN  FG-DEPTH      FLAG         HEADING-DEG    E30-75   E75-390  E390-600 meanincut   meanout   cut/out  STD-NORM  SPEC-MAX   GL-MEAN    GL-VAR      CORR   ENTROPY   HOMOGEN    ENERGY  CONTRAST  DISSIMIL     STD-O    E 1-30 E600-2000   E2000 >      GODA  LONG-HIG     Tmean  CONVOLUT  MEAN-DIR  relation     Sy/Sx  SKEWNESS  KURTOSIS  cutoff-A >50/10000     INT*V   INT-LOG  S-1_g1f1  S-2_g1f2  S-3_g1f3  S-4_g2f1  S-5_g2f2  S-6_g2f3  S-7_g3f1  S-8_g3f2  S-9_g3f3 S-10_g1f4 S-11_g2f4 S-12_g3f4 S-13_g1f5 S-14_g2f5 S-15_g3f5 S-16_g4f1 S-17_g4f2 S-18_g4f3 S-19_g4f4 S-20_g4f5
--------------1--------------2---------3---------4---------5---------6---------7---------8---------9--------10--------11--------12--------13--------14--------15--------16--------17--------18--------19--------20------------------21--------22--------23--------24--------25--------26--------27--------28--------29--------30--------31--------32--------33--------34--------35--------36--------37--------38--------39--------40--------41--------42--------43--------44--------45--------46--------47--------48--------49--------50--------51--------52--------53--------54--------55--------56--------57--------58--------59--------60--------61--------62--------63--------64--------65--------66--------67--------68--------69--------70--------71--------72--------73--------74
      -2.019434     -95.657318     241.9      0.31      1.55      15.0         1         1      1000      1000   1792.26    -7.466       4.8      23.6   378.101     0.607     132.5   0.11633      60.3         H               348.0  0.054766  0.031186  0.000936  2.189800  0.808437  2.708681  1.105310     36.03    3.1113   15.5921   0.21316   4.53051   0.33276   0.02425  24.53678   3.28779    1981.0  0.517431  0.003021  0.000050  0.000145  0.204113  7.124245  0.632622     58.36  0.999989  1.000000     2.567    13.796      54.5      77.1      30.5     194.6     12.35      0.90     -7.08      0.33     -0.78      0.07     -3.09     -1.83      5.23     -0.90      1.43      0.04      0.30     -0.72     -0.70     -6.42      1.91     -0.41      2.22     -0.26
      -2.007875     -95.603851     238.2      0.30      1.55      26.5         1         2      1000      2643   1552.30    -8.090       4.6      24.1   381.849     0.615     137.2   0.11884      56.3         H               348.0  0.055900  0.031601  0.001061  2.175110  0.818886  2.656183  1.112584     50.51    2.6325   11.7952   0.21428   4.24290   0.36816   0.03236  18.53543   2.83530    1727.0  0.523596  0.003007  0.000068  0.000149  0.204691  7.118911  0.640873     33.64  1.000031  1.000001     2.660    15.309      55.3      73.6      23.2     181.7     12.54      2.02     -6.69     -0.07     -1.08     -0.17     -2.95     -2.48      5.50     -2.14      1.79      0.91     -0.76     -0.59      0.37     -7.40      1.06     -1.60      2.85     -1.10
      -1.996524     -95.551361     238.2      0.32      1.55      26.5         1         3      1000      4286   1518.42    -8.186       5.1      24.6   379.369     0.609     150.7   0.11719      56.3         H               348.0  0.055571  0.028366  0.000918  2.078614  0.800402  2.596963  1.106733     31.28    2.5544   11.0927   0.21128   4.19334   0.37402   0.03384  17.49802   2.76106    1680.4  0.520963  0.002979  0.000105  0.000135  0.198164  7.045354  0.632979     47.22  1.000054  1.000003     2.607    14.648      53.8      72.9      22.0     172.6     12.44      1.47     -6.07      0.05     -1.04     -0.07     -2.50     -1.75      4.58     -1.12      1.67      0.29     -0.52     -0.28     -0.29     -7.30      0.72     -0.62      2.16      0.18
      -1.966502     -95.668427     229.3      0.30      1.55      14.2         2         1      2443      1000   1745.34    -7.581       4.7      23.6   381.170     0.612     266.6   0.11784      48.5         H               348.0  0.054615  0.033060  0.000852  2.136784  0.813211  2.627590  1.111016     59.13    2.9935   14.7303   0.21658   4.46229   0.34158   0.02613  23.08000   3.17735    1939.0  0.519642  0.004383  0.000288  0.000159  0.211871  7.189962  0.638997     21.33  1.000003  1.000001     2.626    14.623      58.5      76.2      28.7     201.2     12.63      2.94     -7.53      0.10     -1.46      0.24     -3.94     -2.48      5.59     -2.49      1.50      1.61      0.11     -0.83     -0.56     -5.56     -0.72     -0.26      1.41     -0.54
      -1.954946     -95.614975     234.4      0.31      1.55      34.3         2         2      2443      2643   1604.20    -7.947       4.8      24.1   381.095     0.613     220.7   0.11830      52.7         H               348.0  0.055170  0.030899  0.000767  2.151712  0.808217  2.662294  1.111042     35.57    2.7199   12.4598   0.21406   4.29864   0.36131   0.03063  19.58528   2.91926    1782.3  0.522476  0.003461  0.000269  0.000141  0.204333  7.122275  0.638276     38.34  0.999985  0.999998     2.639    14.943      55.3      74.2      24.5     185.0     12.36      1.89     -7.00      0.42     -1.25      0.36     -3.20     -1.82      4.89     -1.26      1.29      0.97     -0.14     -0.66     -0.48     -5.31      0.03      0.51      1.00     -0.47
      -1.943598     -95.562485     229.3      0.29      1.55      14.2         2         3      2443      4286   1378.51    -8.606       4.6      24.6   380.772     0.612     127.4   0.11763      48.5         H               348.0  0.055902  0.030961  0.000793  2.136824  0.820686  2.603707  1.108430     36.86    2.2904    9.2483   0.21195   4.01053   0.39800   0.04053  14.57624   2.50744    1527.9  0.522083  0.002499  0.000074  0.000143  0.203137  7.114333  0.637201     37.92  0.999995  1.000000     2.602    14.411      54.5      70.4      18.5     152.1     12.41      1.42     -7.01      0.41     -0.74      0.09     -3.35     -1.52      5.05     -0.97      1.39      0.60     -0.09     -0.29     -0.47     -5.67      0.93      0.09      1.64     -0.11
      -1.913570     -95.679543     220.5      0.27      1.55     169.8         3         1      3886      1000   1537.81    -8.131       4.1      23.6   379.814     0.607     150.7   0.11500      42.3         H               348.0  0.053973  0.033118  0.000884  2.209248  0.806077  2.740739  1.106338     36.98    2.6164   11.5327   0.21135   4.23421   0.36901   0.03250  18.19070   2.81730    1701.3  0.516890  0.002874  0.000099  0.000149  0.208097  7.178929  0.633221     91.38  0.999962  0.999997     2.607    14.594      57.7      73.4      22.9     175.9     12.32      1.33     -7.24      0.60     -0.59     -0.14     -3.50     -1.57      5.42     -0.16      0.82      0.17      0.30     -0.92     -0.90     -5.30      0.60     -0.60      0.76     -0.65
      -1.902017     -95.626091     232.4      0.29      1.55      21.9         3         2      3886      2643   1504.12    -8.227       4.5      24.1   375.956     0.600     105.2   0.11286      50.9         H               348.0  0.053468  0.030367  0.000983  2.107110  0.791534  2.662060  1.098128     35.38    2.5370   10.8034   0.20798   4.18380   0.37431   0.03387  17.11288   2.74020    1651.6  0.513194  0.002220  0.000052  0.000142  0.203862  7.123086  0.624544     33.59  0.999962  0.999997     2.544    13.838      55.3      72.9      21.6     166.3     12.36      1.55     -7.16      0.15     -0.37      0.13     -2.78     -2.37      5.28     -1.37      1.35      0.73      0.35     -0.72     -1.24     -6.87      2.17     -0.20      2.13      0.22
      -1.890672     -95.573608     238.2      0.30      1.55      26.5         3         3      3886      4286   1412.77    -8.499       4.7      24.6   379.723     0.611     136.8   0.11728      56.3         H               348.0  0.055844  0.029019  0.000974  2.123036  0.803621  2.641839  1.109018     29.10    2.3590    9.7079   0.21118   4.05996   0.39157   0.03853  15.31540   2.57301    1566.8  0.522313  0.003096  0.000067  0.000139  0.199812  7.059166  0.635896     70.31  1.000024  1.000002     2.629    14.893      55.3      71.2      19.3     160.2     12.35      1.27     -6.43      0.26     -0.71      0.25     -2.57     -1.66      4.74     -0.75      1.17      0.10     -0.13     -1.00     -0.33     -7.16      1.21     -0.28      1.84     -1.20
