corner points
-96.80103302    3.255256653
-96.83853912    3.436034203
-96.62038422    3.293529749
-96.65788269    3.474278212
========== RESULTS WAVE VERSION 16.10.2018 ====================
IMAGE SIZE  X: 5619     Y:4928    col:row     POLARIZATION:VV
COVERAGE    X: 20.45344133km       Y: 20.48058296km 
RESOLUTION dX: 3.640050068m       dY:4.155962451m  
resolution of original product 3.640050068m x 4.155962451m;   raster step x:5998.802512m  
===============================================================
FLAGS: H=HIGH PROBABILITY SEA STATE, I=LAND(ISLAND), O=OUTLIER NO SEA STATE, N=NO WIND AVAILABLE, SEA STATE NOT VISIBLE, M=MEAN PROBABILITY SEA STATE, L= LOW PROBABILITY SEA STATE
Filtering wave length
 integration  Lmin=1m
 integration  Lmax=2200m
  peak        Lmin=100m
               FFT=1024pixels, 3727.41127m 
   mean-Hs (SWH_c)=0.2m
         mean-wind=2.594033003m/s
--------------0--------------1---------2---------3---------4---------5---------6---------7---------8---------9--------10--------11--------12--------13--------14--------15--------16--------17--------18--------19------------------20--------21--------22--------23--------24--------25--------26--------27--------28--------29--------30--------31--------32--------33--------34--------35--------36--------37--------38--------39--------40--------41--------42--------43--------44--------45--------46--------47--------48--------49--------50--------51--------52--------53--------54--------55--------56--------57--------58--------59--------60--------61--------62--------63--------64--------65--------66--------67--------68--------69--------70--------71--------72--------73
            LAT            LON  P-LENGHT     SWH_o     SWH_c     P-DIR      LINE     POINT     ROW-Y     COL-X  M-INTENC        dB      WIND INC-ANGLE  ENERGY-M  ENERGY-N  ENERGY-R ENERGY-NN  FG-DEPTH      FLAG         HEADING-DEG    E30-75   E75-390  E390-600 meanincut   meanout   cut/out  STD-NORM  SPEC-MAX   GL-MEAN    GL-VAR      CORR   ENTROPY   HOMOGEN    ENERGY  CONTRAST  DISSIMIL     STD-O    E 1-30 E600-2000   E2000 >      GODA  LONG-HIG     Tmean  CONVOLUT  MEAN-DIR  relation     Sy/Sx  SKEWNESS  KURTOSIS  cutoff-A >50/10000     INT*V   INT-LOG  S-1_g1f1  S-2_g1f2  S-3_g1f3  S-4_g2f1  S-5_g2f2  S-6_g2f3  S-7_g3f1  S-8_g3f2  S-9_g3f3 S-10_g1f4 S-11_g2f4 S-12_g3f4 S-13_g1f5 S-14_g2f5 S-15_g3f5 S-16_g4f1 S-17_g4f2 S-18_g4f3 S-19_g4f4 S-20_g4f5
--------------1--------------2---------3---------4---------5---------6---------7---------8---------9--------10--------11--------12--------13--------14--------15--------16--------17--------18--------19--------20------------------21--------22--------23--------24--------25--------26--------27--------28--------29--------30--------31--------32--------33--------34--------35--------36--------37--------38--------39--------40--------41--------42--------43--------44--------45--------46--------47--------48--------49--------50--------51--------52--------53--------54--------55--------56--------57--------58--------59--------60--------61--------62--------63--------64--------65--------66--------67--------68--------69--------70--------71--------72--------73--------74
       3.298937     -96.775665     210.7      0.20      1.51      19.8         1         1      1000      1000    678.00   -11.688       2.1      23.7   400.202     0.634     205.6   0.12386      36.7         H               348.0  0.061524  0.037134  0.001120  3.005888  0.832704  3.609792  1.130940     28.75    0.9327    2.2721   0.21553   2.64427   0.60433   0.15165   3.56473   1.15306     766.8  0.531434  0.003510  0.000154  0.000137  0.198060  7.122517  0.663922     62.30  1.000004  1.000000     2.723    15.650      58.5      47.4       4.7      74.3     12.20      1.34     -4.85      1.28     -0.72      0.16     -2.33     -1.18      3.51     -0.87      0.50      0.54     -0.67     -1.42      0.16     -5.83     -1.47      1.15      0.49     -1.65
       3.310283     -96.722115     214.2      0.20      1.51      31.2         1         2      1000      2648    720.11   -11.426       2.3      24.2   402.478     0.640     196.1   0.12670      38.6         H               348.0  0.061938  0.037328  0.001008  3.079066  0.817381  3.766992  1.136413     28.85    1.0028    2.5501   0.21930   2.74221   0.58904   0.13916   3.98173   1.22548     818.4  0.536493  0.003146  0.000176  0.000140  0.198431  7.128694  0.668802     88.39  1.000078  1.000005     2.770    16.317      59.4      49.1       5.3      79.1     12.15      1.07     -4.04      1.64     -1.06      0.03     -2.20     -1.19      3.96     -0.42     -0.01     -0.26     -0.97     -1.59     -0.04     -4.92     -1.56     -0.48     -0.09     -1.60
       3.321420     -96.669533     220.5      0.20      1.51      28.2         1         3      1000      4296    779.60   -11.081       2.8      24.6   397.108     0.629      84.5   0.12300      42.3         H               348.0  0.060204  0.036312  0.000877  2.922988  0.819082  3.568614  1.123982     30.81    1.1150    2.9486   0.21636   2.89318   0.56389   0.12008   4.62126   1.34170     876.2  0.530398  0.001343  0.000038  0.000137  0.197134  7.124671  0.656831     73.68  1.000025  1.000001     2.684    15.210      58.5      52.1       6.1      79.8     12.05      1.16     -4.88      1.53     -0.77     -0.00     -2.48     -1.66      3.80     -1.15      0.03      0.29     -0.95     -1.70      0.05     -4.56     -0.85      0.31      0.48     -1.72
       3.351881     -96.786652     220.5      0.20      1.51      28.2         2         1      2443      1000    934.65   -10.294       2.7      23.7   400.006     0.635     238.6   0.12572      42.3         H               348.0  0.061348  0.037121  0.000812  2.873340  0.824319  3.485715  1.129857     34.67    1.4091    4.3102   0.22219   3.23437   0.51200   0.08784   6.70507   1.63943    1056.0  0.532486  0.003411  0.000332  0.000143  0.197838  7.114391  0.664271     44.16  1.000018  1.000001     2.745    16.395      59.4      58.0       8.7     113.5     12.02      2.47     -5.70      1.76     -0.53     -0.39     -3.05     -1.94      4.48     -1.93      0.22      1.30     -0.53     -1.39     -0.29     -4.15     -1.09     -0.40      0.32     -1.61
       3.363224     -96.733101     210.8      0.20      1.51      26.9         2         2      2443      2648    745.68   -11.274       2.4      24.2   399.980     0.635     183.5   0.12521      36.8         H               348.0  0.060677  0.039146  0.001158  3.025878  0.827117  3.658344  1.131739     40.81    1.0607    2.7584   0.21885   2.82102   0.57643   0.12924   4.30942   1.28459     843.9  0.531680  0.003115  0.000113  0.000147  0.201905  7.167021  0.665020     41.85  1.000043  1.000003     2.727    15.970      60.3      50.7       5.7      85.0     12.11      1.53     -4.87      1.36     -0.51     -0.73     -2.33     -1.83      4.66     -1.89      0.45      0.73     -1.15     -2.09      0.53     -5.66     -0.75     -1.67      0.85     -2.69
       3.374359     -96.680511     207.8      0.20      1.51      33.9         2         3      2443      4296    793.91   -11.002       2.9      24.6   399.589     0.632     122.7   0.12431      35.2         H               348.0  0.059957  0.038739  0.000860  3.019338  0.829432  3.640249  1.127724     36.22    1.1481    3.1017   0.21796   2.93444   0.55779   0.11568   4.85140   1.37531     895.3  0.531011  0.001975  0.000081  0.000143  0.200055  7.169049  0.660769     58.14  1.000013  1.000001     2.718    15.807      60.3      52.8       6.4      90.9     12.05      1.23     -5.24      1.64     -0.58     -0.29     -2.88     -1.82      4.16     -1.60      0.20      0.75     -1.59     -1.68      0.62     -4.28     -0.01     -0.12      0.63     -1.97
       3.404825     -96.797630     221.0      0.20      1.51      20.8         3         1      3886      1000    969.75   -10.133       2.8      23.7   397.322     0.627     134.4   0.12209      42.6         H               348.0  0.059940  0.037275  0.000914  2.980324  0.814561  3.658808  1.122538     26.73    1.4874    4.6356   0.21845   3.31872   0.49777   0.08040   7.24589   1.71983    1088.6  0.527039  0.002061  0.000118  0.000140  0.200033  7.146754  0.655285     67.49  1.000052  1.000003     2.681    15.331      58.5      59.5       9.5     109.9     12.09      1.47     -4.84      1.71     -0.73     -0.34     -2.73     -1.48      4.28     -1.00      0.22      0.10     -1.06     -1.78      0.36     -4.59     -1.24     -0.85      0.73     -1.99
       3.416165     -96.744080     201.9      0.20      1.51      25.7         3         2      3886      2648    778.87   -11.085       2.5      24.2   401.335     0.636     123.7   0.12506      32.4         H               348.0  0.060511  0.041141  0.000856  3.064036  0.831903  3.683164  1.129949     35.46    1.1139    2.9762   0.21901   2.89020   0.56562   0.12142   4.64882   1.34025     880.0  0.531512  0.001981  0.000084  0.000149  0.203989  7.195007  0.665152     55.93  1.000018  1.000002     2.725    16.132      61.3      51.9       6.1      89.4     11.99      1.89     -5.55      1.85     -0.38     -0.51     -3.22     -2.10      4.43     -1.11      0.14      0.32     -1.58     -1.53      0.39     -3.72     -0.63     -0.13      0.40     -1.76
       3.427298     -96.691498     210.7      0.20      1.51      19.8         3         3      3886      4296    795.14   -10.996       2.9      24.6   401.800     0.636     240.0   0.12621      36.7         H               348.0  0.060856  0.039096  0.000828  3.019074  0.837447  3.605095  1.131079     39.82    1.1357    3.0757   0.22171   2.91715   0.56131   0.11843   4.78749   1.36129     899.3  0.532241  0.003715  0.000215  0.000146  0.202611  7.179732  0.665986     48.94  1.000004  0.999999     2.738    16.123      60.3      52.4       6.3      90.6     12.05      1.90     -5.68      1.77     -0.27      0.04     -3.04     -2.15      4.01     -1.63      0.08      0.75     -1.87     -1.68      0.39     -4.04     -0.15      1.18      0.38     -1.36
