corner points
-89.26811981    -21.99374962
-89.31388092    -21.81984901
-89.07683563    -21.94897652
-89.12284851    -21.77514839
========== RESULTS WAVE VERSION 16.10.2018 ====================
IMAGE SIZE  X: 4444     Y:4783    col:row     POLARIZATION:VV
COVERAGE    X: 20.29619182km       Y: 19.85966275km 
RESOLUTION dX: 4.56709987m       dY:4.152135218m  
resolution of original product 4.56709987m x 4.152135218m;   raster step x:5996.602129m  
===============================================================
FLAGS: H=HIGH PROBABILITY SEA STATE, I=LAND(ISLAND), O=OUTLIER NO SEA STATE, N=NO WIND AVAILABLE, SEA STATE NOT VISIBLE, M=MEAN PROBABILITY SEA STATE, L= LOW PROBABILITY SEA STATE
Filtering wave length
 integration  Lmin=1m
 integration  Lmax=2200m
  peak        Lmin=100m
               FFT=1024pixels, 4676.710267m 
   mean-Hs (SWH_c)=0.4235653305m
         mean-wind=9.739710808m/s
--------------0--------------1---------2---------3---------4---------5---------6---------7---------8---------9--------10--------11--------12--------13--------14--------15--------16--------17--------18--------19------------------20--------21--------22--------23--------24--------25--------26--------27--------28--------29--------30--------31--------32--------33--------34--------35--------36--------37--------38--------39--------40--------41--------42--------43--------44--------45--------46--------47--------48--------49--------50--------51--------52--------53--------54--------55--------56--------57--------58--------59--------60--------61--------62--------63--------64--------65--------66--------67--------68--------69--------70--------71--------72--------73
            LAT            LON  P-LENGHT     SWH_o     SWH_c     P-DIR      LINE     POINT     ROW-Y     COL-X  M-INTENC        dB      WIND INC-ANGLE  ENERGY-M  ENERGY-N  ENERGY-R ENERGY-NN  FG-DEPTH      FLAG         HEADING-DEG    E30-75   E75-390  E390-600 meanincut   meanout   cut/out  STD-NORM  SPEC-MAX   GL-MEAN    GL-VAR      CORR   ENTROPY   HOMOGEN    ENERGY  CONTRAST  DISSIMIL     STD-O    E 1-30 E600-2000   E2000 >      GODA  LONG-HIG     Tmean  CONVOLUT  MEAN-DIR  relation     Sy/Sx  SKEWNESS  KURTOSIS  cutoff-A >50/10000     INT*V   INT-LOG  S-1_g1f1  S-2_g1f2  S-3_g1f3  S-4_g2f1  S-5_g2f2  S-6_g2f3  S-7_g3f1  S-8_g3f2  S-9_g3f3 S-10_g1f4 S-11_g2f4 S-12_g3f4 S-13_g1f5 S-14_g2f5 S-15_g3f5 S-16_g4f1 S-17_g4f2 S-18_g4f3 S-19_g4f4 S-20_g4f5
--------------1--------------2---------3---------4---------5---------6---------7---------8---------9--------10--------11--------12--------13--------14--------15--------16--------17--------18--------19--------20------------------21--------22--------23--------24--------25--------26--------27--------28--------29--------30--------31--------32--------33--------34--------35--------36--------37--------38--------39--------40--------41--------42--------43--------44--------45--------46--------47--------48--------49--------50--------51--------52--------53--------54--------55--------56--------57--------58--------59--------60--------61--------62--------63--------64--------65--------66--------67--------68--------69--------70--------71--------72--------73--------74
     -21.947214     -89.234154     285.4      0.52      2.37     150.8         1         1      1000      1000    309.87   -15.088       8.9      36.5   241.928     0.568      66.2   0.07314     100.0         H               347.6  0.048541  0.018873  0.000681  1.628456  0.664129  2.452018  1.069248     33.31    5.7125   43.4368   0.10809   5.63846   0.20759   0.00734  77.48291   6.01774     331.3  0.498835  0.000963  0.000094  0.000130  0.182818  6.870196  0.573646    103.15  1.000161  1.000010     2.438    13.082     102.3      88.3      87.3     339.1     13.62     -6.62     -2.50     -2.45      3.59      1.85     -0.58      2.47      1.00      1.86     -1.37     -1.03     -4.53      2.32      2.04    -11.49      6.86      2.30     -0.66      4.44
     -21.933947     -89.177429     276.8      0.54      2.37     147.8         1         2      1000      2313    310.30   -15.082       9.1      36.9   241.904     0.569     171.4   0.07436     100.0         H               347.6  0.048777  0.018357  0.000861  1.590387  0.693858  2.292093  1.071111     34.26    5.7183   43.7992   0.11336   5.63934   0.20783   0.00740  77.66892   6.02129     332.4  0.498382  0.002438  0.000428  0.000125  0.183179  6.871255  0.575572    118.02  1.000119  1.000008     2.426    12.822     107.8      88.2      87.7     336.7     13.60     -6.75     -2.40     -2.51      3.91      1.83     -0.19      2.52      0.94      2.27     -1.35     -1.14     -4.11      2.44      1.87    -12.81      8.07      2.85     -1.08      4.79
     -21.920774     -89.121208     259.2      0.57      2.37     142.4         1         3      1000      3626    325.60   -14.873       9.8      37.2   240.170     0.562      76.0   0.07225      97.0         H               347.6  0.048157  0.017751  0.000846  1.570235  0.690151  2.275206  1.063696     29.06    6.0276   47.4968   0.10873   5.73780   0.19907   0.00663  84.66479   6.31560     346.3  0.493756  0.001230  0.000125  0.000126  0.181086  6.863264  0.567320    108.72  1.000137  1.000009     2.370    12.233      99.7      89.0      96.1     338.3     13.41     -6.65     -2.05     -2.15      3.69      1.64     -0.07      2.13      0.50      1.63     -1.12     -0.66     -4.94      2.66      2.01    -12.46      8.15      3.16     -1.46      5.72
     -21.894672     -89.248001     303.0      0.58      2.37     148.8         2         1      2445      1000    360.00   -14.437       9.9      36.5   243.814     0.577     356.9   0.07883     100.0         H               347.6  0.049879  0.018438  0.000766  1.593130  0.703440  2.264771  1.080629     25.29    6.7086   59.4356   0.12332   5.93174   0.18578   0.00559 104.21192   6.97538     389.0  0.503124  0.003944  0.001354  0.000122  0.183949  6.859793  0.584708    100.24  1.000012  1.000000     2.457    13.035     110.8      90.2     121.0     394.2     13.49     -6.08     -2.63     -2.02      3.21      2.42     -0.37      2.46      0.38      1.62     -1.27     -0.54     -3.94      1.59      2.21    -11.78      6.56      4.45     -1.28      2.78
     -21.881411     -89.191299     292.7      0.59      2.37     145.7         2         2      2445      2313    360.64   -14.429      10.2      36.9   240.839     0.566      78.2   0.07481     100.0         H               347.6  0.048570  0.018580  0.000860  1.563679  0.690951  2.263083  1.067488     34.87    6.7198   58.3584   0.11242   5.93764   0.18418   0.00547 103.59624   6.98979     385.0  0.496945  0.001162  0.000115  0.000129  0.188882  6.880464  0.571771    124.84  1.000127  1.000009     2.397    12.586      97.3      90.3     119.5     396.2     13.88     -7.34     -2.62     -2.77      3.60      2.11     -0.72      2.88      0.93      1.98     -1.18     -1.24     -5.48      2.91      2.42    -12.85      7.63      3.17     -0.70      5.87
     -21.868246     -89.135101     254.7      0.60      2.37     147.0         2         3      2445      3626    351.89   -14.536      10.3      37.2   240.485     0.565      77.8   0.07416      81.6         H               347.6  0.048080  0.018784  0.000745  1.575604  0.681192  2.313010  1.066572     36.03    6.5504   55.6083   0.11160   5.89078   0.18735   0.00572  98.80450   6.82924     375.3  0.495974  0.001233  0.000106  0.000131  0.187904  6.893776  0.570545    124.83  1.000104  1.000007     2.370    12.134      97.3      90.0     113.4     366.3     13.71     -7.24     -2.46     -2.44      3.62      2.02     -0.92      3.55      0.84      1.86     -0.94     -1.12     -5.48      2.65      2.52    -11.26      6.47      3.27     -0.19      5.03
     -21.842127     -89.261841     276.8      0.60      2.37     147.8         3         1      3890      1000    381.95   -14.180      10.3      36.5   241.400     0.568      72.5   0.07551     100.0         H               347.6  0.049759  0.018770  0.000732  1.588108  0.698481  2.273659  1.069191     40.62    7.1444   65.3371   0.11360   6.05097   0.17596   0.00487 115.82912   7.40088     408.4  0.497605  0.001010  0.000108  0.000135  0.185698  6.870686  0.573682    112.96  1.000126  1.000008     2.396    12.396     102.3      91.1     135.1     405.0     13.88     -7.33     -3.00     -2.85      3.91      2.31     -0.91      3.10      0.56      2.33     -1.62     -1.09     -5.41      2.69      2.36    -11.95      7.17      4.49     -1.87      5.06
     -21.828873     -89.205162     276.8      0.56      2.37     147.8         3         2      3890      2313    331.10   -14.800       9.6      36.9   242.197     0.569      98.8   0.07424     100.0         H               347.6  0.048625  0.018458  0.000770  1.603836  0.690772  2.321804  1.070708     30.63    6.1319   49.7031   0.11063   5.76824   0.19696   0.00649  88.40964   6.43830     354.5  0.499965  0.001380  0.000192  0.000125  0.185392  6.867264  0.575000    117.20  1.000136  1.000008     2.412    12.627     102.3      89.1     100.3     355.7     13.67     -7.09     -2.34     -2.39      3.38      1.96     -0.84      3.21      0.46      1.63     -1.23     -0.95     -4.92      2.31      2.32    -11.48      6.32      3.51     -0.72      4.78
     -21.815714     -89.148987     276.8      0.56      2.37     147.8         3         3      3890      3626    318.33   -14.971       9.6      37.2   241.456     0.564      84.9   0.07259     100.0         H               347.6  0.048005  0.018394  0.000739  1.591186  0.679968  2.340088  1.066303     36.45    5.8819   45.6055   0.10864   5.69236   0.20307   0.00695  81.30118   6.17700     339.4  0.496043  0.001288  0.000149  0.000130  0.187071  6.881418  0.570115    123.33  1.000110  1.000006     2.414    13.010      97.3      88.6      92.0     367.5     13.79     -7.69     -2.59     -2.50      3.69      1.98     -1.22      3.55      0.40      2.20     -1.21     -1.04     -5.58      2.32      2.68    -11.43      6.85      3.94     -1.30      4.46
