corner points
-79.84414673    -48.01716995
-79.93064117    -47.84898758
-79.58276367    -47.95511246
-79.67006683    -47.78712082
========== RESULTS WAVE VERSION 16.10.2018 ====================
IMAGE SIZE  X: 4444     Y:4772    col:row     POLARIZATION:VV
COVERAGE    X: 20.59242783km       Y: 19.73696749km 
RESOLUTION dX: 4.633759637m       dY:4.135994863m  
resolution of original product 4.633759637m x 4.135994863m;   raster step x:5996.084971m  
===============================================================
FLAGS: H=HIGH PROBABILITY SEA STATE, I=LAND(ISLAND), O=OUTLIER NO SEA STATE, N=NO WIND AVAILABLE, SEA STATE NOT VISIBLE, M=MEAN PROBABILITY SEA STATE, L= LOW PROBABILITY SEA STATE
Filtering wave length
 integration  Lmin=1m
 integration  Lmax=2200m
  peak        Lmin=100m
               FFT=1024pixels, 4744.969869m 
   mean-Hs (SWH_c)=2.919306641m
         mean-wind=12.87839603m/s
--------------0--------------1---------2---------3---------4---------5---------6---------7---------8---------9--------10--------11--------12--------13--------14--------15--------16--------17--------18--------19------------------20--------21--------22--------23--------24--------25--------26--------27--------28--------29--------30--------31--------32--------33--------34--------35--------36--------37--------38--------39--------40--------41--------42--------43--------44--------45--------46--------47--------48--------49--------50--------51--------52--------53--------54--------55--------56--------57--------58--------59--------60--------61--------62--------63--------64--------65--------66--------67--------68--------69--------70--------71--------72--------73
            LAT            LON  P-LENGHT     SWH_o     SWH_c     P-DIR      LINE     POINT     ROW-Y     COL-X  M-INTENC        dB      WIND INC-ANGLE  ENERGY-M  ENERGY-N  ENERGY-R ENERGY-NN  FG-DEPTH      FLAG         HEADING-DEG    E30-75   E75-390  E390-600 meanincut   meanout   cut/out  STD-NORM  SPEC-MAX   GL-MEAN    GL-VAR      CORR   ENTROPY   HOMOGEN    ENERGY  CONTRAST  DISSIMIL     STD-O    E 1-30 E600-2000   E2000 >      GODA  LONG-HIG     Tmean  CONVOLUT  MEAN-DIR  relation     Sy/Sx  SKEWNESS  KURTOSIS  cutoff-A >50/10000     INT*V   INT-LOG  S-1_g1f1  S-2_g1f2  S-3_g1f3  S-4_g2f1  S-5_g2f2  S-6_g2f3  S-7_g3f1  S-8_g3f2  S-9_g3f3 S-10_g1f4 S-11_g2f4 S-12_g3f4 S-13_g1f5 S-14_g2f5 S-15_g3f5 S-16_g4f1 S-17_g4f2 S-18_g4f3 S-19_g4f4 S-20_g4f5
--------------1--------------2---------3---------4---------5---------6---------7---------8---------9--------10--------11--------12--------13--------14--------15--------16--------17--------18--------19--------20------------------21--------22--------23--------24--------25--------26--------27--------28--------29--------30--------31--------32--------33--------34--------35--------36--------37--------38--------39--------40--------41--------42--------43--------44--------45--------46--------47--------48--------49--------50--------51--------52--------53--------54--------55--------56--------57--------58--------59--------60--------61--------62--------63--------64--------65--------66--------67--------68--------69--------70--------71--------72--------73--------74
     -47.967850     -79.802773     248.0      3.81      4.62      96.7         1         1      1000      1000    622.78   -12.057      13.5      35.8   301.119     0.645     138.1   0.11309      68.5         H               345.0  0.057144  0.057165  0.001280  3.703986  0.787420  4.703950  1.139316    150.48   11.7281  167.5758   0.17698   6.92092   0.12535   0.00212 275.83569  11.56623     709.6  0.528074  0.001601  0.000169  0.000282  0.237354  7.552672  0.660066    101.92  1.000248  1.000029     2.740    15.792     166.7      95.5     409.7     778.6     15.36     -6.26     12.05      2.10     -1.05      4.44     -4.20      3.63     -5.52     -8.39     -1.76      3.91      5.19      2.99     -1.66     -4.43     -0.30      3.02      0.43      2.49
     -47.949738     -79.726372     259.1      4.16      4.62     100.6         1         2      1000      2294    623.28   -12.053      13.9      36.2   300.525     0.647     131.0   0.11441      96.5         H               345.0  0.056408  0.061005  0.001245  3.935970  0.781089  5.039079  1.141250    181.99   11.7310  167.7667   0.18112   6.92000   0.12530   0.00213 274.76422  11.54443     711.3  0.527625  0.001422  0.000130  0.000293  0.241788  7.615026  0.663993     99.98  1.000312  1.000035     2.767    16.258     174.0      95.3     411.3     809.4     15.49     -5.62     13.05      1.99     -0.85      4.03     -3.91      2.77     -5.33     -7.89     -1.52      3.44      6.91      2.36     -2.23     -4.39      0.33      2.15      0.62      0.89
     -47.931740     -79.650711     259.1      0.75      4.62     100.6         1         3      1000      3588    565.66   -12.474      13.3      36.6   319.949     0.711     966.9   0.14008      96.5         H               345.0  0.061539  0.074223  0.002108  4.321153  0.839370  5.148089  1.201147    216.55   10.6047  151.4799   0.21694   6.71887   0.14193   0.00283 237.23346  10.48266     679.4  0.559708  0.010995  0.002757  0.000338  0.250819  7.712183  0.735442    102.85  1.000335  1.000041     3.116    20.599     222.8      94.0     358.6     827.7     16.29     -6.66     13.65      0.69     -0.70      2.94     -5.20      3.97     -6.84     -9.14     -1.13      4.83      6.93      1.34     -2.01     -6.67      0.25      0.99      0.87     -1.45
     -47.916752     -79.829132     221.0      3.32      4.62     102.0         2         1      2450      1000    482.99   -13.161      11.5      35.8   305.025     0.654     459.7   0.11378      42.6         H               345.0  0.055906  0.055887  0.001789  3.991634  0.773866  5.158041  1.149839    132.62    9.0869  111.5518   0.18218   6.46679   0.15473   0.00353 182.46133   9.16373     555.4  0.534374  0.005609  0.001280  0.000251  0.236951  7.562080  0.670950    103.98  1.000184  1.000020     2.838    16.983     181.9      92.9     243.2     647.6     15.22     -4.89     11.26      2.06     -0.83      5.32     -3.08      2.52     -5.21     -6.72     -1.76      3.67      5.06      2.55     -0.74     -6.53      0.59      4.38     -0.52      0.45
     -47.898659     -79.752808     245.9      4.74      4.62     100.0         2         2      2450      2294    681.54   -11.665      14.6      36.2   314.418     0.692     653.6   0.13252      65.4         H               345.0  0.060203  0.069465  0.001782  4.045714  0.818713  4.941552  1.183037    237.12   12.7116  195.3757   0.20290   7.03463   0.12045   0.00189 311.46600  12.32849     806.3  0.550846  0.008437  0.001819  0.000361  0.248960  7.714141  0.713798    102.13  1.000282  1.000036     3.087    20.663     210.9      95.9     518.0     955.7     16.00     -7.11     13.26      1.35     -0.79      3.85     -5.03      4.39     -6.63     -9.32     -1.59      5.11      6.12      2.61     -2.14     -5.48      0.10      2.36      0.25      1.43
     -47.880676     -79.677216     243.1      3.61      4.62     103.3         2         3      2450      3588    484.02   -13.151      12.1      36.6   305.986     0.657     370.7   0.11577      61.7         H               345.0  0.056879  0.058745  0.001616  3.840068  0.779612  4.925617  1.150859    226.87    9.1099  112.0742   0.18115   6.47146   0.15436   0.00350 183.54391   9.19205     557.0  0.534711  0.004196  0.000884  0.000315  0.241920  7.584638  0.672936    101.13  1.000259  1.000030     2.866    17.476     200.3      93.0     245.0     647.2     15.80     -5.23     13.17      1.43     -0.60      4.21     -4.27      3.04     -6.68     -7.73     -1.01      3.90      7.11      2.63     -2.67     -5.81     -0.15      3.46      0.63      0.85
     -47.865646     -79.855453     211.3      3.22      4.62     101.5         3         1      3900      1000    471.30   -13.267      11.3      35.8   307.428     0.663     454.1   0.11706      37.0         H               345.0  0.058093  0.056035  0.002003  3.933892  0.790142  4.978714  1.156514    137.22    8.8515  106.4233   0.18034   6.41963   0.15698   0.00366 174.45825   8.95209     545.0  0.540182  0.005757  0.001126  0.000271  0.236027  7.527533  0.679463    102.06  1.000341  1.000037     3.014    19.729     210.9      92.7     232.9     669.4     15.52     -4.62     12.69      1.57     -1.00      4.35     -2.91      2.38     -5.01     -6.97     -1.46      3.03      6.55      3.15     -1.71     -7.71     -0.01      1.01      1.07      0.76
     -47.847572     -79.779198     234.0      0.77      4.62      99.5         3         2      3900      2294    609.97   -12.147      13.7      36.2   315.639     0.694    1111.0   0.13382      52.3         H               345.0  0.059977  0.061745  0.002440  4.277024  0.829936  5.153438  1.187652    160.07   11.4189  166.7081   0.20704   6.85366   0.13157   0.00235 264.38629  11.20314     724.4  0.552068  0.015339  0.002903  0.000289  0.235617  7.557366  0.715828    102.46  1.000244  1.000029     3.077    19.660     236.0      94.9     413.6     834.4     15.38     -5.39     11.75      1.44     -0.78      5.01     -2.47      3.12     -4.74     -6.97     -2.22      3.87      5.33      3.49     -1.02     -8.41     -0.13      2.94     -1.41      1.84
     -47.829605     -79.703674     243.1      3.42      4.62     103.3         3         3      3900      3588    472.02   -13.260      12.0      36.6   300.548     0.640     167.1   0.10812      61.7         H               345.0  0.054324  0.055278  0.001383  3.982678  0.765347  5.203757  1.134897    150.85    8.8873  105.2814   0.17080   6.43293   0.15544   0.00358 174.59695   8.99544     535.7  0.526921  0.001924  0.000306  0.000271  0.238743  7.581765  0.654438    102.45  1.000235  1.000027     2.786    16.761     174.0      92.8     228.1     634.8     15.45     -5.42     12.24      1.99     -0.64      4.58     -3.97      3.35     -5.75     -7.12     -1.16      3.72      5.55      3.00     -1.62     -5.12     -0.37      3.48      0.12      1.71
