corner points
-160.4537201    11.02128983
-160.4892731    11.1965332
-160.2758942    11.05648899
-160.3113251    11.23169899
========== RESULTS WAVE VERSION 16.10.2018 ====================
IMAGE SIZE  X: 4376     Y:4785    col:row     POLARIZATION:VV
COVERAGE    X: 19.75438388km       Y: 19.82096508km 
RESOLUTION dX: 4.514255914m       dY:4.142312452m  
resolution of original product 4.514255914m x 4.142312452m;   raster step x:5999.44611m  
===============================================================
FLAGS: H=HIGH PROBABILITY SEA STATE, I=LAND(ISLAND), O=OUTLIER NO SEA STATE, N=NO WIND AVAILABLE, SEA STATE NOT VISIBLE, M=MEAN PROBABILITY SEA STATE, L= LOW PROBABILITY SEA STATE
Filtering wave length
 integration  Lmin=1m
 integration  Lmax=2200m
  peak        Lmin=100m
               FFT=1024pixels, 4622.598056m 
   mean-Hs (SWH_c)=3.064891968m
         mean-wind=17.38415527m/s
--------------0--------------1---------2---------3---------4---------5---------6---------7---------8---------9--------10--------11--------12--------13--------14--------15--------16--------17--------18--------19------------------20--------21--------22--------23--------24--------25--------26--------27--------28--------29--------30--------31--------32--------33--------34--------35--------36--------37--------38--------39--------40--------41--------42--------43--------44--------45--------46--------47--------48--------49--------50--------51--------52--------53--------54--------55--------56--------57--------58--------59--------60--------61--------62--------63--------64--------65--------66--------67--------68--------69--------70--------71--------72--------73
            LAT            LON  P-LENGHT     SWH_o     SWH_c     P-DIR      LINE     POINT     ROW-Y     COL-X  M-INTENC        dB      WIND INC-ANGLE  ENERGY-M  ENERGY-N  ENERGY-R ENERGY-NN  FG-DEPTH      FLAG         HEADING-DEG    E30-75   E75-390  E390-600 meanincut   meanout   cut/out  STD-NORM  SPEC-MAX   GL-MEAN    GL-VAR      CORR   ENTROPY   HOMOGEN    ENERGY  CONTRAST  DISSIMIL     STD-O    E 1-30 E600-2000   E2000 >      GODA  LONG-HIG     Tmean  CONVOLUT  MEAN-DIR  relation     Sy/Sx  SKEWNESS  KURTOSIS  cutoff-A >50/10000     INT*V   INT-LOG  S-1_g1f1  S-2_g1f2  S-3_g1f3  S-4_g2f1  S-5_g2f2  S-6_g2f3  S-7_g3f1  S-8_g3f2  S-9_g3f3 S-10_g1f4 S-11_g2f4 S-12_g3f4 S-13_g1f5 S-14_g2f5 S-15_g3f5 S-16_g4f1 S-17_g4f2 S-18_g4f3 S-19_g4f4 S-20_g4f5
--------------1--------------2---------3---------4---------5---------6---------7---------8---------9--------10--------11--------12--------13--------14--------15--------16--------17--------18--------19--------20------------------21--------22--------23--------24--------25--------26--------27--------28--------29--------30--------31--------32--------33--------34--------35--------36--------37--------38--------39--------40--------41--------42--------43--------44--------45--------46--------47--------48--------49--------50--------51--------52--------53--------54--------55--------56--------57--------58--------59--------60--------61--------62--------63--------64--------65--------66--------67--------68--------69--------70--------71--------72--------73--------74
      11.066062    -160.420074     155.8      3.12      3.85      70.7         1         1      1000      1000    839.53   -10.760      16.9      37.0   226.522     0.614     119.1   0.10070      16.8         H               348.0  0.056537  0.036274  0.001292  3.410780  0.753255  4.528054  1.111616     38.14   15.6001  248.9288   0.15290   7.38188   0.09643   0.00114 421.73846  14.90981     933.2  0.518404  0.001489  0.000271  0.000205  0.192437  7.161199  0.624831     78.77  1.000157  1.000015     2.617    14.556     133.1      97.9     739.2     967.7     11.87      3.88      3.21      3.55     -0.64      8.86      5.14      1.73      3.35      1.14      4.06      0.97      0.75      3.93      3.59     -6.02     -4.96     11.24      5.59      4.43
      11.076791    -160.365860     145.9      3.00      3.85      78.1         1         2      1000      2329    811.81   -10.905      16.9      37.3   226.094     0.610      80.4   0.09857      14.5         H               348.0  0.056513  0.034838  0.001382  3.275450  0.744140  4.401655  1.107661     41.66   15.1406  237.6694   0.14894   7.34328   0.09835   0.00120 404.53943  14.55308     899.2  0.516076  0.001239  0.000087  0.000210  0.188898  7.133185  0.620091     80.43  1.000160  1.000017     2.598    14.366     133.1      97.8     687.0     940.3     11.80      3.66      2.56      3.23     -0.67      9.34      5.59      1.50      3.08      0.66      4.31      0.39      1.71      3.52      3.93     -7.05     -4.98     13.34      6.86      2.75
      11.087419    -160.312119     137.4      3.01      3.85      78.8         1         3      1000      3658    822.34   -10.849      17.2      37.7   225.459     0.606      90.2   0.09718      12.6         H               348.0  0.055586  0.033676  0.001430  3.223469  0.731196  4.408487  1.104491     37.44   15.3264  241.0191   0.14629   7.36248   0.09716   0.00116 411.51978  14.71074     908.2  0.514272  0.001335  0.000117  0.000206  0.188222  7.125028  0.615664     80.22  1.000154  1.000016     2.586    14.233     133.1      97.9     703.3     940.4     11.87      3.66      2.87      2.81     -1.24      8.45      5.59      1.90      3.20      0.85      3.72      0.94      0.64      4.05      3.74     -7.46     -5.65     11.82      6.29      4.40
      11.119102    -160.430817     155.8      3.00      3.85      70.7         2         1      2448      1000    870.22   -10.604      17.2      37.0   226.453     0.611      87.0   0.09898      16.8         H               348.0  0.057601  0.033842  0.001264  3.331300  0.749733  4.443313  1.108426     29.95   16.1245  259.5090   0.14696   7.42992   0.09329   0.00106 442.74316  15.35670     964.5  0.516872  0.001432  0.000097  0.000201  0.187362  7.103240  0.620830     81.37  1.000155  1.000015     2.639    15.123     128.8      98.2     793.5    1021.5     12.03      3.65      2.14      2.54     -0.82      8.53      5.06      1.31      3.04      0.92      3.48      0.68      0.85      3.46      3.66     -7.58     -4.74     12.06      4.85      3.37
      11.129827    -160.376602     133.5      3.18      3.85      79.1         2         2      2448      2329    868.69   -10.611      17.5      37.3   227.266     0.615     112.1   0.10143      11.8         H               348.0  0.058251  0.035967  0.001341  3.494684  0.753629  4.637142  1.113088     40.30   16.0866  259.8967   0.15196   7.42271   0.09396   0.00107 440.81122  15.30552     966.8  0.518234  0.001681  0.000180  0.000205  0.187092  7.119918  0.626198     80.47  1.000171  1.000018     2.629    14.742     137.8      98.2     795.4    1045.5     11.76      3.68      3.22      3.35     -0.77      8.66      5.55      1.36      3.63      1.15      3.56      0.83      0.95      4.41      3.85     -6.30     -4.75     11.48      4.78      4.94
      11.140452    -160.322845     139.4      2.98      3.85      84.3         2         3      2448      3658    845.64   -10.728      17.5      37.7   224.992     0.605      86.9   0.09759      13.0         H               348.0  0.056886  0.032852  0.001120  3.280684  0.729541  4.496914  1.103411     27.86   15.7256  250.0382   0.14763   7.39732   0.09521   0.00111 426.24701  15.02823     933.1  0.513038  0.001257  0.000119  0.000193  0.185771  7.076533  0.614486     82.05  1.000169  1.000017     2.577    14.215     128.8      98.1     743.8     973.0     11.81      3.09      3.09      3.35     -1.22      8.07      4.79      1.03      3.20      0.92      2.50      0.61      0.40      4.28      3.38     -5.90     -4.50     10.16      3.23      5.29
      11.172141    -160.441559     136.7      3.16      3.85      71.2         3         1      3896      1000    920.59   -10.359      17.7      37.0   226.766     0.612      89.2   0.10017      12.5         H               348.0  0.057754  0.034483  0.001187  3.443995  0.748738  4.599734  1.110010     29.38   16.9439  278.1790   0.14825   7.48868   0.09020   0.00097 473.87885  15.99220    1022.0  0.517944  0.001380  0.000111  0.000207  0.183809  7.081722  0.622624     81.24  1.000165  1.000017     2.603    14.283     128.8      98.6     893.8    1031.6     11.87      4.00      2.71      3.05     -0.52      8.07      4.71      1.56      3.01      1.38      3.73      1.42      0.65      3.67      3.73     -6.32     -4.41     10.85      4.59      4.01
      11.182864    -160.387344     131.1      3.10      3.85      82.9         3         2      3896      2329    900.48   -10.455      17.8      37.3   226.550     0.612     109.8   0.10030      11.4         H               348.0  0.058080  0.033841  0.001381  3.376368  0.741985  4.550456  1.110454     29.45   16.6174  270.4491   0.14989   7.46724   0.09175   0.00101 459.82114  15.71147     999.9  0.517778  0.001488  0.000217  0.000200  0.185628  7.086904  0.622681     81.67  1.000196  1.000020     2.649    15.386     133.1      98.5     853.4    1069.0     11.82      3.47      2.80      2.70     -1.22      8.48      5.66      1.68      3.29      0.69      3.41      0.78      1.20      4.29      3.90     -7.39     -5.70     12.10      5.20      4.59
      11.193486    -160.333588     143.5      3.04      3.85      74.3         3         3      3896      3658    877.66   -10.567      17.8      37.7   226.816     0.613      96.8   0.10034      13.9         H               348.0  0.058631  0.033225  0.001309  3.276954  0.749442  4.372523  1.110422     35.73   16.2392  262.4764   0.14907   7.43678   0.09290   0.00105 446.70111  15.44003     974.6  0.518379  0.001343  0.000187  0.000200  0.183578  7.075768  0.622797     80.53  1.000178  1.000016     2.647    15.919     133.1      98.3     809.1    1060.3     11.65      3.29      2.66      3.07     -0.91      8.41      5.72      1.86      3.36      0.98      3.09      1.12      1.10      4.02      3.90     -6.76     -4.96     12.13      4.44      4.34
