corner points
-157.5087891    -3.141607046
-157.5463409    -2.966379404
-157.3340759    -3.103339672
-157.3716583    -2.928156376
========== RESULTS WAVE VERSION 16.10.2018 ====================
IMAGE SIZE  X: 4376     Y:4788    col:row     POLARIZATION:VV
COVERAGE    X: 19.81452455km       Y: 19.87898424km 
RESOLUTION dX: 4.527999211m       dY:4.151834637m  
resolution of original product 4.527999211m x 4.151834637m;   raster step x:5999.598955m  
===============================================================
FLAGS: H=HIGH PROBABILITY SEA STATE, I=LAND(ISLAND), O=OUTLIER NO SEA STATE, N=NO WIND AVAILABLE, SEA STATE NOT VISIBLE, M=MEAN PROBABILITY SEA STATE, L= LOW PROBABILITY SEA STATE
Filtering wave length
 integration  Lmin=1m
 integration  Lmax=2200m
  peak        Lmin=100m
               FFT=1024pixels, 4636.671192m 
   mean-Hs (SWH_c)=0.7442920685m
         mean-wind=12.27469158m/s
--------------0--------------1---------2---------3---------4---------5---------6---------7---------8---------9--------10--------11--------12--------13--------14--------15--------16--------17--------18--------19------------------20--------21--------22--------23--------24--------25--------26--------27--------28--------29--------30--------31--------32--------33--------34--------35--------36--------37--------38--------39--------40--------41--------42--------43--------44--------45--------46--------47--------48--------49--------50--------51--------52--------53--------54--------55--------56--------57--------58--------59--------60--------61--------62--------63--------64--------65--------66--------67--------68--------69--------70--------71--------72--------73
            LAT            LON  P-LENGHT     SWH_o     SWH_c     P-DIR      LINE     POINT     ROW-Y     COL-X  M-INTENC        dB      WIND INC-ANGLE  ENERGY-M  ENERGY-N  ENERGY-R ENERGY-NN  FG-DEPTH      FLAG         HEADING-DEG    E30-75   E75-390  E390-600 meanincut   meanout   cut/out  STD-NORM  SPEC-MAX   GL-MEAN    GL-VAR      CORR   ENTROPY   HOMOGEN    ENERGY  CONTRAST  DISSIMIL     STD-O    E 1-30 E600-2000   E2000 >      GODA  LONG-HIG     Tmean  CONVOLUT  MEAN-DIR  relation     Sy/Sx  SKEWNESS  KURTOSIS  cutoff-A >50/10000     INT*V   INT-LOG  S-1_g1f1  S-2_g1f2  S-3_g1f3  S-4_g2f1  S-5_g2f2  S-6_g2f3  S-7_g3f1  S-8_g3f2  S-9_g3f3 S-10_g1f4 S-11_g2f4 S-12_g3f4 S-13_g1f5 S-14_g2f5 S-15_g3f5 S-16_g4f1 S-17_g4f2 S-18_g4f3 S-19_g4f4 S-20_g4f5
--------------1--------------2---------3---------4---------5---------6---------7---------8---------9--------10--------11--------12--------13--------14--------15--------16--------17--------18--------19--------20------------------21--------22--------23--------24--------25--------26--------27--------28--------29--------30--------31--------32--------33--------34--------35--------36--------37--------38--------39--------40--------41--------42--------43--------44--------45--------46--------47--------48--------49--------50--------51--------52--------53--------54--------55--------56--------57--------58--------59--------60--------61--------62--------63--------64--------65--------66--------67--------68--------69--------70--------71--------72--------73--------74
      -3.096164    -157.476257     399.1      0.75      2.22      20.1         1         1      1000      1000    464.52   -13.330      12.0      36.9   220.610     0.565      54.0   0.07569     100.0         H               348.0  0.050027  0.016793  0.000705  1.681525  0.689362  2.439247  1.066697     10.24    8.7693   94.0161   0.11212   6.43082   0.14936   0.00330 166.95013   8.96875     495.5  0.497102  0.000709  0.000090  0.000132  0.163084  6.787563  0.570236     84.27  1.000139  1.000010     2.380    12.257      97.3      93.3     203.6     489.7     11.16     -0.95     -1.04      2.22     -2.17      4.05      3.63      1.13      0.60     -1.74      0.25     -1.28     -0.56     -0.58      1.63     -7.57     -3.86      8.64      3.49     -1.00
      -3.084540    -157.423187     399.1      0.75      2.22      20.1         1         2      1000      2325    451.38   -13.455      12.1      37.2   220.696     0.566      72.4   0.07575     100.0         H               348.0  0.049724  0.016876  0.000801  1.675937  0.691606  2.423255  1.067734     12.76    8.5129   89.0195   0.11342   6.37601   0.15280   0.00349 157.84465   8.71263     481.9  0.497579  0.000994  0.000146  0.000132  0.163714  6.788165  0.571368     82.56  1.000113  1.000008     2.412    12.726      94.9      93.1     191.8     495.3     11.30     -0.26     -1.57      1.71     -2.36      4.30      3.67      1.82     -0.04     -1.75      1.04     -1.14     -0.70     -0.63      1.93     -8.95     -5.42     10.36      4.69     -1.46
      -3.073013    -157.370544     399.1      0.69      2.22      20.1         1         3      1000      3650    428.39   -13.682      12.0      37.6   219.593     0.563      48.1   0.07426     100.0         H               348.0  0.049291  0.016308  0.000863  1.649623  0.681513  2.420530  1.064280     11.41    8.0617   80.6912   0.11137   6.27571   0.15926   0.00386 143.40887   8.28854     456.0  0.495730  0.000755  0.000059  0.000130  0.162162  6.787787  0.568152     82.96  1.000134  1.000008     2.361    12.007      97.3      92.5     171.2     444.4     11.32     -0.34     -1.38      1.50     -1.77      4.16      3.87      1.62     -0.43     -1.64      1.09     -1.33     -0.50     -0.68      2.03     -9.96     -4.28     10.49      5.42     -2.39
      -3.043273    -157.487610     399.1      0.75      2.22      20.1         2         1      2445      1000    483.26   -13.158      12.3      36.9   220.307     0.564      52.9   0.07540     100.0         H               348.0  0.050363  0.016076  0.000698  1.616924  0.700885  2.306973  1.065868      8.92    9.1354  100.8251   0.11273   6.50624   0.14430   0.00305 178.91699   9.30887     515.1  0.496678  0.000827  0.000078  0.000136  0.161848  6.763487  0.569766     83.95  1.000111  1.000009     2.385    12.469      94.9      93.8     221.1     542.5     11.12     -0.81     -0.76      2.33     -2.43      3.56      3.46      1.07     -0.01     -1.64      0.08     -1.20     -0.70     -0.91      1.65     -7.64     -4.65      7.88      3.15     -1.65
      -3.031653    -157.434525     399.1      0.76      2.22      20.1         2         2      2445      2325    462.68   -13.347      12.3      37.2   220.074     0.564      69.2   0.07570     100.0         H               348.0  0.049476  0.016373  0.000893  1.639663  0.685275  2.392709  1.065897     14.69    8.7385   93.2175   0.11279   6.42452   0.14940   0.00332 165.40720   8.93133     493.2  0.496292  0.001056  0.000120  0.000134  0.164579  6.778697  0.569189     83.00  1.000127  1.000010     2.374    12.215      94.9      93.3     201.8     505.9     11.35     -0.22     -1.14      1.70     -2.89      4.62      4.09      2.04     -0.31     -2.36      1.25     -1.91     -0.49     -0.44      1.90     -9.90     -6.78     10.93      6.79     -0.66
      -3.020130    -157.381897     399.1      0.70      2.22      20.1         2         3      2445      3650    439.27   -13.573      12.2      37.6   220.107     0.563      56.8   0.07405     100.0         H               348.0  0.049755  0.016327  0.000806  1.621779  0.687648  2.358445  1.064210     12.17    8.2750   84.4310   0.11080   6.32438   0.15625   0.00368 150.15158   8.49343     467.5  0.495215  0.000737  0.000095  0.000133  0.162798  6.777879  0.567830     83.40  1.000131  1.000010     2.388    13.006      94.9      92.8     180.5     515.5     11.28     -0.38     -1.35      1.81     -2.12      4.35      3.86      1.59      0.01     -1.67      0.98     -1.49     -0.22     -0.42      1.68     -9.00     -5.06     10.01      5.49     -1.37
      -2.990382    -157.498947     386.5      0.83      2.22      24.6         3         1      3890      1000    507.02   -12.950      12.7      36.9   220.896     0.567      61.5   0.07662     100.0         H               348.0  0.050761  0.016115  0.000747  1.581391  0.678335  2.331283  1.068479     11.60    9.5971  110.2966   0.11400   6.59616   0.13883   0.00278 195.44696   9.74879     541.7  0.498816  0.000859  0.000105  0.000135  0.163348  6.760900  0.572438     83.09  1.000149  1.000011     2.395    12.422      97.3      94.2     245.5     547.8     11.35      0.00     -1.17      1.59     -1.91      3.60      3.51      1.27      0.30     -1.42      1.13     -1.06     -0.73     -0.38      1.66     -8.75     -4.58      8.14      4.47     -0.48
      -2.978766    -157.445862     381.2      0.80      2.22       9.5         3         2      3890      2325    469.77   -13.281      12.4      37.2   221.694     0.571      55.7   0.07749     100.0         H               348.0  0.051660  0.016946  0.000679  1.696452  0.687825  2.466399  1.072196      8.20    8.8723   96.2814   0.11555   6.45125   0.14799   0.00324 170.31274   9.05998     503.7  0.500868  0.000928  0.000078  0.000137  0.162411  6.770165  0.576665     84.02  1.000155  1.000012     2.450    13.261      99.7      93.4     210.0     548.7     10.99     -0.43     -1.06      2.51     -1.31      4.04      3.67      0.72      0.40     -1.30      0.23     -0.29     -0.41     -0.77      1.99     -7.02     -2.10      9.07      2.38     -1.93
      -2.967247    -157.393234     399.1      0.71      2.22      20.1         3         3      3890      3650    452.25   -13.446      12.4      37.6   219.742     0.562      58.5   0.07424     100.0         H               348.0  0.049565  0.015658  0.000710  1.565967  0.677144  2.312605  1.063566      9.60    8.5296   88.9997   0.11041   6.38069   0.15249   0.00346 158.34604   8.73183     480.9  0.495297  0.000852  0.000112  0.000134  0.160960  6.758118  0.566930     84.34  1.000106  1.000008     2.381    12.527      94.9      93.1     191.6     514.8     11.09     -0.60     -1.08      2.03     -2.10      3.56      3.62      1.54     -0.10     -1.58      0.71     -1.22     -1.27     -0.22      1.74     -8.07     -4.93      8.59      4.49     -0.41
