corner points
-142.3985443    -50.2456665
-142.4927826    -50.07849121
-142.1303864    -50.18193436
-142.2255096    -50.01497269
========== RESULTS WAVE VERSION 16.10.2018 ====================
IMAGE SIZE  X: 4376     Y:4770    col:row     POLARIZATION:VV
COVERAGE    X: 20.3066412km       Y: 19.72093773km 
RESOLUTION dX: 4.640457313m       dY:4.134368497m  
resolution of original product 4.640457313m x 4.134368497m;   raster step x:5995.470848m  
===============================================================
FLAGS: H=HIGH PROBABILITY SEA STATE, I=LAND(ISLAND), O=OUTLIER NO SEA STATE, N=NO WIND AVAILABLE, SEA STATE NOT VISIBLE, M=MEAN PROBABILITY SEA STATE, L= LOW PROBABILITY SEA STATE
Filtering wave length
 integration  Lmin=1m
 integration  Lmax=2200m
  peak        Lmin=100m
               FFT=1024pixels, 4751.828288m 
   mean-Hs (SWH_c)=0.7791171265m
         mean-wind=9.713787079m/s
--------------0--------------1---------2---------3---------4---------5---------6---------7---------8---------9--------10--------11--------12--------13--------14--------15--------16--------17--------18--------19------------------20--------21--------22--------23--------24--------25--------26--------27--------28--------29--------30--------31--------32--------33--------34--------35--------36--------37--------38--------39--------40--------41--------42--------43--------44--------45--------46--------47--------48--------49--------50--------51--------52--------53--------54--------55--------56--------57--------58--------59--------60--------61--------62--------63--------64--------65--------66--------67--------68--------69--------70--------71--------72--------73
            LAT            LON  P-LENGHT     SWH_o     SWH_c     P-DIR      LINE     POINT     ROW-Y     COL-X  M-INTENC        dB      WIND INC-ANGLE  ENERGY-M  ENERGY-N  ENERGY-R ENERGY-NN  FG-DEPTH      FLAG         HEADING-DEG    E30-75   E75-390  E390-600 meanincut   meanout   cut/out  STD-NORM  SPEC-MAX   GL-MEAN    GL-VAR      CORR   ENTROPY   HOMOGEN    ENERGY  CONTRAST  DISSIMIL     STD-O    E 1-30 E600-2000   E2000 >      GODA  LONG-HIG     Tmean  CONVOLUT  MEAN-DIR  relation     Sy/Sx  SKEWNESS  KURTOSIS  cutoff-A >50/10000     INT*V   INT-LOG  S-1_g1f1  S-2_g1f2  S-3_g1f3  S-4_g2f1  S-5_g2f2  S-6_g2f3  S-7_g3f1  S-8_g3f2  S-9_g3f3 S-10_g1f4 S-11_g2f4 S-12_g3f4 S-13_g1f5 S-14_g2f5 S-15_g3f5 S-16_g4f1 S-17_g4f2 S-18_g4f3 S-19_g4f4 S-20_g4f5
--------------1--------------2---------3---------4---------5---------6---------7---------8---------9--------10--------11--------12--------13--------14--------15--------16--------17--------18--------19--------20------------------21--------22--------23--------24--------25--------26--------27--------28--------29--------30--------31--------32--------33--------34--------35--------36--------37--------38--------39--------40--------41--------42--------43--------44--------45--------46--------47--------48--------49--------50--------51--------52--------53--------54--------55--------56--------57--------58--------59--------60--------61--------62--------63--------64--------65--------66--------67--------68--------69--------70--------71--------72--------73--------74
     -50.195946    -142.356308     270.3      0.68      2.42     104.8         1         1      1000      1000    366.00   -14.365       9.4      35.8   287.913     0.566     316.2   0.07390     100.0         H               344.5  0.044719  0.021213  0.000763  2.076581  0.685822  3.027873  1.069080     23.45    6.8255   60.0920   0.11426   5.96642   0.18247   0.00531 106.45148   7.08711     391.3  0.494213  0.004159  0.000902  0.000123  0.188991  7.004762  0.570001    105.67  1.000008  1.000001     2.419    12.928     105.0      90.6     123.5     418.7     12.96     -3.83      3.22      0.82     -1.04      2.07      0.43      1.59     -1.21     -5.26     -0.76      1.28     -0.03     -0.15      0.83     -7.82     -1.88      3.31      0.08     -0.46
     -50.177090    -142.276871     259.9      1.05      2.42     111.6         1         2      1000      2292    415.54   -13.814      10.7      36.2   287.960     0.569     303.0   0.07631     100.2         H               344.5  0.045379  0.023126  0.000891  2.273081  0.700389  3.245453  1.071379     25.03    7.8061   77.0382   0.12045   6.21441   0.16439   0.00416 135.51880   8.02518     445.1  0.494571  0.004109  0.000810  0.000139  0.189007  7.053609  0.573587    105.02  1.000045  1.000001     2.406    12.570     102.3      92.0     161.9     456.5     12.78     -3.87      3.52      0.94     -1.26      1.68      0.93      0.94     -0.53     -5.42     -0.96      0.93      0.02     -0.39      0.88     -8.32     -1.33      1.74      0.04     -1.31
     -50.158348    -142.198196     253.7      1.03      2.42     114.8         1         3      1000      3584    375.82   -14.250      10.2      36.5   289.821     0.575     483.8   0.07808      79.2         H               344.5  0.045779  0.024427  0.000766  2.415013  0.691651  3.491665  1.078666     26.02    7.0221   64.3369   0.12550   6.01659   0.17941   0.00511 112.52489   7.26637     405.4  0.496826  0.005914  0.001400  0.000142  0.193086  7.091895  0.581005    104.97  1.000025  1.000002     2.451    12.902     117.4      90.8     132.2     409.7     12.95     -5.09      3.81      1.19     -0.97      1.93      0.09      1.62     -0.91     -6.19     -0.97      1.39     -0.61     -0.00      1.06     -6.86     -0.42      2.34      0.46     -0.00
     -50.145096    -142.385086     266.6      0.48      2.42     116.2         2         1      2451      1000    298.90   -15.245       8.0      35.8   286.112     0.557     117.5   0.06854     100.0         H               344.5  0.044255  0.020181  0.000700  1.979133  0.673620  2.938056  1.059072     21.35    5.4924   39.8199   0.10176   5.56816   0.21232   0.00780  71.53557   5.80781     316.5  0.489753  0.001890  0.000229  0.000118  0.187293  7.002833  0.559890    108.42  1.000041  1.000001     2.341    12.054      99.7      87.8      80.1     327.3     12.68     -3.50      2.68      1.08     -0.91      2.11      0.52      0.94     -0.96     -4.98     -0.54      1.30     -0.13     -0.46      1.45     -7.36     -0.47      3.77      0.24     -1.60
     -50.126263    -142.305710     247.3      0.61      2.42     110.5         2         2      2451      2292    354.07   -14.509       9.5      36.2   286.276     0.558     186.3   0.06945      67.3         H               344.5  0.043962  0.020108  0.000642  1.979988  0.678622  2.917662  1.060395     15.27    6.5896   55.6849   0.10473   5.90318   0.18574   0.00561  99.70671   6.87364     375.5  0.490400  0.002433  0.000483  0.000126  0.184349  6.988350  0.560932    107.60  1.000061  1.000005     2.345    11.955      97.3      90.0     114.0     367.7     12.25     -4.19      2.89      1.75     -1.03      1.97      1.33      0.65      0.08     -4.73     -1.39      0.33     -0.90      0.07      1.23     -6.43     -0.65      2.19     -0.63      0.21
     -50.107544    -142.227112     247.3      0.96      2.42     110.5         2         3      2451      3584    388.78   -14.103      10.5      36.5   287.562     0.566     299.3   0.07477      67.3         H               344.5  0.044890  0.022542  0.000921  2.225583  0.682954  3.258759  1.069097     29.86    7.2797   67.5993   0.11773   6.08547   0.17330   0.00472 119.28172   7.51632     415.6  0.492769  0.004328  0.000790  0.000137  0.189756  7.048961  0.570688    108.10  1.000040  1.000003     2.392    12.403     102.3      91.3     140.2     420.7     12.88     -5.00      4.02      0.88     -0.92      1.64      0.93      1.22     -0.69     -5.69     -1.12      1.27      0.17     -0.77      1.33     -8.50     -0.18      1.48     -0.37     -2.97
     -50.094242    -142.413788     247.3      0.61      2.42     110.5         3         1      3902      1000    350.27   -14.556       9.1      35.8   287.765     0.563     250.8   0.07297      67.3         H               344.5  0.044899  0.021080  0.000844  2.087103  0.681840  3.060989  1.066381     18.52    6.5143   55.1130   0.11214   5.88048   0.18856   0.00579  97.86515   6.78913     373.5  0.492714  0.003484  0.000685  0.000126  0.184410  7.007769  0.567289    105.45  1.000016  1.000001     2.369    12.108      99.7      90.0     112.3     360.2     12.60     -3.66      3.18      1.02     -1.01      1.99      1.35      0.82     -0.35     -4.49     -1.10      0.47      0.20      0.09      0.80     -8.32     -0.88      2.59      0.07     -0.46
     -50.075428    -142.334488     247.3      0.88      2.42     110.5         3         2      3902      2292    379.40   -14.209      10.0      36.2   289.446     0.568     255.9   0.07480      67.3         H               344.5  0.045409  0.022672  0.000837  2.200043  0.687063  3.202100  1.071004     31.53    7.0911   64.7282   0.11443   6.03668   0.17701   0.00497 114.64208   7.35623     406.3  0.495654  0.003488  0.000660  0.000129  0.192712  7.044638  0.572679    107.49  1.000059  1.000004     2.407    12.608      99.7      90.9     133.4     417.4     13.23     -4.55      4.58      0.49     -0.92      1.07      0.19      1.80     -0.67     -6.27     -0.99      1.75      0.04      0.09      0.59     -8.14     -1.37     -0.02     -0.16      0.23
     -50.056728    -142.255966     280.2      0.84      2.42     109.3         3         3      3902      3584    365.74   -14.368      10.0      36.5   285.907     0.559     170.1   0.07167     100.0         H               344.5  0.044044  0.021926  0.000754  2.150860  0.671296  3.204042  1.062147     27.22    6.8241   59.4685   0.10991   5.96746   0.18158   0.00527 105.86473   7.08771     388.4  0.490107  0.002488  0.000396  0.000125  0.190443  7.033001  0.563257    106.49  1.000007  1.000001     2.348    11.975      97.3      90.7     122.3     381.4     12.88     -4.64      3.15      0.81     -0.67      2.20      0.57      1.15     -1.05     -5.87     -0.88      1.19     -0.38      0.00      0.99     -7.48     -0.28      3.98     -0.24     -0.37
