corner points
-168.7450562    39.85562134
-168.793808    40.0346489
-168.5153656    39.8916893
-168.563446    40.07074738
========== RESULTS WAVE VERSION 16.10.2018 ====================
IMAGE SIZE  X: 5471     Y:4922    col:row     POLARIZATION:VV
COVERAGE    X: 19.96581055km       Y: 20.28632598km 
RESOLUTION dX: 3.649389608m       dY:4.121561555m  
resolution of original product 3.649389608m x 4.121561555m;   raster step x:5999.596516m  
===============================================================
FLAGS: H=HIGH PROBABILITY SEA STATE, I=LAND(ISLAND), O=OUTLIER NO SEA STATE, N=NO WIND AVAILABLE, SEA STATE NOT VISIBLE, M=MEAN PROBABILITY SEA STATE, L= LOW PROBABILITY SEA STATE
Filtering wave length
 integration  Lmin=1m
 integration  Lmax=2200m
  peak        Lmin=100m
               FFT=1024pixels, 3736.974959m 
   mean-Hs (SWH_c)=4.517117004m
         mean-wind=16.59732437m/s
--------------0--------------1---------2---------3---------4---------5---------6---------7---------8---------9--------10--------11--------12--------13--------14--------15--------16--------17--------18--------19------------------20--------21--------22--------23--------24--------25--------26--------27--------28--------29--------30--------31--------32--------33--------34--------35--------36--------37--------38--------39--------40--------41--------42--------43--------44--------45--------46--------47--------48--------49--------50--------51--------52--------53--------54--------55--------56--------57--------58--------59--------60--------61--------62--------63--------64--------65--------66--------67--------68--------69--------70--------71--------72--------73
            LAT            LON  P-LENGHT     SWH_o     SWH_c     P-DIR      LINE     POINT     ROW-Y     COL-X  M-INTENC        dB      WIND INC-ANGLE  ENERGY-M  ENERGY-N  ENERGY-R ENERGY-NN  FG-DEPTH      FLAG         HEADING-DEG    E30-75   E75-390  E390-600 meanincut   meanout   cut/out  STD-NORM  SPEC-MAX   GL-MEAN    GL-VAR      CORR   ENTROPY   HOMOGEN    ENERGY  CONTRAST  DISSIMIL     STD-O    E 1-30 E600-2000   E2000 >      GODA  LONG-HIG     Tmean  CONVOLUT  MEAN-DIR  relation     Sy/Sx  SKEWNESS  KURTOSIS  cutoff-A >50/10000     INT*V   INT-LOG  S-1_g1f1  S-2_g1f2  S-3_g1f3  S-4_g2f1  S-5_g2f2  S-6_g2f3  S-7_g3f1  S-8_g3f2  S-9_g3f3 S-10_g1f4 S-11_g2f4 S-12_g3f4 S-13_g1f5 S-14_g2f5 S-15_g3f5 S-16_g4f1 S-17_g4f2 S-18_g4f3 S-19_g4f4 S-20_g4f5
--------------1--------------2---------3---------4---------5---------6---------7---------8---------9--------10--------11--------12--------13--------14--------15--------16--------17--------18--------19--------20------------------21--------22--------23--------24--------25--------26--------27--------28--------29--------30--------31--------32--------33--------34--------35--------36--------37--------38--------39--------40--------41--------42--------43--------44--------45--------46--------47--------48--------49--------50--------51--------52--------53--------54--------55--------56--------57--------58--------59--------60--------61--------62--------63--------64--------65--------66--------67--------68--------69--------70--------71--------72--------73--------74
      39.898796    -168.711899     184.0      4.47      5.53     100.0         1         1      1000      1000   5349.86    -2.717      17.0      23.6   456.544     0.942     204.9   0.26318      25.2         H               346.5  0.109936  0.115667  0.003977  6.798751  1.113413  6.106225  1.377087    157.66    9.8712  152.9220   0.32345   6.50869   0.16897   0.00411 206.92235   9.41461    7366.8  0.710545  0.002734  0.000039  0.000326  0.227409  7.518815  1.002288     96.98  1.000413  1.000063     4.625    51.848     148.0      92.0     384.9    1115.6     15.03     -1.01     11.81      2.70     -1.52      6.59     -1.80     -0.05     -3.95     -1.52     -2.42     -0.00      6.09      4.66     -1.50     -7.21     -0.73      4.16     -1.67      3.38
      39.909771    -168.642151     245.3      4.55      5.53      80.0         1         2      1000      2644   4931.05    -3.071      17.0      24.1   461.997     0.954     196.6   0.26789      64.6         H               346.5  0.111843  0.119422  0.003927  7.053995  1.087998  6.483461  1.381733    156.40    9.0829  135.3050   0.32462   6.36075   0.18100   0.00490 182.76295   8.74178    6812.9  0.717251  0.002269  0.000034  0.000331  0.230433  7.537217  1.014630     96.48  1.000406  1.000064     4.609    48.669     153.8      90.9     325.8    1058.5     15.28     -0.97     12.01      2.05     -1.81      5.70     -2.25      0.21     -3.93     -1.24     -2.71     -0.26      5.85      4.35     -0.96     -7.10     -1.53      3.23     -1.70      2.90
      39.920502    -168.573654     218.6      4.47      5.53      95.9         1         3      1000      4288   4539.87    -3.430      17.0      24.5   455.875     0.932     257.1   0.25719      41.2         H               346.5  0.108364  0.115793  0.004097  6.557382  1.096209  5.981874  1.368157    197.08    8.3673  118.8443   0.32421   6.21651   0.19238   0.00574 160.62796   8.11871    6211.1  0.700512  0.004039  0.000109  0.000369  0.233029  7.545214  0.991116     99.22  1.000373  1.000056     4.789    81.640     153.8      89.9     268.7     943.8     15.30     -1.52     12.56      2.59     -2.17      6.28     -2.39      0.53     -4.75     -2.76     -3.23      0.60      6.58      4.51     -1.65     -7.39     -1.59      3.57     -1.74      2.40
      39.951733    -168.726257     203.7      4.66      5.53     101.1         2         1      2455      1000   5243.21    -2.804      16.7      23.6   458.173     0.943     205.4   0.26409      33.2         H               346.5  0.109637  0.121802  0.003597  6.889913  1.095960  6.286648  1.373570    188.80    9.6689  149.2352   0.32557   6.46843   0.17377   0.00440 201.30074   9.24105    7200.8  0.705827  0.002436  0.000042  0.000368  0.231888  7.571549  1.002506     98.45  1.000404  1.000062     4.478    47.160     153.8      91.5     367.9    1089.1     15.04     -1.19     12.55      3.05     -2.15      6.76     -1.95     -0.35     -3.68     -1.93     -3.55     -0.32      6.62      4.84     -0.98     -5.81     -0.89      4.04     -2.20      3.07
      39.962708    -168.656464     217.2      4.59      5.53      98.9         2         2      2455      2644   4786.49    -3.200      16.5      24.1   456.364     0.938     215.6   0.26198      40.3         H               346.5  0.108098  0.119984  0.004286  6.770069  1.068272  6.337403  1.365830    186.13    8.8703  130.8835   0.32718   6.31618   0.18592   0.00524 176.12234   8.54762    6536.7  0.703737  0.002745  0.000047  0.000354  0.234054  7.579797  0.998683     99.26  1.000387  1.000059     4.238    38.481     153.8      90.5     306.2    1003.3     15.18     -1.35     12.34      2.56     -2.56      6.49     -1.87      0.01     -4.06     -2.47     -3.54     -0.12      6.12      4.40     -0.90     -7.18     -1.60      4.32     -1.51      2.23
      39.973442    -168.587906     207.4      4.43      5.53      92.8         2         3      2455      4288   4472.31    -3.495      16.7      24.5   456.387     0.941     212.1   0.26285      35.0         H               346.5  0.109492  0.116286  0.003977  6.815890  1.081577  6.301805  1.377134    172.89    8.2303  116.8542   0.32569   6.18280   0.19533   0.00599 157.59235   8.01113    6158.2  0.708983  0.002505  0.000053  0.000347  0.229898  7.523013  0.999617     96.73  1.000451  1.000069     4.470    46.328     153.8      89.5     261.9     923.0     15.28     -1.28     12.44      2.23     -1.96      5.98     -2.01      0.18     -4.14     -1.69     -3.46      0.44      6.46      4.69     -1.53     -7.33     -1.23      3.28     -3.18      2.94
      40.004669    -168.740646     219.5      4.80      5.53      93.0         3         1      3910      1000   5329.37    -2.733      17.0      23.6   467.373     0.969     237.7   0.27652      41.7         H               346.5  0.112789  0.126302  0.004485  6.797379  1.114982  6.096399  1.392964    177.35    9.7856  153.4172   0.33124   6.48208   0.17347   0.00437 205.19676   9.32173    7423.0  0.723592  0.003019  0.000088  0.000371  0.231390  7.585197  1.032692     97.73  1.000431  1.000068     4.686    53.406     160.0      91.6     387.2    1134.9     14.99     -0.67     12.08      2.74     -2.82      6.69     -1.20     -0.21     -3.12     -1.58     -3.77     -0.75      6.23      5.16     -0.82     -7.26     -2.61      3.70     -2.53      3.44
      40.015644    -168.670776     232.1      4.32      5.53      96.3         3         2      3910      2644   4581.01    -3.390      15.9      24.1   461.943     0.957     209.2   0.27060      50.7         H               346.5  0.113297  0.118530  0.004317  6.595742  1.131699  5.828175  1.386196    190.36    8.4608  121.8821   0.32676   6.23145   0.19145   0.00567 164.10931   8.19875    6350.1  0.718951  0.002687  0.000033  0.000355  0.233468  7.529440  1.018460     97.51  1.000440  1.000068     4.712    53.019     153.8      90.0     281.6    1036.2     15.48     -1.30     12.63      2.17     -1.90      6.06     -2.39     -0.17     -4.79     -1.64     -3.51      0.27      6.77      4.43     -1.78     -7.85     -0.46      3.60     -3.07      2.30
      40.026382    -168.602173     228.0      4.37      5.53     102.5         3         3      3910      4288   4135.35    -3.835      15.6      24.5   456.480     0.940     238.5   0.26365      47.5         H               346.5  0.108606  0.118519  0.004061  6.404098  1.078296  5.939089  1.379866    180.47    7.6248  103.1490   0.32597   6.04597   0.20697   0.00694 139.05240   7.46467    5706.1  0.706669  0.003016  0.000086  0.000340  0.236844  7.561286  1.000311     97.46  1.000422  1.000064     4.469    44.403     153.8      88.5     224.4     850.0     15.56     -0.88     12.47      1.78     -1.83      5.52     -2.86     -0.20     -4.69     -1.49     -3.08      0.15      5.99      4.42     -1.53     -7.37     -0.83      3.12     -2.68      2.96
