corner points
-143.4772186    -53.35827255
-143.5749207    -53.1855278
-143.1795807    -53.29567337
-143.2785339    -53.12317276
========== RESULTS WAVE VERSION 16.10.2018 ====================
IMAGE SIZE  X: 5471     Y:4904    col:row     POLARIZATION:VV
COVERAGE    X: 20.90315521km       Y: 20.23408188km 
RESOLUTION dX: 3.820719285m       dY:4.126036272m  
resolution of original product 3.820719285m x 4.126036272m;   raster step x:5998.529277m  
===============================================================
FLAGS: H=HIGH PROBABILITY SEA STATE, I=LAND(ISLAND), O=OUTLIER NO SEA STATE, N=NO WIND AVAILABLE, SEA STATE NOT VISIBLE, M=MEAN PROBABILITY SEA STATE, L= LOW PROBABILITY SEA STATE
Filtering wave length
 integration  Lmin=1m
 integration  Lmax=2200m
  peak        Lmin=100m
               FFT=1024pixels, 3912.416548m 
   mean-Hs (SWH_c)=0.7598294067m
         mean-wind=9.175514221m/s
--------------0--------------1---------2---------3---------4---------5---------6---------7---------8---------9--------10--------11--------12--------13--------14--------15--------16--------17--------18--------19------------------20--------21--------22--------23--------24--------25--------26--------27--------28--------29--------30--------31--------32--------33--------34--------35--------36--------37--------38--------39--------40--------41--------42--------43--------44--------45--------46--------47--------48--------49--------50--------51--------52--------53--------54--------55--------56--------57--------58--------59--------60--------61--------62--------63--------64--------65--------66--------67--------68--------69--------70--------71--------72--------73
            LAT            LON  P-LENGHT     SWH_o     SWH_c     P-DIR      LINE     POINT     ROW-Y     COL-X  M-INTENC        dB      WIND INC-ANGLE  ENERGY-M  ENERGY-N  ENERGY-R ENERGY-NN  FG-DEPTH      FLAG         HEADING-DEG    E30-75   E75-390  E390-600 meanincut   meanout   cut/out  STD-NORM  SPEC-MAX   GL-MEAN    GL-VAR      CORR   ENTROPY   HOMOGEN    ENERGY  CONTRAST  DISSIMIL     STD-O    E 1-30 E600-2000   E2000 >      GODA  LONG-HIG     Tmean  CONVOLUT  MEAN-DIR  relation     Sy/Sx  SKEWNESS  KURTOSIS  cutoff-A >50/10000     INT*V   INT-LOG  S-1_g1f1  S-2_g1f2  S-3_g1f3  S-4_g2f1  S-5_g2f2  S-6_g2f3  S-7_g3f1  S-8_g3f2  S-9_g3f3 S-10_g1f4 S-11_g2f4 S-12_g3f4 S-13_g1f5 S-14_g2f5 S-15_g3f5 S-16_g4f1 S-17_g4f2 S-18_g4f3 S-19_g4f4 S-20_g4f5
--------------1--------------2---------3---------4---------5---------6---------7---------8---------9--------10--------11--------12--------13--------14--------15--------16--------17--------18--------19--------20------------------21--------22--------23--------24--------25--------26--------27--------28--------29--------30--------31--------32--------33--------34--------35--------36--------37--------38--------39--------40--------41--------42--------43--------44--------45--------46--------47--------48--------49--------50--------51--------52--------53--------54--------55--------56--------57--------58--------59--------60--------61--------62--------63--------64--------65--------66--------67--------68--------69--------70--------71--------72--------73--------74
     -53.311352    -143.441269     101.9      0.81      2.67     105.4         1         1      1000      1000   3813.49    -4.187       9.3      22.5   245.548     0.780      65.6   0.19313       6.6         H               343.8  0.099163  0.045227  0.000901  4.675001  1.034078  4.520938  1.251796     24.29    7.0748   80.8638   0.27335   5.96637   0.20104   0.00653 117.52163   7.04226    4773.7  0.634567  0.000726  0.000022  0.000183  0.176173  6.938366  0.814656     94.89  1.000245  1.000033     3.748    32.188     102.3      89.2     166.3     702.2     12.31     -1.48      2.98      3.07      0.18      3.30      0.14      0.57      0.28     -1.17      0.02      0.40      0.44      0.57      0.54     -3.35      0.41      3.61      0.07      0.13
     -53.293232    -143.354919     109.4      0.82      2.67     108.1         1         2      1000      2570   3487.99    -4.574       9.4      23.0   246.134     0.783      67.8   0.19487       7.7         H               343.8  0.099407  0.046246  0.001091  4.716985  1.030150  4.578931  1.253955     19.86    6.4410   69.2338   0.27500   5.79329   0.21585   0.00781 100.38902   6.45458    4373.5  0.636163  0.000708  0.000018  0.000183  0.179134  6.948002  0.817728     93.53  1.000252  1.000034     3.788    33.053     102.3      87.8     138.2     648.8     12.36     -1.52      3.06      2.60     -0.63      3.41      0.55      0.40      0.37     -2.01     -0.47      0.01      0.31      0.74      1.29     -4.14     -0.80      3.96      0.12      0.38
     -53.275398    -143.270279     253.2      0.75      2.67     103.9         1         3      1000      4140   3161.93    -5.000       9.3      23.4   246.533     0.784      66.1   0.19623      78.1         H               343.8  0.101641  0.046034  0.001019  4.736762  1.030336  4.597298  1.255183     29.57    5.8108   57.9346   0.27684   5.60592   0.23170   0.00936  83.79144   5.86204    3968.5  0.635939  0.000660  0.000015  0.000186  0.178220  6.929786  0.820162     93.05  1.000252  1.000033     3.908    36.227     105.0      86.4     113.3     612.3     12.65     -1.39      3.56      2.42      0.03      3.31     -0.18      0.64     -0.61     -2.21     -0.05      0.96      0.99      0.52      0.57     -4.08      0.42      4.51      0.41      0.31
     -53.260139    -143.470337     258.9      0.79      2.67      97.0         2         1      2454      1000   3754.15    -4.255       9.1      22.5   246.227     0.781      60.7   0.19387      95.3         H               343.8  0.099045  0.045691  0.000903  4.737471  1.049586  4.513657  1.252262     21.92    6.9570   78.3882   0.27429   5.93622   0.20358   0.00670 113.77399   6.92118    4700.7  0.635640  0.000543  0.000018  0.000184  0.174089  6.922887  0.815817     91.98  1.000250  1.000034     3.902    38.563     102.3      89.0     160.9     747.5     12.20     -0.62      3.21      3.11     -0.24      3.22      0.27      0.86      0.11     -1.42      0.47      0.55      1.04      0.71      0.66     -3.21     -0.98      3.75      1.01      0.84
     -53.242043    -143.384094     265.3      0.74      2.67     108.3         2         2      2454      2570   3410.02    -4.672       9.1      23.0   246.513     0.781      72.6   0.19157     100.0         H               343.8  0.099535  0.045315  0.001025  4.699657  1.012813  4.640202  1.252725     24.51    6.2938   66.4176   0.27422   5.75171   0.21905   0.00812  96.40948   6.32041    4271.7  0.634742  0.000806  0.000027  0.000190  0.175230  6.921977  0.816326     93.85  1.000255  1.000035     3.757    31.734     105.0      87.5     131.8     630.8     12.56     -0.88      3.38      2.70     -0.37      3.72      0.05      0.87     -0.31     -2.24     -0.17      1.01      1.39      1.03      0.60     -4.28     -0.71      4.49      0.41      0.52
     -53.224232    -143.299561     104.6      0.77      2.67     105.8         2         3      2454      4140   3115.56    -5.065       9.2      23.4   245.911     0.778      72.1   0.19102       7.0         H               343.8  0.098182  0.046547  0.001127  4.793494  1.025022  4.676481  1.250696     26.08    5.7182   56.1520   0.27373   5.57777   0.23441   0.00964  81.56297   5.77950    3896.4  0.631840  0.000885  0.000019  0.000192  0.175126  6.944961  0.812560     93.37  1.000248  1.000033     3.856    36.517     102.3      86.2     109.1     596.8     12.38     -1.37      2.83      2.51     -0.31      3.21      0.27      0.76      0.16     -1.98      0.08      0.27      0.20      0.94      0.95     -4.57     -0.77      3.99      0.78      1.41
     -53.208920    -143.499344     212.9      0.71      2.67     101.6         3         1      3908      1000   3704.65    -4.313       9.0      22.5   244.132     0.773      69.2   0.19159      37.9         H               343.8  0.098373  0.043696  0.000877  4.538613  1.024350  4.430727  1.246066     27.62    6.8775   76.3732   0.27158   5.91789   0.20436   0.00679 111.26352   6.85163    4615.8  0.630524  0.000759  0.000027  0.000174  0.174323  6.921500  0.808064     91.59  1.000252  1.000033     3.975    46.464      97.3      88.9     155.9     742.9     12.21     -1.14      3.43      3.36     -0.41      3.23     -0.03      0.84     -0.38     -1.74     -0.31      0.73      1.61      1.02      0.00     -3.07     -0.80      3.51      0.09      0.63
     -53.190845    -143.413208     260.8      0.64      2.67      90.0         3         2      3908      2570   3360.83    -4.736       9.0      23.0   242.684     0.760      64.5   0.18188     106.1         H               343.8  0.095054  0.042309  0.000889  4.404514  1.020113  4.317671  1.235388     22.31    6.2019   63.6439   0.26688   5.73071   0.21968   0.00817  93.31626   6.23676    4151.9  0.621612  0.000701  0.000025  0.000177  0.173467  6.914247  0.792467     91.08  1.000251  1.000032     3.642    30.597      99.7      87.5     125.5     615.6     12.36     -0.80      3.42      2.81     -0.11      2.95      0.18      0.07     -0.38     -0.76     -0.26      0.30      1.48      0.42      0.09     -3.71      0.12      3.54     -0.33      0.08
     -53.173054    -143.328781     249.2      0.81      2.67     107.2         3         3      3908      4140   3099.56    -5.087       9.1      23.4   244.136     0.770      70.7   0.18819      70.4         H               343.8  0.094661  0.046877  0.001107  4.761373  1.005384  4.735875  1.244725     26.91    5.6889   55.0852   0.27150   5.57085   0.23435   0.00963  80.25737   5.74664    3858.1  0.627353  0.000804  0.000018  0.000183  0.178336  6.954743  0.803894     91.92  1.000239  1.000031     3.838    35.223      99.7      86.2     107.2     591.6     12.61     -1.03      3.12      2.12     -0.20      3.03     -0.01      0.73     -0.45     -1.78     -0.16      0.64      1.15      0.73      0.72     -4.79     -0.80      4.03      0.05      0.43
