corner points
-166.138855    29.27455711
-166.1808624    29.45452499
-165.9371948    29.30999756
-165.9788055    29.48997307
========== RESULTS WAVE VERSION 16.10.2018 ====================
IMAGE SIZE  X: 5471     Y:4927    col:row     POLARIZATION:VV
COVERAGE    X: 19.90685114km       Y: 20.37218006km 
RESOLUTION dX: 3.638612893m       dY:4.134804153m  
resolution of original product 3.638612893m x 4.134804153m;   raster step x:5996.434048m  
===============================================================
FLAGS: H=HIGH PROBABILITY SEA STATE, I=LAND(ISLAND), O=OUTLIER NO SEA STATE, N=NO WIND AVAILABLE, SEA STATE NOT VISIBLE, M=MEAN PROBABILITY SEA STATE, L= LOW PROBABILITY SEA STATE
Filtering wave length
 integration  Lmin=1m
 integration  Lmax=2200m
  peak        Lmin=100m
               FFT=1024pixels, 3725.939603m 
   mean-Hs (SWH_c)=2.232272339m
         mean-wind=5.924485683m/s
--------------0--------------1---------2---------3---------4---------5---------6---------7---------8---------9--------10--------11--------12--------13--------14--------15--------16--------17--------18--------19------------------20--------21--------22--------23--------24--------25--------26--------27--------28--------29--------30--------31--------32--------33--------34--------35--------36--------37--------38--------39--------40--------41--------42--------43--------44--------45--------46--------47--------48--------49--------50--------51--------52--------53--------54--------55--------56--------57--------58--------59--------60--------61--------62--------63--------64--------65--------66--------67--------68--------69--------70--------71--------72--------73
            LAT            LON  P-LENGHT     SWH_o     SWH_c     P-DIR      LINE     POINT     ROW-Y     COL-X  M-INTENC        dB      WIND INC-ANGLE  ENERGY-M  ENERGY-N  ENERGY-R ENERGY-NN  FG-DEPTH      FLAG         HEADING-DEG    E30-75   E75-390  E390-600 meanincut   meanout   cut/out  STD-NORM  SPEC-MAX   GL-MEAN    GL-VAR      CORR   ENTROPY   HOMOGEN    ENERGY  CONTRAST  DISSIMIL     STD-O    E 1-30 E600-2000   E2000 >      GODA  LONG-HIG     Tmean  CONVOLUT  MEAN-DIR  relation     Sy/Sx  SKEWNESS  KURTOSIS  cutoff-A >50/10000     INT*V   INT-LOG  S-1_g1f1  S-2_g1f2  S-3_g1f3  S-4_g2f1  S-5_g2f2  S-6_g2f3  S-7_g3f1  S-8_g3f2  S-9_g3f3 S-10_g1f4 S-11_g2f4 S-12_g3f4 S-13_g1f5 S-14_g2f5 S-15_g3f5 S-16_g4f1 S-17_g4f2 S-18_g4f3 S-19_g4f4 S-20_g4f5
--------------1--------------2---------3---------4---------5---------6---------7---------8---------9--------10--------11--------12--------13--------14--------15--------16--------17--------18--------19--------20------------------21--------22--------23--------24--------25--------26--------27--------28--------29--------30--------31--------32--------33--------34--------35--------36--------37--------38--------39--------40--------41--------42--------43--------44--------45--------46--------47--------48--------49--------50--------51--------52--------53--------54--------55--------56--------57--------58--------59--------60--------61--------62--------63--------64--------65--------66--------67--------68--------69--------70--------71--------72--------73--------74
      29.317757    -166.109589     313.3      2.23      4.05      42.3         1         1      1000      1000   2315.63    -6.353       6.7      23.7   466.169     0.886     265.3   0.23759     100.0         H               347.4  0.102150  0.093943  0.004812  5.355877  1.050866  5.096630  1.334897    255.92    4.1274   36.3718   0.31325   4.93603   0.31576   0.02199  49.95617   4.27592    3091.0  0.682740  0.002696  0.000116  0.000267  0.254870  7.529529  0.940411     40.39  1.000135  1.000015     3.847    32.407     110.8      77.8      64.1     455.9     16.63     12.27     -1.72     -6.65     -7.04      5.38     -1.67     -2.55     -0.31     -0.16      3.68     -1.08     -5.88      3.18      2.35    -17.74    -14.08      9.33      6.16      5.80
      29.328554    -166.048218     310.8      2.49      4.05      48.7         1         2      1000      2648   1842.93    -7.345       5.7      24.2   463.999     0.879     243.3   0.23452     100.0         H               347.4  0.099595  0.102733  0.004699  5.448326  1.047791  5.199823  1.328963    285.91    3.2094   23.3194   0.31475   4.49487   0.36685   0.03367  31.95934   3.38936    2448.8  0.670372  0.001859  0.000061  0.000290  0.262891  7.618661  0.935236     46.97  1.000095  1.000011     3.861    33.956     110.8      72.7      40.3     364.6     16.78     12.19     -1.47     -6.76     -6.55      4.88     -2.37     -3.41     -0.16      1.19      2.11     -0.98     -6.00      3.46      2.79    -16.79    -11.91      8.49      3.23      5.42
      29.339128    -165.987946     313.3      2.25      4.05      42.3         1         3      1000      4296   1630.07    -7.878       5.6      24.6   459.017     0.860     270.7   0.22458     100.0         H               347.4  0.096233  0.095377  0.004442  4.958289  1.003767  4.939682  1.313563    253.94    2.7895   18.0053   0.30755   4.26009   0.39471   0.04157  24.93575   2.98675    2141.2  0.661315  0.002656  0.000125  0.000286  0.259350  7.588699  0.912790     45.10  1.000112  1.000012     3.636    27.153     110.8      69.9      31.0     276.8     16.76     12.57     -0.99     -6.27     -5.98      4.93     -2.73     -3.98     -0.74      1.48      2.86     -1.52     -5.80      3.29      2.71    -16.61    -11.49      8.23      3.53      5.62
      29.370770    -166.121918     292.1      2.36      4.05      51.6         2         1      2451      1000   2240.49    -6.497       6.4      23.7   464.419     0.876     402.2   0.23262     100.0         H               347.4  0.098323  0.096534  0.004444  5.083102  1.014571  5.010100  1.328093    230.87    3.9792   34.0087   0.31351   4.87052   0.32424   0.02364  46.69345   4.12756    2975.2  0.672639  0.004374  0.000365  0.000284  0.259523  7.601149  0.930713     48.28  1.000091  1.000010     3.698    28.428     110.8      77.0      59.4     398.2     16.66     11.60     -1.75     -6.28     -5.29      5.16     -2.73     -4.46     -0.55      1.86      1.81     -1.30     -5.00      1.59      3.33    -16.17     -9.26      9.20      1.94      1.91
      29.381567    -166.060532     311.9      2.11      4.05      35.9         2         2      2451      2648   1890.62    -7.234       5.9      24.2   454.853     0.848     255.8   0.21962     100.0         H               347.4  0.095254  0.090626  0.004171  4.920121  0.985819  4.990899  1.307754    232.84    3.3027   23.8318   0.30464   4.55521   0.35715   0.03091  33.14374   3.47953    2472.3  0.656074  0.002526  0.000109  0.000269  0.257057  7.550675  0.899572     37.83  1.000109  1.000013     3.605    26.997     107.8      73.8      41.4     329.7     16.62     11.48     -3.19     -6.76     -6.12      6.02     -2.30     -3.17      0.07     -0.63      3.60     -1.02     -4.37      2.17      2.47    -16.97    -11.56     10.42      5.83      3.33
      29.392141    -166.000229     331.0      2.40      4.05      45.3         2         3      2451      4296   1631.16    -7.875       5.6      24.6   466.730     0.881     329.7   0.23502     100.0         H               347.4  0.099781  0.100620  0.005658  5.342686  1.033462  5.169696  1.332050    320.24    2.7945   18.4979   0.31472   4.25625   0.39676   0.04230  25.35240   2.99009    2172.8  0.672594  0.003073  0.000210  0.000307  0.263292  7.609043  0.937868     45.45  1.000090  1.000008     3.785    29.840     114.0      69.7      31.7     290.3     16.90     12.75     -2.69     -7.74     -7.69      5.72     -1.50     -2.88     -0.51      0.07      2.73     -0.91     -6.45      3.37      3.18    -19.43    -14.48     11.20      4.90      5.42
      29.423780    -166.134277     311.9      2.01      4.05      35.9         3         1      3902      1000   2200.88    -6.574       6.2      23.7   465.017     0.882     232.8   0.23517     100.0         H               347.4  0.103945  0.090761  0.003878  5.234775  1.031928  5.072808  1.331998    274.52    3.9375   33.3926   0.31192   4.85481   0.32423   0.02362  45.95261   4.09546    2931.5  0.681627  0.002152  0.000088  0.000264  0.252662  7.498940  0.935711     40.16  1.000149  1.000017     3.827    30.977     107.8      77.0      58.6     415.6     16.32     11.42     -2.39     -6.01     -5.91      5.48     -2.14     -3.38      0.37     -0.10      3.17     -0.83     -6.27      3.51      2.78    -15.87    -10.62      9.15      4.65      6.21
      29.434578    -166.072845     292.1      2.14      4.05      51.6         3         2      3902      2648   1869.65    -7.282       5.8      24.2   462.878     0.874     253.7   0.23205     100.0         H               347.4  0.101090  0.094473  0.004058  5.303997  1.045061  5.075298  1.325230    204.88    3.2626   23.8701   0.31210   4.52752   0.36122   0.03218  32.84074   3.44466    2477.4  0.672255  0.002555  0.000109  0.000257  0.255972  7.537720  0.928598     48.70  1.000088  1.000010     3.839    32.664     107.8      73.2      41.3     371.0     16.61     11.25     -1.37     -6.06     -5.38      4.96     -2.85     -4.16     -0.17      1.81      1.60     -1.39     -4.70      2.16      2.71    -15.51     -9.27      8.19      2.11      3.31
      29.445154    -166.012512     331.4      2.10      4.05      38.5         3         3      3902      4296   1629.96    -7.878       5.6      24.6   465.064     0.880     317.6   0.23486     100.0         H               347.4  0.102436  0.094601  0.006117  5.301138  1.044022  5.077611  1.331967    281.44    2.8019   18.5401   0.31339   4.26303   0.39456   0.04153  25.45927   2.99897    2171.0  0.674561  0.003266  0.000203  0.000266  0.255572  7.533607  0.935926     39.45  1.000109  1.000011     3.851    31.523     110.8      69.9      31.8     295.6     16.75     12.20     -2.69     -7.55     -7.12      6.26     -0.75     -2.24     -0.73     -0.66      3.81     -0.94     -5.12      3.09      2.09    -20.58    -14.76     11.83      6.29      5.34
