corner points
-154.8728485    -22.06357765
-154.917099    -21.88387489
-154.6813049    -22.0210247
-154.7259064    -21.8413887
========== RESULTS WAVE VERSION 16.10.2018 ====================
IMAGE SIZE  X: 5471     Y:4924    col:row     POLARIZATION:VV
COVERAGE    X: 20.24928711km       Y: 20.45114635km 
RESOLUTION dX: 3.701204005m       dY:4.153360348m  
resolution of original product 3.701204005m x 4.153360348m;   raster step x:5999.651692m  
===============================================================
FLAGS: H=HIGH PROBABILITY SEA STATE, I=LAND(ISLAND), O=OUTLIER NO SEA STATE, N=NO WIND AVAILABLE, SEA STATE NOT VISIBLE, M=MEAN PROBABILITY SEA STATE, L= LOW PROBABILITY SEA STATE
Filtering wave length
 integration  Lmin=1m
 integration  Lmax=2200m
  peak        Lmin=100m
               FFT=1024pixels, 3790.032901m 
   mean-Hs (SWH_c)=0.2m
         mean-wind=7.138889313m/s
--------------0--------------1---------2---------3---------4---------5---------6---------7---------8---------9--------10--------11--------12--------13--------14--------15--------16--------17--------18--------19------------------20--------21--------22--------23--------24--------25--------26--------27--------28--------29--------30--------31--------32--------33--------34--------35--------36--------37--------38--------39--------40--------41--------42--------43--------44--------45--------46--------47--------48--------49--------50--------51--------52--------53--------54--------55--------56--------57--------58--------59--------60--------61--------62--------63--------64--------65--------66--------67--------68--------69--------70--------71--------72--------73
            LAT            LON  P-LENGHT     SWH_o     SWH_c     P-DIR      LINE     POINT     ROW-Y     COL-X  M-INTENC        dB      WIND INC-ANGLE  ENERGY-M  ENERGY-N  ENERGY-R ENERGY-NN  FG-DEPTH      FLAG         HEADING-DEG    E30-75   E75-390  E390-600 meanincut   meanout   cut/out  STD-NORM  SPEC-MAX   GL-MEAN    GL-VAR      CORR   ENTROPY   HOMOGEN    ENERGY  CONTRAST  DISSIMIL     STD-O    E 1-30 E600-2000   E2000 >      GODA  LONG-HIG     Tmean  CONVOLUT  MEAN-DIR  relation     Sy/Sx  SKEWNESS  KURTOSIS  cutoff-A >50/10000     INT*V   INT-LOG  S-1_g1f1  S-2_g1f2  S-3_g1f3  S-4_g2f1  S-5_g2f2  S-6_g2f3  S-7_g3f1  S-8_g3f2  S-9_g3f3 S-10_g1f4 S-11_g2f4 S-12_g3f4 S-13_g1f5 S-14_g2f5 S-15_g3f5 S-16_g4f1 S-17_g4f2 S-18_g4f3 S-19_g4f4 S-20_g4f5
--------------1--------------2---------3---------4---------5---------6---------7---------8---------9--------10--------11--------12--------13--------14--------15--------16--------17--------18--------19--------20------------------21--------22--------23--------24--------25--------26--------27--------28--------29--------30--------31--------32--------33--------34--------35--------36--------37--------38--------39--------40--------41--------42--------43--------44--------45--------46--------47--------48--------49--------50--------51--------52--------53--------54--------55--------56--------57--------58--------59--------60--------61--------62--------63--------64--------65--------66--------67--------68--------69--------70--------71--------72--------73--------74
     -22.019115    -154.845917     237.0      0.46      1.80     141.3         1         1      1000      1000   2756.02    -5.597       7.6      23.3   363.647     0.724      77.6   0.16769      55.2         H               347.7  0.089602  0.027977  0.000520  2.712083  0.929531  2.917690  1.207323     10.49    5.0148   42.4932   0.25527   5.35195   0.25241   0.01171  63.29144   5.12801    3327.1  0.605143  0.001051  0.000063  0.000194  0.166561  6.742120  0.757203     91.90  1.000204  1.000024     3.387    25.077      88.6      84.5      80.4     434.9     11.57     -0.99     -0.82      3.06     -0.62      2.22     -0.14      0.51      1.32     -0.36     -0.61     -0.06     -1.25     -0.35      1.23     -2.85     -0.44      2.87     -0.20     -0.02
     -22.006390    -154.788589     260.1      0.43      1.80      11.9         1         2      1000      2621   2345.73    -6.297       7.0      23.8   362.754     0.716      58.2   0.16316     101.6         H               347.7  0.087981  0.028159  0.000510  2.745844  0.906317  3.029671  1.198109     10.30    4.2078   31.0075   0.25223   5.03714   0.28353   0.01596  46.37224   4.37031    2810.2  0.599002  0.000705  0.000032  0.000184  0.166013  6.761706  0.748684     93.47  1.000195  1.000023     3.261    23.068      86.6      81.5      57.5     361.2     11.62     -0.16     -1.07      3.01     -0.78      2.85      0.00     -0.24      1.27     -0.57     -0.37     -0.06     -0.77     -0.52      0.69     -2.90     -0.12      3.78     -0.03     -0.30
     -21.993881    -154.732346     309.2      0.44      1.80      19.0         1         3      1000      4242   2187.90    -6.600       7.2      24.2   369.431     0.730     581.5   0.16781     100.0         M               347.7  0.083993  0.028662  0.002020  2.770374  0.938340  2.952421  1.212408     11.84    3.8748   27.2228   0.25903   4.88520   0.30262   0.01897  40.34210   4.04021    2652.6  0.603306  0.011770  0.000553  0.000177  0.171741  6.790509  0.765108     95.60  1.000277  1.000029     3.529    31.011      97.3      79.7      50.3     402.0     12.54      0.10      0.93     -0.49     -1.12      0.90      2.66      0.71      1.82     -1.18      0.29      0.32      0.02     -1.38      1.80    -14.27     -2.13     -2.11      1.27     -3.41
     -21.966408    -154.858932     175.9      0.45      1.80     111.9         2         1      2444      1000   2745.70    -5.613       7.5      23.3   360.139     0.708      74.9   0.16009      22.5         H               347.7  0.085479  0.026520  0.000716  2.566712  0.915170  2.804629  1.193607     10.00    4.9929   41.3416   0.24981   5.34860   0.25148   0.01158  62.02743   5.10573    3277.1  0.594815  0.001045  0.000052  0.000188  0.165938  6.735148  0.740022     96.76  1.000178  1.000020     3.382    27.846      81.3      84.7      78.7     484.6     11.72     -1.08     -1.19      2.60     -0.97      2.75      0.37      0.57      0.95     -1.04     -0.99     -0.10     -1.05     -0.37      1.00     -4.71     -1.11      4.28     -0.00     -0.22
     -21.953690    -154.801636     188.7      0.43      1.80     116.3         2         2      2444      2621   2381.96    -6.231       7.1      23.8   360.569     0.711      68.3   0.16216      26.9         H               347.7  0.084867  0.026698  0.000545  2.602897  0.913242  2.850173  1.195107      8.63    4.2778   31.6187   0.25061   5.06868   0.27992   0.01537  47.38844   4.42803    2846.7  0.598258  0.000899  0.000051  0.000183  0.164261  6.749163  0.742603     95.75  1.000200  1.000023     3.348    26.087      84.8      81.9      59.1     400.3     11.52     -0.48     -1.27      2.91     -0.31      2.54      0.18      0.53      1.48     -0.41     -0.16      0.17     -1.01     -0.30      1.19     -3.18     -0.14      3.70      0.19     -0.02
     -21.941187    -154.745407     188.7      0.40      1.80     122.2         2         3      2444      4242   2025.67    -6.934       6.6      24.2   365.135     0.718     332.5   0.16258      27.0         H               347.7  0.084210  0.029014  0.001349  2.800024  0.910158  3.076414  1.200502     12.75    3.5563   23.1427   0.25378   4.73590   0.32007   0.02193  34.53910   3.73653    2431.8  0.597542  0.006124  0.000319  0.000167  0.171424  6.803883  0.751924     96.40  1.000202  1.000022     3.321    26.013      88.6      78.1      42.6     344.7     12.22     -1.03     -0.52      0.96     -0.59      1.51      1.10      0.50      1.87     -1.14     -0.46      0.56     -0.54     -0.87      1.11     -9.22      0.14      0.64      0.32     -1.38
     -21.913700    -154.871918     196.1      0.44      1.80     141.6         3         1      3888      1000   2678.65    -5.721       7.3      23.3   356.979     0.699      58.2   0.15670      29.9         H               347.7  0.084516  0.026905  0.000735  2.559639  0.909167  2.815369  1.185434     11.03    4.8637   39.2653   0.24756   5.30253   0.25566   0.01206  59.09101   4.97923    3175.3  0.586997  0.000762  0.000030  0.000179  0.169778  6.762652  0.730677     89.65  1.000190  1.000021     3.173    21.340      84.8      84.3      74.2     382.8     11.83     -1.25     -1.14      2.47     -0.93      2.61     -0.11      0.45      0.97     -0.52     -0.88     -0.42     -1.23     -0.48      1.40     -4.60     -0.48      4.13     -0.15     -0.56
     -21.900990    -154.814667     192.3      0.43      1.80     114.0         3         2      3888      2621   2356.70    -6.277       7.1      23.8   355.982     0.692      55.3   0.15306      28.3         H               347.7  0.083972  0.025822  0.000610  2.513664  0.896163  2.804919  1.180309     14.22    4.2311   30.3686   0.24560   5.05289   0.28049   0.01544  45.81969   4.37795    2781.5  0.581394  0.000738  0.000028  0.000191  0.165301  6.721413  0.722595     92.53  1.000187  1.000020     3.170    22.392      83.0      81.9      56.8     363.7     11.86     -1.56     -1.22      2.42     -1.07      2.41     -0.08      0.98      1.20     -0.86     -1.30      0.09     -0.98     -0.80      0.99     -4.48     -0.89      3.00     -0.70     -0.49
     -21.888493    -154.758453     198.9      0.43      1.80     109.1         3         3      3888      4242   2127.45    -6.721       7.0      24.3   364.345     0.720      47.4   0.16555      31.1         H               347.7  0.090082  0.028287  0.000621  2.766011  0.934230  2.960738  1.203226      9.67    3.7746   25.6608   0.25511   4.84320   0.30452   0.01934  38.22817   3.95157    2559.6  0.601346  0.000551  0.000016  0.000203  0.163294  6.719012  0.753729     94.48  1.000191  1.000024     3.416    26.361      88.6      79.5      47.4     342.0     11.82     -0.59     -1.07      2.52     -0.58      2.65     -0.01      0.79      1.49     -0.95     -0.25      0.76     -0.64     -0.25      0.79     -3.96     -0.44      3.47      0.54     -0.17
