corner points
-137.3837738    -61.73143005
-137.5348206    -61.5643158
-137.0176697    -61.65445328
-137.1705322    -61.48773575
========== RESULTS WAVE VERSION 16.10.2018 ====================
IMAGE SIZE  X: 5471     Y:4900    col:row     POLARIZATION:VV
COVERAGE    X: 21.06409112km       Y: 20.17925799km 
RESOLUTION dX: 3.850135464m       dY:4.118215917m  
resolution of original product 3.850135464m x 4.118215917m;   raster step x:5998.511052m  
===============================================================
FLAGS: H=HIGH PROBABILITY SEA STATE, I=LAND(ISLAND), O=OUTLIER NO SEA STATE, N=NO WIND AVAILABLE, SEA STATE NOT VISIBLE, M=MEAN PROBABILITY SEA STATE, L= LOW PROBABILITY SEA STATE
Filtering wave length
 integration  Lmin=1m
 integration  Lmax=2200m
  peak        Lmin=100m
               FFT=1024pixels, 3942.538715m 
   mean-Hs (SWH_c)=1.473074036m
         mean-wind=12.39670753m/s
--------------0--------------1---------2---------3---------4---------5---------6---------7---------8---------9--------10--------11--------12--------13--------14--------15--------16--------17--------18--------19------------------20--------21--------22--------23--------24--------25--------26--------27--------28--------29--------30--------31--------32--------33--------34--------35--------36--------37--------38--------39--------40--------41--------42--------43--------44--------45--------46--------47--------48--------49--------50--------51--------52--------53--------54--------55--------56--------57--------58--------59--------60--------61--------62--------63--------64--------65--------66--------67--------68--------69--------70--------71--------72--------73
            LAT            LON  P-LENGHT     SWH_o     SWH_c     P-DIR      LINE     POINT     ROW-Y     COL-X  M-INTENC        dB      WIND INC-ANGLE  ENERGY-M  ENERGY-N  ENERGY-R ENERGY-NN  FG-DEPTH      FLAG         HEADING-DEG    E30-75   E75-390  E390-600 meanincut   meanout   cut/out  STD-NORM  SPEC-MAX   GL-MEAN    GL-VAR      CORR   ENTROPY   HOMOGEN    ENERGY  CONTRAST  DISSIMIL     STD-O    E 1-30 E600-2000   E2000 >      GODA  LONG-HIG     Tmean  CONVOLUT  MEAN-DIR  relation     Sy/Sx  SKEWNESS  KURTOSIS  cutoff-A >50/10000     INT*V   INT-LOG  S-1_g1f1  S-2_g1f2  S-3_g1f3  S-4_g2f1  S-5_g2f2  S-6_g2f3  S-7_g3f1  S-8_g3f2  S-9_g3f3 S-10_g1f4 S-11_g2f4 S-12_g3f4 S-13_g1f5 S-14_g2f5 S-15_g3f5 S-16_g4f1 S-17_g4f2 S-18_g4f3 S-19_g4f4 S-20_g4f5
--------------1--------------2---------3---------4---------5---------6---------7---------8---------9--------10--------11--------12--------13--------14--------15--------16--------17--------18--------19--------20------------------21--------22--------23--------24--------25--------26--------27--------28--------29--------30--------31--------32--------33--------34--------35--------36--------37--------38--------39--------40--------41--------42--------43--------44--------45--------46--------47--------48--------49--------50--------51--------52--------53--------54--------55--------56--------57--------58--------59--------60--------61--------62--------63--------64--------65--------66--------67--------68--------69--------70--------71--------72--------73--------74
     -61.682949    -137.345840     100.6      1.45      3.20      84.5         1         1      1000      1000   4939.61    -3.063      12.3      22.3   214.886     0.787      76.1   0.19584       6.4         H               340.4  0.102405  0.050147  0.001539  5.186055  1.039119  4.990820  1.257240     24.60    9.2082  124.4354   0.27390   6.44460   0.16481   0.00393 180.70474   8.94304    6210.0  0.633124  0.001038  0.000022  0.000245  0.162457  6.910065  0.822586     88.44  1.000246  1.000035     3.895    38.163     117.4      92.4     287.0     922.6     11.94      0.28      0.46      1.41     -0.19      3.95      2.85      0.47      1.19      0.20      0.44     -0.07     -0.90      0.82      1.45     -8.01     -0.68      6.83      1.10      1.56
     -61.660843    -137.240402     102.6      1.51      3.20      81.6         1         2      1000      2558   4602.68    -3.370      12.6      22.8   211.897     0.772      70.9   0.19014       6.7         H               340.4  0.098756  0.050668  0.001425  5.305981  0.996219  5.326120  1.246338     34.47    8.5838  110.7884   0.27383   6.32006   0.17341   0.00447 160.90283   8.38329    5736.5  0.621024  0.000931  0.000021  0.000245  0.165146  6.946119  0.806113     87.76  1.000242  1.000036     3.663    30.256     117.4      91.7     244.2     801.9     11.80      0.73      1.05      2.24     -0.07      4.61      2.66      0.27      1.59      0.33      0.41     -0.25     -0.45      1.05      2.04     -6.34     -1.14      7.49      0.94      1.81
     -61.639084    -137.137115     110.7      1.42      3.20      79.4         1         3      1000      4116   4176.10    -3.792      12.5      23.2   212.588     0.770      87.0   0.18733       7.9         H               340.4  0.097928  0.049798  0.001573  5.120995  1.003121  5.105064  1.244611     38.91    7.7673   93.8193   0.27271   6.13924   0.18737   0.00544 136.46494   7.66051    5197.3  0.620605  0.001231  0.000041  0.000251  0.165839  6.938484  0.804127     87.17  1.000251  1.000035     3.680    31.293     121.0      90.4     199.0     745.4     11.75      0.18      0.34      1.71      0.15      4.63      3.13      0.56      1.68      0.72      0.24      0.41     -0.50      1.17      1.97     -7.39     -0.42      8.12      0.05      1.87
     -61.633312    -137.390900     100.8      1.39      3.20      85.9         2         1      2456      1000   4872.08    -3.123      12.1      22.3   215.225     0.792      88.5   0.19780       6.5         H               340.4  0.103231  0.049560  0.001302  4.976038  1.050429  4.737149  1.260134     30.16    9.0999  122.4284   0.27536   6.42208   0.16627   0.00402 177.43216   8.84576    6139.2  0.636986  0.001227  0.000038  0.000258  0.160943  6.901350  0.826752     87.47  1.000267  1.000037     4.222    63.160     117.4      92.4     280.2     941.3     11.92      0.24      0.91      1.80     -0.28      3.31      2.13     -0.13      1.66      0.16     -0.13     -0.45     -0.76      0.95      1.69     -6.49     -0.56      4.63      0.09      1.42
     -61.611240    -137.285614     101.0      1.50      3.20      87.3         2         2      2456      2558   4544.34    -3.425      12.5      22.8   213.337     0.785      77.1   0.19691       6.5         H               340.4  0.101192  0.051750  0.001432  5.407039  1.035350  5.222426  1.254121     30.59    8.4580  108.4199   0.27714   6.29135   0.17628   0.00464 156.74426   8.26484    5699.2  0.630318  0.000980  0.000025  0.000241  0.166015  6.941729  0.820356     88.45  1.000268  1.000039     3.857    38.007     117.4      91.4     240.1     877.3     11.87      0.81      0.64      1.86      0.01      3.58      2.18      0.09      1.64      0.78      0.23      0.04     -0.97      0.86      1.55     -6.43     -0.13      5.59      0.01      1.98
     -61.589512    -137.182495     103.0      1.57      3.20      83.0         2         3      2456      4116   4247.86    -3.718      12.7      23.2   214.876     0.789      83.9   0.19755       6.8         H               340.4  0.101204  0.053772  0.001343  5.512678  1.026423  5.370764  1.261053     31.03    7.8801   96.2549   0.27692   6.16396   0.18562   0.00529 139.20084   7.74046    5356.3  0.632426  0.001174  0.000032  0.000249  0.166237  6.962561  0.825095     89.98  1.000269  1.000038     4.262    54.905     117.4      90.7     208.1     851.1     11.69      0.44      1.15      2.42      0.33      4.13      2.62      0.55      1.90      0.40      0.57      0.36     -0.59      1.01      2.16     -5.43     -0.41      6.38      0.55      1.36
     -61.583656    -137.435822     100.7      1.44      3.20      76.2         3         1      3912      1000   4881.73    -3.114      12.1      22.3   213.676     0.781      65.7   0.19252       6.4         H               340.4  0.102253  0.050360  0.001144  5.364182  1.020713  5.255327  1.249904     25.34    9.1103  122.2923   0.27359   6.42632   0.16561   0.00401 177.66791   8.85589    6101.5  0.626850  0.000850  0.000016  0.000252  0.161908  6.911048  0.815455     88.37  1.000247  1.000034     3.838    37.580     117.4      92.3     278.7     931.8     11.77      0.27      0.94      2.64     -0.21      4.32      1.88      0.32      1.61      0.40      0.18     -0.05     -0.78      0.89      2.24     -4.95     -0.90      6.42      0.15      1.10
     -61.561623    -137.330688     100.4      1.52      3.20      83.2         3         2      3912      2558   4514.83    -3.454      12.4      22.8   211.751     0.770      76.8   0.18788       6.4         H               340.4  0.096374  0.051302  0.001281  5.297959  1.010891  5.240883  1.240413     26.24    8.4168  107.1964   0.27221   6.28527   0.17593   0.00465 156.03026   8.24492    5600.1  0.620389  0.000940  0.000033  0.000250  0.165601  6.955997  0.803380     88.85  1.000244  1.000034     3.609    29.417     117.4      91.5     233.9     783.1     11.63      0.43      0.83      2.34      0.83      4.33      2.67      0.28      1.95      0.37      0.72      0.58     -0.73      1.02      2.40     -5.47      1.21      7.11      0.88      1.50
     -61.539928    -137.227722     101.0      1.47      3.20      87.3         3         3      3912      4116   4142.89    -3.827      12.4      23.2   211.075     0.767      61.4   0.18710       6.5         H               340.4  0.096697  0.051305  0.000990  5.367854  0.982653  5.462615  1.238824     29.03    7.7217   93.1188   0.27396   6.12769   0.18807   0.00551 135.21552   7.61384    5132.0  0.618031  0.000687  0.000014  0.000244  0.166127  6.970754  0.800777     89.66  1.000254  1.000034     3.509    26.265     114.0      90.3     195.9     693.9     11.54      0.43      1.16      3.07      0.27      3.73      1.92      0.16      2.27      0.23      0.32      0.09     -0.65      0.92      2.11     -3.60      0.17      5.11      0.69      1.28
