corner points
-163.4190063    16.88703346
-163.4573669    17.06771088
-163.2357635    16.92285919
-163.2739563    17.10352516
========== RESULTS WAVE VERSION 16.10.2018 ====================
IMAGE SIZE  X: 5471     Y:4931    col:row     POLARIZATION:VV
COVERAGE    X: 19.85296469km       Y: 20.45212276km 
RESOLUTION dX: 3.628763424m       dY:4.147662292m  
resolution of original product 3.628763424m x 4.147662292m;   raster step x:5998.34594m  
===============================================================
FLAGS: H=HIGH PROBABILITY SEA STATE, I=LAND(ISLAND), O=OUTLIER NO SEA STATE, N=NO WIND AVAILABLE, SEA STATE NOT VISIBLE, M=MEAN PROBABILITY SEA STATE, L= LOW PROBABILITY SEA STATE
Filtering wave length
 integration  Lmin=1m
 integration  Lmax=2200m
  peak        Lmin=100m
               FFT=1024pixels, 3715.853746m 
   mean-Hs (SWH_c)=1.767913208m
         mean-wind=11.04835415m/s
--------------0--------------1---------2---------3---------4---------5---------6---------7---------8---------9--------10--------11--------12--------13--------14--------15--------16--------17--------18--------19------------------20--------21--------22--------23--------24--------25--------26--------27--------28--------29--------30--------31--------32--------33--------34--------35--------36--------37--------38--------39--------40--------41--------42--------43--------44--------45--------46--------47--------48--------49--------50--------51--------52--------53--------54--------55--------56--------57--------58--------59--------60--------61--------62--------63--------64--------65--------66--------67--------68--------69--------70--------71--------72--------73
            LAT            LON  P-LENGHT     SWH_o     SWH_c     P-DIR      LINE     POINT     ROW-Y     COL-X  M-INTENC        dB      WIND INC-ANGLE  ENERGY-M  ENERGY-N  ENERGY-R ENERGY-NN  FG-DEPTH      FLAG         HEADING-DEG    E30-75   E75-390  E390-600 meanincut   meanout   cut/out  STD-NORM  SPEC-MAX   GL-MEAN    GL-VAR      CORR   ENTROPY   HOMOGEN    ENERGY  CONTRAST  DISSIMIL     STD-O    E 1-30 E600-2000   E2000 >      GODA  LONG-HIG     Tmean  CONVOLUT  MEAN-DIR  relation     Sy/Sx  SKEWNESS  KURTOSIS  cutoff-A >50/10000     INT*V   INT-LOG  S-1_g1f1  S-2_g1f2  S-3_g1f3  S-4_g2f1  S-5_g2f2  S-6_g2f3  S-7_g3f1  S-8_g3f2  S-9_g3f3 S-10_g1f4 S-11_g2f4 S-12_g3f4 S-13_g1f5 S-14_g2f5 S-15_g3f5 S-16_g4f1 S-17_g4f2 S-18_g4f3 S-19_g4f4 S-20_g4f5
--------------1--------------2---------3---------4---------5---------6---------7---------8---------9--------10--------11--------12--------13--------14--------15--------16--------17--------18--------19--------20------------------21--------22--------23--------24--------25--------26--------27--------28--------29--------30--------31--------32--------33--------34--------35--------36--------37--------38--------39--------40--------41--------42--------43--------44--------45--------46--------47--------48--------49--------50--------51--------52--------53--------54--------55--------56--------57--------58--------59--------60--------61--------62--------63--------64--------65--------66--------67--------68--------69--------70--------71--------72--------73--------74
      16.930407    -163.392456     398.4      1.69      3.76      32.4         1         1      1000      1000   3289.90    -4.828      10.6      23.8   473.600     0.843     175.3   0.21746     100.0         H               347.8  0.105207  0.066761  0.005867  6.107279  0.979791  6.233247  1.300821     83.07    6.0361   66.1432   0.29886   5.64924   0.23615   0.00988  92.75121   6.06779    4279.4  0.662817  0.002705  0.000070  0.000293  0.180821  7.043624  0.893554     83.03  1.000223  1.000033     3.882    33.569     124.8      85.8     128.6     638.8     13.53      6.41     -0.24     -2.04     -2.97      9.46      6.46      3.78     -0.19      0.37      6.51     -0.77     -0.80      2.80      2.43    -20.41    -14.32     19.59     13.27      4.52
      16.941345    -163.336533     398.4      1.76      3.76      32.4         1         2      1000      2653   3079.67    -5.115      10.9      24.3   471.306     0.839     194.6   0.21670     100.0         H               347.8  0.104630  0.067805  0.006059  6.151968  0.956976  6.428549  1.297035     95.71    5.6120   58.5338   0.29972   5.51467   0.25001   0.01144  81.97934   5.66470    3994.5  0.658508  0.002743  0.000090  0.000303  0.179596  7.049933  0.889728     83.24  1.000216  1.000032     3.794    31.176     124.8      84.5     111.0     565.5     13.67      6.31     -0.77     -2.62     -3.43      9.94      6.45      3.76     -1.26     -0.34      6.80     -1.90     -0.29      1.95      2.94    -21.32    -14.97     22.33     16.28      1.39
      16.952070    -163.281616     386.3      1.73      3.76      24.6         1         3      1000      4306   2892.27    -5.388      11.3      24.7   469.918     0.838     137.6   0.21799     100.0         H               347.8  0.107897  0.067028  0.004881  6.041748  0.976798  6.185257  1.297139     72.67    5.2814   52.7061   0.30083   5.40465   0.25997   0.01271  73.69933   5.35631    3751.7  0.657110  0.001907  0.000054  0.000317  0.177930  7.046503  0.888576     83.49  1.000242  1.000037     3.805    31.428     124.8      83.6      98.6     538.4     13.24      5.37     -0.18     -1.35     -2.65      9.49      5.95      3.62      0.11     -0.09      6.36     -0.78      0.34      2.22      2.96    -17.74    -12.40     19.40     13.80      2.05
      16.983400    -163.403687     386.3      1.73      3.76      24.6         2         1      2446      1000   3295.80    -4.820      10.7      23.8   481.172     0.866     149.1   0.22865     100.0         H               347.8  0.112209  0.069895  0.006305  6.384914  1.011765  6.310668  1.318116    115.33    6.0418   67.2389   0.30486   5.64468   0.23796   0.01007  93.48024   6.06423    4344.1  0.676596  0.001621  0.000057  0.000306  0.180741  7.042967  0.919238     84.26  1.000254  1.000039     4.264    50.138     124.8      85.6     131.3     723.3     13.77      6.35     -0.43     -2.85     -4.21     10.05      6.85      4.13     -0.06     -0.54      6.67     -1.73     -0.56      3.56      3.21    -21.12    -16.18     21.57     16.15      4.96
      16.994337    -163.347763     386.3      1.73      3.76      24.6         2         2      2446      2653   3017.24    -5.204      10.7      24.3   479.246     0.865     155.5   0.23040     100.0         H               347.8  0.114141  0.070802  0.006049  6.375364  1.026197  6.212614  1.316066     98.35    5.5398   58.3698   0.30690   5.48532   0.25306   0.01182  80.91168   5.59899    3970.7  0.673007  0.002097  0.000056  0.000317  0.175716  7.031099  0.919076     84.89  1.000257  1.000040     4.019    36.745     128.8      84.3     110.9     617.7     13.29      5.77      0.00     -1.87     -3.35     10.00      7.22      3.88     -0.06     -0.45      6.52     -1.07      0.32      3.50      2.96    -20.15    -14.29     21.43     15.07      4.24
      17.005064    -163.292831     386.3      1.89      3.76      24.6         2         3      2446      4306   2923.92    -5.340      11.5      24.7   473.198     0.849     130.1   0.22303     100.0         H               347.8  0.107286  0.070557  0.005562  5.889159  0.983873  5.985687  1.307516     84.96    5.3379   53.9506   0.30321   5.42263   0.25829   0.01248  75.18405   5.40744    3823.0  0.664898  0.001512  0.000027  0.000315  0.180032  7.058026  0.900682     84.02  1.000245  1.000039     4.039    39.462     128.8      83.8     101.7     604.5     13.51      5.70     -0.41     -2.10     -3.39     10.31      6.44      3.41     -0.19     -0.38      6.32     -1.26      0.77      2.37      3.70    -19.05    -13.45     21.42     14.34      1.25
      17.036392    -163.414932     386.3      1.73      3.76      24.6         3         1      3892      1000   3391.00    -4.697      11.0      23.8   479.940     0.862     128.5   0.22597     100.0         H               347.8  0.113221  0.068588  0.005597  6.143661  1.003526  6.122072  1.316275     93.49    6.2584   71.4074   0.30470   5.70861   0.23246   0.00941  99.29961   6.26209    4463.2  0.673256  0.001563  0.000026  0.000311  0.177457  7.002835  0.914383     83.59  1.000222  1.000034     3.923    32.795     128.8      86.2     140.3     622.1     13.46      6.00     -0.17     -2.15     -3.40      9.79      6.59      3.33     -0.36     -0.44      6.21     -0.86      0.54      1.92      3.78    -19.62    -13.21     21.12     14.02      0.41
      17.047329    -163.358994     386.3      1.80      3.76      24.6         3         2      3892      2653   3163.83    -4.998      11.3      24.3   482.640     0.869     166.0   0.22955     100.0         H               347.8  0.112087  0.069897  0.008141  6.357500  1.019699  6.234683  1.322930    161.54    5.7790   62.9974   0.30647   5.55959   0.24655   0.01109  87.38175   5.82728    4185.1  0.677496  0.002288  0.000042  0.000314  0.180948  7.040193  0.922706     82.85  1.000235  1.000037     3.972    34.151     133.1      84.8     120.8     609.6     14.16      7.47     -1.25     -4.51     -6.03     10.86      8.13      5.67     -1.75     -1.96      8.63     -3.32     -0.58      3.37      2.53    -26.74    -22.48     25.43     22.58      4.97
      17.058054    -163.304031     398.4      1.85      3.76      32.4         3         3      3892      4306   2909.59    -5.362      11.4      24.7   475.886     0.853     143.4   0.22362     100.0         H               347.8  0.107018  0.069726  0.007321  5.978341  0.976575  6.121742  1.310161    132.67    5.3016   53.3840   0.30213   5.41052   0.25905   0.01260  74.51136   5.37577    3812.0  0.668195  0.001846  0.000026  0.000307  0.181465  7.058720  0.905514     83.36  1.000217  1.000034     4.085    38.898     128.8      83.7     100.8     603.9     13.89      6.81     -0.54     -3.26     -4.78     10.50      7.52      4.67     -1.53     -0.89      7.31     -2.70     -0.15      3.22      2.41    -24.44    -19.17     23.62     18.67      4.43
