corner points
-157.8879547    -1.372311592
-157.9250793    -1.197112203
-157.7134705    -1.334475636
-157.7506104    -1.159319282
========== RESULTS WAVE VERSION 16.10.2018 ====================
IMAGE SIZE  X: 4376     Y:4786    col:row     POLARIZATION:VV
COVERAGE    X: 19.8023053km       Y: 19.86694593km 
RESOLUTION dX: 4.525206879m       dY:4.151054311m  
resolution of original product 4.525206879m x 4.151054311m;   raster step x:5995.899115m  
===============================================================
FLAGS: H=HIGH PROBABILITY SEA STATE, I=LAND(ISLAND), O=OUTLIER NO SEA STATE, N=NO WIND AVAILABLE, SEA STATE NOT VISIBLE, M=MEAN PROBABILITY SEA STATE, L= LOW PROBABILITY SEA STATE
Filtering wave length
 integration  Lmin=1m
 integration  Lmax=2200m
  peak        Lmin=100m
               FFT=1024pixels, 4633.811844m 
   mean-Hs (SWH_c)=0.8755685425m
         mean-wind=12.50164604m/s
--------------0--------------1---------2---------3---------4---------5---------6---------7---------8---------9--------10--------11--------12--------13--------14--------15--------16--------17--------18--------19------------------20--------21--------22--------23--------24--------25--------26--------27--------28--------29--------30--------31--------32--------33--------34--------35--------36--------37--------38--------39--------40--------41--------42--------43--------44--------45--------46--------47--------48--------49--------50--------51--------52--------53--------54--------55--------56--------57--------58--------59--------60--------61--------62--------63--------64--------65--------66--------67--------68--------69--------70--------71--------72--------73
            LAT            LON  P-LENGHT     SWH_o     SWH_c     P-DIR      LINE     POINT     ROW-Y     COL-X  M-INTENC        dB      WIND INC-ANGLE  ENERGY-M  ENERGY-N  ENERGY-R ENERGY-NN  FG-DEPTH      FLAG         HEADING-DEG    E30-75   E75-390  E390-600 meanincut   meanout   cut/out  STD-NORM  SPEC-MAX   GL-MEAN    GL-VAR      CORR   ENTROPY   HOMOGEN    ENERGY  CONTRAST  DISSIMIL     STD-O    E 1-30 E600-2000   E2000 >      GODA  LONG-HIG     Tmean  CONVOLUT  MEAN-DIR  relation     Sy/Sx  SKEWNESS  KURTOSIS  cutoff-A >50/10000     INT*V   INT-LOG  S-1_g1f1  S-2_g1f2  S-3_g1f3  S-4_g2f1  S-5_g2f2  S-6_g2f3  S-7_g3f1  S-8_g3f2  S-9_g3f3 S-10_g1f4 S-11_g2f4 S-12_g3f4 S-13_g1f5 S-14_g2f5 S-15_g3f5 S-16_g4f1 S-17_g4f2 S-18_g4f3 S-19_g4f4 S-20_g4f5
--------------1--------------2---------3---------4---------5---------6---------7---------8---------9--------10--------11--------12--------13--------14--------15--------16--------17--------18--------19--------20------------------21--------22--------23--------24--------25--------26--------27--------28--------29--------30--------31--------32--------33--------34--------35--------36--------37--------38--------39--------40--------41--------42--------43--------44--------45--------46--------47--------48--------49--------50--------51--------52--------53--------54--------55--------56--------57--------58--------59--------60--------61--------62--------63--------64--------65--------66--------67--------68--------69--------70--------71--------72--------73--------74
      -1.326957    -157.855408     386.4      0.86      2.41      24.6         1         1      1000      1000    483.86   -13.153      12.4      36.9   219.315     0.566      83.8   0.07674     100.0         H               348.0  0.049867  0.017355  0.000944  1.713508  0.683300  2.507695  1.067733     17.67    9.1445  101.1916   0.11519   6.50759   0.14454   0.00305 179.06915   9.30819     516.7  0.497038  0.001166  0.000172  0.000135  0.164549  6.806522  0.571840     83.30  1.000086  1.000006     2.406    12.698      94.9      93.7     222.2     542.7     11.59     -0.38     -1.82      0.89     -3.13      4.86      4.22      1.02     -0.29     -1.98      0.29     -1.55     -0.88     -0.40      1.32    -11.12     -5.47     11.53      3.46     -0.27
      -1.315464    -157.802383     399.1      0.83      2.41      20.1         1         2      1000      2325    454.70   -13.423      12.2      37.3   220.138     0.568      62.9   0.07632     100.0         H               348.0  0.049933  0.017768  0.001106  1.740541  0.695846  2.501330  1.069362     23.37    8.5797   90.5101   0.11471   6.39050   0.15215   0.00344 160.25330   8.77258     486.2  0.498282  0.000775  0.000122  0.000132  0.167090  6.811360  0.573526     82.48  1.000092  1.000005     2.432    13.189      94.9      93.2     195.4     536.5     11.79      0.30     -2.38      0.40     -3.08      6.10      4.59      1.81     -0.86     -2.35      1.50     -1.71     -0.62     -0.87      2.06    -12.40     -7.04     14.62      6.35     -1.86
      -1.304068    -157.749817     399.1      0.74      2.41      20.1         1         3      1000      3650    438.29   -13.582      12.2      37.6   219.397     0.563      57.6   0.07413     100.0         H               348.0  0.049118  0.016836  0.001031  1.665201  0.680333  2.447625  1.064532     16.60    8.2570   84.2324   0.11054   6.32028   0.15661   0.00369 149.84222   8.47363     466.6  0.495234  0.000861  0.000094  0.000137  0.164802  6.791886  0.568266     81.93  1.000082  1.000005     2.360    11.982      94.9      92.7     179.7     456.7     11.73     -0.19     -2.28      0.59     -2.89      5.02      4.04      2.04     -0.69     -2.15      1.31     -1.20     -1.21     -0.79      1.83    -12.32     -6.60     12.55      5.87     -0.89
      -1.274053    -157.866608     386.4      0.77      2.41      24.6         2         1      2445      1000    464.62   -13.329      12.1      36.9   220.017     0.566      78.0   0.07570     100.0         H               348.0  0.049773  0.016990  0.000857  1.666571  0.692725  2.405817  1.068237     17.19    8.7699   94.1221   0.11271   6.43071   0.14941   0.00331 167.02742   8.96878     496.3  0.497955  0.001124  0.000168  0.000134  0.162218  6.789236  0.572000     83.59  1.000096  1.000008     2.403    12.536      94.9      93.3     204.1     503.7     11.41     -0.28     -2.26      1.14     -2.87      4.98      4.30      1.01     -0.23     -2.21      0.64     -1.53     -0.83     -0.80      1.73    -10.38     -5.11     11.79      4.31     -1.32
      -1.262563    -157.813599     386.4      0.84      2.41      24.6         2         2      2445      2325    470.43   -13.275      12.5      37.3   220.144     0.567      64.6   0.07634     100.0         H               348.0  0.049872  0.017195  0.000941  1.684730  0.684841  2.460032  1.068500     19.77    8.8899   96.4969   0.11415   6.45576   0.14772   0.00322 170.96298   9.07491     502.6  0.498277  0.000993  0.000102  0.000136  0.165175  6.794315  0.572564     82.23  1.000094  1.000007     2.397    12.557      92.7      93.5     209.8     528.5     11.78      0.42     -2.11      0.50     -3.24      4.63      3.90      1.49      0.09     -1.81      1.05     -1.18     -1.40      0.24      1.24    -11.45     -6.80     10.76      4.49      1.57
      -1.251171    -157.761032     386.4      0.94      2.41      24.6         2         3      2445      3650    471.84   -13.262      12.7      37.6   219.937     0.566      65.5   0.07628     100.0         H               348.0  0.049342  0.017928  0.001425  1.761342  0.682812  2.579543  1.067725     27.30    8.9145   96.9124   0.11509   6.46083   0.14738   0.00321 171.51732   9.09591     503.8  0.496792  0.000959  0.000098  0.000129  0.167951  6.832598  0.571962     81.81  1.000074  1.000005     2.385    12.325      94.9      93.5     210.9     511.3     12.09      0.66     -2.44     -0.49     -4.02      5.97      5.29      2.62     -1.46     -2.77      2.23     -1.87     -1.14     -0.37      1.27    -15.93     -9.85     15.51      8.19      0.42
      -1.221148    -157.877823     372.4      1.00      2.41      28.8         3         1      3890      1000    515.06   -12.881      12.8      36.9   220.622     0.571     104.1   0.07796     100.0         H               348.0  0.050037  0.017799  0.000937  1.777026  0.695573  2.554767  1.071937     15.23    9.7480  113.5211   0.11759   6.62332   0.13760   0.00271 200.34413   9.87465     552.1  0.500331  0.001706  0.000190  0.000136  0.165246  6.816221  0.576818     83.28  1.000075  1.000005     2.444    13.120      97.3      94.4     255.0     581.6     11.69     -0.21     -1.15      1.15     -2.58      4.67      3.88      1.08     -0.45     -1.87      0.31     -0.94     -1.44     -0.52      1.72    -10.82     -4.73     11.00      3.27     -0.57
      -1.209662    -157.824814     386.4      0.90      2.41      24.6         3         2      3890      2325    489.15   -13.106      12.8      37.3   219.528     0.565      54.1   0.07587     100.0         H               348.0  0.049465  0.017024  0.001120  1.658825  0.688280  2.410102  1.066967     21.76    9.2548  103.3461   0.11371   6.52994   0.14298   0.00298 183.18936   9.42466     521.8  0.496876  0.000953  0.000050  0.000134  0.165332  6.806714  0.570628     82.66  1.000086  1.000007     2.369    12.086      94.9      93.9     227.3     526.0     11.86      0.71     -2.25      0.03     -3.46      5.14      4.72      1.30     -0.35     -2.37      1.05     -1.59     -0.97      0.11      1.37    -13.62     -7.50     12.64      5.21      0.47
      -1.198274    -157.772247     399.1      1.00      2.41      20.1         3         3      3890      3650    483.61   -13.155      12.9      37.6   219.666     0.568      63.4   0.07723     100.0         H               348.0  0.050347  0.018324  0.001237  1.777617  0.691029  2.572419  1.069598     27.20    9.1436  101.6213   0.11734   6.50698   0.14489   0.00307 179.39352   9.30821     517.3  0.497707  0.001019  0.000077  0.000137  0.168953  6.817449  0.574497     81.97  1.000080  1.000006     2.391    12.400      97.3      93.8     222.8     534.5     12.04      0.87     -2.62     -0.25     -3.85      6.38      4.94      1.94     -1.07     -2.95      2.25     -1.91     -0.98     -0.69      1.72    -14.27     -8.53     15.59      8.42     -1.15
