corner points
-135.0222778    -60.20888519
-135.1755981    -60.04883957
-134.690033    -60.12820053
-134.8446655    -59.96852875
========== RESULTS WAVE VERSION 16.10.2018 ====================
IMAGE SIZE  X: 4376     Y:4768    col:row     POLARIZATION:VV
COVERAGE    X: 20.40329923km       Y: 19.67552772km 
RESOLUTION dX: 4.662545528m       dY:4.126578801m  
resolution of original product 4.662545528m x 4.126578801m;   raster step x:5996.03355m  
===============================================================
FLAGS: H=HIGH PROBABILITY SEA STATE, I=LAND(ISLAND), O=OUTLIER NO SEA STATE, N=NO WIND AVAILABLE, SEA STATE NOT VISIBLE, M=MEAN PROBABILITY SEA STATE, L= LOW PROBABILITY SEA STATE
Filtering wave length
 integration  Lmin=1m
 integration  Lmax=2200m
  peak        Lmin=100m
               FFT=1024pixels, 4774.446621m 
   mean-Hs (SWH_c)=2.91946991m
         mean-wind=16.88312721m/s
--------------0--------------1---------2---------3---------4---------5---------6---------7---------8---------9--------10--------11--------12--------13--------14--------15--------16--------17--------18--------19------------------20--------21--------22--------23--------24--------25--------26--------27--------28--------29--------30--------31--------32--------33--------34--------35--------36--------37--------38--------39--------40--------41--------42--------43--------44--------45--------46--------47--------48--------49--------50--------51--------52--------53--------54--------55--------56--------57--------58--------59--------60--------61--------62--------63--------64--------65--------66--------67--------68--------69--------70--------71--------72--------73
            LAT            LON  P-LENGHT     SWH_o     SWH_c     P-DIR      LINE     POINT     ROW-Y     COL-X  M-INTENC        dB      WIND INC-ANGLE  ENERGY-M  ENERGY-N  ENERGY-R ENERGY-NN  FG-DEPTH      FLAG         HEADING-DEG    E30-75   E75-390  E390-600 meanincut   meanout   cut/out  STD-NORM  SPEC-MAX   GL-MEAN    GL-VAR      CORR   ENTROPY   HOMOGEN    ENERGY  CONTRAST  DISSIMIL     STD-O    E 1-30 E600-2000   E2000 >      GODA  LONG-HIG     Tmean  CONVOLUT  MEAN-DIR  relation     Sy/Sx  SKEWNESS  KURTOSIS  cutoff-A >50/10000     INT*V   INT-LOG  S-1_g1f1  S-2_g1f2  S-3_g1f3  S-4_g2f1  S-5_g2f2  S-6_g2f3  S-7_g3f1  S-8_g3f2  S-9_g3f3 S-10_g1f4 S-11_g2f4 S-12_g3f4 S-13_g1f5 S-14_g2f5 S-15_g3f5 S-16_g4f1 S-17_g4f2 S-18_g4f3 S-19_g4f4 S-20_g4f5
--------------1--------------2---------3---------4---------5---------6---------7---------8---------9--------10--------11--------12--------13--------14--------15--------16--------17--------18--------19--------20------------------21--------22--------23--------24--------25--------26--------27--------28--------29--------30--------31--------32--------33--------34--------35--------36--------37--------38--------39--------40--------41--------42--------43--------44--------45--------46--------47--------48--------49--------50--------51--------52--------53--------54--------55--------56--------57--------58--------59--------60--------61--------62--------63--------64--------65--------66--------67--------68--------69--------70--------71--------72--------73--------74
     -60.156754    -134.977631     120.6      2.88      3.18      99.9         1         1      1000      1000    948.76   -10.228      16.8      35.6   307.812     0.599     186.7   0.09514       9.5         H               340.9  0.056228  0.031658  0.000772  2.950905  0.752517  3.921382  1.098660     45.50   17.4391  286.1949   0.14282   7.53206   0.08739   0.00091 490.64160  16.36603    1042.3  0.507860  0.001951  0.000645  0.000231  0.175207  7.028685  0.605451     97.58  1.000130  1.000013     2.572    14.356     128.8      98.8     939.2    1107.5     10.35     -0.38      2.42      4.33     -0.88      6.77      5.31     -0.53      4.46     -1.10     -1.09     -1.34      1.58      3.20      5.00     -1.74     -1.47     10.64     -1.04      3.52
     -60.132999    -134.879623     131.6      2.70      3.18      97.2         1         2      1000      2286    884.40   -10.533      16.5      35.9   307.700     0.597     240.2   0.09459      11.5         H               340.9  0.056221  0.030344  0.000799  2.940682  0.744106  3.951968  1.097510     45.64   16.3936  263.9597   0.14444   7.45550   0.09183   0.00102 451.66360  15.56141     970.6  0.506473  0.002746  0.000832  0.000213  0.175939  7.038533  0.603425     96.35  1.000107  1.000010     2.530    13.623     128.8      98.4     811.6     987.7     10.37     -0.61      3.13      4.61     -0.84      6.96      5.71     -0.47      4.94     -1.03     -1.33     -0.73      1.61      3.99      5.03     -1.64     -0.70     10.10     -1.50      4.65
     -60.109390    -134.782654     118.2      2.65      3.18      98.0         1         3      1000      3572    846.95   -10.721      16.5      36.3   305.943     0.594     142.6   0.09392       9.1         H               340.9  0.056324  0.030230  0.000800  2.832418  0.745374  3.799994  1.094163     45.44   15.7738  249.7528   0.14241   7.40676   0.09426   0.00109 428.37289  15.08393     926.7  0.505070  0.001958  0.000344  0.000223  0.174944  7.030681  0.600776     96.74  1.000142  1.000015     2.505    13.304     128.8      98.1     739.1     937.7     10.23     -0.29      2.64      4.42     -0.88      6.84      5.75     -0.48      4.63     -1.24     -1.03     -1.07      1.47      3.53      5.15     -1.84     -1.00     10.85     -0.47      3.92
     -60.108006    -135.024521     124.3      3.05      3.18      98.5         2         1      2453      1000    954.78   -10.201      16.9      35.6   309.635     0.607     266.1   0.09919      10.1         H               340.9  0.057930  0.034503  0.000790  3.046715  0.762117  3.997701  1.106819     54.38   17.5018  290.1754   0.15040   7.52624   0.08835   0.00093 493.06393  16.38181    1056.8  0.510252  0.002843  0.000957  0.000265  0.176421  7.074344  0.615024     98.52  1.000108  1.000012     2.563    13.809     137.8      98.8     959.4    1050.6      9.97     -1.13      3.49      5.37     -0.91      8.06      6.50     -1.16      5.99     -1.45     -2.12     -2.03      2.17      4.51      5.74      0.28     -0.55     12.06     -2.59      5.17
     -60.084286    -134.926636     118.6      3.04      3.18      96.4         2         2      2453      2286    937.65   -10.280      17.0      35.9   308.393     0.604     236.6   0.09861       9.1         H               340.9  0.057494  0.033960  0.000777  2.989989  0.754809  3.961250  1.103410     53.42   17.2413  284.2134   0.15073   7.51159   0.08931   0.00095 482.74768  16.17462    1034.5  0.508152  0.002953  0.000717  0.000254  0.177909  7.077751  0.611260     97.42  1.000132  1.000013     2.543    13.743     133.1      98.7     920.8    1065.7     10.12     -1.07      3.27      5.00     -1.23      7.31      5.98     -0.79      5.38     -1.73     -2.05     -1.73      1.98      3.76      5.55     -0.36     -1.37     10.78     -1.98      3.88
     -60.060711    -134.829773     124.3      2.87      3.18      98.5         2         3      2453      3572    883.71   -10.537      16.8      36.3   310.150     0.604     265.2   0.09726      10.1         H               340.9  0.056688  0.032402  0.000816  3.008505  0.769720  3.908571  1.104240     49.66   16.3566  263.9591   0.14916   7.44852   0.09228   0.00103 449.17755  15.50293     975.8  0.510891  0.002731  0.000973  0.000228  0.176141  7.059184  0.611334     98.86  1.000096  1.000009     2.590    14.427     128.8      98.3     815.8    1042.5     10.15     -0.55      2.55      4.79     -1.58      7.31      6.01     -0.74      4.98     -1.73     -1.62     -1.92      1.71      3.43      4.69     -1.11     -2.68     11.33     -1.30      3.99
     -60.059238    -135.071274     133.9      2.97      3.18     101.0         3         1      3906      1000    978.86   -10.093      17.1      35.6   306.146     0.597     173.7   0.09515      11.9         H               340.9  0.056207  0.031928  0.000751  3.061020  0.748114  4.091649  1.096565     46.64   17.9280  296.5445   0.14398   7.56192   0.08604   0.00088 507.69705  16.70464    1073.4  0.505512  0.001959  0.000561  0.000227  0.175366  7.048705  0.603295     98.47  1.000111  1.000011     2.553    14.024     128.8      99.0     999.2    1102.8     10.20     -0.83      3.04      5.05     -1.55      7.29      5.99     -0.68      5.29     -1.74     -2.03     -1.77      1.55      3.59      5.09     -0.74     -2.09     10.51     -1.42      4.18
     -60.035553    -134.973495     126.9      3.07      3.18     100.4         3         2      3906      2286    956.48   -10.193      17.2      35.9   308.193     0.602     218.0   0.09781      10.6         H               340.9  0.056410  0.033458  0.000671  3.024483  0.762667  3.965664  1.101744     47.82   17.5464  289.6197   0.14730   7.53382   0.08764   0.00091 493.91846  16.41501    1053.8  0.508631  0.002140  0.000799  0.000256  0.175363  7.081658  0.608623     98.48  1.000116  1.000013     2.554    13.898     128.8      98.9     958.1    1084.1     10.04     -1.26      2.80      5.14     -1.09      7.62      5.99     -1.06      5.51     -1.41     -2.31     -1.56      1.89      3.69      5.24      0.11     -0.86     11.41     -3.00      4.33
     -60.012012    -134.876755     114.9      3.05      3.18      99.4         3         3      3906      3572    911.36   -10.403      17.1      36.3   309.599     0.606     233.1   0.09881       8.5         H               340.9  0.057355  0.034284  0.000869  2.961099  0.765538  3.867999  1.105685     57.45   16.8060  274.0497   0.15090   7.48148   0.09077   0.00099 465.38727  15.82829    1007.6  0.510451  0.002952  0.000671  0.000266  0.179086  7.094127  0.614196     98.71  1.000091  1.000010     2.594    14.324     137.8      98.5     870.7    1028.0     10.08     -1.16      3.47      5.45     -1.44      8.39      6.61     -1.03      5.75     -1.80     -2.33     -2.08      2.32      4.24      5.66     -0.36     -1.50     12.44     -2.21      4.45
