corner points
-141.3368683    -56.73739624
-141.4513702    -56.56639862
-141.0157471    -56.67005157
-141.1316986    -56.49934769
========== RESULTS WAVE VERSION 16.10.2018 ====================
IMAGE SIZE  X: 5471     Y:4904    col:row     POLARIZATION:VV
COVERAGE    X: 20.93096512km       Y: 20.21832582km 
RESOLUTION dX: 3.825802435m       dY:4.122823372m  
resolution of original product 3.825802435m x 4.122823372m;   raster step x:5998.858218m  
===============================================================
FLAGS: H=HIGH PROBABILITY SEA STATE, I=LAND(ISLAND), O=OUTLIER NO SEA STATE, N=NO WIND AVAILABLE, SEA STATE NOT VISIBLE, M=MEAN PROBABILITY SEA STATE, L= LOW PROBABILITY SEA STATE
Filtering wave length
 integration  Lmin=1m
 integration  Lmax=2200m
  peak        Lmin=100m
               FFT=1024pixels, 3917.621693m 
   mean-Hs (SWH_c)=1.970107574m
         mean-wind=16.31872368m/s
--------------0--------------1---------2---------3---------4---------5---------6---------7---------8---------9--------10--------11--------12--------13--------14--------15--------16--------17--------18--------19------------------20--------21--------22--------23--------24--------25--------26--------27--------28--------29--------30--------31--------32--------33--------34--------35--------36--------37--------38--------39--------40--------41--------42--------43--------44--------45--------46--------47--------48--------49--------50--------51--------52--------53--------54--------55--------56--------57--------58--------59--------60--------61--------62--------63--------64--------65--------66--------67--------68--------69--------70--------71--------72--------73
            LAT            LON  P-LENGHT     SWH_o     SWH_c     P-DIR      LINE     POINT     ROW-Y     COL-X  M-INTENC        dB      WIND INC-ANGLE  ENERGY-M  ENERGY-N  ENERGY-R ENERGY-NN  FG-DEPTH      FLAG         HEADING-DEG    E30-75   E75-390  E390-600 meanincut   meanout   cut/out  STD-NORM  SPEC-MAX   GL-MEAN    GL-VAR      CORR   ENTROPY   HOMOGEN    ENERGY  CONTRAST  DISSIMIL     STD-O    E 1-30 E600-2000   E2000 >      GODA  LONG-HIG     Tmean  CONVOLUT  MEAN-DIR  relation     Sy/Sx  SKEWNESS  KURTOSIS  cutoff-A >50/10000     INT*V   INT-LOG  S-1_g1f1  S-2_g1f2  S-3_g1f3  S-4_g2f1  S-5_g2f2  S-6_g2f3  S-7_g3f1  S-8_g3f2  S-9_g3f3 S-10_g1f4 S-11_g2f4 S-12_g3f4 S-13_g1f5 S-14_g2f5 S-15_g3f5 S-16_g4f1 S-17_g4f2 S-18_g4f3 S-19_g4f4 S-20_g4f5
--------------1--------------2---------3---------4---------5---------6---------7---------8---------9--------10--------11--------12--------13--------14--------15--------16--------17--------18--------19--------20------------------21--------22--------23--------24--------25--------26--------27--------28--------29--------30--------31--------32--------33--------34--------35--------36--------37--------38--------39--------40--------41--------42--------43--------44--------45--------46--------47--------48--------49--------50--------51--------52--------53--------54--------55--------56--------57--------58--------59--------60--------61--------62--------63--------64--------65--------66--------67--------68--------69--------70--------71--------72--------73--------74
     -56.689945    -141.299927     109.5      1.76      3.09     102.0         1         1      1000      1000   5596.40    -2.521      14.7      22.5   237.361     0.776      89.9   0.19132       7.7         H               342.7  0.101754  0.049030  0.001228  5.152416  0.991675  5.195668  1.248817     30.84   10.4247  150.7818   0.27195   6.66532   0.14921   0.00307 219.55124   9.99899    6988.0  0.622998  0.001222  0.000038  0.000232  0.172926  6.918077  0.811297     91.61  1.000246  1.000033     3.696    31.135     114.0      93.8     367.9     978.1     12.23      0.05      3.96      2.85     -0.93      4.16      1.32     -0.33      0.57     -0.58     -0.81     -0.90      1.55      1.29      1.04     -4.20     -1.87      5.22     -0.73      1.31
     -56.670483    -141.206879     253.5      1.96      3.09     103.9         1         2      1000      2568   5449.64    -2.636      15.6      22.9   239.953     0.781     101.7   0.19083      78.7         H               342.7  0.098390  0.050770  0.001329  5.279943  1.009770  5.228858  1.252137     25.82   10.1529  144.1222   0.26887   6.62176   0.15199   0.00322 210.74664   9.77222    6823.5  0.629542  0.001459  0.000042  0.000219  0.179038  6.968083  0.816671     91.66  1.000237  1.000030     4.073    51.707     110.8      93.5     349.1     994.1     12.57     -0.52      3.86      2.54     -0.42      4.64      0.81     -0.03     -0.20     -1.15     -0.63      0.02      1.72      0.85      1.28     -4.70     -0.68      6.64     -0.56     -0.19
     -56.651321    -141.115692     117.6      2.14      3.09     106.2         1         3      1000      4136   5585.63    -2.529      17.2      23.4   234.507     0.752      81.6   0.17917       9.0         H               342.7  0.093648  0.048797  0.001120  5.119922  0.972750  5.263347  1.229909     32.33   10.4219  148.4589   0.26398   6.67310   0.14789   0.00301 218.53868  10.00939    6869.0  0.608405  0.001083  0.000035  0.000230  0.175570  6.955436  0.786059     95.79  1.000233  1.000029     3.565    28.989     110.8      93.9     359.1     938.0     12.03     -1.30      4.19      3.46     -0.91      4.57      1.28     -0.07      0.40     -1.94     -1.49     -0.38      1.51      1.38      1.43     -3.06     -1.27      6.35     -1.53      1.07
     -56.639225    -141.334030     241.2      1.93      3.09      99.9         2         1      2455      1000   6248.45    -2.042      16.5      22.5   234.740     0.756      91.7   0.18010      59.5         H               342.7  0.096163  0.044665  0.001088  4.752028  0.973279  4.882493  1.233566     20.06   11.6245  174.7026   0.26064   6.86253   0.13507   0.00240 258.33743  11.03462    7707.5  0.612755  0.001379  0.000049  0.000221  0.171054  6.900247  0.788578     91.07  1.000273  1.000035     3.780    37.812     114.0      95.0     454.1    1085.8     12.12     -0.72      3.93      3.20     -0.18      4.26      1.06     -0.02     -0.03     -1.31     -0.46      0.00      1.71      1.09      1.20     -3.89     -0.01      5.67     -0.14      0.37
     -56.619781    -141.241104     256.8      1.87      3.09     100.5         2         2      2455      2568   5581.63    -2.532      16.0      22.9   236.798     0.769     136.2   0.18818      87.5         H               342.7  0.100665  0.047683  0.001166  4.996117  1.005014  4.971192  1.243648     31.62   10.4074  149.6112   0.27058   6.66542   0.14916   0.00306 218.25845   9.97698    6940.7  0.618663  0.001828  0.000079  0.000224  0.174714  6.925239  0.804430     90.33  1.000263  1.000035     3.663    30.326     114.0      93.8     364.9     956.4     12.51     -1.13      4.46      2.95     -0.89      4.33      0.58      0.66     -0.49     -2.31     -0.40      0.73      1.79      1.27      0.61     -4.05     -1.15      5.63      0.34      1.41
     -56.600647    -141.150040     110.1      1.94      3.09     100.5         2         3      2455      4136   5266.71    -2.785      16.3      23.4   238.837     0.777      76.7   0.19119       7.8         H               342.7  0.101773  0.049551  0.001135  5.205368  1.024210  5.082323  1.250241     24.12    9.8136  136.2864   0.26912   6.56282   0.15609   0.00343 199.21581   9.47124    6584.0  0.624255  0.001075  0.000021  0.000225  0.171708  6.916700  0.812406     92.48  1.000258  1.000035     3.973    42.301     110.8      93.2     324.0     994.6     12.07     -1.10      3.52      3.32     -0.76      4.54      1.28     -0.13      0.45     -1.61     -1.08     -0.39      1.11      1.12      1.17     -3.62     -0.47      6.23     -0.65      1.15
     -56.588490    -141.368042     253.5      2.06      3.09     103.9         3         1      3910      1000   6184.82    -2.087      16.3      22.5   239.942     0.786      90.9   0.19501      78.7         H               342.7  0.104638  0.050762  0.001235  5.375602  1.012126  5.311198  1.257054     33.07   11.4810  175.1763   0.27323   6.82858   0.13860   0.00254 254.62668  10.88198    7774.7  0.629169  0.001209  0.000038  0.000234  0.171883  6.909755  0.823865     92.06  1.000270  1.000036     3.800    34.095     117.4      94.8     458.3    1083.8     12.30     -1.07      4.44      3.41     -0.89      4.40      0.68      0.69     -0.02     -2.25     -0.69      0.54      1.86      1.52      1.12     -3.60     -1.74      5.34     -0.47      1.32
     -56.569077    -141.275238     225.1      2.05      3.09     102.3         3         2      3910      2568   5938.13    -2.264      17.0      22.9   239.407     0.780     109.1   0.19172      45.4         H               342.7  0.103187  0.048714  0.001138  5.118620  1.012056  5.057645  1.252622     27.79   11.0443  164.3980   0.27058   6.76551   0.14239   0.00273 239.83163  10.52383    7437.5  0.626020  0.001343  0.000054  0.000245  0.171368  6.894470  0.815500     92.95  1.000251  1.000035     3.834    36.260     114.0      94.4     418.1    1065.4     12.30     -0.44      3.80      2.99     -0.77      4.32      0.85      0.39      0.23     -1.66     -0.64      0.40      1.98      1.10      0.90     -3.70     -1.40      5.52     -0.23      0.73
     -56.549965    -141.184296     253.5      2.02      3.09     103.9         3         3      3910      4136   5573.19    -2.539      17.2      23.4   236.816     0.767     119.0   0.18584      78.7         H               342.7  0.099994  0.047646  0.001082  5.047809  0.977399  5.164534  1.241974     28.39   10.3946  148.8545   0.26758   6.66494   0.14888   0.00305 218.04865   9.97581    6921.0  0.617689  0.001610  0.000065  0.000241  0.172140  6.901254  0.802283     92.44  1.000273  1.000035     3.669    30.176     117.4      93.9     363.4     953.5     12.30     -1.24      4.80      3.05     -0.13      4.03      0.91      0.22     -0.12     -1.68     -0.54      0.61      2.54      1.42      0.69     -3.38     -0.01      5.39     -0.92      1.21
