corner points
-152.4898529    -30.85243607
-152.5405426    -30.67372322
-152.2820435    -30.80668831
-152.3332214    -30.62806892
========== RESULTS WAVE VERSION 16.10.2018 ====================
IMAGE SIZE  X: 5471     Y:4921    col:row     POLARIZATION:VV
COVERAGE    X: 20.43199996km       Y: 20.40870949km 
RESOLUTION dX: 3.734600614m       dY:4.147268744m  
resolution of original product 3.734600614m x 4.147268744m;   raster step x:5997.768587m  
===============================================================
FLAGS: H=HIGH PROBABILITY SEA STATE, I=LAND(ISLAND), O=OUTLIER NO SEA STATE, N=NO WIND AVAILABLE, SEA STATE NOT VISIBLE, M=MEAN PROBABILITY SEA STATE, L= LOW PROBABILITY SEA STATE
Filtering wave length
 integration  Lmin=1m
 integration  Lmax=2200m
  peak        Lmin=100m
               FFT=1024pixels, 3824.231029m 
   mean-Hs (SWH_c)=0.2m
         mean-wind=7.062757015m/s
--------------0--------------1---------2---------3---------4---------5---------6---------7---------8---------9--------10--------11--------12--------13--------14--------15--------16--------17--------18--------19------------------20--------21--------22--------23--------24--------25--------26--------27--------28--------29--------30--------31--------32--------33--------34--------35--------36--------37--------38--------39--------40--------41--------42--------43--------44--------45--------46--------47--------48--------49--------50--------51--------52--------53--------54--------55--------56--------57--------58--------59--------60--------61--------62--------63--------64--------65--------66--------67--------68--------69--------70--------71--------72--------73
            LAT            LON  P-LENGHT     SWH_o     SWH_c     P-DIR      LINE     POINT     ROW-Y     COL-X  M-INTENC        dB      WIND INC-ANGLE  ENERGY-M  ENERGY-N  ENERGY-R ENERGY-NN  FG-DEPTH      FLAG         HEADING-DEG    E30-75   E75-390  E390-600 meanincut   meanout   cut/out  STD-NORM  SPEC-MAX   GL-MEAN    GL-VAR      CORR   ENTROPY   HOMOGEN    ENERGY  CONTRAST  DISSIMIL     STD-O    E 1-30 E600-2000   E2000 >      GODA  LONG-HIG     Tmean  CONVOLUT  MEAN-DIR  relation     Sy/Sx  SKEWNESS  KURTOSIS  cutoff-A >50/10000     INT*V   INT-LOG  S-1_g1f1  S-2_g1f2  S-3_g1f3  S-4_g2f1  S-5_g2f2  S-6_g2f3  S-7_g3f1  S-8_g3f2  S-9_g3f3 S-10_g1f4 S-11_g2f4 S-12_g3f4 S-13_g1f5 S-14_g2f5 S-15_g3f5 S-16_g4f1 S-17_g4f2 S-18_g4f3 S-19_g4f4 S-20_g4f5
--------------1--------------2---------3---------4---------5---------6---------7---------8---------9--------10--------11--------12--------13--------14--------15--------16--------17--------18--------19--------20------------------21--------22--------23--------24--------25--------26--------27--------28--------29--------30--------31--------32--------33--------34--------35--------36--------37--------38--------39--------40--------41--------42--------43--------44--------45--------46--------47--------48--------49--------50--------51--------52--------53--------54--------55--------56--------57--------58--------59--------60--------61--------62--------63--------64--------65--------66--------67--------68--------69--------70--------71--------72--------73--------74
     -30.807558    -152.461182     232.6      0.43      1.87     158.6         1         1      1000      1000   2725.35    -5.646       7.0      23.1   333.016     0.734      50.6   0.16984      51.1         H               347.2  0.091644  0.031544  0.000677  2.932209  0.929367  3.155059  1.215232     18.94    4.9606   42.1764   0.25530   5.33018   0.25504   0.01202  62.81664   5.08687    3311.9  0.610481  0.000539  0.000015  0.000196  0.168762  6.754209  0.767220     94.50  1.000214  1.000027     3.453    26.588      88.6      84.3      79.6     462.5     11.84     -0.08     -1.74      2.56     -0.31      3.18     -0.06      0.63      2.39      0.47     -0.44     -0.47      0.12      0.18      0.84     -3.76     -1.08      4.07      0.00      0.38
     -30.794006    -152.399536     259.9      0.42      1.87     168.2         1         2      1000      2606   2441.26    -6.124       6.9      23.6   328.864     0.719      55.8   0.16381     100.1         H               347.2  0.089857  0.030605  0.000575  2.906445  0.926984  3.135379  1.202474     16.72    4.4024   33.7111   0.25360   5.11716   0.27567   0.01479  50.32360   4.55009    2935.4  0.598128  0.000654  0.000023  0.000206  0.166496  6.745485  0.751475     95.65  1.000207  1.000024     3.313    23.856      88.6      82.3      62.7     380.4     11.81     -0.38     -1.90      2.71      0.05      3.44     -0.20      0.54      2.32      0.77     -0.50     -0.77      0.61     -0.36      0.48     -3.32     -0.07      3.87     -0.23     -0.30
     -30.780680    -152.339081     232.6      0.43      1.87     158.6         1         3      1000      4212   2256.71    -6.465       7.1      24.0   320.464     0.693      55.0   0.15449      51.1         H               347.2  0.082980  0.030079  0.000645  2.807914  0.898761  3.124204  1.179471     17.22    4.0309   27.9427   0.24748   4.96541   0.29037   0.01690  42.05446   4.18597    2661.6  0.579742  0.000621  0.000022  0.000188  0.170977  6.776580  0.723725     92.82  1.000207  1.000023     3.129    21.427      84.8      81.0      52.1     333.0     12.10     -0.84     -1.85      2.10     -0.49      3.56     -0.09      0.63      2.10      0.35     -0.62     -1.01      0.32      0.16      0.45     -4.52     -0.33      4.15      0.43      0.31
     -30.755039    -152.476120     262.9      0.44      1.87     172.1         2         1      2446      1000   2805.32    -5.520       7.3      23.1   329.093     0.726      57.4   0.16866     129.4         H               347.2  0.091108  0.031375  0.000694  2.961007  0.945414  3.131970  1.208692     15.64    5.1181   44.3717   0.25702   5.38735   0.25019   0.01139  65.93317   5.22654    3390.3  0.602969  0.000653  0.000026  0.000203  0.167360  6.747143  0.759150     95.10  1.000198  1.000024     3.337    24.476      90.6      84.8      83.9     458.0     11.83     -0.12     -1.84      2.47     -0.67      3.54      0.22      0.54      2.45      0.25     -0.09     -0.45      0.54      0.21      0.39     -3.99     -1.42      4.15      0.66      0.29
     -30.741497    -152.414520     172.5      0.44      1.87      97.0         2         2      2446      2606   2516.12    -5.993       7.2      23.6   326.832     0.714      63.6   0.16230      21.5         H               347.2  0.087379  0.030642  0.000627  2.898766  0.914086  3.171217  1.199021     15.37    4.5513   35.5464   0.25219   5.17831   0.26977   0.01392  53.16441   4.68941    3016.9  0.595254  0.000854  0.000029  0.000198  0.167241  6.748942  0.746075     93.41  1.000180  1.000020     3.278    23.578      88.6      82.9      66.4     395.3     11.87     -0.83     -1.75      2.59     -0.45      3.21     -0.23      0.90      2.37      0.34     -0.26     -0.88      0.55      0.60      0.57     -3.85     -0.65      3.31      0.44      0.66
     -30.728178    -152.354095     280.1      0.41      1.87     171.6         2         3      2446      4212   2162.96    -6.650       6.7      24.0   324.174     0.704      73.0   0.15813     100.0         H               347.2  0.085989  0.031227  0.000620  2.887897  0.916671  3.150420  1.190545     22.75    3.8435   26.0417   0.25065   4.87807   0.30034   0.01857  39.02876   4.00932    2575.1  0.585774  0.000911  0.000051  0.000197  0.169176  6.775044  0.735161     95.84  1.000193  1.000023     3.240    23.025      84.8      80.0      48.3     331.8     12.25     -0.21     -2.26      1.80     -0.61      3.86     -0.55      0.72      2.34      0.45     -0.31     -0.67      0.94     -0.17      0.36     -4.30     -1.30      4.48      0.14     -0.44
     -30.702520    -152.491028     232.6      0.43      1.87     158.6         3         1      3892      1000   2733.70    -5.632       7.0      23.1   330.164     0.732      51.1   0.17132      51.1         H               347.2  0.093975  0.031203  0.000591  3.028625  0.940471  3.220328  1.212689     15.48    4.9792   42.4490   0.25985   5.33600   0.25489   0.01202  62.83665   5.09373    3315.0  0.606104  0.000588  0.000017  0.000210  0.166913  6.730039  0.765941     92.37  1.000216  1.000028     3.415    27.362      92.7      84.3      79.9     472.7     11.93     -0.53     -1.09      2.66     -0.21      3.09     -0.25      0.18      2.25      0.41     -0.62     -0.83      0.06      0.22      0.65     -3.50      0.15      2.95     -0.04      0.35
     -30.688986    -152.429489     259.9      0.45      1.87     168.2         3         2      3892      2606   2555.88    -5.925       7.4      23.6   327.461     0.720      63.7   0.16603     100.1         H               347.2  0.090020  0.030152  0.000701  2.899133  0.937832  3.091314  1.203313     12.57    4.6238   36.7923   0.25586   5.20493   0.26723   0.01359  54.75730   4.75527    3075.3  0.599400  0.000841  0.000033  0.000206  0.165256  6.734025  0.753160     92.53  1.000195  1.000022     3.343    25.105      90.6      83.1      68.8     420.0     11.78      0.05     -1.62      2.39     -0.17      2.56      0.01      0.26      2.26      0.24     -0.21     -0.28     -0.17     -0.03      0.65     -4.13     -0.31      3.09      0.08      0.34
     -30.675674    -152.369095     276.4      0.43      1.87     167.5         3         3      3892      4212   2238.89    -6.500       7.0      24.0   325.633     0.709      54.3   0.16051     100.0         H               347.2  0.088334  0.030721  0.000635  2.891209  0.918537  3.147625  1.193316     15.22    3.9908   27.9913   0.25236   4.94370   0.29363   0.01743  41.85471   4.15003    2671.5  0.588814  0.000613  0.000019  0.000208  0.166923  6.742302  0.740281     93.52  1.000205  1.000023     3.241    23.264      86.6      80.7      51.9     351.1     12.09     -0.03     -1.97      2.09     -0.27      3.65     -0.32      0.75      2.25      0.22      0.20     -0.40      0.53      0.14      0.54     -4.15     -0.94      4.40      0.92      0.01
