corner points
-147.2605286    -39.97640228
-147.3272705    -39.80551529
-147.0338593    -39.92263031
-147.1011658    -39.75187683
========== RESULTS WAVE VERSION 16.10.2018 ====================
IMAGE SIZE  X: 4376     Y:4778    col:row     POLARIZATION:VV
COVERAGE    X: 20.17852922km       Y: 19.79272002km 
RESOLUTION dX: 4.611181266m       dY:4.142469656m  
resolution of original product 4.611181266m x 4.142469656m;   raster step x:5999.146827m  
===============================================================
FLAGS: H=HIGH PROBABILITY SEA STATE, I=LAND(ISLAND), O=OUTLIER NO SEA STATE, N=NO WIND AVAILABLE, SEA STATE NOT VISIBLE, M=MEAN PROBABILITY SEA STATE, L= LOW PROBABILITY SEA STATE
Filtering wave length
 integration  Lmin=1m
 integration  Lmax=2200m
  peak        Lmin=100m
               FFT=1024pixels, 4721.849616m 
   mean-Hs (SWH_c)=0.3710116959m
         mean-wind=9.237654686m/s
--------------0--------------1---------2---------3---------4---------5---------6---------7---------8---------9--------10--------11--------12--------13--------14--------15--------16--------17--------18--------19------------------20--------21--------22--------23--------24--------25--------26--------27--------28--------29--------30--------31--------32--------33--------34--------35--------36--------37--------38--------39--------40--------41--------42--------43--------44--------45--------46--------47--------48--------49--------50--------51--------52--------53--------54--------55--------56--------57--------58--------59--------60--------61--------62--------63--------64--------65--------66--------67--------68--------69--------70--------71--------72--------73
            LAT            LON  P-LENGHT     SWH_o     SWH_c     P-DIR      LINE     POINT     ROW-Y     COL-X  M-INTENC        dB      WIND INC-ANGLE  ENERGY-M  ENERGY-N  ENERGY-R ENERGY-NN  FG-DEPTH      FLAG         HEADING-DEG    E30-75   E75-390  E390-600 meanincut   meanout   cut/out  STD-NORM  SPEC-MAX   GL-MEAN    GL-VAR      CORR   ENTROPY   HOMOGEN    ENERGY  CONTRAST  DISSIMIL     STD-O    E 1-30 E600-2000   E2000 >      GODA  LONG-HIG     Tmean  CONVOLUT  MEAN-DIR  relation     Sy/Sx  SKEWNESS  KURTOSIS  cutoff-A >50/10000     INT*V   INT-LOG  S-1_g1f1  S-2_g1f2  S-3_g1f3  S-4_g2f1  S-5_g2f2  S-6_g2f3  S-7_g3f1  S-8_g3f2  S-9_g3f3 S-10_g1f4 S-11_g2f4 S-12_g3f4 S-13_g1f5 S-14_g2f5 S-15_g3f5 S-16_g4f1 S-17_g4f2 S-18_g4f3 S-19_g4f4 S-20_g4f5
--------------1--------------2---------3---------4---------5---------6---------7---------8---------9--------10--------11--------12--------13--------14--------15--------16--------17--------18--------19--------20------------------21--------22--------23--------24--------25--------26--------27--------28--------29--------30--------31--------32--------33--------34--------35--------36--------37--------38--------39--------40--------41--------42--------43--------44--------45--------46--------47--------48--------49--------50--------51--------52--------53--------54--------55--------56--------57--------58--------59--------60--------61--------62--------63--------64--------65--------66--------67--------68--------69--------70--------71--------72--------73--------74
     -39.928246    -147.222107     179.7      0.55      1.84     152.8         1         1      1000      1000    350.55   -14.552       9.4      36.1   262.436     0.541      79.1   0.06411      23.8         H               346.3  0.040090  0.017255  0.000717  1.475768  0.671029  2.199263  1.043823     13.99    6.5222   53.0524   0.09272   5.88716   0.18548   0.00557  96.26691   6.79832     365.9  0.481697  0.001384  0.000121  0.000100  0.194626  7.029734  0.543668    140.67  1.000051  1.000003     2.249    11.066      72.4      90.3     109.5     340.8     11.94     -3.02     -2.37      1.57     -3.20      1.22      0.44      1.55      2.01     -0.55      0.30     -1.34     -2.34     -1.89      1.28     -8.16     -2.28      1.39      0.99     -1.04
     -39.912224    -147.154480     157.8      0.54      1.84     138.1         1         2      1000      2301    329.20   -14.825       9.2      36.4   263.103     0.540      73.0   0.06345      17.3         H               346.3  0.039550  0.016920  0.000633  1.461420  0.661002  2.210917  1.043388     16.81    6.0978   46.8680   0.09004   5.76289   0.19530   0.00631  85.29569   6.39191     343.5  0.482252  0.001311  0.000108  0.000102  0.194824  7.021672  0.542585    138.24  1.000039  1.000002     2.240    10.991      73.8      89.4      95.8     323.0     11.98     -2.96     -2.10      1.76     -3.52      1.13      0.06      1.81      1.51     -0.49      0.02     -0.86     -2.54     -1.95      1.29     -7.70     -3.13      1.58      0.27     -0.77
     -39.896301    -147.087494     150.9      0.53      1.84     135.3         1         3      1000      3602    302.48   -15.193       8.9      36.8   262.508     0.540      63.7   0.06273      15.6         H               346.3  0.039358  0.017667  0.000543  1.538871  0.656958  2.342420  1.043037     17.57    5.5646   39.6414   0.09010   5.59453   0.20888   0.00747  72.13885   5.87142     315.5  0.481878  0.001160  0.000085  0.000107  0.195406  7.050120  0.543199    134.29  1.000030  1.000002     2.234    10.879      73.8      88.1      80.4     289.8     11.71     -3.62     -2.22      2.55     -3.75      1.25     -0.07      1.48      1.74     -0.65     -0.08     -1.03     -2.99     -2.17      0.93     -5.86     -2.58      1.83      0.40     -0.21
     -39.876457    -147.242386     163.4      0.54      1.84     144.0         2         1      2448      1000    344.52   -14.628       9.2      36.1   261.524     0.537      65.8   0.06250      18.8         H               346.3  0.038837  0.016821  0.000558  1.441311  0.661545  2.178706  1.040055     12.75    6.4020   50.9543   0.08885   5.85324   0.18756   0.00574  92.85394   6.68722     358.4  0.480094  0.001154  0.000107  0.000099  0.194203  7.022745  0.539394    138.39  1.000044  1.000002     2.224    10.900      73.8      90.0     105.0     344.5     11.88     -3.50     -2.07      2.07     -3.18      0.93     -0.21      1.80      1.32     -0.45     -0.00     -1.01     -2.87     -1.37      1.03     -6.69     -2.07      1.48      0.83      0.54
     -39.860447    -147.174820     173.3      0.55      1.84     149.1         2         2      2448      2301    332.78   -14.778       9.3      36.4   261.453     0.538      75.0   0.06351      21.7         H               346.3  0.039456  0.017025  0.000528  1.436480  0.657851  2.183595  1.041035     14.85    6.1693   47.6987   0.09142   5.78454   0.19331   0.00616  86.67548   6.45052     346.4  0.479790  0.001298  0.000122  0.000102  0.196699  7.039074  0.540375    141.84  1.000049  1.000004     2.220    10.721      72.4      89.6      97.8     317.4     12.03     -3.22     -2.65      1.70     -3.32      1.11     -0.61      1.83      1.59     -0.08      0.13     -1.24     -2.06     -1.83      1.02     -6.63     -2.18      1.91      0.35     -0.63
     -39.844540    -147.107880     166.7      0.55      1.84     145.6         2         3      2448      3602    317.88   -14.977       9.3      36.8   262.250     0.539      78.8   0.06304      19.7         H               346.3  0.039296  0.016989  0.000529  1.440385  0.665046  2.165843  1.041800     12.59    5.8711   43.5775   0.09044   5.69306   0.20026   0.00674  79.27267   6.16654     331.2  0.481118  0.001161  0.000159  0.000099  0.195002  7.033442  0.541310    138.33  1.000009  1.000002     2.251    11.243      72.4      88.9      89.0     326.0     11.82     -2.65     -2.82      2.02     -3.17      1.51     -0.04      0.94      1.89     -0.42     -0.08     -1.43     -2.21     -1.81      0.65     -6.25     -2.03      2.59      0.38     -0.35
     -39.824665    -147.262650     154.3      0.55      1.84     136.7         3         1      3896      1000    349.77   -14.562       9.3      36.1   263.106     0.541      75.8   0.06375      16.4         H               346.3  0.040035  0.016430  0.000559  1.406256  0.671977  2.092714  1.044371     10.95    6.5072   52.9002   0.09068   5.88287   0.18561   0.00560  96.20623   6.79815     365.3  0.483284  0.001247  0.000132  0.000096  0.191483  6.991963  0.543479    131.40  1.000059  1.000003     2.244    10.999      73.8      90.1     108.8     339.2     11.97     -2.08     -2.24      1.65     -3.12      1.53      0.20      0.96      1.28     -1.07      0.41     -0.75     -2.29     -1.62      0.80     -7.25     -2.02      2.33      1.55     -0.31
     -39.808666    -147.195129     158.4      0.55      1.84     135.2         3         2      3896      2301    332.26   -14.785       9.3      36.4   261.332     0.537      69.3   0.06274      17.5         H               346.3  0.039295  0.016722  0.000536  1.422455  0.662498  2.147110  1.040308     13.57    6.1589   47.4692   0.09003   5.78157   0.19315   0.00617  86.39073   6.44539     345.6  0.479655  0.001230  0.000098  0.000098  0.193259  7.016396  0.539281    134.48  1.000033  1.000003     2.220    10.811      72.4      89.6      97.4     329.6     11.83     -2.79     -2.43      2.02     -2.87      1.07     -0.07      1.40      1.59     -1.07      0.35     -0.61     -2.51     -1.84      0.87     -6.56     -1.99      1.46      1.19     -0.23
     -39.792770    -147.128235     150.9      0.54      1.84     135.3         3         3      3896      3602    310.53   -15.079       9.1      36.8   262.209     0.540      80.6   0.06350      15.6         H               346.3  0.039676  0.016759  0.000567  1.441590  0.666335  2.163463  1.042873     11.32    5.7248   41.7282   0.09070   5.64656   0.20425   0.00709  75.88673   6.02656     323.8  0.481966  0.001295  0.000141  0.000098  0.193533  7.019333  0.542314    134.74  1.000041  1.000002     2.236    10.956      72.4      88.5      84.9     300.8     11.85     -2.70     -2.40      2.05     -3.32      1.42     -0.07      1.53      1.04     -0.69      0.00     -0.80     -2.59     -1.86      1.30     -6.74     -2.63      2.90      0.37     -0.90
