corner points
-162.6066132    21.64093971
-162.6424866    21.81597328
-162.4184875    21.67433929
-162.4541168    21.84934807
========== RESULTS WAVE VERSION 16.10.2018 ====================
IMAGE SIZE  X: 4376     Y:4785    col:row     POLARIZATION:VV
COVERAGE    X: 19.74964221km       Y: 19.76436759km 
RESOLUTION dX: 4.513172351m       dY:4.130484346m  
resolution of original product 4.513172351m x 4.130484346m;   raster step x:5998.006054m  
===============================================================
FLAGS: H=HIGH PROBABILITY SEA STATE, I=LAND(ISLAND), O=OUTLIER NO SEA STATE, N=NO WIND AVAILABLE, SEA STATE NOT VISIBLE, M=MEAN PROBABILITY SEA STATE, L= LOW PROBABILITY SEA STATE
Filtering wave length
 integration  Lmin=1m
 integration  Lmax=2200m
  peak        Lmin=100m
               FFT=1024pixels, 4621.488487m 
   mean-Hs (SWH_c)=1.859822388m
         mean-wind=13.8508234m/s
--------------0--------------1---------2---------3---------4---------5---------6---------7---------8---------9--------10--------11--------12--------13--------14--------15--------16--------17--------18--------19------------------20--------21--------22--------23--------24--------25--------26--------27--------28--------29--------30--------31--------32--------33--------34--------35--------36--------37--------38--------39--------40--------41--------42--------43--------44--------45--------46--------47--------48--------49--------50--------51--------52--------53--------54--------55--------56--------57--------58--------59--------60--------61--------62--------63--------64--------65--------66--------67--------68--------69--------70--------71--------72--------73
            LAT            LON  P-LENGHT     SWH_o     SWH_c     P-DIR      LINE     POINT     ROW-Y     COL-X  M-INTENC        dB      WIND INC-ANGLE  ENERGY-M  ENERGY-N  ENERGY-R ENERGY-NN  FG-DEPTH      FLAG         HEADING-DEG    E30-75   E75-390  E390-600 meanincut   meanout   cut/out  STD-NORM  SPEC-MAX   GL-MEAN    GL-VAR      CORR   ENTROPY   HOMOGEN    ENERGY  CONTRAST  DISSIMIL     STD-O    E 1-30 E600-2000   E2000 >      GODA  LONG-HIG     Tmean  CONVOLUT  MEAN-DIR  relation     Sy/Sx  SKEWNESS  KURTOSIS  cutoff-A >50/10000     INT*V   INT-LOG  S-1_g1f1  S-2_g1f2  S-3_g1f3  S-4_g2f1  S-5_g2f2  S-6_g2f3  S-7_g3f1  S-8_g3f2  S-9_g3f3 S-10_g1f4 S-11_g2f4 S-12_g3f4 S-13_g1f5 S-14_g2f5 S-15_g3f5 S-16_g4f1 S-17_g4f2 S-18_g4f3 S-19_g4f4 S-20_g4f5
--------------1--------------2---------3---------4---------5---------6---------7---------8---------9--------10--------11--------12--------13--------14--------15--------16--------17--------18--------19--------20------------------21--------22--------23--------24--------25--------26--------27--------28--------29--------30--------31--------32--------33--------34--------35--------36--------37--------38--------39--------40--------41--------42--------43--------44--------45--------46--------47--------48--------49--------50--------51--------52--------53--------54--------55--------56--------57--------58--------59--------60--------61--------62--------63--------64--------65--------66--------67--------68--------69--------70--------71--------72--------73--------74
      21.685263    -162.570633     355.0      2.02      4.20      22.6         1         1      1000      1000    562.53   -12.499      13.6      36.9   233.770     0.611     151.9   0.09647     100.0         H               347.7  0.055230  0.030950  0.005322  2.349653  0.719144  3.267293  1.109352    163.83   10.6335  138.3466   0.14934   6.76533   0.13187   0.00244 235.37025  10.66071     624.0  0.518146  0.001780  0.000190  0.000191  0.208119  7.066622  0.620227     28.98  1.000063  1.000005     2.596    14.356     137.8      94.7     320.4     677.7     16.43     10.44     -6.50    -11.35    -10.31     11.14      7.25      4.80     -5.50     -6.01      9.82     -4.42     -1.66      1.51      0.82    -38.11    -28.59     30.07     25.15      2.19
      21.695448    -162.513290     384.6      1.91      4.20      24.6         1         2      1000      2329    565.60   -12.475      13.9      37.3   230.901     0.602     124.2   0.09389     100.0         H               347.7  0.055106  0.028667  0.004209  2.221993  0.720228  3.085124  1.100723    130.91   10.7019  138.2904   0.14701   6.77990   0.13088   0.00238 235.92058  10.70211     622.5  0.512350  0.001862  0.000107  0.000178  0.203927  7.028490  0.610056     31.94  1.000119  1.000009     2.553    13.921     128.8      95.0     320.4     653.7     16.06     10.21     -5.19    -10.20     -9.86      8.67      5.89      3.63     -3.58     -4.96      7.98     -3.62     -1.94      2.10      0.20    -33.89    -26.55     22.19     20.26      4.91
      21.705526    -162.456421     384.6      1.72      4.20      24.6         1         3      1000      3658    546.32   -12.626      13.9      37.7   231.259     0.601     124.4   0.09195     100.0         H               347.7  0.055373  0.026404  0.003786  2.183038  0.718561  3.038066  1.099996     89.23   10.3355  130.2057   0.14127   6.71964   0.13405   0.00253 223.62396  10.39525     600.9  0.514062  0.001731  0.000144  0.000164  0.193913  6.966732  0.608375     46.67  1.000127  1.000010     2.579    14.505     128.8      94.7     298.0     669.1     15.63      9.22     -4.53     -9.09     -8.20      8.51      6.08      3.68     -3.88     -3.41      6.95     -2.85     -1.61      1.20      0.86    -32.46    -23.92     22.41     16.94      2.50
      21.738386    -162.581512     356.1      1.79      4.20      32.6         2         1      2452      1000    572.20   -12.424      13.7      36.9   230.940     0.599     109.7   0.09074     100.0         H               347.7  0.054688  0.027147  0.003165  2.215825  0.716865  3.090995  1.097991     84.69   10.8287  140.6919   0.14076   6.80239   0.12914   0.00231 241.77396  10.85588     628.2  0.512698  0.001463  0.000117  0.000167  0.196129  6.981102  0.606323     50.34  1.000090  1.000007     2.538    13.833     124.8      95.1     328.0     679.1     15.51      8.32     -4.22     -8.03     -6.85      7.75      4.34      2.05     -3.30     -3.19      5.97     -2.30     -1.68      1.11      0.77    -28.20    -18.33     19.65     14.24      1.94
      21.748569    -162.524139     370.7      1.69      4.20      28.8         2         2      2452      2329    574.83   -12.405      14.1      37.3   231.974     0.602     144.2   0.09317     100.0         H               347.7  0.055894  0.025379  0.003767  2.102997  0.723813  2.905442  1.100892     84.20   10.8754  141.9085   0.14302   6.80925   0.12888   0.00230 243.22614  10.88317     632.9  0.515232  0.001943  0.000227  0.000167  0.192759  6.939301  0.609046     59.38  1.000131  1.000010     2.573    14.370     124.8      95.2     331.9     700.3     15.52      9.44     -4.28     -8.80     -8.86      7.63      5.86      4.07     -3.44     -3.34      6.47     -2.91     -2.60      2.33     -0.05    -32.13    -25.93     20.20     16.58      6.21
      21.758644    -162.467255     384.6      1.80      4.20      24.6         2         3      2452      3658    556.81   -12.543      14.1      37.7   231.925     0.605     112.2   0.09424     100.0         H               347.7  0.056688  0.027403  0.003848  2.279138  0.731871  3.114123  1.103251     89.47   10.5322  134.9521   0.14551   6.75133   0.13222   0.00246 230.63142  10.56565     614.3  0.515551  0.001506  0.000102  0.000172  0.195694  6.978961  0.612446     53.90  1.000167  1.000014     2.591    14.626     133.1      94.7     311.3     680.7     15.86      9.61     -3.26     -9.27     -9.26      6.96      5.62      3.92     -3.29     -3.41      5.94     -2.56     -2.74      2.89     -0.11    -32.25    -26.07     17.99     14.83      7.01
      21.791510    -162.592392     370.7      2.01      4.20      28.8         3         1      3904      1000    570.67   -12.436      13.7      36.9   233.568     0.610     157.2   0.09615     100.0         H               347.7  0.055451  0.030568  0.004533  2.355985  0.714466  3.297547  1.108329    116.42   10.7902  141.6985   0.14891   6.79152   0.13051   0.00237 241.19521  10.80851     632.5  0.517995  0.001866  0.000226  0.000175  0.206364  7.065792  0.618716     37.99  1.000112  1.000009     2.593    14.550     133.1      94.9     329.6     714.4     16.16     11.59     -3.92    -10.05    -11.00      7.61      6.00      4.88     -2.75     -3.76      7.04     -2.71     -4.07      4.43     -0.88    -33.90    -30.98     18.86     17.51     11.03
      21.801689    -162.534988     364.8      2.07      4.20      18.4         3         2      3904      2329    561.29   -12.508      13.9      37.3   233.223     0.609     181.9   0.09547     100.0         H               347.7  0.055129  0.031078  0.004178  2.408247  0.730851  3.295127  1.107158    118.75   10.6153  137.6437   0.14969   6.76314   0.13229   0.00245 234.07716  10.63662     621.4  0.515950  0.002237  0.000350  0.000181  0.207738  7.083381  0.617545     31.86  0.999997  1.000001     2.591    14.567     128.8      94.8     318.0     698.8     15.99      8.80     -6.31     -9.48     -7.24     10.48      5.46      2.94     -3.63     -3.88      7.66     -2.64      0.39     -1.13      1.23    -31.98    -20.91     25.19     17.34     -2.64
      21.811764    -162.478088     384.6      1.72      4.20      24.6         3         3      3904      3658    538.60   -12.687      13.8      37.7   231.564     0.598     101.7   0.08956     100.0         H               347.7  0.054853  0.026529  0.002907  2.131776  0.725289  2.939209  1.097297     92.59   10.1900  126.7766   0.13879   6.69481   0.13552   0.00259 218.36252  10.26754     591.0  0.512921  0.001180  0.000118  0.000170  0.199021  7.002546  0.605282     40.39  1.000119  1.000009     2.559    14.343     124.8      94.5     288.2     656.4     15.46      8.95     -5.18     -7.94     -7.63      8.68      4.21      2.31     -2.67     -4.75      7.93     -2.88     -1.53      1.24      0.99    -27.16    -20.29     20.61     18.64      2.16
