corner points
-136.5286255    -58.5822525
-136.6681976    -58.420681
-136.2087708    -58.50510788
-136.3495789    -58.34387207
========== RESULTS WAVE VERSION 16.10.2018 ====================
IMAGE SIZE  X: 4376     Y:4765    col:row     POLARIZATION:VV
COVERAGE    X: 20.39910524km       Y: 19.66852223km 
RESOLUTION dX: 4.66158712m       dY:4.127706659m  
resolution of original product 4.66158712m x 4.127706659m;   raster step x:5999.462624m  
===============================================================
FLAGS: H=HIGH PROBABILITY SEA STATE, I=LAND(ISLAND), O=OUTLIER NO SEA STATE, N=NO WIND AVAILABLE, SEA STATE NOT VISIBLE, M=MEAN PROBABILITY SEA STATE, L= LOW PROBABILITY SEA STATE
Filtering wave length
 integration  Lmin=1m
 integration  Lmax=2200m
  peak        Lmin=100m
               FFT=1024pixels, 4773.465211m 
   mean-Hs (SWH_c)=2.582705994m
         mean-wind=15.50493908m/s
--------------0--------------1---------2---------3---------4---------5---------6---------7---------8---------9--------10--------11--------12--------13--------14--------15--------16--------17--------18--------19------------------20--------21--------22--------23--------24--------25--------26--------27--------28--------29--------30--------31--------32--------33--------34--------35--------36--------37--------38--------39--------40--------41--------42--------43--------44--------45--------46--------47--------48--------49--------50--------51--------52--------53--------54--------55--------56--------57--------58--------59--------60--------61--------62--------63--------64--------65--------66--------67--------68--------69--------70--------71--------72--------73
            LAT            LON  P-LENGHT     SWH_o     SWH_c     P-DIR      LINE     POINT     ROW-Y     COL-X  M-INTENC        dB      WIND INC-ANGLE  ENERGY-M  ENERGY-N  ENERGY-R ENERGY-NN  FG-DEPTH      FLAG         HEADING-DEG    E30-75   E75-390  E390-600 meanincut   meanout   cut/out  STD-NORM  SPEC-MAX   GL-MEAN    GL-VAR      CORR   ENTROPY   HOMOGEN    ENERGY  CONTRAST  DISSIMIL     STD-O    E 1-30 E600-2000   E2000 >      GODA  LONG-HIG     Tmean  CONVOLUT  MEAN-DIR  relation     Sy/Sx  SKEWNESS  KURTOSIS  cutoff-A >50/10000     INT*V   INT-LOG  S-1_g1f1  S-2_g1f2  S-3_g1f3  S-4_g2f1  S-5_g2f2  S-6_g2f3  S-7_g3f1  S-8_g3f2  S-9_g3f3 S-10_g1f4 S-11_g2f4 S-12_g3f4 S-13_g1f5 S-14_g2f5 S-15_g3f5 S-16_g4f1 S-17_g4f2 S-18_g4f3 S-19_g4f4 S-20_g4f5
--------------1--------------2---------3---------4---------5---------6---------7---------8---------9--------10--------11--------12--------13--------14--------15--------16--------17--------18--------19--------20------------------21--------22--------23--------24--------25--------26--------27--------28--------29--------30--------31--------32--------33--------34--------35--------36--------37--------38--------39--------40--------41--------42--------43--------44--------45--------46--------47--------48--------49--------50--------51--------52--------53--------54--------55--------56--------57--------58--------59--------60--------61--------62--------63--------64--------65--------66--------67--------68--------69--------70--------71--------72--------73--------74
     -58.530590    -136.483963     117.7      2.57      3.20      99.6         1         1      1000      1000    815.17   -10.888      15.5      35.6   303.891     0.589      84.9   0.09108       9.0         H               341.7  0.054575  0.030966  0.000825  2.848326  0.748059  3.807624  1.089078     52.98   15.2469  236.4781   0.14002   7.36343   0.09631   0.00116 406.73499  14.64990     887.7  0.501848  0.001316  0.000144  0.000241  0.173066  7.049545  0.595300     97.61  1.000104  1.000011     2.507    13.595     124.8      97.9     679.5     922.8     10.39     -1.21      2.00      3.73     -0.46      6.01      5.09     -0.77      3.08     -1.12     -1.77     -1.13      1.20      2.28      4.28     -3.20      0.13     10.78     -2.46      1.92
     -58.507862    -136.389557     110.1      2.63      3.20      97.5         1         2      1000      2287    805.57   -10.939      15.7      36.0   304.504     0.592      72.2   0.09219       7.8         H               341.7  0.055084  0.031724  0.000890  2.854890  0.741824  3.848472  1.091704     67.26   15.0729  233.1342   0.14184   7.34442   0.09741   0.00118 400.13214  14.50084     879.5  0.503617  0.001171  0.000093  0.000268  0.171712  7.045946  0.598449     97.61  1.000113  1.000010     2.512    13.522     128.8      97.8     664.3     912.2     10.65     -1.24      2.12      3.53     -1.08      6.34      5.25     -0.75      3.14     -1.68     -1.80     -1.41      1.42      2.69      4.21     -4.21     -0.86     11.07     -1.97      2.38
     -58.485271    -136.296112     118.2      2.60      3.20      98.0         1         3      1000      3574    797.91   -10.980      16.0      36.3   302.448     0.587      78.9   0.09116       9.1         H               341.7  0.054406  0.030660  0.000862  2.881495  0.731223  3.940653  1.086929     49.89   14.9522  229.9681   0.14041   7.33564   0.09792   0.00120 395.35892  14.40341     867.2  0.500082  0.001412  0.000096  0.000237  0.172596  7.026257  0.593295     98.15  1.000114  1.000011     2.465    12.889     124.8      97.8     648.5     884.7     10.45     -0.56      2.34      3.88     -1.02      6.24      5.20     -0.55      3.11     -1.22     -1.39     -1.17      1.54      2.65      4.29     -3.43     -1.34     10.82     -1.46      2.05
     -58.481342    -136.526688     117.1      2.59      3.20     101.2         2         1      2453      1000    816.02   -10.883      15.5      35.6   303.284     0.589      71.9   0.09166       8.9         H               341.7  0.054547  0.031293  0.000743  2.934008  0.740701  3.961126  1.089160     42.53   15.2596  236.9205   0.13986   7.36466   0.09649   0.00116 407.56845  14.66004     888.8  0.502091  0.001059  0.000109  0.000235  0.171404  7.050227  0.595441     98.90  1.000116  1.000013     2.485    13.180     128.8      98.0     681.2     908.0     10.39     -0.96      2.02      3.83     -0.86      6.22      4.96     -0.62      3.42     -0.91     -1.44     -1.72      1.50      2.18      4.33     -2.46     -1.06     10.93     -1.31      1.67
     -58.458645    -136.432373     117.7      2.47      3.20      99.6         2         2      2453      2287    744.28   -11.283      15.1      36.0   303.721     0.590      61.2   0.09102       9.0         H               341.7  0.054725  0.031533  0.000941  2.952178  0.746217  3.956190  1.089371     46.90   14.0036  208.8563   0.14116   7.23594   0.10349   0.00137 358.74921  13.61147     810.7  0.501920  0.001003  0.000051  0.000233  0.173640  7.053029  0.596112     98.94  1.000100  1.000009     2.492    13.275     124.8      97.3     562.9     844.2     10.60     -0.51      1.72      3.26     -0.66      6.81      5.55     -0.71      3.30     -0.93     -1.58     -1.06      1.52      2.32      4.27     -4.25     -0.76     12.59     -2.39      1.56
     -58.436081    -136.339050     121.6      2.58      3.20      96.6         2         3      2453      3574    775.49   -11.104      15.7      36.3   303.341     0.588      60.8   0.09083       9.6         H               341.7  0.054433  0.031122  0.000774  2.822262  0.748583  3.770138  1.087778     57.68   14.5575  220.9349   0.13996   7.29640   0.10021   0.00126 380.02707  14.07706     843.5  0.501186  0.000843  0.000083  0.000248  0.174680  7.058344  0.594150     98.20  1.000092  1.000010     2.491    13.329     121.0      97.6     611.6     872.4     10.24     -1.00      2.29      4.06     -0.45      5.95      5.04     -0.48      3.86     -0.93     -1.22     -1.05      1.54      2.54      3.95     -1.75     -0.23     10.08     -1.74      3.15
     -58.432079    -136.569275     118.2      2.68      3.20      98.0         3         1      3906      1000    814.29   -10.892      15.5      35.6   303.526     0.589      57.0   0.09172       9.1         H               341.7  0.054794  0.032596  0.000691  3.009950  0.741426  4.059676  1.088959     59.10   15.2325  236.6895   0.14048   7.36155   0.09679   0.00116 406.88113  14.64436     886.7  0.500869  0.000737  0.000063  0.000248  0.173520  7.066264  0.595515     99.48  1.000124  1.000013     2.478    13.128     124.8      98.0     677.8     903.0     10.30     -1.16      2.51      4.20     -0.62      5.95      4.88     -1.29      3.93     -1.28     -1.96     -1.37      1.12      2.69      3.93     -1.29      0.22      9.67     -2.91      3.81
     -58.409409    -136.475082     118.2      2.53      3.20      98.0         3         2      3906      2287    740.91   -11.302      15.0      36.0   304.779     0.591      50.4   0.09179       9.1         H               341.7  0.054390  0.032340  0.000739  2.935716  0.743896  3.946407  1.090503     52.48   13.9416  207.6825   0.14108   7.22852   0.10398   0.00138 356.76526  13.56330     807.9  0.503283  0.000670  0.000045  0.000244  0.173480  7.082417  0.597048     98.73  1.000118  1.000013     2.507    13.587     121.0      97.3     557.8     861.0     10.27     -0.91      2.47      4.44     -0.92      6.45      5.38     -0.56      4.04     -0.84     -1.40     -1.52      1.40      2.49      3.86     -1.66     -0.95     10.07     -1.29      3.07
     -58.386879    -136.381851     112.2      2.60      3.20      99.2         3         3      3906      3574    746.75   -11.268      15.4      36.3   302.878     0.587      56.6   0.09102       8.1         H               341.7  0.053715  0.032202  0.000753  2.986114  0.755787  3.951000  1.086703     43.17   14.0552  209.9384   0.14048   7.24305   0.10352   0.00136 360.89459  13.65943     811.4  0.499736  0.000816  0.000053  0.000228  0.176710  7.085124  0.592823     98.93  1.000098  1.000012     2.476    13.270     121.0      97.3     564.8     850.8     10.19     -1.05      2.61      4.64     -1.18      7.04      5.71     -1.11      4.48     -1.50     -2.17     -2.01      1.79      2.92      4.37     -1.05     -0.93     11.06     -2.12      2.88
