corner points
-156.5851288    -15.00537491
-156.6261597    -14.82509136
-156.4020233    -14.96473694
-156.4432831    -14.78450871
========== RESULTS WAVE VERSION 16.10.2018 ====================
IMAGE SIZE  X: 5471     Y:4927    col:row     POLARIZATION:VV
COVERAGE    X: 20.13064914km       Y: 20.47951272km 
RESOLUTION dX: 3.679519126m       dY:4.156588739m  
resolution of original product 3.679519126m x 4.156588739m;   raster step x:5997.616175m  
===============================================================
FLAGS: H=HIGH PROBABILITY SEA STATE, I=LAND(ISLAND), O=OUTLIER NO SEA STATE, N=NO WIND AVAILABLE, SEA STATE NOT VISIBLE, M=MEAN PROBABILITY SEA STATE, L= LOW PROBABILITY SEA STATE
Filtering wave length
 integration  Lmin=1m
 integration  Lmax=2200m
  peak        Lmin=100m
               FFT=1024pixels, 3767.827585m 
   mean-Hs (SWH_c)=0.2m
         mean-wind=3.78600812m/s
--------------0--------------1---------2---------3---------4---------5---------6---------7---------8---------9--------10--------11--------12--------13--------14--------15--------16--------17--------18--------19------------------20--------21--------22--------23--------24--------25--------26--------27--------28--------29--------30--------31--------32--------33--------34--------35--------36--------37--------38--------39--------40--------41--------42--------43--------44--------45--------46--------47--------48--------49--------50--------51--------52--------53--------54--------55--------56--------57--------58--------59--------60--------61--------62--------63--------64--------65--------66--------67--------68--------69--------70--------71--------72--------73
            LAT            LON  P-LENGHT     SWH_o     SWH_c     P-DIR      LINE     POINT     ROW-Y     COL-X  M-INTENC        dB      WIND INC-ANGLE  ENERGY-M  ENERGY-N  ENERGY-R ENERGY-NN  FG-DEPTH      FLAG         HEADING-DEG    E30-75   E75-390  E390-600 meanincut   meanout   cut/out  STD-NORM  SPEC-MAX   GL-MEAN    GL-VAR      CORR   ENTROPY   HOMOGEN    ENERGY  CONTRAST  DISSIMIL     STD-O    E 1-30 E600-2000   E2000 >      GODA  LONG-HIG     Tmean  CONVOLUT  MEAN-DIR  relation     Sy/Sx  SKEWNESS  KURTOSIS  cutoff-A >50/10000     INT*V   INT-LOG  S-1_g1f1  S-2_g1f2  S-3_g1f3  S-4_g2f1  S-5_g2f2  S-6_g2f3  S-7_g3f1  S-8_g3f2  S-9_g3f3 S-10_g1f4 S-11_g2f4 S-12_g3f4 S-13_g1f5 S-14_g2f5 S-15_g3f5 S-16_g4f1 S-17_g4f2 S-18_g4f3 S-19_g4f4 S-20_g4f5
--------------1--------------2---------3---------4---------5---------6---------7---------8---------9--------10--------11--------12--------13--------14--------15--------16--------17--------18--------19--------20------------------21--------22--------23--------24--------25--------26--------27--------28--------29--------30--------31--------32--------33--------34--------35--------36--------37--------38--------39--------40--------41--------42--------43--------44--------45--------46--------47--------48--------49--------50--------51--------52--------53--------54--------55--------56--------57--------58--------59--------60--------61--------62--------63--------64--------65--------66--------67--------68--------69--------70--------71--------72--------73--------74
     -14.961171    -156.559143     246.4      0.25      1.53     134.0         1         1      1000      1000   1517.67    -8.188       3.9      23.5   392.317     0.723      61.0   0.16335      66.1         H               347.9  0.095412  0.039095  0.000604  4.123459  0.887165  4.647903  1.206135     12.75    2.5690   13.2089   0.26042   4.17435   0.38659   0.03788  19.53832   2.78242    1830.5  0.587444  0.000747  0.000025  0.000224  0.155185  6.790485  0.760650     87.54  1.000171  1.000019     3.355    25.936      79.7      71.3      24.3     247.0     11.50     -1.65     -2.78      2.59     -0.89      1.53     -0.62      0.65      2.16     -0.15     -0.69     -0.19     -2.32     -1.14      1.11     -3.16     -0.74      2.94     -0.90     -0.36
     -14.948950    -156.504044     250.8      0.26      1.53     160.6         1         2      1000      2630   1380.53    -8.600       4.0      23.9   395.270     0.727      59.9   0.16494      73.3         H               347.9  0.094385  0.041828  0.000716  4.361019  0.887382  4.914480  1.209458     17.35    2.2961   10.9939   0.26040   3.98470   0.41268   0.04601  16.26210   2.51838    1669.6  0.590244  0.000690  0.000021  0.000223  0.156628  6.825307  0.765619     90.18  1.000175  1.000021     3.316    23.991      78.1      68.4      20.3     204.6     11.91     -1.90     -3.30      1.73     -0.52      2.07     -0.82      1.10      2.51      0.54     -0.30     -0.60     -1.80     -0.96      0.63     -4.18     -1.09      3.83      0.04      0.00
     -14.936940    -156.449951     221.3      0.22      1.53     159.4         1         3      1000      4260   1034.34    -9.853       3.4      24.4   392.561     0.721     110.2   0.16286      42.8         H               347.9  0.094919  0.042280  0.000714  4.426124  0.905113  4.890131  1.203241     17.52    1.6197    6.0933   0.25965   3.42552   0.49105   0.07822   9.02229   1.84928    1244.5  0.581878  0.001583  0.000076  0.000219  0.156711  6.821694  0.759549     86.76  1.000159  1.000018     3.233    22.810      78.1      60.0      11.5     151.5     11.71     -1.88     -3.17      2.10     -1.22      1.86     -0.54      1.05      2.47      0.35     -0.51     -0.78     -1.69     -1.21      0.74     -4.23     -1.36      3.74     -0.35     -0.36
     -14.908363    -156.571167     227.0      0.25      1.53     155.1         2         1      2443      1000   1452.39    -8.379       3.7      23.5   391.708     0.724      85.8   0.16492      46.7         H               347.9  0.094542  0.041899  0.000599  4.383406  0.895422  4.895351  1.205848     15.46    2.4371   12.1031   0.26183   4.08440   0.39924   0.04164  17.86855   2.65335    1751.4  0.586303  0.001009  0.000068  0.000225  0.157046  6.806629  0.762259     87.55  1.000170  1.000020     3.296    24.977      79.7      69.9      22.3     235.9     11.63     -1.23     -2.85      2.43     -0.91      1.69     -0.77      0.63      2.64      0.44     -0.49     -0.67     -1.81     -1.26      0.73     -2.99     -0.94      2.89     -0.61     -0.53
     -14.896147    -156.516083     214.7      0.25      1.53     163.4         2         2      2443      2630   1311.23    -8.823       3.8      23.9   390.229     0.718     135.3   0.16255      38.9         H               347.9  0.092455  0.040603  0.000661  4.130457  0.899692  4.590967  1.202872     17.66    2.1582    9.7867   0.26018   3.88421   0.42605   0.05044  14.48076   2.38142    1577.1  0.582966  0.001828  0.000147  0.000219  0.158186  6.805359  0.755782     87.93  1.000153  1.000018     3.192    21.480      79.7      67.1      18.2     183.1     11.76     -1.92     -3.93      1.81     -0.95      2.11     -0.79      0.79      2.77      0.57     -0.36     -0.95     -0.52     -1.44      0.14     -4.09     -1.05      3.72     -0.03     -1.27
     -14.884141    -156.462021     232.6      0.24      1.53     158.3         2         3      2443      4260   1154.28    -9.377       3.7      24.4   389.723     0.711      87.3   0.15776      51.1         H               347.9  0.090563  0.041267  0.000711  4.252141  0.886492  4.796593  1.195369     14.67    1.8517    7.4869   0.25491   3.63872   0.45929   0.06354  11.15678   2.08176    1379.8  0.577386  0.001217  0.000059  0.000212  0.156699  6.822208  0.747403     88.62  1.000161  1.000018     3.148    21.122      75.2      63.5      14.1     162.2     11.53     -2.19     -3.46      2.22     -0.75      1.67     -0.45      0.88      2.49      0.27     -0.47     -0.65     -1.43     -1.33      0.47     -3.77     -0.37      3.66     -0.37     -0.80
     -14.855555    -156.583206     221.3      0.24      1.53     159.4         3         1      3886      1000   1445.08    -8.401       3.7      23.5   389.990     0.719      57.0   0.16292      42.8         H               347.9  0.093208  0.039147  0.000580  4.133004  0.877925  4.707693  1.203324     15.92    2.4309   11.9928   0.25860   4.08153   0.39893   0.04155  17.78329   2.64829    1738.9  0.586509  0.000620  0.000022  0.000235  0.152751  6.789104  0.756607     86.25  1.000192  1.000023     3.250    22.753      84.8      69.9      22.1     211.6     11.68     -2.15     -2.96      2.17     -0.39      2.13     -0.42      0.98      2.38      0.61     -0.94     -0.89     -1.12     -1.16      0.79     -3.59     -0.03      3.77     -0.82     -0.95
     -14.843344    -156.528137     237.6      0.27      1.53     161.6         3         2      3886      2630   1419.32    -8.479       4.1      23.9   389.261     0.717      83.1   0.16229      55.7         H               347.9  0.091484  0.040879  0.000668  4.215245  0.890964  4.731108  1.201066     16.61    2.3714   11.4518   0.25978   4.04078   0.40387   0.04314  16.95371   2.58985    1704.6  0.583372  0.001031  0.000067  0.000230  0.155862  6.828558  0.754360     87.32  1.000169  1.000021     3.237    22.924      83.0      69.4      21.2     214.5     11.76     -1.76     -3.35      1.93     -0.77      2.14     -0.59      1.02      2.76      0.00     -0.51     -0.43     -0.85     -1.21      0.59     -4.00     -0.64      3.60     -0.33     -0.89
     -14.831343    -156.474091     225.6      0.25      1.53     162.6         3         3      3886      4260   1199.73    -9.209       3.8      24.4   387.869     0.708     143.4   0.15763      45.7         H               347.9  0.090110  0.039212  0.000658  4.119272  0.890089  4.627934  1.193627     15.07    1.9342    8.0263   0.25599   3.70918   0.44891   0.05921  11.94333   2.16330    1432.0  0.576277  0.002072  0.000161  0.000215  0.156180  6.819508  0.744613     86.89  1.000169  1.000020     3.126    20.483      79.7      64.6      15.1     162.8     11.62     -2.05     -2.31      2.35     -0.67      1.35     -0.43      1.05      2.78      0.53     -0.55     -0.84     -1.32     -1.20      0.80     -3.70     -0.65      1.99     -0.37     -0.76
