corner points
-147.9283447    -38.24686432
-147.9919586    -38.07568741
-147.7069702    -38.19435501
-147.7711182    -38.02330017
========== RESULTS WAVE VERSION 16.10.2018 ====================
IMAGE SIZE  X: 4376     Y:4775    col:row     POLARIZATION:VV
COVERAGE    X: 20.15336094km       Y: 19.78621967km 
RESOLUTION dX: 4.60542983m       dY:4.143710925m  
resolution of original product 4.60542983m x 4.143710925m;   raster step x:5996.269638m  
===============================================================
FLAGS: H=HIGH PROBABILITY SEA STATE, I=LAND(ISLAND), O=OUTLIER NO SEA STATE, N=NO WIND AVAILABLE, SEA STATE NOT VISIBLE, M=MEAN PROBABILITY SEA STATE, L= LOW PROBABILITY SEA STATE
Filtering wave length
 integration  Lmin=1m
 integration  Lmax=2200m
  peak        Lmin=100m
               FFT=1024pixels, 4715.960146m 
   mean-Hs (SWH_c)=0.7563778687m
         mean-wind=12.68271637m/s
--------------0--------------1---------2---------3---------4---------5---------6---------7---------8---------9--------10--------11--------12--------13--------14--------15--------16--------17--------18--------19------------------20--------21--------22--------23--------24--------25--------26--------27--------28--------29--------30--------31--------32--------33--------34--------35--------36--------37--------38--------39--------40--------41--------42--------43--------44--------45--------46--------47--------48--------49--------50--------51--------52--------53--------54--------55--------56--------57--------58--------59--------60--------61--------62--------63--------64--------65--------66--------67--------68--------69--------70--------71--------72--------73
            LAT            LON  P-LENGHT     SWH_o     SWH_c     P-DIR      LINE     POINT     ROW-Y     COL-X  M-INTENC        dB      WIND INC-ANGLE  ENERGY-M  ENERGY-N  ENERGY-R ENERGY-NN  FG-DEPTH      FLAG         HEADING-DEG    E30-75   E75-390  E390-600 meanincut   meanout   cut/out  STD-NORM  SPEC-MAX   GL-MEAN    GL-VAR      CORR   ENTROPY   HOMOGEN    ENERGY  CONTRAST  DISSIMIL     STD-O    E 1-30 E600-2000   E2000 >      GODA  LONG-HIG     Tmean  CONVOLUT  MEAN-DIR  relation     Sy/Sx  SKEWNESS  KURTOSIS  cutoff-A >50/10000     INT*V   INT-LOG  S-1_g1f1  S-2_g1f2  S-3_g1f3  S-4_g2f1  S-5_g2f2  S-6_g2f3  S-7_g3f1  S-8_g3f2  S-9_g3f3 S-10_g1f4 S-11_g2f4 S-12_g3f4 S-13_g1f5 S-14_g2f5 S-15_g3f5 S-16_g4f1 S-17_g4f2 S-18_g4f3 S-19_g4f4 S-20_g4f5
--------------1--------------2---------3---------4---------5---------6---------7---------8---------9--------10--------11--------12--------13--------14--------15--------16--------17--------18--------19--------20------------------21--------22--------23--------24--------25--------26--------27--------28--------29--------30--------31--------32--------33--------34--------35--------36--------37--------38--------39--------40--------41--------42--------43--------44--------45--------46--------47--------48--------49--------50--------51--------52--------53--------54--------55--------56--------57--------58--------59--------60--------61--------62--------63--------64--------65--------66--------67--------68--------69--------70--------71--------72--------73--------74
     -38.198914    -147.890503     190.2      0.77      2.08     148.4         1         1      1000      1000    535.67   -12.711      12.6      36.1   258.726     0.549      81.1   0.07194      27.5         H               346.5  0.045628  0.014137  0.000486  1.276984  0.697243  1.831477  1.051556      7.66   10.1638  119.0864   0.10590   6.70459   0.13122   0.00244 212.94978  10.26360     563.3  0.487759  0.001307  0.000168  0.000092  0.175978  6.843334  0.551747    114.13  1.000094  1.000008     2.288    11.398      79.7      94.9     270.3     555.6     11.60     -1.50     -2.17      1.71     -1.68      1.47      0.61      1.80      0.17     -0.37      0.44     -0.58     -1.24     -1.11      1.07     -7.03     -2.64      3.54      1.38     -0.50
     -38.183254    -147.824417     174.0      0.70      2.08     141.2         1         2      1000      2302    494.66   -13.057      12.3      36.5   258.249     0.547      76.3   0.07081      21.9         H               346.5  0.045254  0.014230  0.000536  1.274861  0.686521  1.856987  1.049879      7.69    9.3684  103.1096   0.10486   6.55642   0.14054   0.00285 184.59372   9.50999     519.3  0.486310  0.001277  0.000137  0.000092  0.177750  6.853318  0.550240    117.30  1.000071  1.000005     2.273    11.235      79.7      94.3     228.2     507.6     11.74     -0.99     -2.31      1.22     -1.83      1.57      0.65      1.58      0.05     -0.25      0.82     -1.09     -1.86     -0.43      1.62     -8.01     -2.80      4.44      2.35      0.60
     -38.167694    -147.758926     186.1      0.70      2.08     146.5         1         3      1000      3604    478.80   -13.198      12.3      36.9   258.894     0.548      82.1   0.07045      26.0         H               346.5  0.045028  0.014030  0.000559  1.269586  0.683964  1.856218  1.050565      9.89    9.0562   97.2279   0.10362   6.49409   0.14383   0.00304 174.30710   9.22469     503.0  0.487370  0.001444  0.000146  0.000093  0.175075  6.832520  0.550934    125.37  1.000087  1.000006     2.287    11.403      79.7      93.8     213.1     495.7     11.60     -1.50     -1.97      1.50     -1.11      1.23      0.84      2.06      0.28      0.09      0.40     -0.63     -1.70     -0.78      1.36     -7.76     -1.99      3.25      1.16     -0.09
     -38.147041    -147.909836     186.1      0.79      2.08     146.5         2         1      2447      1000    549.57   -12.600      12.8      36.1   259.821     0.554      80.4   0.07369      26.0         H               346.5  0.046623  0.014014  0.000540  1.253893  0.704799  1.779080  1.055757      7.07   10.4289  124.9734   0.10841   6.75040   0.12896   0.00233 222.84943  10.50955     580.2  0.491268  0.001335  0.000143  0.000092  0.173703  6.821261  0.556572    110.08  1.000103  1.000008     2.332    11.989      79.7      95.1     286.8     603.8     11.50     -1.51     -2.28      1.32     -1.14      1.12      1.06      1.27      0.31     -0.08      0.30     -0.66     -1.09     -0.84      1.18     -7.76     -1.00      2.99      1.19     -0.71
     -38.131390    -147.843796     184.1      0.74      2.08     141.3         2         2      2447      2302    518.58   -12.852      12.6      36.5   258.983     0.548      57.5   0.07126      25.3         H               346.5  0.045503  0.013925  0.000543  1.249283  0.688470  1.814578  1.050916      7.29    9.8341  112.4065   0.10462   6.64495   0.13501   0.00259 201.29404   9.95618     544.9  0.487727  0.001125  0.000069  0.000091  0.174878  6.845590  0.551117    111.72  1.000081  1.000005     2.280    11.309      78.1      94.7     252.1     541.2     11.56     -1.16     -2.25      1.37     -2.00      1.54      1.21      1.91      0.46     -0.06      0.46     -0.69     -1.53     -0.71      1.14     -8.07     -3.50      3.75      1.50      0.43
     -38.115845    -147.778351     185.5      0.73      2.08     138.0         2         3      2447      3604    508.80   -12.935      12.8      36.9   258.934     0.548      67.1   0.07116      25.8         H               346.5  0.045340  0.013764  0.000512  1.242837  0.693012  1.793385  1.050739      7.51    9.6404  108.3892   0.10369   6.60860   0.13685   0.00269 194.30002   9.77737     534.7  0.487875  0.001307  0.000097  0.000092  0.174452  6.827655  0.551004    111.23  1.000087  1.000006     2.303    11.656      79.7      94.4     242.5     540.8     11.56     -1.27     -2.07      1.37     -1.46      1.48      1.03      1.43      0.33     -0.42      0.28     -0.60     -1.59     -0.85      1.76     -7.84     -2.11      3.53      1.45     -0.76
     -38.095161    -147.929138     197.7      0.86      2.08     147.0         3         1      3894      1000    570.24   -12.439      13.1      36.1   258.790     0.551      83.5   0.07378      30.5         H               346.5  0.046503  0.014070  0.000550  1.266062  0.715594  1.769247  1.053853      7.59   10.8279  133.0281   0.10893   6.81794   0.12512   0.00216 237.07347  10.86734     600.9  0.489175  0.001390  0.000155  0.000091  0.173777  6.831382  0.554254    113.63  1.000082  1.000007     2.309    11.632      81.3      95.4     309.4     609.0     11.54     -0.98     -2.18      1.34     -1.21      1.22      1.04      1.75      0.28     -0.03      0.77     -0.74     -1.59     -0.63      1.40     -7.66     -2.41      3.65      2.25     -0.39
     -38.079525    -147.863144     166.0      0.79      2.08     138.0         3         2      3894      2302    529.51   -12.761      12.8      36.5   259.894     0.553      72.3   0.07323      19.6         H               346.5  0.046376  0.014219  0.000471  1.266998  0.702532  1.803474  1.055067      7.44   10.0435  117.0460   0.10669   6.68256   0.13291   0.00250 209.11577  10.15429     558.6  0.490682  0.001276  0.000116  0.000092  0.177071  6.850806  0.555307    119.89  1.000090  1.000008     2.317    11.687      79.7      94.9     265.0     552.0     11.66     -1.17     -2.03      1.53     -1.59      1.25      0.43      1.28      0.66      0.11      0.25     -0.83     -1.77     -0.37      1.68     -6.73     -2.16      3.08      0.53      0.57
     -38.063988    -147.797760     186.6      0.80      2.08     131.3         3         3      3894      3604    526.69   -12.784      13.0      36.9   259.352     0.551      65.1   0.07369      26.2         H               346.5  0.046972  0.014246  0.000498  1.276777  0.706140  1.808107  1.053637      8.52    9.9878  115.7296   0.10816   6.67272   0.13309   0.00253 206.42384  10.09472     554.9  0.488840  0.001172  0.000102  0.000091  0.175753  6.836986  0.554141    113.88  1.000085  1.000006     2.319    11.910      76.6      94.7     261.6     575.7     11.58     -1.49     -1.69      1.62     -1.48      1.11      0.63      1.66      0.17     -0.99      0.32      0.00     -1.82     -0.63      1.68     -6.91     -1.66      2.66      1.08     -0.16
