corner points
-167.2404022    42.81496429
-167.2835541    42.9885788
-167.0007324    42.84647751
-167.0431976    43.02009583
========== RESULTS WAVE VERSION 16.10.2018 ====================
IMAGE SIZE  X: 4376     Y:4774    col:row     POLARIZATION:VV
COVERAGE    X: 19.81192232km       Y: 19.57362329km 
RESOLUTION dX: 4.527404553m       dY:4.100046771m  
resolution of original product 4.527404553m x 4.100046771m;   raster step x:5998.811032m  
===============================================================
FLAGS: H=HIGH PROBABILITY SEA STATE, I=LAND(ISLAND), O=OUTLIER NO SEA STATE, N=NO WIND AVAILABLE, SEA STATE NOT VISIBLE, M=MEAN PROBABILITY SEA STATE, L= LOW PROBABILITY SEA STATE
Filtering wave length
 integration  Lmin=1m
 integration  Lmax=2200m
  peak        Lmin=100m
               FFT=1024pixels, 4636.062262m 
   mean-Hs (SWH_c)=4.335252686m
         mean-wind=17.86131668m/s
--------------0--------------1---------2---------3---------4---------5---------6---------7---------8---------9--------10--------11--------12--------13--------14--------15--------16--------17--------18--------19------------------20--------21--------22--------23--------24--------25--------26--------27--------28--------29--------30--------31--------32--------33--------34--------35--------36--------37--------38--------39--------40--------41--------42--------43--------44--------45--------46--------47--------48--------49--------50--------51--------52--------53--------54--------55--------56--------57--------58--------59--------60--------61--------62--------63--------64--------65--------66--------67--------68--------69--------70--------71--------72--------73
            LAT            LON  P-LENGHT     SWH_o     SWH_c     P-DIR      LINE     POINT     ROW-Y     COL-X  M-INTENC        dB      WIND INC-ANGLE  ENERGY-M  ENERGY-N  ENERGY-R ENERGY-NN  FG-DEPTH      FLAG         HEADING-DEG    E30-75   E75-390  E390-600 meanincut   meanout   cut/out  STD-NORM  SPEC-MAX   GL-MEAN    GL-VAR      CORR   ENTROPY   HOMOGEN    ENERGY  CONTRAST  DISSIMIL     STD-O    E 1-30 E600-2000   E2000 >      GODA  LONG-HIG     Tmean  CONVOLUT  MEAN-DIR  relation     Sy/Sx  SKEWNESS  KURTOSIS  cutoff-A >50/10000     INT*V   INT-LOG  S-1_g1f1  S-2_g1f2  S-3_g1f3  S-4_g2f1  S-5_g2f2  S-6_g2f3  S-7_g3f1  S-8_g3f2  S-9_g3f3 S-10_g1f4 S-11_g2f4 S-12_g3f4 S-13_g1f5 S-14_g2f5 S-15_g3f5 S-16_g4f1 S-17_g4f2 S-18_g4f3 S-19_g4f4 S-20_g4f5
--------------1--------------2---------3---------4---------5---------6---------7---------8---------9--------10--------11--------12--------13--------14--------15--------16--------17--------18--------19--------20------------------21--------22--------23--------24--------25--------26--------27--------28--------29--------30--------31--------32--------33--------34--------35--------36--------37--------38--------39--------40--------41--------42--------43--------44--------45--------46--------47--------48--------49--------50--------51--------52--------53--------54--------55--------56--------57--------58--------59--------60--------61--------62--------63--------64--------65--------66--------67--------68--------69--------70--------71--------72--------73--------74
      42.858669    -167.194031     198.0      4.53      6.27     100.9         1         1      1000      1000    966.23   -10.149      17.9      36.7   266.810     0.648     114.6   0.11405      30.7         H               346.2  0.056788  0.053253  0.002223  3.770631  0.768691  4.905261  1.141164    122.82   17.5545  297.4569   0.16896   7.50898   0.09092   0.00097 494.39752  16.34075    1102.7  0.534157  0.001462  0.000090  0.000292  0.236147  7.514701  0.656233    103.15  1.000267  1.000032     2.783    16.535     190.7      98.6    1019.3    1163.3     15.26     -4.25     12.17      2.34     -1.86      5.77     -2.61      2.05     -5.41     -6.25     -3.15      2.65      5.31      4.10     -1.10     -7.68     -0.44      3.70     -0.49      2.11
      42.868263    -167.121185     190.0      4.23      6.27     100.4         1         2      1000      2325    908.04   -10.419      17.7      37.1   263.794     0.638     129.5   0.11133      27.4         H               346.2  0.056337  0.049656  0.002509  3.579720  0.767542  4.663875  1.133172    103.99   16.6639  276.0572   0.16617   7.45395   0.09341   0.00104 460.36682  15.67204    1028.9  0.528043  0.001734  0.000140  0.000272  0.235072  7.491181  0.646073    102.97  1.000239  1.000027     2.799    18.033     174.0      98.3     888.7    1172.9     15.28     -5.18     11.19      1.67     -1.30      5.78     -1.99      1.87     -5.11     -6.67     -2.98      3.06      4.57      3.88     -0.72     -9.42      1.71      4.59     -1.09      2.72
      42.877728    -167.048920     237.7      4.19      6.27     103.1         1         3      1000      3650    875.03   -10.580      17.7      37.5   264.936     0.640     127.4   0.11082      55.8         H               346.2  0.056499  0.049413  0.001988  3.639662  0.770647  4.722863  1.134974    111.86   16.1208  264.1620   0.16620   7.41290   0.09576   0.00110 440.51917  15.25571     993.1  0.531123  0.001420  0.000182  0.000256  0.233380  7.456128  0.648125    103.06  1.000259  1.000028     2.818    18.202     174.0      98.2     824.9    1123.2     15.41     -4.14     11.81      1.63     -1.42      5.00     -2.82      1.77     -5.47     -5.97     -2.40      2.59      5.08      3.65     -1.47     -7.82     -0.15      3.34     -0.90      2.81
      42.911884    -167.207214     223.4      4.40      6.27     105.4         2         1      2463      1000    959.28   -10.181      17.9      36.7   265.365     0.646     167.3   0.11471      44.2         H               346.2  0.057592  0.051910  0.002163  3.529987  0.764881  4.615080  1.140581    113.72   17.4509  294.9603   0.16978   7.50201   0.09146   0.00098 489.75977  16.24389    1094.1  0.532495  0.002006  0.000329  0.000282  0.236582  7.465930  0.655202    106.36  1.000256  1.000028     2.798    16.847     181.9      98.6    1002.7    1200.5     15.67     -5.31     11.98      1.32     -1.73      4.61     -3.34      3.28     -5.76     -7.53     -2.45      4.00      4.66      3.29     -1.39     -8.56     -0.57      2.50      0.00      2.91
      42.921478    -167.134277     234.3      4.31      6.27     106.2         2         2      2463      2325    913.49   -10.393      17.8      37.1   266.100     0.645     118.1   0.11266      52.6         H               346.2  0.057517  0.051117  0.002269  3.657781  0.767194  4.767742  1.139537    129.07   16.7316  278.0663   0.16766   7.45733   0.09340   0.00104 462.88977  15.71589    1041.0  0.533215  0.001584  0.000109  0.000274  0.232904  7.467189  0.653945    104.28  1.000234  1.000027     2.835    17.475     181.9      98.3     905.4    1137.5     15.37     -4.84     11.57      1.56     -1.58      5.28     -2.64      2.34     -5.81     -7.09     -2.47      2.99      5.02      3.42     -1.31     -8.34     -0.27      4.97      0.00      2.55
      42.930943    -167.061966     213.5      4.29      6.27     104.7         2         3      2463      3650    885.95   -10.526      17.8      37.5   263.722     0.637     119.6   0.10975      38.2         H               346.2  0.056017  0.050229  0.002211  3.625015  0.751620  4.822937  1.132487    115.98   16.3087  269.0843   0.16672   7.42550   0.09504   0.00109 448.44598  15.41451    1003.4  0.527552  0.001574  0.000119  0.000276  0.234754  7.490840  0.645529    102.63  1.000246  1.000027     2.724    15.840     181.9      98.2     845.3    1110.6     15.31     -4.23     11.65      1.80     -1.90      5.58     -2.15      1.89     -4.98     -6.20     -3.11      2.77      5.08      4.14     -0.91     -8.53     -0.26      4.06     -1.29      2.72
      42.965099    -167.220398     237.7      4.35      6.27     103.1         3         1      3926      1000    993.70   -10.027      18.2      36.7   263.306     0.639     128.2   0.11230      55.8         H               346.2  0.057457  0.050034  0.002415  3.588282  0.748659  4.792945  1.134296    148.08   18.0117  306.4853   0.16733   7.53849   0.08894   0.00093 510.40375  16.67093    1127.0  0.528224  0.001611  0.000145  0.000284  0.234503  7.454827  0.647903    102.71  1.000265  1.000030     2.763    16.837     181.9      98.8    1071.1    1239.7     15.57     -4.37     11.80      1.34     -1.64      5.42     -2.83      2.34     -6.59     -6.43     -2.93      3.67      5.79      3.50     -2.12     -9.30     -0.25      5.03     -1.56      2.33
      42.974693    -167.147400     228.7      4.32      6.27      99.4         3         2      3926      2325    945.54   -10.243      18.1      37.1   264.174     0.640     143.6   0.11233      48.0         H               346.2  0.057168  0.050197  0.002093  3.463632  0.765270  4.526027  1.134944    134.20   17.2589  289.3768   0.16653   7.49526   0.09137   0.00098 482.37167  16.12111    1073.2  0.528851  0.001671  0.000261  0.000286  0.231158  7.455633  0.648137    101.72  1.000275  1.000032     2.768    16.337     181.9      98.5     968.7    1181.3     15.11     -4.67     11.66      2.23     -1.68      5.90     -2.36      2.74     -5.24     -6.98     -2.68      3.07      5.88      4.17     -1.82     -7.28     -1.28      4.80     -0.46      3.34
      42.984158    -167.075012     196.0      4.40      6.27     103.5         3         3      3926      3650    888.06   -10.516      17.8      37.5   264.424     0.641     115.9   0.11178      29.8         H               346.2  0.056482  0.052026  0.002284  3.676580  0.755669  4.865330  1.135285    120.83   16.3307  270.0762   0.16974   7.42618   0.09538   0.00109 448.46762  15.41140    1008.2  0.528761  0.001566  0.000082  0.000294  0.237857  7.532044  0.649700    103.79  1.000221  1.000025     2.723    15.545     181.9      98.2     851.6    1092.6     15.39     -5.06     11.55      1.94     -1.53      5.85     -2.61      2.22     -5.48     -6.69     -3.29      3.02      5.12      3.59     -1.26     -8.53      0.50      4.21     -0.95      1.95
