corner points
-150.8644409    -36.09864426
-150.9208374    -35.92084885
-150.6434479    -36.05044937
-150.7004547    -35.8727684
========== RESULTS WAVE VERSION 16.10.2018 ====================
IMAGE SIZE  X: 5471     Y:4916    col:row     POLARIZATION:VV
COVERAGE    X: 20.51913016km       Y: 20.3658161km 
RESOLUTION dX: 3.750526441m       dY:4.142761616m  
resolution of original product 3.750526441m x 4.142761616m;   raster step x:5997.091779m  
===============================================================
FLAGS: H=HIGH PROBABILITY SEA STATE, I=LAND(ISLAND), O=OUTLIER NO SEA STATE, N=NO WIND AVAILABLE, SEA STATE NOT VISIBLE, M=MEAN PROBABILITY SEA STATE, L= LOW PROBABILITY SEA STATE
Filtering wave length
 integration  Lmin=1m
 integration  Lmax=2200m
  peak        Lmin=100m
               FFT=1024pixels, 3840.539076m 
   mean-Hs (SWH_c)=0.2m
         mean-wind=7.846090317m/s
--------------0--------------1---------2---------3---------4---------5---------6---------7---------8---------9--------10--------11--------12--------13--------14--------15--------16--------17--------18--------19------------------20--------21--------22--------23--------24--------25--------26--------27--------28--------29--------30--------31--------32--------33--------34--------35--------36--------37--------38--------39--------40--------41--------42--------43--------44--------45--------46--------47--------48--------49--------50--------51--------52--------53--------54--------55--------56--------57--------58--------59--------60--------61--------62--------63--------64--------65--------66--------67--------68--------69--------70--------71--------72--------73
            LAT            LON  P-LENGHT     SWH_o     SWH_c     P-DIR      LINE     POINT     ROW-Y     COL-X  M-INTENC        dB      WIND INC-ANGLE  ENERGY-M  ENERGY-N  ENERGY-R ENERGY-NN  FG-DEPTH      FLAG         HEADING-DEG    E30-75   E75-390  E390-600 meanincut   meanout   cut/out  STD-NORM  SPEC-MAX   GL-MEAN    GL-VAR      CORR   ENTROPY   HOMOGEN    ENERGY  CONTRAST  DISSIMIL     STD-O    E 1-30 E600-2000   E2000 >      GODA  LONG-HIG     Tmean  CONVOLUT  MEAN-DIR  relation     Sy/Sx  SKEWNESS  KURTOSIS  cutoff-A >50/10000     INT*V   INT-LOG  S-1_g1f1  S-2_g1f2  S-3_g1f3  S-4_g2f1  S-5_g2f2  S-6_g2f3  S-7_g3f1  S-8_g3f2  S-9_g3f3 S-10_g1f4 S-11_g2f4 S-12_g3f4 S-13_g1f5 S-14_g2f5 S-15_g3f5 S-16_g4f1 S-17_g4f2 S-18_g4f3 S-19_g4f4 S-20_g4f5
--------------1--------------2---------3---------4---------5---------6---------7---------8---------9--------10--------11--------12--------13--------14--------15--------16--------17--------18--------19--------20------------------21--------22--------23--------24--------25--------26--------27--------28--------29--------30--------31--------32--------33--------34--------35--------36--------37--------38--------39--------40--------41--------42--------43--------44--------45--------46--------47--------48--------49--------50--------51--------52--------53--------54--------55--------56--------57--------58--------59--------60--------61--------62--------63--------64--------65--------66--------67--------68--------69--------70--------71--------72--------73--------74
     -36.053459    -150.834457     221.2      0.47      1.86     159.8         1         1      1000      1000   3018.62    -5.202       7.8      23.0   314.383     0.741      49.2   0.17538      42.7         H               346.8  0.100122  0.030348  0.000685  2.980439  0.956405  3.116294  1.220690     12.09    5.5399   51.8611   0.26423   5.52660   0.23848   0.01007  76.31494   5.61553    3684.6  0.609602  0.000532  0.000012  0.000278  0.155927  6.652680  0.774941     84.34  1.000219  1.000029     3.372    24.635      94.9      85.8      98.8     494.0     12.03      0.05     -1.62      1.90     -0.47      1.81     -0.64      0.45      1.76      0.47      0.18     -0.36     -1.08     -0.37      0.95     -4.56     -0.58      2.24     -0.02      0.05
     -36.039249    -150.769196     248.7      0.48      1.86      40.4         1         2      1000      2599   2773.27    -5.570       7.9      23.4   313.358     0.737      53.8   0.17418      69.5         H               346.8  0.101770  0.029502  0.000754  2.991754  0.932570  3.208075  1.217715      9.99    5.0520   43.9125   0.26406   5.35984   0.25371   0.01185  64.63468   5.15601    3376.7  0.605086  0.000655  0.000019  0.000324  0.149455  6.613845  0.771264     85.70  1.000224  1.000030     3.366    24.209      97.3      84.4      82.7     434.8     11.95      0.88     -1.34      1.86     -0.52      1.72     -0.11      0.30      1.67      0.13      0.78     -0.07     -1.00     -0.12      0.91     -5.24     -1.44      2.06      0.95      0.22
     -36.025269    -150.705170     197.8      0.48      1.86     158.9         1         3      1000      4198   2518.23    -5.989       7.9      23.9   313.494     0.735      66.4   0.17242      30.6         H               346.8  0.097354  0.030948  0.000793  3.111357  0.913992  3.404140  1.216486     11.76    4.5482   36.2865   0.26192   5.17162   0.27117   0.01418  53.56479   4.68355    3063.4  0.605807  0.000819  0.000040  0.000281  0.153948  6.674655  0.768686     85.50  1.000225  1.000028     3.509    29.889      97.3      82.6      67.7     457.9     11.93      0.36     -1.74      1.86     -0.54      1.96      0.01      0.38      1.70      0.21      0.77     -0.31     -1.12     -0.38      0.85     -5.39     -0.75      2.95      1.40      0.01
     -36.001087    -150.851120     248.4      0.47      1.86      45.4         2         1      2448      1000   3041.06    -5.170       7.9      23.0   314.914     0.744      52.3   0.17706      69.1         H               346.8  0.098812  0.031289  0.000699  3.052878  0.971815  3.141418  1.222560     16.42    5.5855   52.4091   0.26462   5.54248   0.23640   0.00982  77.08175   5.65315    3717.8  0.613467  0.000559  0.000017  0.000254  0.159564  6.681974  0.778865     84.56  1.000205  1.000025     3.532    28.508      92.7      86.1     100.9     540.6     12.04      0.74     -1.80      1.90     -0.84      2.21     -0.67      0.29      1.80      0.46      0.84     -0.59     -1.66     -0.18      1.65     -4.44     -1.66      2.90      1.27      0.32
     -35.986885    -150.785904     247.1      0.47      1.86      35.4         2         2      2448      2599   2728.42    -5.641       7.7      23.4   313.061     0.734      48.4   0.17230      67.0         H               346.8  0.096475  0.030928  0.000664  3.101931  0.947080  3.275255  1.213685     13.14    4.9679   42.4556   0.26111   5.33094   0.25587   0.01212  62.74012   5.07977    3311.4  0.606158  0.000491  0.000014  0.000253  0.157762  6.688442  0.767469     85.08  1.000220  1.000028     3.370    24.477      94.9      84.2      79.8     433.2     11.98      0.13     -1.15      2.22     -0.37      1.96     -0.78      0.30      1.18      0.59      0.98     -0.45     -1.70     -0.06      1.49     -3.99     -0.52      2.91      1.18      0.44
     -35.972916    -150.721939     262.6      0.47      1.86       7.9         2         3      2448      4198   2508.51    -6.006       7.9      23.9   314.198     0.740      65.3   0.17436     124.8         H               346.8  0.099118  0.030324  0.000802  3.011078  0.958994  3.139832  1.219774     11.34    4.5308   36.2495   0.26326   5.16389   0.27244   0.01427  53.41268   4.66435    3059.9  0.609409  0.000784  0.000029  0.000286  0.155115  6.656962  0.774179     85.51  1.000230  1.000031     3.537    29.040      97.3      82.7      67.6     445.5     12.13      0.13     -1.64      1.54      0.26      2.56      0.07      0.32      1.32      0.75      0.37     -0.41     -1.06     -0.37      1.15     -5.76      0.56      3.99      0.38     -0.02
     -35.948711    -150.867752     184.2      0.46      1.86     134.0         3         1      3896      1000   2983.25    -5.253       7.7      23.0   312.002     0.727      52.1   0.16716      25.3         H               346.8  0.093565  0.030456  0.000728  2.993067  0.940977  3.180806  1.208842     12.11    5.4724   49.7053   0.25629   5.50989   0.23820   0.01006  73.93297   5.55585    3605.9  0.602102  0.000549  0.000017  0.000232  0.161784  6.703963  0.759540     85.64  1.000201  1.000023     3.401    25.832      88.6      85.9      95.4     493.8     12.23      0.05     -1.82      1.77     -0.42      2.63     -0.55      0.79      1.81      0.53      0.94     -0.41     -1.25     -0.48      1.39     -5.08     -0.96      3.62      1.40      0.16
     -35.934521    -150.802597     228.9      0.47      1.86     166.2         3         2      3896      2599   2732.61    -5.634       7.8      23.5   310.902     0.725      56.8   0.16804      48.1         H               346.8  0.096371  0.030347  0.000830  2.909627  0.960741  3.028525  1.207163     16.32    4.9787   42.1812   0.25917   5.33679   0.25506   0.01199  62.49831   5.08321    3298.6  0.597455  0.000642  0.000025  0.000247  0.158850  6.673722  0.758110     86.03  1.000224  1.000028     3.324    24.132      92.7      84.3      79.5     441.3     12.16      0.51     -2.02      1.45     -0.64      2.12     -0.47      0.36      1.49      0.85      0.71     -0.91     -0.61     -0.16      1.05     -5.76     -1.58      3.34      0.88     -0.34
     -35.920563    -150.738678     260.1      0.49      1.86      42.6         3         3      3896      4198   2556.04    -5.924       8.1      23.9   312.577     0.729      49.9   0.16889     101.5         H               346.8  0.097806  0.030196  0.000787  2.993270  0.934658  3.202531  1.210941     10.02    4.6276   37.2346   0.25879   5.20382   0.26841   0.01375  55.19717   4.75974    3094.9  0.600302  0.000558  0.000012  0.000297  0.154259  6.655494  0.762205     85.75  1.000210  1.000027     3.379    25.498      94.9      83.0      69.5     426.0     12.09      0.07     -1.45      1.81     -0.54      2.52     -0.18      0.53      1.48      0.84      0.42     -0.46     -1.03     -0.16      0.92     -5.42     -1.08      3.33      0.33      0.30
