corner points
-164.9438782    23.97025871
-164.983902    24.15054512
-164.75177    24.00572586
-164.7915039    24.18601036
========== RESULTS WAVE VERSION 16.10.2018 ====================
IMAGE SIZE  X: 5471     Y:4928    col:row     POLARIZATION:VV
COVERAGE    X: 19.86737916km       Y: 20.40581181km 
RESOLUTION dX: 3.631398129m       dY:4.140789735m  
resolution of original product 3.631398129m x 4.140789735m;   raster step x:5999.069709m  
===============================================================
FLAGS: H=HIGH PROBABILITY SEA STATE, I=LAND(ISLAND), O=OUTLIER NO SEA STATE, N=NO WIND AVAILABLE, SEA STATE NOT VISIBLE, M=MEAN PROBABILITY SEA STATE, L= LOW PROBABILITY SEA STATE
Filtering wave length
 integration  Lmin=1m
 integration  Lmax=2200m
  peak        Lmin=100m
               FFT=1024pixels, 3718.551684m 
   mean-Hs (SWH_c)=1.751208801m
         mean-wind=8.066049576m/s
--------------0--------------1---------2---------3---------4---------5---------6---------7---------8---------9--------10--------11--------12--------13--------14--------15--------16--------17--------18--------19------------------20--------21--------22--------23--------24--------25--------26--------27--------28--------29--------30--------31--------32--------33--------34--------35--------36--------37--------38--------39--------40--------41--------42--------43--------44--------45--------46--------47--------48--------49--------50--------51--------52--------53--------54--------55--------56--------57--------58--------59--------60--------61--------62--------63--------64--------65--------66--------67--------68--------69--------70--------71--------72--------73
            LAT            LON  P-LENGHT     SWH_o     SWH_c     P-DIR      LINE     POINT     ROW-Y     COL-X  M-INTENC        dB      WIND INC-ANGLE  ENERGY-M  ENERGY-N  ENERGY-R ENERGY-NN  FG-DEPTH      FLAG         HEADING-DEG    E30-75   E75-390  E390-600 meanincut   meanout   cut/out  STD-NORM  SPEC-MAX   GL-MEAN    GL-VAR      CORR   ENTROPY   HOMOGEN    ENERGY  CONTRAST  DISSIMIL     STD-O    E 1-30 E600-2000   E2000 >      GODA  LONG-HIG     Tmean  CONVOLUT  MEAN-DIR  relation     Sy/Sx  SKEWNESS  KURTOSIS  cutoff-A >50/10000     INT*V   INT-LOG  S-1_g1f1  S-2_g1f2  S-3_g1f3  S-4_g2f1  S-5_g2f2  S-6_g2f3  S-7_g3f1  S-8_g3f2  S-9_g3f3 S-10_g1f4 S-11_g2f4 S-12_g3f4 S-13_g1f5 S-14_g2f5 S-15_g3f5 S-16_g4f1 S-17_g4f2 S-18_g4f3 S-19_g4f4 S-20_g4f5
--------------1--------------2---------3---------4---------5---------6---------7---------8---------9--------10--------11--------12--------13--------14--------15--------16--------17--------18--------19--------20------------------21--------22--------23--------24--------25--------26--------27--------28--------29--------30--------31--------32--------33--------34--------35--------36--------37--------38--------39--------40--------41--------42--------43--------44--------45--------46--------47--------48--------49--------50--------51--------52--------53--------54--------55--------56--------57--------58--------59--------60--------61--------62--------63--------64--------65--------66--------67--------68--------69--------70--------71--------72--------73--------74
      24.013515    -164.916000     298.7      1.68      3.85      23.7         1         1      1000      1000   2681.13    -5.717       8.2      23.7   450.831     0.804     145.8   0.20028     100.0         H               347.6  0.089798  0.069714  0.004229  5.043310  0.965498  5.223533  1.271795    138.81    4.8628   44.3554   0.28787   5.26358   0.27310   0.01450  63.17258   4.97229    3409.8  0.639318  0.001233  0.000032  0.000223  0.218987  7.251133  0.848355     45.01  1.000105  1.000011     3.554    26.749     107.8      82.3      81.5     450.2     15.73      8.75     -4.80     -6.34     -4.85      8.39      0.75     -1.56      0.01     -1.47      4.02      0.42     -1.92      0.36      2.71    -19.03     -9.66     16.63      5.66     -0.59
      24.024342    -164.857407     339.8      1.66      3.85      15.9         1         2      1000      2652   2502.21    -6.017       8.5      24.2   450.623     0.806     156.8   0.20302     100.0         H               347.6  0.090758  0.068931  0.005260  4.915647  0.942519  5.215438  1.271249    149.49    4.5009   38.8596   0.28878   5.12236   0.28834   0.01682  55.27527   4.62866    3180.9  0.640752  0.001180  0.000036  0.000229  0.220625  7.241310  0.851337     44.51  1.000050  1.000006     3.571    28.263     110.8      80.8      70.5     448.0     16.14      8.27     -5.90     -7.85     -5.44      9.60      1.71     -0.60     -1.22     -2.02      4.37     -0.58     -0.40     -1.28      3.35    -23.02    -11.75     20.45      7.91     -4.99
      24.034952    -164.799866     330.3      1.73      3.85      20.8         1         3      1000      4304   2163.96    -6.648       8.1      24.7   451.554     0.806     166.6   0.20194     100.0         H               347.6  0.088647  0.071452  0.004750  4.996390  0.953408  5.240558  1.271884    167.48    3.8515   29.6423   0.28929   4.84422   0.31856   0.02206  42.13422   4.01228    2752.3  0.640418  0.001281  0.000054  0.000234  0.223176  7.276456  0.851425     44.04  1.000118  1.000013     3.531    26.463     110.8      77.9      52.8     379.9     16.40     10.26     -3.82     -7.66     -6.71      8.08      0.86     -1.03     -1.19     -1.01      4.48     -1.42     -2.05      0.59      2.83    -21.54    -14.05     17.05      8.84     -0.63
      24.066500    -164.927750     319.2      1.71      3.85      25.4         2         1      2448      1000   2707.23    -5.675       8.3      23.7   450.474     0.805     166.4   0.20168     100.0         H               347.6  0.089780  0.070158  0.004421  5.351886  0.953494  5.612923  1.271701    138.40    4.9209   45.4530   0.28947   5.28416   0.27113   0.01421  64.59212   5.02058    3442.8  0.639406  0.001503  0.000066  0.000222  0.217148  7.264294  0.849641     56.16  1.000132  1.000016     3.526    25.996     110.8      82.5      83.4     453.8     15.59      8.36     -3.73     -5.90     -4.55      8.71      1.39     -1.18     -0.59     -1.01      4.34     -0.83     -1.04      0.17      3.13    -19.34    -10.27     17.45      7.46     -1.50
      24.077326    -164.869125     330.3      1.81      3.85      20.8         2         2      2448      2652   2466.20    -6.080       8.4      24.2   452.623     0.815     178.0   0.20716     100.0         H               347.6  0.091516  0.073322  0.004810  5.339151  0.971947  5.493251  1.280341    163.19    4.4262   38.1311   0.29375   5.09050   0.29169   0.01733  53.86030   4.55783    3157.4  0.644769  0.001562  0.000057  0.000229  0.221466  7.259359  0.862322     45.08  1.000104  1.000011     3.634    28.523     110.8      80.5      69.0     434.3     15.88      8.98     -3.68     -6.42     -5.50      8.98      1.31     -1.27     -1.09     -1.20      4.64     -1.57     -1.00      0.06      3.55    -20.02    -11.67     18.20      8.60     -2.60
      24.087936    -164.811554     347.1      1.73      3.85      10.8         2         3      2448      4304   2071.13    -6.838       7.6      24.7   450.383     0.800     169.2   0.19798     100.0         H               347.6  0.087181  0.072109  0.004819  5.119779  0.929075  5.510621  1.267127    140.76    3.6649   27.0193   0.28580   4.75846   0.32700   0.02386  38.59422   3.83930    2624.3  0.634759  0.001395  0.000050  0.000230  0.227320  7.302279  0.844371     45.78  1.000070  1.000007     3.503    26.073     110.8      77.0      48.0     337.7     15.92      8.51     -4.15     -6.66     -5.45      9.43      1.58     -1.16     -0.54     -0.87      3.58     -0.64     -0.51     -0.00      3.80    -20.13    -11.04     19.00      6.41     -3.14
      24.119484    -164.939499     330.3      1.90      3.85      20.8         3         1      3896      1000   2691.35    -5.700       8.3      23.7   455.356     0.819     165.1   0.20803     100.0         H               347.6  0.092510  0.075964  0.004099  5.603473  0.993380  5.640814  1.284702    147.72    4.8809   45.4822   0.29524   5.26419   0.27453   0.01471  64.10753   4.98354    3457.6  0.645697  0.001409  0.000043  0.000228  0.218943  7.262533  0.866734     57.00  1.000141  1.000016     3.591    27.469     110.8      82.1      83.2     468.0     15.69      9.55     -2.38     -5.40     -5.46      7.50      0.48     -1.78     -0.31     -0.39      4.07     -1.56     -2.10      1.13      3.00    -17.41    -11.40     14.30      7.33      0.69
      24.130310    -164.880859     330.3      1.73      3.85      20.8         3         2      3896      2652   2329.29    -6.328       7.8      24.2   451.474     0.807     175.4   0.20214     100.0         H               347.6  0.089127  0.072409  0.004346  5.370967  0.960811  5.590036  1.275591    159.14    4.1857   34.3050   0.28960   4.99303   0.30126   0.01895  48.73972   4.33200    2971.1  0.639730  0.001847  0.000065  0.000230  0.218639  7.266525  0.852502     49.94  1.000144  1.000017     3.583    27.385     110.8      79.6      61.8     405.1     15.56      8.02     -3.47     -5.78     -4.90      8.50      1.35     -1.00      0.47     -1.31      3.87     -0.53     -0.89      0.76      2.55    -18.45    -10.51     15.75      6.17      0.60
      24.140919    -164.823257     347.1      1.80      3.85      10.8         3         3      3896      4304   2031.99    -6.921       7.5      24.7   452.497     0.810     163.5   0.20368     100.0         H               347.6  0.088767  0.075124  0.004819  5.411612  0.937055  5.775127  1.274304    162.93    3.5883   26.1891   0.29035   4.71939   0.33186   0.02489  37.17035   3.76197    2589.3  0.639999  0.001464  0.000045  0.000226  0.222807  7.332302  0.856244     46.29  1.000057  1.000007     3.698    33.178     110.8      76.4      46.6     386.8     15.61      7.72     -4.24     -5.76     -4.18      9.89      1.57     -1.26     -0.56     -1.02      4.13     -0.63      0.92     -1.12      3.57    -19.15     -8.93     19.86      7.02     -5.27
