corner points
-169.0900879    49.84131241
-169.13974    50.01425934
-168.8169708    49.87320709
-168.8656158    50.0461731
========== RESULTS WAVE VERSION 16.10.2018 ====================
IMAGE SIZE  X: 4376     Y:4770    col:row     POLARIZATION:VV
COVERAGE    X: 19.85402721km       Y: 19.50713113km 
RESOLUTION dX: 4.537026329m       dY:4.089545309m  
resolution of original product 4.537026329m x 4.089545309m;   raster step x:5997.948807m  
===============================================================
FLAGS: H=HIGH PROBABILITY SEA STATE, I=LAND(ISLAND), O=OUTLIER NO SEA STATE, N=NO WIND AVAILABLE, SEA STATE NOT VISIBLE, M=MEAN PROBABILITY SEA STATE, L= LOW PROBABILITY SEA STATE
Filtering wave length
 integration  Lmin=1m
 integration  Lmax=2200m
  peak        Lmin=100m
               FFT=1024pixels, 4645.914961m 
   mean-Hs (SWH_c)=3.60446106m
         mean-wind=16.4942379m/s
--------------0--------------1---------2---------3---------4---------5---------6---------7---------8---------9--------10--------11--------12--------13--------14--------15--------16--------17--------18--------19------------------20--------21--------22--------23--------24--------25--------26--------27--------28--------29--------30--------31--------32--------33--------34--------35--------36--------37--------38--------39--------40--------41--------42--------43--------44--------45--------46--------47--------48--------49--------50--------51--------52--------53--------54--------55--------56--------57--------58--------59--------60--------61--------62--------63--------64--------65--------66--------67--------68--------69--------70--------71--------72--------73
            LAT            LON  P-LENGHT     SWH_o     SWH_c     P-DIR      LINE     POINT     ROW-Y     COL-X  M-INTENC        dB      WIND INC-ANGLE  ENERGY-M  ENERGY-N  ENERGY-R ENERGY-NN  FG-DEPTH      FLAG         HEADING-DEG    E30-75   E75-390  E390-600 meanincut   meanout   cut/out  STD-NORM  SPEC-MAX   GL-MEAN    GL-VAR      CORR   ENTROPY   HOMOGEN    ENERGY  CONTRAST  DISSIMIL     STD-O    E 1-30 E600-2000   E2000 >      GODA  LONG-HIG     Tmean  CONVOLUT  MEAN-DIR  relation     Sy/Sx  SKEWNESS  KURTOSIS  cutoff-A >50/10000     INT*V   INT-LOG  S-1_g1f1  S-2_g1f2  S-3_g1f3  S-4_g2f1  S-5_g2f2  S-6_g2f3  S-7_g3f1  S-8_g3f2  S-9_g3f3 S-10_g1f4 S-11_g2f4 S-12_g3f4 S-13_g1f5 S-14_g2f5 S-15_g3f5 S-16_g4f1 S-17_g4f2 S-18_g4f3 S-19_g4f4 S-20_g4f5
--------------1--------------2---------3---------4---------5---------6---------7---------8---------9--------10--------11--------12--------13--------14--------15--------16--------17--------18--------19--------20------------------21--------22--------23--------24--------25--------26--------27--------28--------29--------30--------31--------32--------33--------34--------35--------36--------37--------38--------39--------40--------41--------42--------43--------44--------45--------46--------47--------48--------49--------50--------51--------52--------53--------54--------55--------56--------57--------58--------59--------60--------61--------62--------63--------64--------65--------66--------67--------68--------69--------70--------71--------72--------73--------74
      49.885006    -169.037338     198.3      3.62      4.69     100.9         1         1      1000      1000    808.21   -10.925      16.3      36.6   271.255     0.623      81.6   0.10490      30.8         H               345.0  0.055270  0.044708  0.001221  3.761834  0.744697  5.051499  1.119388     57.06   15.0435  236.9564   0.15856   7.32719   0.09989   0.00123 398.76685  14.41123     904.7  0.521170  0.000908  0.000079  0.000214  0.220493  7.393705  0.627400     96.96  1.000297  1.000033     2.695    15.459     153.8      97.7     689.1     960.6     13.76     -2.80      9.90      4.75     -0.48      7.87     -0.46      1.31     -1.45     -3.14     -0.75      0.82      4.58      5.36      1.69     -3.54      0.02      5.51      0.52      3.16
      49.894699    -168.954483     190.4      3.50      4.69     100.5         1         2      1000      2322    777.39   -11.094      16.3      37.0   271.914     0.622     130.3   0.10447      27.6         H               345.0  0.055518  0.043464  0.001386  3.977069  0.738539  5.385046  1.119352     37.90   14.5169  225.8120   0.15908   7.27410   0.10257   0.00132 379.77634  13.99803     870.1  0.520393  0.001640  0.000246  0.000203  0.218546  7.348611  0.626450     98.11  1.000251  1.000027     2.676    15.237     153.8      97.4     635.7     934.7     13.90     -3.25      9.11      3.96     -0.49      7.14     -0.75      1.43     -1.85     -3.15     -1.13      0.80      3.55      4.42      2.25     -4.81      0.24      5.60     -0.47      1.75
      49.904251    -168.872314     218.5      3.47      4.69      99.0         1         3      1000      3644    767.01   -11.152      16.5      37.4   272.685     0.624     112.6   0.10358      41.1         H               345.0  0.055892  0.042761  0.001006  3.761968  0.763092  4.929901  1.120704     48.06   14.3310  221.7836   0.15775   7.25502   0.10395   0.00136 373.59204  13.85626     859.6  0.523289  0.001211  0.000226  0.000209  0.217184  7.353152  0.628192     98.03  1.000265  1.000029     2.668    15.008     153.8      97.4     619.8     927.5     13.74     -2.85     10.03      4.83     -1.14      7.15     -0.86      1.87     -1.56     -4.10     -0.91      1.36      4.77      4.86      1.51     -2.84     -1.18      4.51      0.65      2.64
      49.938210    -169.052536     226.3      3.76      4.69     112.2         2         1      2467      1000    837.52   -10.770      16.6      36.6   274.644     0.633     173.7   0.10820      46.3         H               345.0  0.055700  0.045893  0.001268  3.736688  0.751780  4.970453  1.129561     54.94   15.5156  249.7334   0.16322   7.36535   0.09796   0.00117 417.94656  14.80044     946.1  0.528485  0.002066  0.000426  0.000215  0.221961  7.417110  0.638946     98.31  1.000284  1.000030     2.757    16.377     153.8      97.9     750.2    1045.3     13.86     -3.78      9.87      4.56     -0.71      7.27     -0.99      2.31     -1.63     -3.88     -1.06      1.77      4.16      4.73      1.94     -3.79     -0.33      4.38     -0.09      2.14
      49.947906    -168.969589     191.7      3.72      4.69      97.9         2         2      2467      2322    847.42   -10.719      17.0      37.0   272.379     0.624      95.9   0.10418      28.1         H               345.0  0.055161  0.043935  0.001197  3.650584  0.756902  4.823058  1.120151     61.40   15.7011  252.0517   0.15695   7.38672   0.09634   0.00113 424.98526  14.96774     949.3  0.522373  0.001240  0.000097  0.000211  0.221541  7.381541  0.627956     95.95  1.000312  1.000033     2.700    15.622     153.8      97.9     760.1    1007.4     14.09     -3.50     10.47      4.45     -0.03      7.14     -1.15      1.25     -2.29     -3.57     -0.99      1.40      5.08      4.99      0.91     -4.23      1.22      3.81     -0.36      1.98
      49.957458    -168.887314     188.6      3.69      4.69     103.0         2         3      2467      3644    845.50   -10.729      17.3      37.4   272.370     0.625     110.7   0.10522      26.9         H               345.0  0.056024  0.043327  0.001334  3.971540  0.748331  5.307196  1.121108     41.95   15.6720  251.1367   0.15839   7.38442   0.09641   0.00113 422.71582  14.92653     947.9  0.522656  0.001546  0.000143  0.000208  0.216034  7.338549  0.629197     97.18  1.000291  1.000030     2.724    16.113     153.8      98.1     758.9    1065.0     13.73     -2.91      9.34      4.29     -0.75      7.27     -0.25      1.27     -1.28     -3.30     -0.95      0.74      4.28      4.72      1.81     -4.46     -0.26      4.98      0.11      2.47
      49.991409    -169.067749     229.1      3.21      4.69      99.4         3         1      3934      1000    635.95   -11.966      14.3      36.6   274.437     0.630     162.3   0.10445      48.3         H               345.0  0.054892  0.045303  0.001100  3.619370  0.752388  4.810508  1.125891     59.52   11.9784  169.4358   0.16131   6.96566   0.12053   0.00195 284.20795  11.82601     716.0  0.526286  0.002007  0.000334  0.000220  0.225637  7.437421  0.634612     98.14  1.000276  1.000028     2.752    16.316     160.0      95.9     421.4     801.7     14.09     -3.45     10.59      4.50     -0.59      7.06     -1.70      1.76     -2.58     -3.96     -1.09      1.40      5.07      4.70      0.86     -3.27      0.09      4.25     -0.12      2.07
      50.001110    -168.984711     216.5      3.77      4.69     101.9         3         2      3934      2322    851.22   -10.700      17.1      37.0   275.592     0.637     363.9   0.11008      39.9         H               345.0  0.055736  0.044985  0.001815  3.776904  0.757536  4.985778  1.133484     73.38   15.7254  254.7845   0.16771   7.38007   0.09755   0.00115 424.10657  14.92146     964.8  0.528455  0.004894  0.001015  0.000210  0.223533  7.378675  0.642346     97.94  1.000209  1.000022     2.773    16.271     166.7      97.9     778.7    1017.2     14.20     -3.18      9.55      3.65     -0.63      7.77     -0.66      1.59     -2.75     -3.53     -1.15      1.45      5.28      4.27      1.48     -6.62      0.26      6.29     -0.13     -0.45
      50.010666    -168.902344     196.4      3.70      4.69     103.6         3         3      3934      3644    830.56   -10.806      17.1      37.4   272.872     0.627     215.6   0.10571      30.0         H               345.0  0.054763  0.043394  0.001417  3.618878  0.735298  4.921645  1.123812     51.68   15.4133  246.6432   0.15944   7.35795   0.09809   0.00118 414.63538  14.73656     933.3  0.524078  0.002884  0.000483  0.000212  0.219562  7.368220  0.631239     98.37  1.000284  1.000031     2.712    15.719     160.0      97.9     732.7    1029.3     13.87     -3.03     10.07      4.51     -0.71      7.31     -0.54      1.46     -1.78     -3.63     -1.27      1.19      4.55      5.01      1.33     -4.90      0.16      4.15      0.24      2.82
