corner points
-162.3027039    11.57042122
-162.3404083    11.75123596
-162.1237793    11.60668945
-162.161377    11.78748608
========== RESULTS WAVE VERSION 16.10.2018 ====================
IMAGE SIZE  X: 5471     Y:4931    col:row     POLARIZATION:VV
COVERAGE    X: 19.85756276km       Y: 20.47257896km 
RESOLUTION dX: 3.629603867m       dY:4.151810781m  
resolution of original product 3.629603867m x 4.151810781m;   raster step x:5999.735192m  
===============================================================
FLAGS: H=HIGH PROBABILITY SEA STATE, I=LAND(ISLAND), O=OUTLIER NO SEA STATE, N=NO WIND AVAILABLE, SEA STATE NOT VISIBLE, M=MEAN PROBABILITY SEA STATE, L= LOW PROBABILITY SEA STATE
Filtering wave length
 integration  Lmin=1m
 integration  Lmax=2200m
  peak        Lmin=100m
               FFT=1024pixels, 3716.71436m 
   mean-Hs (SWH_c)=2.371784668m
         mean-wind=12.53909397m/s
--------------0--------------1---------2---------3---------4---------5---------6---------7---------8---------9--------10--------11--------12--------13--------14--------15--------16--------17--------18--------19------------------20--------21--------22--------23--------24--------25--------26--------27--------28--------29--------30--------31--------32--------33--------34--------35--------36--------37--------38--------39--------40--------41--------42--------43--------44--------45--------46--------47--------48--------49--------50--------51--------52--------53--------54--------55--------56--------57--------58--------59--------60--------61--------62--------63--------64--------65--------66--------67--------68--------69--------70--------71--------72--------73
            LAT            LON  P-LENGHT     SWH_o     SWH_c     P-DIR      LINE     POINT     ROW-Y     COL-X  M-INTENC        dB      WIND INC-ANGLE  ENERGY-M  ENERGY-N  ENERGY-R ENERGY-NN  FG-DEPTH      FLAG         HEADING-DEG    E30-75   E75-390  E390-600 meanincut   meanout   cut/out  STD-NORM  SPEC-MAX   GL-MEAN    GL-VAR      CORR   ENTROPY   HOMOGEN    ENERGY  CONTRAST  DISSIMIL     STD-O    E 1-30 E600-2000   E2000 >      GODA  LONG-HIG     Tmean  CONVOLUT  MEAN-DIR  relation     Sy/Sx  SKEWNESS  KURTOSIS  cutoff-A >50/10000     INT*V   INT-LOG  S-1_g1f1  S-2_g1f2  S-3_g1f3  S-4_g2f1  S-5_g2f2  S-6_g2f3  S-7_g3f1  S-8_g3f2  S-9_g3f3 S-10_g1f4 S-11_g2f4 S-12_g3f4 S-13_g1f5 S-14_g2f5 S-15_g3f5 S-16_g4f1 S-17_g4f2 S-18_g4f3 S-19_g4f4 S-20_g4f5
--------------1--------------2---------3---------4---------5---------6---------7---------8---------9--------10--------11--------12--------13--------14--------15--------16--------17--------18--------19--------20------------------21--------22--------23--------24--------25--------26--------27--------28--------29--------30--------31--------32--------33--------34--------35--------36--------37--------38--------39--------40--------41--------42--------43--------44--------45--------46--------47--------48--------49--------50--------51--------52--------53--------54--------55--------56--------57--------58--------59--------60--------61--------62--------63--------64--------65--------66--------67--------68--------69--------70--------71--------72--------73--------74
      11.613900    -162.276825     369.0      2.52      3.38      29.8         1         1      1000      1000   3844.27    -4.152      12.7      23.8   479.001     0.852     116.3   0.22346     100.0         H               348.0  0.105074  0.080026  0.002255  6.675484  1.022500  6.528592  1.307701     54.85    7.1177   87.4682   0.30438   5.94866   0.20944   0.00722 121.69025   7.04267    5027.2  0.664017  0.001339  0.000034  0.000276  0.190026  7.203659  0.906232     89.89  1.000274  1.000043     3.974    35.854     124.8      88.3     179.9     743.0     11.86      2.23      3.45      4.17     -2.45     10.00      5.30      0.05      4.89     -1.26      1.21     -1.08      1.35      4.65      4.31     -4.11     -5.38     12.47      3.37      4.90
      11.624971    -162.222229     140.1      2.39      3.38      78.6         1         2      1000      2653   3613.98    -4.420      13.0      24.3   474.380     0.836     140.9   0.21427      13.2         H               348.0  0.101801  0.074957  0.002182  6.341661  0.985978  6.431847  1.297379     66.35    6.6790   77.7495   0.29795   5.83787   0.21873   0.00801 109.16757   6.64418    4688.3  0.655356  0.001828  0.000069  0.000279  0.190220  7.184505  0.886680     86.38  1.000255  1.000038     3.911    34.236     128.8      87.6     156.0     699.4     11.94      2.13      3.76      3.98     -1.35      9.53      5.10      0.21      4.95     -0.37      1.56     -0.20      1.59      4.43      4.50     -4.20     -3.54     11.33      2.89      4.92
      11.635832    -162.168625     148.6      2.40      3.38      88.0         1         3      1000      4306   3201.02    -4.947      12.6      24.7   463.278     0.806     144.2   0.20198      15.1         H               348.0  0.094510  0.074258  0.001818  6.184778  0.962226  6.427572  1.275349     58.77    5.8990   61.8227   0.29157   5.61803   0.23656   0.00988  87.59465   5.92980    4082.3  0.634178  0.001846  0.000068  0.000273  0.194620  7.239590  0.854298     89.08  1.000304  1.000044     3.652    28.372     124.8      85.8     118.8     555.4     12.19      1.91      4.62      4.65     -1.76     10.00      4.27      0.12      4.45     -0.88      1.44     -0.72      2.15      5.31      4.11     -3.61     -4.17     10.32      3.04      4.86
      11.666897    -162.287872     127.6      2.40      3.38      84.8         2         1      2445      1000   3684.92    -4.336      12.1      23.8   478.957     0.859     116.5   0.22847      10.7         H               348.0  0.107866  0.080373  0.001889  6.830019  0.989577  6.901961  1.313137     65.22    6.7957   81.5698   0.30628   5.86189   0.21745   0.00794 113.17322   6.74583    4838.2  0.668400  0.001289  0.000043  0.000285  0.187943  7.193636  0.913928     89.82  1.000282  1.000046     3.956    34.000     124.8      87.6     165.2     711.5     11.63      1.27      3.78      4.59     -1.83      9.16      4.98      0.10      5.68     -0.97      0.19     -0.56      1.21      4.60      4.45     -2.36     -3.80     10.59      1.40      5.70
      11.677966    -162.233276     140.1      2.33      3.38      78.6         2         2      2445      2653   3339.52    -4.763      12.0      24.3   476.841     0.839     127.1   0.21645      13.2         H               348.0  0.101688  0.077233  0.002084  6.345213  0.977462  6.491517  1.298343     51.51    6.1366   67.8233   0.29873   5.68116   0.23260   0.00945  95.12591   6.15329    4335.7  0.657216  0.001569  0.000061  0.000286  0.189908  7.220412  0.890213     87.83  1.000285  1.000043     3.901    34.817     124.8      86.2     132.3     631.9     11.86      2.07      4.10      4.61     -1.51      9.75      5.09     -0.18      5.05     -0.83      1.18     -0.57      1.63      4.78      4.31     -3.57     -3.55     10.93      2.51      5.08
      11.688826    -162.179642     157.6      2.40      3.38      77.2         2         3      2445      4306   3168.09    -4.992      12.5      24.7   474.956     0.833     140.4   0.21240      17.3         H               348.0  0.099591  0.076772  0.001924  6.310396  0.970628  6.501352  1.292637     52.98    5.8359   61.7454   0.29603   5.59283   0.23966   0.01025  86.93365   5.87787    4094.8  0.653186  0.001796  0.000064  0.000278  0.192081  7.222885  0.883674     88.96  1.000280  1.000041     3.935    36.121     124.8      85.5     119.3     624.9     11.96      1.43      4.93      5.00     -1.41      9.71      4.50      0.08      4.62     -0.77      0.69     -0.34      2.25      5.09      3.81     -3.06     -3.24      9.72      1.81      4.88
      11.719893    -162.298920     144.4      2.38      3.38     103.8         3         1      3890      1000   3710.58    -4.306      12.2      23.8   474.945     0.842     102.9   0.21975      14.1         H               348.0  0.103331  0.077752  0.002286  6.524071  1.003112  6.503831  1.301931     54.29    6.8626   81.5214   0.29964   5.88605   0.21404   0.00762 114.18918   6.81019    4830.4  0.658456  0.001167  0.000025  0.000284  0.187578  7.209988  0.893873     91.25  1.000270  1.000042     4.024    38.035     124.8      87.9     165.9     756.5     11.75      1.34      3.65      4.18     -1.67      9.45      5.32     -0.15      4.64     -1.10      0.53     -1.12      1.62      4.42      3.97     -4.25     -3.69     11.75      2.04      4.80
      11.730961    -162.244308     139.1      2.25      3.38     103.2         3         2      3890      2653   3568.95    -4.475      12.8      24.3   458.087     0.793      93.1   0.19663      13.0         H               348.0  0.094108  0.069161  0.001839  6.271389  0.939931  6.672176  1.263736     43.04    6.6214   74.3435   0.28701   5.83352   0.21683   0.00785 106.01198   6.59311    4510.2  0.627108  0.001120  0.000019  0.000266  0.188792  7.172254  0.839278     89.69  1.000258  1.000036     3.581    27.395     121.0      87.7     147.1     623.7     11.90      2.06      3.29      4.17     -1.50      9.33      4.73     -0.38      4.62     -0.79      0.95     -0.75      1.09      3.84      4.11     -3.90     -3.52     11.02      2.21      3.58
      11.741818    -162.190674     356.9      2.26      3.38      22.6         3         3      3890      4306   3282.07    -4.839      12.9      24.7   460.208     0.796     104.5   0.19783     100.0         H               348.0  0.094177  0.069777  0.001962  6.279097  0.946169  6.636334  1.264339     45.98    6.0607   64.1915   0.28847   5.67019   0.23136   0.00935  91.34866   6.08298    4149.5  0.629288  0.001323  0.000027  0.000264  0.191749  7.192073  0.842213     89.66  1.000271  1.000038     3.563    27.170     121.0      86.3     124.0     558.3     12.15      2.10      3.60      3.82     -2.25      9.26      4.37      0.03      4.05     -1.26      1.13     -0.86      0.99      4.00      3.94     -4.60     -4.93     10.98      3.50      4.26
