corner points
-146.9352112    -46.51031113
-147.0102539    -46.335289
-146.675415    -46.4549675
-146.7513885    -46.28011703
========== RESULTS WAVE VERSION 16.10.2018 ====================
IMAGE SIZE  X: 5471     Y:4900    col:row     POLARIZATION:VV
COVERAGE    X: 20.76870631km       Y: 20.25029129km 
RESOLUTION dX: 3.796144455m       dY:4.132712509m  
resolution of original product 3.796144455m x 4.132712509m;   raster step x:5997.908239m  
===============================================================
FLAGS: H=HIGH PROBABILITY SEA STATE, I=LAND(ISLAND), O=OUTLIER NO SEA STATE, N=NO WIND AVAILABLE, SEA STATE NOT VISIBLE, M=MEAN PROBABILITY SEA STATE, L= LOW PROBABILITY SEA STATE
Filtering wave length
 integration  Lmin=1m
 integration  Lmax=2200m
  peak        Lmin=100m
               FFT=1024pixels, 3887.251922m 
   mean-Hs (SWH_c)=0.05m
         mean-wind=1.888888955m/s
--------------0--------------1---------2---------3---------4---------5---------6---------7---------8---------9--------10--------11--------12--------13--------14--------15--------16--------17--------18--------19------------------20--------21--------22--------23--------24--------25--------26--------27--------28--------29--------30--------31--------32--------33--------34--------35--------36--------37--------38--------39--------40--------41--------42--------43--------44--------45--------46--------47--------48--------49--------50--------51--------52--------53--------54--------55--------56--------57--------58--------59--------60--------61--------62--------63--------64--------65--------66--------67--------68--------69--------70--------71--------72--------73
            LAT            LON  P-LENGHT     SWH_o     SWH_c     P-DIR      LINE     POINT     ROW-Y     COL-X  M-INTENC        dB      WIND INC-ANGLE  ENERGY-M  ENERGY-N  ENERGY-R ENERGY-NN  FG-DEPTH      FLAG         HEADING-DEG    E30-75   E75-390  E390-600 meanincut   meanout   cut/out  STD-NORM  SPEC-MAX   GL-MEAN    GL-VAR      CORR   ENTROPY   HOMOGEN    ENERGY  CONTRAST  DISSIMIL     STD-O    E 1-30 E600-2000   E2000 >      GODA  LONG-HIG     Tmean  CONVOLUT  MEAN-DIR  relation     Sy/Sx  SKEWNESS  KURTOSIS  cutoff-A >50/10000     INT*V   INT-LOG  S-1_g1f1  S-2_g1f2  S-3_g1f3  S-4_g2f1  S-5_g2f2  S-6_g2f3  S-7_g3f1  S-8_g3f2  S-9_g3f3 S-10_g1f4 S-11_g2f4 S-12_g3f4 S-13_g1f5 S-14_g2f5 S-15_g3f5 S-16_g4f1 S-17_g4f2 S-18_g4f3 S-19_g4f4 S-20_g4f5
--------------1--------------2---------3---------4---------5---------6---------7---------8---------9--------10--------11--------12--------13--------14--------15--------16--------17--------18--------19--------20------------------21--------22--------23--------24--------25--------26--------27--------28--------29--------30--------31--------32--------33--------34--------35--------36--------37--------38--------39--------40--------41--------42--------43--------44--------45--------46--------47--------48--------49--------50--------51--------52--------53--------54--------55--------56--------57--------58--------59--------60--------61--------62--------63--------64--------65--------66--------67--------68--------69--------70--------71--------72--------73--------74
     -46.464245    -146.901764     399.9      0.12      1.79      67.8         1         1      1000      1000    458.55   -13.386       1.7      22.7   283.564     0.819    2601.3   0.21280     100.0         N               345.4  0.075118  0.072273  0.012731  5.669836  1.003915  5.647727  1.293547     78.17    0.5002    1.2911   0.31097   1.80270   0.76497   0.36563   1.77930   0.64239     593.1  0.607258  0.049496  0.002438  0.000137  0.224285  7.464652  0.876271    102.80  1.000079  1.000004     3.694    26.397     137.8      28.1       2.4      65.3     14.75     -0.27      1.52     -6.31     -2.80     -2.13      5.12      0.72      2.66      0.27     -1.68      0.75     -0.01     -0.86     -0.63    -30.56     -6.37     -7.40     -4.61     -1.39
     -46.448120    -146.825928       0.0      0.00      0.00       0.0         1         2      1000      2580      0.00     0.000       0.0      23.1     0.000     0.000       0.0   0.00000       0.0         O               345.4  0.000000  0.000000  0.000000  0.000000  0.000000  0.000000  0.000000      0.00    0.0000    0.0000   0.00000   0.00000   0.00000   0.00000   0.00000   0.00000       0.0  0.000000  0.000000  0.000000  0.000000  0.000000  0.000000  0.000000      0.00  0.000000  0.000000     0.000     0.000       0.0       0.0       0.0       0.0      0.00      0.00      0.00      0.00      0.00      0.00      0.00      0.00      0.00      0.00      0.00      0.00      0.00      0.00      0.00      0.00      0.00      0.00      0.00      0.00
     -46.432255    -146.751572       0.0      0.00      0.00       0.0         1         3      1000      4160      0.00     0.000       0.0      23.6     0.000     0.000       0.0   0.00000       0.0         O               345.4  0.000000  0.000000  0.000000  0.000000  0.000000  0.000000  0.000000      0.00    0.0000    0.0000   0.00000   0.00000   0.00000   0.00000   0.00000   0.00000       0.0  0.000000  0.000000  0.000000  0.000000  0.000000  0.000000  0.000000      0.00  0.000000  0.000000     0.000     0.000       0.0       0.0       0.0       0.0      0.00      0.00      0.00      0.00      0.00      0.00      0.00      0.00      0.00      0.00      0.00      0.00      0.00      0.00      0.00      0.00      0.00      0.00      0.00      0.00
     -46.412418    -146.924072     387.1      0.14      1.79      84.8         2         1      2451      1000    654.26   -11.842       1.9      22.7   267.247     0.736    1070.1   0.16975     100.0         H               345.4  0.071298  0.057559  0.007814  4.808784  0.973542  4.939472  1.219869     41.13    0.8912    2.4219   0.26799   2.55259   0.64050   0.17722   3.54575   1.06945     798.0  0.576981  0.021366  0.001133  0.000130  0.209667  7.315054  0.777850    115.58  1.000200  1.000012     3.224    21.419      92.7      45.0       4.7      87.2     13.59     -0.31      0.66     -3.64     -2.73     -1.76      4.48      1.28      2.35     -1.31      0.03     -0.06      0.54     -1.84     -0.68    -24.31     -6.98     -5.45      0.92     -3.41
     -46.396309    -146.848312     400.1      0.12      1.79      55.4         2         2      2451      2580    411.37   -13.858       1.7      23.1   277.871     0.792    1679.1   0.19783     100.0         N               345.4  0.073147  0.070181  0.012029  5.551198  1.001658  5.542011  1.264031     54.84    0.4284    0.9798   0.28840   1.66314   0.78242   0.39275   1.39441   0.56714     520.0  0.595702  0.040075  0.001179  0.000132  0.221574  7.450233  0.844556     93.76  1.000261  1.000014     3.573    25.687     117.4      26.0       1.9      57.5     14.34      0.83      0.31     -5.64     -2.84     -0.98      5.02      0.10      2.01     -1.44      0.35     -0.64     -0.46      0.27     -1.20    -29.68     -6.40     -3.62      2.40      1.33
     -46.380459    -146.774033       0.0      0.00      0.00       0.0         2         3      2451      4160      0.00     0.000       0.0      23.6     0.000     0.000       0.0   0.00000       0.0         O               345.4  0.000000  0.000000  0.000000  0.000000  0.000000  0.000000  0.000000      0.00    0.0000    0.0000   0.00000   0.00000   0.00000   0.00000   0.00000   0.00000       0.0  0.000000  0.000000  0.000000  0.000000  0.000000  0.000000  0.000000      0.00  0.000000  0.000000     0.000     0.000       0.0       0.0       0.0       0.0      0.00      0.00      0.00      0.00      0.00      0.00      0.00      0.00      0.00      0.00      0.00      0.00      0.00      0.00      0.00      0.00      0.00      0.00      0.00      0.00
     -46.360588    -146.946320     400.1      0.14      1.79      55.4         3         1      3902      1000    662.11   -11.791       1.9      22.7   267.901     0.730     937.4   0.16510     100.0         H               345.4  0.070054  0.057285  0.005864  4.716847  0.986370  4.782028  1.213564     25.20    0.9031    2.4617   0.26173   2.57390   0.62839   0.17516   3.63476   1.10395     803.4  0.576550  0.019524  0.000796  0.000129  0.209978  7.340849  0.769440    112.90  1.000107  1.000007     3.111    20.007      81.3      44.7       4.8      87.5     13.19     -1.93     -1.10     -2.24     -1.75     -0.61      2.75      0.38      2.18     -1.24     -1.11      0.73     -0.35     -1.38     -0.64    -19.24     -2.39     -1.86     -2.36     -1.88
     -46.344494    -146.870651     400.1      0.20      1.79      55.4         3         2      3902      2580    558.45   -12.530       1.9      23.1   264.488     0.710     614.1   0.15523     100.0         H               345.4  0.067950  0.053663  0.005608  4.585320  0.917229  4.999099  1.195724     27.10    0.7073    1.6723   0.24560   2.26679   0.67400   0.22433   2.52321   0.90097     667.7  0.569188  0.013246  0.000432  0.000132  0.206320  7.307036  0.745017    115.76  1.000088  1.000004     3.096    22.612      72.4      39.0       3.3      79.6     13.14     -1.20     -0.13     -2.08     -2.57     -1.24      3.28      0.46      2.77     -2.08     -0.06      0.11     -0.14     -1.99     -0.69    -19.33     -4.41     -4.50      1.05     -3.16
     -46.328655    -146.796448     324.4      0.13      1.79       4.8         3         3      3902      4160    485.69   -13.136       1.9      23.6   261.175     0.738    2490.7   0.18516     100.0         H               345.4  0.069997  0.052882  0.005505  4.501239  0.932105  4.829113  1.225792     37.07    0.5169    1.3567   0.31302   1.83750   0.75980   0.35720   1.86403   0.66110     595.3  0.566617  0.040875  0.002425  0.000130  0.208306  7.281457  0.783401    112.94  0.999996  1.000000     3.882    31.115     133.1      28.7       2.5      73.5     13.44     -1.47     -0.67     -2.68     -2.33      0.42      3.04      0.71      1.43     -1.47     -0.03      0.22      0.74     -2.10      0.07    -20.00     -4.15      0.53     -0.05     -5.27
